MSHOGUN 1: SHIFT END REPORT
Wednesday October 27, 2010 8:00:19 AM

SALES TRANSACTION
Room Sales Order			14700
FnB Sales Order			700
Beer Sales Order			180
Misc Sales Order			10
Room Sales Adjustment			0
GROSS SALES			15590

DISCOUNT
Room				0
FnB				0
Misc				0

DEPOSIT				2055
REFUND				

TOTAL ACCOUNTABILITY			17645

CASH DECLARATION			9500
CARD				0
FUNDS SAFEKEEP			0
TOTAL CASH DECLARED			9500

TOTAL CASH ON SYSTEM			9555
OVER/SHORTAGES 			-55

ROOM	 # OF CHECK-OUT	AMT
Value 		6	2610
Regular 		2	1050
Classique 		20	11040
Premium 		0	0
Regent 		0	0
Queen 		0	0
Gemini 		0	0
Family 		0	0
Executive Suite 	0	0
Mega Suite 	0	0

DISCOUNT 
Value 			  
Regular 		  
Classique 		  
Premium 		  
Regent 			  
Queen 		  
Gemini 		  
Family 		  
Executive Suite 	  
Mega Suite 		  


=== RESERVATIONS ===

Deposits:


Claimed:



SECURITY DEPOSITS

Deposits:
Claimed:


=== SALES BREAKDOWN ===

Transaction Date	Room No.	Cash	Card

2010-10-27 00:21:17 	309 		395 	0 	
2010-10-27 00:29:13 	312 		395 	0 	
2010-10-27 00:35:37 	313 		395 	0 	
2010-10-27 00:56:41 	308 		695 	0 	
2010-10-27 01:11:16 	312 		170 	0 	
2010-10-27 01:23:16 	221 		695 	0 	
2010-10-27 01:56:11 	314 		705 	0 	
2010-10-27 01:57:07 	303 		345 	0 	
2010-10-27 02:35:25 	305 		275 	0 	
2010-10-27 02:48:36 	318 		705 	0 	
2010-10-27 03:00:54 	301 		395 	0 	
2010-10-27 03:20:06 	305 		180 	0 	
2010-10-27 03:44:08 	419 		395 	0 	
2010-10-27 03:44:19 	404 		395 	0 	
2010-10-27 04:07:46 	402 		395 	0 	
2010-10-27 04:52:25 	312 		395 	0 	
2010-10-27 04:55:55 	313 		395 	0 	
2010-10-27 05:01:19 	311 		275 	0 	
2010-10-27 05:02:44 	417 		395 	0 	
2010-10-27 05:33:00 	423 		10 	0 	
2010-10-27 05:39:13 	417 		30 	0 	
2010-10-27 06:03:14 	323 		275 	0 	
2010-10-27 06:42:22 	308 		65 	0 	
2010-10-27 06:58:18 	409 		395 	0 	
2010-10-27 07:45:12 	314 		300 	0 	
2010-10-27 07:45:46 	320 		345 	0 	
2010-10-27 07:57:10 	402 		140 	0 	
 			Total:		9555 	0		

=== RECHIT LIST ===




V1