MSHOGUN 1: SHIFT END REPORT
Saturday January 14, 2012 4:00:19 PM

SALES TRANSACTION
Room Sales Order			38975
FnB Sales Order			2290
Beer Sales Order			350
Misc Sales Order			80
Room Sales Adjustment			0
GROSS SALES			41695

DISCOUNT
Room				0
FnB				0
Misc				0

DEPOSIT				15430
REFUND				

TOTAL ACCOUNTABILITY			57125

CASH DECLARATION			7392
CARD				1350
FUNDS SAFEKEEP			30000
TOTAL CASH DECLARED			38742

TOTAL CASH ON SYSTEM			7392
OVER/SHORTAGES 			0

ROOM	 # OF CHECK-OUT	AMT
Value 		12	6340
Regular 		18	10530
Classique 		39	22105
Premium 		0	0
Regent 		0	0
Queen 		0	0
Gemini 		0	0
Family 		0	0
Executive Suite 	0	0
Mega Suite 	0	0

DISCOUNT 
Value 			  
Regular 		  
Classique 		  
Premium 		  
Regent 			  
Queen 		  
Gemini 		  
Family 		  
Executive Suite 	  
Mega Suite 		  


=== RESERVATIONS ===

Deposits:


Claimed:



SECURITY DEPOSITS

Deposits:
Claimed:


=== SALES BREAKDOWN ===

Transaction Date	Room No.	Cash	Card

2012-01-14 08:01:05 	404 		140 	0 	
2012-01-14 08:05:38 	309 		395 	0 	
2012-01-14 08:23:36 	408 		30 	0 	
2012-01-14 08:40:06 	321 		395 	0 	
2012-01-14 08:56:05 	306 		395 	0 	
2012-01-14 08:56:22 	219 		140 	0 	
2012-01-14 09:04:46 	314 		345 	0 	
2012-01-14 09:13:28 	313 		395 	0 	
2012-01-14 09:35:44 	308 		316 	0 	
2012-01-14 09:35:56 	318 		705 	0 	
2012-01-14 09:39:51 	315 		25 	0 	
2012-01-14 09:47:17 	304 		140 	0 	
2012-01-14 09:48:16 	320 		705 	0 	
2012-01-14 09:48:34 	319 		815 	0 	
2012-01-14 09:48:39 	312 		395 	0 	
2012-01-14 09:51:09 	410 		300 	0 	
2012-01-14 09:52:42 	204 		705 	0 	
2012-01-14 09:54:27 	214 		100 	0 	
2012-01-14 09:58:39 	215 		1185 	0 	
2012-01-14 09:59:31 	403 		175 	0 	
2012-01-14 10:05:06 	202 		345 	0 	
2012-01-14 10:05:14 	206 		345 	0 	
2012-01-14 10:16:12 	301 		395 	0 	
2012-01-14 10:26:12 	211 		0 	705 	
2012-01-14 10:26:52 	409 		0 	815 	
2012-01-14 10:27:21 	304 		395 	0 	
2012-01-14 10:34:36 	307 		675 	0 	
2012-01-14 10:39:21 	422 		575 	0 	
2012-01-14 10:54:59 	309 		395 	0 	
2012-01-14 10:56:31 	401 		10 	0 	
2012-01-14 10:58:35 	219 		316 	0 	
2012-01-14 11:01:35 	409 		90 	0 	
2012-01-14 11:06:14 	302 		395 	0 	
2012-01-14 11:13:34 	210 		345 	0 	
2012-01-14 11:13:48 	315 		395 	0 	
2012-01-14 11:15:49 	412 		395 	0 	
2012-01-14 11:19:30 	208 		275 	0 	
2012-01-14 11:32:55 	218 		395 	0 	
2012-01-14 11:38:12 	407 		140 	0 	
2012-01-14 11:49:48 	418 		720 	0 	
2012-01-14 11:51:04 	415 		840 	0 	
2012-01-14 11:52:08 	310 		275 	0 	
2012-01-14 11:52:35 	323 		275 	0 	
2012-01-14 12:01:34 	201 		345 	0 	
2012-01-14 12:05:41 	403 		705 	0 	
2012-01-14 12:07:49 	404 		395 	0 	
2012-01-14 12:09:04 	402 		815 	0 	
2012-01-14 12:10:16 	408 		675 	0 	
2012-01-14 12:11:05 	408 		50 	0 	
2012-01-14 12:11:55 	413 		675 	0 	
2012-01-14 12:18:25 	419 		395 	0 	
2012-01-14 12:21:27 	406 		395 	0 	
2012-01-14 12:26:40 	414 		345 	0 	
2012-01-14 12:35:10 	209 		275 	0 	
2012-01-14 12:48:52 	313 		140 	0 	
2012-01-14 12:51:16 	421 		395 	0 	
2012-01-14 12:56:50 	323 		230 	0 	
2012-01-14 13:19:07 	416 		705 	0 	
2012-01-14 13:19:14 	422 		395 	0 	
2012-01-14 13:19:21 	401 		395 	0 	
2012-01-14 13:21:38 	417 		395 	0 	
2012-01-14 13:27:31 	421 		440 	0 	
2012-01-14 13:31:54 	317 		395 	0 	
2012-01-14 13:37:07 	419 		260 	0 	
2012-01-14 13:38:37 	220 		395 	0 	
2012-01-14 13:44:44 	205 		585 	0 	
2012-01-14 13:45:28 	308 		395 	0 	
2012-01-14 13:45:41 	301 		395 	0 	
2012-01-14 13:47:40 	321 		395 	0 	
2012-01-14 13:48:32 	312 		395 	0 	
2012-01-14 13:52:54 	316 		345 	0 	
2012-01-14 13:59:53 	306 		395 	0 	
2012-01-14 14:12:10 	217 		275 	0 	
2012-01-14 14:15:02 	304 		140 	0 	
2012-01-14 14:18:05 	412 		395 	0 	
2012-01-14 14:23:03 	407 		395 	0 	
2012-01-14 14:24:37 	415 		395 	0 	
2012-01-14 14:33:16 	219 		395 	0 	
2012-01-14 14:37:00 	309 		395 	0 	
2012-01-14 14:37:11 	313 		395 	0 	
2012-01-14 14:38:34 	304 		395 	0 	
2012-01-14 14:38:53 	418 		345 	0 	
2012-01-14 14:40:29 	404 		270 	0 	
2012-01-14 14:43:13 	307 		160 	0 	
2012-01-14 14:55:44 	319 		395 	0 	
2012-01-14 14:55:52 	315 		395 	0 	
2012-01-14 14:56:08 	420 		345 	0 	
2012-01-14 15:07:13 	303 		345 	0 	
2012-01-14 15:07:48 	314 		345 	0 	
2012-01-14 15:10:52 	203 		345 	0 	
2012-01-14 15:16:55 	202 		345 	0 	
2012-01-14 15:21:27 	408 		220 	0 	
2012-01-14 15:22:40 	201 		345 	0 	
2012-01-14 15:26:30 	213 		345 	0 	
2012-01-14 15:27:33 	302 		140 	0 	
2012-01-14 15:32:27 	314 		15 	0 	
2012-01-14 15:39:05 	206 		465 	0 	
2012-01-14 15:43:04 	207 		345 	0 	
2012-01-14 15:43:10 	406 		395 	0 	
2012-01-14 15:49:05 	204 		345 	0 	
2012-01-14 15:55:54 	404 		395 	0 	
 			Total:		37392 	1520		

=== RECHIT LIST ===




V1