MSHOGUN 1: SHIFT END REPORT
Monday July 19, 2010 8:00:19 AM

SALES TRANSACTION
Room Sales Order			37110
FnB Sales Order			2831
Beer Sales Order			175
Misc Sales Order			50
Room Sales Adjustment			0
GROSS SALES			40166

DISCOUNT
Room				0
FnB				0
Misc				0

DEPOSIT				6380
REFUND				

TOTAL ACCOUNTABILITY			46546

CASH DECLARATION			6755
CARD				695
FUNDS SAFEKEEP			10000
TOTAL CASH DECLARED			17450

TOTAL CASH ON SYSTEM			6755
OVER/SHORTAGES 			0

ROOM	 # OF CHECK-OUT	AMT
Value 		6	2590
Regular 		10	6150
Classique 		29	15295
Premium 		4	3000
Regent 		10	8175
Queen 		1	850
Gemini 		0	0
Family 		1	1050
Executive Suite 	0	0
Mega Suite 	0	0

DISCOUNT 
Value 			  
Regular 		  
Classique 		  
Premium 		  
Regent 			  
Queen 		  
Gemini 		  
Family 		  
Executive Suite 	  
Mega Suite 		  


=== RESERVATIONS ===

Deposits:


Claimed:



SECURITY DEPOSITS

Deposits:
Claimed:


=== SALES BREAKDOWN ===

Transaction Date	Room No.	Cash	Card

2010-07-19 00:13:00 	301 		395 	0 	
2010-07-19 00:13:16 	302 		395 	0 	
2010-07-19 00:25:00 	216 		220 	0 	
2010-07-19 00:25:22 	404 		25 	0 	
2010-07-19 00:30:00 	221 		395 	0 	
2010-07-19 00:32:19 	207 		345 	0 	
2010-07-19 00:42:35 	315 		395 	0 	
2010-07-19 00:43:46 	322 		675 	0 	
2010-07-19 00:50:06 	319 		210 	0 	
2010-07-19 01:03:42 	206 		585 	0 	
2010-07-19 01:04:46 	409 		50 	0 	
2010-07-19 01:17:11 	314 		585 	0 	
2010-07-19 01:20:29 	307 		395 	0 	
2010-07-19 01:22:50 	304 		695 	0 	
2010-07-19 01:42:01 	310 		275 	0 	
2010-07-19 01:44:27 	312 		395 	0 	
2010-07-19 02:05:40 	207 		165 	0 	
2010-07-19 02:13:52 	208 		275 	0 	
2010-07-19 02:23:05 	303 		705 	0 	
2010-07-19 02:23:56 	305 		275 	0 	
2010-07-19 02:32:27 	612 		210 	0 	
2010-07-19 02:40:03 	511 		1600 	0 	
2010-07-19 02:44:11 	301 		395 	0 	
2010-07-19 02:44:18 	302 		395 	0 	
2010-07-19 02:49:39 	311 		575 	0 	
2010-07-19 03:15:57 	319 		395 	0 	
2010-07-19 03:16:12 	507 		800 	0 	
2010-07-19 03:43:50 	507 		50 	0 	
2010-07-19 03:50:04 	303 		50 	0 	
2010-07-19 04:02:21 	302 		135 	0 	
2010-07-19 04:20:20 	303 		200 	0 	
2010-07-19 04:32:06 	616 		850 	0 	
2010-07-19 04:41:49 	315 		395 	0 	
2010-07-19 04:59:35 	306 		280 	0 	
2010-07-19 05:10:00 	307 		395 	0 	
2010-07-19 05:14:03 	616 		330 	0 	
2010-07-19 05:15:34 	317 		395 	0 	
2010-07-19 05:19:03 	513 		175 	0 	
2010-07-19 05:20:24 	312 		160 	0 	
2010-07-19 05:24:47 	616 		120 	0 	
2010-07-19 05:25:07 	315 		160 	0 	
2010-07-19 05:53:17 	408 		395 	0 	
2010-07-19 06:06:04 	518 		130 	0 	
2010-07-19 06:08:06 	315 		20 	0 	
2010-07-19 06:21:15 	205 		25 	0 	
2010-07-19 06:21:42 	406 		125 	0 	
2010-07-19 06:59:06 	603 		25 	0 	
2010-07-19 07:56:41 	206 		240 	0 	
2010-07-19 07:58:45 	209 		275 	0 	
 			Total:		16755 	0		

=== RECHIT LIST ===

Room No. 512 	 Rechit Date: 2010-07-19 01:25:20







V1