MSHOGUN 1: SHIFT END REPORT
Wednesday December 29, 2010 4:00:03 PM

SALES TRANSACTION
Room Sales Order			31420
FnB Sales Order			2168
Beer Sales Order			640
Misc Sales Order			205
Room Sales Adjustment			0
GROSS SALES			34433

DISCOUNT
Room				0
FnB				0
Misc				0

DEPOSIT				16395
REFUND				

TOTAL ACCOUNTABILITY			50828

CASH DECLARATION			5662
CARD				695
FUNDS SAFEKEEP			30000
TOTAL CASH DECLARED			36357

TOTAL CASH ON SYSTEM			5662
OVER/SHORTAGES 			0

ROOM	 # OF CHECK-OUT	AMT
Value 		12	5080
Regular 		21	10365
Classique 		33	15975
Premium 		0	0
Regent 		0	0
Queen 		0	0
Gemini 		0	0
Family 		0	0
Executive Suite 	0	0
Mega Suite 	0	0

DISCOUNT 
Value 			  
Regular 		  
Classique 		  
Premium 		  
Regent 			  
Queen 		  
Gemini 		  
Family 		  
Executive Suite 	  
Mega Suite 		  


=== RESERVATIONS ===

Deposits:


Claimed:



SECURITY DEPOSITS

Deposits:
Claimed:


=== SALES BREAKDOWN ===

Transaction Date	Room No.	Cash	Card

2010-12-29 08:27:15 	304 		395 	0 	
2010-12-29 08:46:48 	307 		395 	0 	
2010-12-29 08:52:07 	207 		345 	0 	
2010-12-29 09:09:57 	312 		395 	0 	
2010-12-29 09:11:27 	301 		395 	0 	
2010-12-29 09:23:56 	309 		395 	0 	
2010-12-29 09:25:07 	406 		115 	0 	
2010-12-29 09:27:01 	318 		705 	0 	
2010-12-29 09:34:42 	402 		395 	0 	
2010-12-29 09:47:04 	321 		150 	0 	
2010-12-29 09:50:46 	311 		275 	0 	
2010-12-29 09:52:56 	318 		238 	0 	
2010-12-29 09:54:41 	315 		316 	0 	
2010-12-29 10:11:50 	320 		345 	0 	
2010-12-29 10:30:27 	204 		276 	0 	
2010-12-29 10:45:45 	409 		395 	0 	
2010-12-29 10:56:10 	412 		395 	0 	
2010-12-29 11:00:13 	408 		395 	0 	
2010-12-29 11:04:25 	204 		40 	0 	
2010-12-29 11:04:28 	204 		135 	0 	
2010-12-29 11:05:26 	409 		60 	0 	
2010-12-29 11:10:05 	212 		275 	0 	
2010-12-29 11:12:32 	216 		200 	0 	
2010-12-29 11:18:40 	407 		280 	0 	
2010-12-29 11:32:21 	305 		275 	0 	
2010-12-29 11:33:29 	213 		465 	0 	
2010-12-29 11:45:55 	203 		345 	0 	
2010-12-29 12:00:14 	309 		110 	0 	
2010-12-29 12:05:03 	202 		345 	0 	
2010-12-29 12:05:54 	208 		275 	0 	
2010-12-29 12:15:48 	419 		395 	0 	
2010-12-29 12:32:15 	317 		395 	0 	
2010-12-29 12:34:33 	403 		345 	0 	
2010-12-29 12:38:41 	313 		395 	0 	
2010-12-29 12:41:34 	310 		275 	0 	
2010-12-29 12:47:19 	413 		395 	0 	
2010-12-29 12:49:23 	209 		275 	0 	
2010-12-29 12:54:32 	203 		110 	0 	
2010-12-29 13:00:27 	315 		395 	0 	
2010-12-29 13:00:43 	404 		395 	0 	
2010-12-29 13:03:02 	418 		345 	0 	
2010-12-29 13:10:26 	414 		345 	0 	
2010-12-29 13:11:49 	201 		345 	0 	
2010-12-29 13:27:00 	321 		395 	0 	
2010-12-29 13:29:46 	406 		675 	0 	
2010-12-29 13:32:36 	206 		276 	0 	
2010-12-29 13:34:00 	421 		675 	0 	
2010-12-29 13:35:33 	402 		395 	0 	
2010-12-29 13:41:42 	206 		170 	0 	
2010-12-29 13:46:20 	211 		585 	0 	
2010-12-29 13:48:43 	312 		395 	0 	
2010-12-29 13:50:51 	210 		345 	0 	
2010-12-29 13:51:34 	212 		275 	0 	
2010-12-29 13:52:42 	214 		275 	0 	
2010-12-29 13:53:32 	302 		395 	0 	
2010-12-29 13:58:26 	306 		395 	0 	
2010-12-29 14:03:01 	319 		0 	675 	
2010-12-29 14:03:26 	309 		395 	0 	
2010-12-29 14:08:52 	402 		270 	0 	
2010-12-29 14:09:31 	301 		395 	0 	
2010-12-29 14:10:21 	216 		275 	0 	
2010-12-29 14:10:32 	314 		345 	0 	
2010-12-29 14:12:47 	308 		395 	0 	
2010-12-29 14:13:00 	415 		395 	0 	
2010-12-29 14:14:29 	316 		345 	0 	
2010-12-29 14:15:21 	210 		240 	0 	
2010-12-29 14:15:25 	210 		30 	0 	
2010-12-29 14:16:08 	307 		395 	0 	
2010-12-29 14:23:29 	215 		465 	0 	
2010-12-29 14:24:03 	401 		395 	0 	
2010-12-29 14:25:16 	320 		705 	0 	
2010-12-29 14:29:52 	205 		345 	0 	
2010-12-29 14:31:24 	322 		395 	0 	
2010-12-29 14:35:22 	218 		395 	0 	
2010-12-29 14:36:43 	219 		395 	0 	
2010-12-29 14:40:04 	220 		535 	0 	
2010-12-29 14:43:33 	303 		585 	0 	
2010-12-29 14:45:31 	221 		395 	0 	
2010-12-29 14:46:39 	207 		345 	0 	
2010-12-29 14:48:10 	416 		345 	0 	
2010-12-29 14:49:39 	304 		395 	0 	
2010-12-29 14:51:51 	409 		395 	0 	
2010-12-29 14:54:24 	216 		100 	0 	
2010-12-29 14:54:39 	420 		345 	0 	
2010-12-29 14:55:54 	204 		345 	0 	
2010-12-29 14:56:13 	204 		160 	0 	
2010-12-29 14:58:15 	417 		395 	0 	
2010-12-29 15:02:05 	217 		275 	0 	
2010-12-29 15:03:01 	311 		275 	0 	
2010-12-29 15:04:20 	407 		395 	0 	
2010-12-29 15:04:26 	408 		395 	0 	
2010-12-29 15:06:29 	203 		276 	0 	
2010-12-29 15:06:44 	414 		345 	0 	
2010-12-29 15:12:25 	419 		675 	0 	
2010-12-29 15:15:02 	422 		395 	0 	
2010-12-29 15:20:17 	217 		15 	0 	
2010-12-29 15:38:13 	404 		395 	0 	
2010-12-29 15:46:25 	313 		395 	0 	
2010-12-29 15:47:51 	301 		395 	0 	
2010-12-29 15:48:47 	301 		20 	0 	
2010-12-29 15:49:05 	306 		395 	0 	
2010-12-29 15:53:16 	412 		280 	0 	
2010-12-29 15:53:42 	403 		345 	0 	
2010-12-29 15:53:51 	418 		345 	0 	
2010-12-29 15:54:03 	213 		345 	0 	
 			Total:		35662 	675		

=== RECHIT LIST ===




V1