MSHOGUN 1: SHIFT END REPORT
Friday April 15, 2011 4:00:02 PM

SALES TRANSACTION
Room Sales Order			30920
FnB Sales Order			2980
Beer Sales Order			120
Misc Sales Order			195
Room Sales Adjustment			0
GROSS SALES			34215

DISCOUNT
Room				0
FnB				0
Misc				0

DEPOSIT				10005
REFUND				

TOTAL ACCOUNTABILITY			44220

CASH DECLARATION			8880
CARD				0
FUNDS SAFEKEEP			20000
TOTAL CASH DECLARED			28880

TOTAL CASH ON SYSTEM			8880
OVER/SHORTAGES 			0

ROOM	 # OF CHECK-OUT	AMT
Value 		10	4750
Regular 		11	5835
Classique 		41	20335
Premium 		0	0
Regent 		0	0
Queen 		0	0
Gemini 		0	0
Family 		0	0
Executive Suite 	0	0
Mega Suite 	0	0

DISCOUNT 
Value 			  
Regular 		  
Classique 		  
Premium 		  
Regent 			  
Queen 		  
Gemini 		  
Family 		  
Executive Suite 	  
Mega Suite 		  


=== RESERVATIONS ===

Deposits:


Claimed:



SECURITY DEPOSITS

Deposits:
Claimed:


=== SALES BREAKDOWN ===

Transaction Date	Room No.	Cash	Card

2011-04-15 08:24:34 	307 		395 	0 	
2011-04-15 08:52:10 	310 		260 	0 	
2011-04-15 08:58:14 	301 		675 	0 	
2011-04-15 08:59:43 	324 		40 	0 	
2011-04-15 09:11:56 	418 		265 	0 	
2011-04-15 09:15:10 	306 		50 	0 	
2011-04-15 09:19:05 	220 		395 	0 	
2011-04-15 09:21:15 	419 		395 	0 	
2011-04-15 09:21:25 	421 		395 	0 	
2011-04-15 09:44:19 	216 		100 	0 	
2011-04-15 09:49:35 	304 		395 	0 	
2011-04-15 10:03:40 	306 		395 	0 	
2011-04-15 10:07:01 	302 		395 	0 	
2011-04-15 10:15:29 	404 		395 	0 	
2011-04-15 10:21:06 	421 		210 	0 	
2011-04-15 10:21:12 	304 		440 	0 	
2011-04-15 10:22:38 	218 		395 	0 	
2011-04-15 10:24:28 	307 		395 	0 	
2011-04-15 10:45:01 	302 		210 	0 	
2011-04-15 10:53:56 	315 		395 	0 	
2011-04-15 10:59:16 	409 		395 	0 	
2011-04-15 11:07:02 	414 		705 	0 	
2011-04-15 11:08:02 	318 		705 	0 	
2011-04-15 11:17:35 	215 		345 	0 	
2011-04-15 11:25:45 	408 		395 	0 	
2011-04-15 11:43:59 	401 		395 	0 	
2011-04-15 11:46:35 	416 		345 	0 	
2011-04-15 11:50:41 	407 		395 	0 	
2011-04-15 11:53:06 	208 		275 	0 	
2011-04-15 12:02:54 	209 		275 	0 	
2011-04-15 12:03:01 	412 		395 	0 	
2011-04-15 12:12:33 	316 		345 	0 	
2011-04-15 12:16:39 	413 		395 	0 	
2011-04-15 12:17:33 	308 		395 	0 	
2011-04-15 12:17:44 	413 		100 	0 	
2011-04-15 12:22:56 	320 		345 	0 	
2011-04-15 12:23:29 	415 		316 	0 	
2011-04-15 12:38:30 	422 		395 	0 	
2011-04-15 12:49:06 	220 		395 	0 	
2011-04-15 12:55:46 	303 		345 	0 	
2011-04-15 13:01:08 	318 		60 	0 	
2011-04-15 13:11:56 	306 		395 	0 	
2011-04-15 13:13:47 	403 		705 	0 	
2011-04-15 13:17:02 	302 		316 	0 	
2011-04-15 13:30:57 	305 		275 	0 	
2011-04-15 13:34:40 	310 		275 	0 	
2011-04-15 13:36:02 	311 		275 	0 	
2011-04-15 13:37:51 	301 		255 	0 	
2011-04-15 13:38:47 	409 		395 	0 	
2011-04-15 13:40:17 	218 		316 	0 	
2011-04-15 13:50:50 	205 		276 	0 	
2011-04-15 13:51:51 	315 		535 	0 	
2011-04-15 13:53:12 	307 		395 	0 	
2011-04-15 13:54:59 	321 		395 	0 	
2011-04-15 13:58:07 	313 		395 	0 	
2011-04-15 13:59:41 	320 		210 	0 	
2011-04-15 14:00:28 	304 		395 	0 	
2011-04-15 14:19:31 	218 		270 	0 	
2011-04-15 14:21:41 	307 		205 	0 	
2011-04-15 14:25:36 	312 		316 	0 	
2011-04-15 14:25:46 	319 		395 	0 	
2011-04-15 14:26:25 	313 		180 	0 	
2011-04-15 14:30:25 	205 		85 	0 	
2011-04-15 14:33:36 	413 		395 	0 	
2011-04-15 14:35:01 	310 		110 	0 	
2011-04-15 14:45:08 	322 		675 	0 	
2011-04-15 14:47:40 	422 		395 	0 	
2011-04-15 14:59:46 	308 		245 	0 	
2011-04-15 15:00:25 	421 		395 	0 	
2011-04-15 15:02:28 	417 		560 	0 	
2011-04-15 15:05:11 	412 		395 	0 	
2011-04-15 15:07:23 	419 		395 	0 	
2011-04-15 15:20:20 	302 		120 	0 	
2011-04-15 15:21:15 	219 		395 	0 	
2011-04-15 15:32:39 	215 		585 	0 	
2011-04-15 15:32:48 	417 		395 	0 	
2011-04-15 15:33:58 	217 		275 	0 	
2011-04-15 15:35:51 	415 		395 	0 	
2011-04-15 15:41:00 	221 		395 	0 	
2011-04-15 15:50:54 	409 		395 	0 	
2011-04-15 15:56:10 	301 		395 	0 	
2011-04-15 15:58:18 	408 		395 	0 	
 			Total:		28880 	0		

=== RECHIT LIST ===




V1