MSHOGUN 1: SHIFT END REPORT
Wednesday February 01, 2012 4:00:01 PM

SALES TRANSACTION
Room Sales Order			21160
FnB Sales Order			1856
Beer Sales Order			405
Misc Sales Order			55
Room Sales Adjustment			0
GROSS SALES			23476

DISCOUNT
Room				0
FnB				0
Misc				0

DEPOSIT				13745
REFUND				

TOTAL ACCOUNTABILITY			37221

CASH DECLARATION			5393
CARD				0
FUNDS SAFEKEEP			20000
TOTAL CASH DECLARED			25393

TOTAL CASH ON SYSTEM			5393
OVER/SHORTAGES 			0

ROOM	 # OF CHECK-OUT	AMT
Value 		11	4925
Regular 		8	4380
Classique 		21	11855
Premium 		0	0
Regent 		0	0
Queen 		0	0
Gemini 		0	0
Family 		0	0
Executive Suite 	0	0
Mega Suite 	0	0

DISCOUNT 
Value 			  
Regular 		  
Classique 		  
Premium 		  
Regent 			  
Queen 		  
Gemini 		  
Family 		  
Executive Suite 	  
Mega Suite 		  


=== RESERVATIONS ===

Deposits:


Claimed:



SECURITY DEPOSITS

Deposits:
Claimed:


=== SALES BREAKDOWN ===

Transaction Date	Room No.	Cash	Card

2012-02-01 08:04:26 	405 		30 	0 	
2012-02-01 08:20:38 	424 		75 	0 	
2012-02-01 08:39:20 	417 		225 	0 	
2012-02-01 08:46:42 	312 		395 	0 	
2012-02-01 08:46:48 	218 		395 	0 	
2012-02-01 09:01:24 	219 		395 	0 	
2012-02-01 09:16:05 	320 		585 	0 	
2012-02-01 09:18:29 	321 		345 	0 	
2012-02-01 09:24:39 	310 		275 	0 	
2012-02-01 09:52:59 	409 		355 	0 	
2012-02-01 10:07:08 	308 		293 	0 	
2012-02-01 10:07:59 	404 		560 	0 	
2012-02-01 10:44:43 	212 		198 	0 	
2012-02-01 10:46:51 	316 		705 	0 	
2012-02-01 10:55:22 	316 		50 	0 	
2012-02-01 11:23:21 	304 		395 	0 	
2012-02-01 11:53:24 	318 		585 	0 	
2012-02-01 11:53:35 	209 		275 	0 	
2012-02-01 12:08:53 	317 		395 	0 	
2012-02-01 12:17:41 	302 		395 	0 	
2012-02-01 12:18:15 	313 		395 	0 	
2012-02-01 12:23:54 	203 		465 	0 	
2012-02-01 12:30:42 	311 		275 	0 	
2012-02-01 12:31:12 	309 		395 	0 	
2012-02-01 12:31:55 	212 		275 	0 	
2012-02-01 12:43:38 	321 		815 	0 	
2012-02-01 12:43:43 	301 		395 	0 	
2012-02-01 12:53:44 	211 		345 	0 	
2012-02-01 13:04:23 	322 		395 	0 	
2012-02-01 13:07:37 	303 		345 	0 	
2012-02-01 13:07:52 	213 		636 	0 	
2012-02-01 13:08:27 	308 		395 	0 	
2012-02-01 13:09:24 	302 		65 	0 	
2012-02-01 13:16:49 	210 		345 	0 	
2012-02-01 13:27:04 	201 		345 	0 	
2012-02-01 13:36:44 	214 		275 	0 	
2012-02-01 13:49:56 	206 		345 	0 	
2012-02-01 13:50:01 	312 		395 	0 	
2012-02-01 13:55:02 	201 		260 	0 	
2012-02-01 13:56:07 	317 		395 	0 	
2012-02-01 14:03:24 	220 		395 	0 	
2012-02-01 14:04:56 	202 		585 	0 	
2012-02-01 14:20:28 	305 		275 	0 	
2012-02-01 14:20:36 	219 		395 	0 	
2012-02-01 14:21:53 	316 		345 	0 	
2012-02-01 14:38:11 	221 		395 	0 	
2012-02-01 14:41:45 	216 		275 	0 	
2012-02-01 14:45:03 	212 		485 	0 	
2012-02-01 14:46:02 	314 		585 	0 	
2012-02-01 14:49:57 	207 		345 	0 	
2012-02-01 14:52:47 	215 		345 	0 	
2012-02-01 15:00:43 	217 		275 	0 	
2012-02-01 15:02:26 	304 		395 	0 	
2012-02-01 15:10:59 	319 		395 	0 	
2012-02-01 15:18:36 	204 		345 	0 	
2012-02-01 15:23:49 	203 		345 	0 	
2012-02-01 15:24:43 	315 		535 	0 	
2012-02-01 15:26:25 	401 		395 	0 	
2012-02-01 15:27:53 	203 		50 	0 	
2012-02-01 15:28:21 	208 		375 	0 	
2012-02-01 15:32:36 	318 		345 	0 	
2012-02-01 15:32:56 	402 		395 	0 	
2012-02-01 15:37:52 	403 		345 	0 	
2012-02-01 15:40:49 	407 		316 	0 	
2012-02-01 15:49:43 	302 		395 	0 	
2012-02-01 15:49:50 	309 		395 	0 	
2012-02-01 15:49:56 	406 		395 	0 	
2012-02-01 15:50:02 	408 		395 	0 	
2012-02-01 15:50:08 	413 		395 	0 	
 			Total:		25393 	0		

=== RECHIT LIST ===




V1