MSHOGUN 1: SHIFT END REPORT
Wednesday February 09, 2011 8:00:30 AM

SALES TRANSACTION
Room Sales Order			19740
FnB Sales Order			1085
Beer Sales Order			135
Misc Sales Order			15
Room Sales Adjustment			0
GROSS SALES			20975

DISCOUNT
Room				0
FnB				0
Misc				0

DEPOSIT				4265
REFUND				

TOTAL ACCOUNTABILITY			25240

CASH DECLARATION			9995
CARD				1390
FUNDS SAFEKEEP			0
TOTAL CASH DECLARED			11385

TOTAL CASH ON SYSTEM			9995
OVER/SHORTAGES 			0

ROOM	 # OF CHECK-OUT	AMT
Value 		3	1785
Regular 		12	6300
Classique 		21	11655
Premium 		0	0
Regent 		0	0
Queen 		0	0
Gemini 		0	0
Family 		0	0
Executive Suite 	0	0
Mega Suite 	0	0

DISCOUNT 
Value 			  
Regular 		  
Classique 		  
Premium 		  
Regent 			  
Queen 		  
Gemini 		  
Family 		  
Executive Suite 	  
Mega Suite 		  


=== RESERVATIONS ===

Deposits:


Claimed:



SECURITY DEPOSITS

Deposits:
Claimed:


=== SALES BREAKDOWN ===

Transaction Date	Room No.	Cash	Card

2011-02-09 00:10:19 	306 		395 	0 	
2011-02-09 00:18:11 	308 		695 	0 	
2011-02-09 00:19:25 	421 		15 	0 	
2011-02-09 00:21:13 	418 		190 	0 	
2011-02-09 00:28:58 	307 		535 	0 	
2011-02-09 00:33:33 	218 		695 	0 	
2011-02-09 00:33:48 	309 		395 	0 	
2011-02-09 01:12:55 	301 		395 	0 	
2011-02-09 01:17:09 	312 		50 	0 	
2011-02-09 01:26:35 	219 		695 	0 	
2011-02-09 01:28:00 	409 		395 	0 	
2011-02-09 01:29:30 	406 		675 	0 	
2011-02-09 01:32:30 	404 		695 	0 	
2011-02-09 01:36:06 	408 		695 	0 	
2011-02-09 01:49:51 	321 		205 	0 	
2011-02-09 02:17:54 	420 		465 	0 	
2011-02-09 03:20:55 	202 		240 	0 	
2011-02-09 03:38:15 	315 		395 	0 	
2011-02-09 03:44:38 	418 		345 	0 	
2011-02-09 04:13:04 	304 		395 	0 	
2011-02-09 05:12:32 	312 		140 	0 	
2011-02-09 05:23:23 	301 		140 	0 	
2011-02-09 06:07:15 	316 		465 	0 	
2011-02-09 06:30:24 	317 		395 	0 	
2011-02-09 06:39:34 	422 		50 	0 	
2011-02-09 07:04:12 	410 		100 	0 	
2011-02-09 07:55:38 	304 		140 	0 	
 			Total:		9995 	0		

=== RECHIT LIST ===




V1