MSHOGUN 1: SHIFT END REPORT
Wednesday March 30, 2011 4:00:01 PM

SALES TRANSACTION
Room Sales Order			26105
FnB Sales Order			1765
Beer Sales Order			180
Misc Sales Order			10
Room Sales Adjustment			0
GROSS SALES			28060

DISCOUNT
Room				0
FnB				0
Misc				0

DEPOSIT				8615
REFUND				

TOTAL ACCOUNTABILITY			36675

CASH DECLARATION			2501
CARD				1390
FUNDS SAFEKEEP			20000
TOTAL CASH DECLARED			23891

TOTAL CASH ON SYSTEM			2501
OVER/SHORTAGES 			0

ROOM	 # OF CHECK-OUT	AMT
Value 		5	2335
Regular 		8	3720
Classique 		38	20050
Premium 		0	0
Regent 		0	0
Queen 		0	0
Gemini 		0	0
Family 		0	0
Executive Suite 	0	0
Mega Suite 	0	0

DISCOUNT 
Value 			  
Regular 		  
Classique 		  
Premium 		  
Regent 			  
Queen 		  
Gemini 		  
Family 		  
Executive Suite 	  
Mega Suite 		  


=== RESERVATIONS ===

Deposits:


Claimed:



SECURITY DEPOSITS

Deposits:
Claimed:


=== SALES BREAKDOWN ===

Transaction Date	Room No.	Cash	Card

2011-03-30 08:08:03 	308 		50 	0 	
2011-03-30 08:25:22 	210 		465 	0 	
2011-03-30 08:36:14 	221 		395 	0 	
2011-03-30 08:58:38 	302 		395 	0 	
2011-03-30 09:04:11 	311 		190 	0 	
2011-03-30 09:07:06 	417 		50 	0 	
2011-03-30 09:41:59 	415 		130 	0 	
2011-03-30 09:48:39 	313 		420 	0 	
2011-03-30 09:52:34 	309 		395 	0 	
2011-03-30 09:52:43 	301 		395 	0 	
2011-03-30 10:29:06 	409 		395 	0 	
2011-03-30 10:49:13 	404 		395 	0 	
2011-03-30 10:49:48 	408 		140 	0 	
2011-03-30 10:52:58 	401 		395 	0 	
2011-03-30 11:24:07 	208 		275 	0 	
2011-03-30 11:27:29 	421 		495 	0 	
2011-03-30 11:27:51 	207 		345 	0 	
2011-03-30 11:29:09 	304 		395 	0 	
2011-03-30 11:31:20 	218 		395 	0 	
2011-03-30 11:54:57 	306 		395 	0 	
2011-03-30 11:58:52 	412 		395 	0 	
2011-03-30 12:07:35 	315 		280 	0 	
2011-03-30 12:08:40 	219 		395 	0 	
2011-03-30 12:38:28 	310 		275 	0 	
2011-03-30 12:44:08 	302 		395 	0 	
2011-03-30 12:54:43 	301 		395 	0 	
2011-03-30 12:54:52 	307 		395 	0 	
2011-03-30 12:56:57 	208 		50 	0 	
2011-03-30 13:03:28 	413 		395 	0 	
2011-03-30 13:08:30 	204 		345 	0 	
2011-03-30 13:08:40 	417 		395 	0 	
2011-03-30 13:10:29 	409 		395 	0 	
2011-03-30 13:24:03 	206 		345 	0 	
2011-03-30 13:30:03 	221 		395 	0 	
2011-03-30 13:30:55 	209 		275 	0 	
2011-03-30 13:34:25 	408 		395 	0 	
2011-03-30 13:47:53 	203 		345 	0 	
2011-03-30 13:54:36 	313 		395 	0 	
2011-03-30 14:01:42 	214 		275 	0 	
2011-03-30 14:06:46 	407 		395 	0 	
2011-03-30 14:07:03 	401 		395 	0 	
2011-03-30 14:18:01 	220 		395 	0 	
2011-03-30 14:18:09 	315 		395 	0 	
2011-03-30 14:23:47 	215 		585 	0 	
2011-03-30 14:28:14 	406 		395 	0 	
2011-03-30 14:38:41 	419 		316 	0 	
2011-03-30 14:38:53 	308 		395 	0 	
2011-03-30 14:39:03 	404 		395 	0 	
2011-03-30 14:39:13 	304 		395 	0 	
2011-03-30 14:46:55 	211 		705 	0 	
2011-03-30 14:47:04 	309 		395 	0 	
2011-03-30 14:48:37 	208 		275 	0 	
2011-03-30 14:50:49 	210 		345 	0 	
2011-03-30 14:54:46 	412 		80 	0 	
2011-03-30 15:03:13 	221 		395 	0 	
2011-03-30 15:09:05 	219 		395 	0 	
2011-03-30 15:14:53 	301 		140 	0 	
2011-03-30 15:22:44 	202 		345 	0 	
2011-03-30 15:23:27 	218 		395 	0 	
2011-03-30 15:26:03 	319 		395 	0 	
2011-03-30 15:28:02 	317 		395 	0 	
2011-03-30 15:34:18 	307 		395 	0 	
2011-03-30 15:42:32 	205 		345 	0 	
2011-03-30 15:51:01 	302 		395 	0 	
 			Total:		22501 	0		

=== RECHIT LIST ===




V1