MSHOGUN 1: SHIFT END REPORT
Tuesday December 20, 2011 3:59:44 PM

SALES TRANSACTION
Room Sales Order			32500
FnB Sales Order			3170
Beer Sales Order			225
Misc Sales Order			340
Room Sales Adjustment			0
GROSS SALES			36235

DISCOUNT
Room				0
FnB				0
Misc				0

DEPOSIT				6430
REFUND				

TOTAL ACCOUNTABILITY			42665

CASH DECLARATION			4397
CARD				0
FUNDS SAFEKEEP			20000
TOTAL CASH DECLARED			24397

TOTAL CASH ON SYSTEM			4396
OVER/SHORTAGES 			1

ROOM	 # OF CHECK-OUT	AMT
Value 		10	4510
Regular 		15	7575
Classique 		37	20415
Premium 		0	0
Regent 		0	0
Queen 		0	0
Gemini 		0	0
Family 		0	0
Executive Suite 	0	0
Mega Suite 	0	0

DISCOUNT 
Value 			  
Regular 		  
Classique 		  
Premium 		  
Regent 			  
Queen 		  
Gemini 		  
Family 		  
Executive Suite 	  
Mega Suite 		  


=== RESERVATIONS ===

Deposits:


Claimed:



SECURITY DEPOSITS

Deposits:
Claimed:


=== SALES BREAKDOWN ===

Transaction Date	Room No.	Cash	Card

2011-12-20 08:36:59 	424 		575 	0 	
2011-12-20 08:37:21 	418 		945 	0 	
2011-12-20 08:37:27 	306 		395 	0 	
2011-12-20 08:43:46 	310 		200 	0 	
2011-12-20 08:48:10 	305 		275 	0 	
2011-12-20 08:48:17 	402 		395 	0 	
2011-12-20 08:55:28 	210 		345 	0 	
2011-12-20 09:15:30 	317 		280 	0 	
2011-12-20 09:18:46 	419 		110 	0 	
2011-12-20 09:19:43 	320 		705 	0 	
2011-12-20 09:34:39 	415 		395 	0 	
2011-12-20 09:41:45 	314 		345 	0 	
2011-12-20 09:42:10 	419 		140 	0 	
2011-12-20 09:58:08 	409 		210 	0 	
2011-12-20 09:58:10 	409 		40 	0 	
2011-12-20 10:02:16 	312 		395 	0 	
2011-12-20 10:05:49 	403 		465 	0 	
2011-12-20 10:09:35 	401 		395 	0 	
2011-12-20 10:16:34 	206 		345 	0 	
2011-12-20 10:26:32 	315 		395 	0 	
2011-12-20 10:39:17 	301 		230 	0 	
2011-12-20 10:39:49 	211 		345 	0 	
2011-12-20 10:45:54 	313 		395 	0 	
2011-12-20 10:50:49 	316 		585 	0 	
2011-12-20 10:54:50 	417 		395 	0 	
2011-12-20 11:05:13 	406 		395 	0 	
2011-12-20 11:17:06 	304 		395 	0 	
2011-12-20 11:47:20 	416 		345 	0 	
2011-12-20 11:54:45 	315 		30 	0 	
2011-12-20 11:58:20 	212 		275 	0 	
2011-12-20 11:58:41 	307 		395 	0 	
2011-12-20 12:04:40 	416 		50 	0 	
2011-12-20 12:04:48 	316 		460 	0 	
2011-12-20 12:05:08 	214 		275 	0 	
2011-12-20 12:26:30 	411 		275 	0 	
2011-12-20 12:31:30 	306 		395 	0 	
2011-12-20 12:35:22 	318 		1185 	0 	
2011-12-20 12:37:25 	201 		465 	0 	
2011-12-20 12:39:35 	408 		395 	0 	
2011-12-20 12:39:43 	422 		395 	0 	
2011-12-20 12:58:50 	412 		395 	0 	
2011-12-20 12:59:58 	308 		316 	0 	
2011-12-20 13:00:12 	319 		395 	0 	
2011-12-20 13:02:11 	322 		395 	0 	
2011-12-20 13:18:57 	317 		395 	0 	
2011-12-20 13:22:50 	319 		90 	0 	
2011-12-20 13:23:13 	215 		345 	0 	
2011-12-20 13:23:19 	414 		345 	0 	
2011-12-20 13:30:09 	303 		705 	0 	
2011-12-20 13:34:08 	324 		275 	0 	
2011-12-20 13:35:08 	317 		50 	0 	
2011-12-20 13:38:11 	314 		120 	0 	
2011-12-20 13:40:32 	301 		395 	0 	
2011-12-20 14:04:19 	323 		475 	0 	
2011-12-20 14:08:31 	403 		175 	0 	
2011-12-20 14:13:41 	414 		50 	0 	
2011-12-20 14:19:04 	304 		395 	0 	
2011-12-20 14:35:40 	408 		10 	0 	
2011-12-20 14:56:30 	312 		395 	0 	
2011-12-20 15:01:22 	309 		395 	0 	
2011-12-20 15:02:21 	317 		55 	0 	
2011-12-20 15:08:22 	302 		395 	0 	
2011-12-20 15:10:30 	305 		275 	0 	
2011-12-20 15:11:52 	315 		395 	0 	
2011-12-20 15:25:40 	313 		395 	0 	
2011-12-20 15:38:57 	310 		275 	0 	
2011-12-20 15:41:11 	306 		395 	0 	
2011-12-20 15:49:02 	307 		395 	0 	
2011-12-20 15:51:53 	324 		275 	0 	
2011-12-20 15:54:56 	317 		395 	0 	
 			Total:		24396 	0		

=== RECHIT LIST ===




V1