MSHOGUN 1: SHIFT END REPORT
Thursday September 02, 2010 12:00:04 AM

SALES TRANSACTION
Room Sales Order			27000
FnB Sales Order			900
Beer Sales Order			560
Misc Sales Order			20
Room Sales Adjustment			-695
GROSS SALES			27785

DISCOUNT
Room				0
FnB				0
Misc				0

DEPOSIT				39120
REFUND				-5

TOTAL ACCOUNTABILITY			66900

CASH DECLARATION			9227
CARD				0
FUNDS SAFEKEEP			40000
TOTAL CASH DECLARED			49227

TOTAL CASH ON SYSTEM			9222
OVER/SHORTAGES 			5

ROOM	 # OF CHECK-OUT	AMT
Value 		10	2850
Regular 		12	5220
Classique 		42	17330
Premium 		0	0
Regent 		2	1600
Queen 		0	0
Gemini 		0	0
Family 		0	0
Executive Suite 	0	0
Mega Suite 	0	0

DISCOUNT 
Value 			  
Regular 		  
Classique 		  
Premium 		  
Regent 			  
Queen 		  
Gemini 		  
Family 		  
Executive Suite 	  
Mega Suite 		  


=== RESERVATIONS ===

Deposits:


Claimed:



SECURITY DEPOSITS

Deposits:

2010-09-01 17:43:16	4800	Management Endorsement [  80233  ]: paid thru bank 3 days stay!Claimed:


=== SALES BREAKDOWN ===

Transaction Date	Room No.	Cash	Card

2010-09-01 16:12:14 	220 		395 	0 	
2010-09-01 16:14:02 	311 		275 	0 	
2010-09-01 16:16:13 	221 		395 	0 	
2010-09-01 16:16:55 	217 		275 	0 	
2010-09-01 16:30:53 	301 		316 	0 	
2010-09-01 17:11:19 	504 		1600 	0 	
2010-09-01 17:12:39 	215 		345 	0 	
2010-09-01 17:31:58 	307 		395 	0 	
2010-09-01 17:36:21 	211 		345 	0 	
2010-09-01 17:43:16 	501 		4800 	0 	
2010-09-01 17:46:47 	302 		395 	0 	
2010-09-01 17:53:51 	308 		395 	0 	
2010-09-01 18:00:34 	601 		850 	0 	
2010-09-01 18:04:15 	210 		345 	0 	
2010-09-01 18:16:17 	404 		120 	0 	
2010-09-01 18:18:32 	603 		1050 	0 	
2010-09-01 18:20:59 	306 		395 	0 	
2010-09-01 18:26:09 	208 		275 	0 	
2010-09-01 18:30:25 	324 		595 	0 	
2010-09-01 18:35:10 	312 		140 	0 	
2010-09-01 18:55:42 	608 		850 	0 	
2010-09-01 18:57:33 	218 		395 	0 	
2010-09-01 18:58:30 	508 		750 	0 	
2010-09-01 18:59:56 	501 		165 	0 	
2010-09-01 19:00:38 	219 		695 	0 	
2010-09-01 19:00:51 	209 		595 	0 	
2010-09-01 19:02:43 	309 		395 	0 	
2010-09-01 19:02:56 	220 		395 	0 	
2010-09-01 19:03:11 	317 		395 	0 	
2010-09-01 19:05:37 	212 		275 	0 	
2010-09-01 19:06:33 	313 		395 	0 	
2010-09-01 19:07:10 	217 		275 	0 	
2010-09-01 19:11:42 	216 		595 	0 	
2010-09-01 19:17:56 	401 		395 	0 	
2010-09-01 19:22:20 	306 		405 	0 	
2010-09-01 19:24:07 	410 		260 	0 	
2010-09-01 19:25:02 	311 		275 	0 	
2010-09-01 19:28:59 	321 		695 	0 	
2010-09-01 19:29:09 	304 		695 	0 	
2010-09-01 19:29:54 	513 		220 	0 	
2010-09-01 19:34:03 	315 		695 	0 	
2010-09-01 19:37:04 	319 		695 	0 	
2010-09-01 19:41:04 	402 		395 	0 	
2010-09-01 19:43:19 	406 		695 	0 	
2010-09-01 19:43:37 	311 		40 	0 	
2010-09-01 19:48:05 	312 		395 	0 	
2010-09-01 19:50:13 	412 		395 	0 	
2010-09-01 19:50:37 	508 		135 	0 	
2010-09-01 19:51:25 	409 		395 	0 	
2010-09-01 19:53:54 	410 		275 	0 	
2010-09-01 19:54:22 	410 		20 	0 	
2010-09-01 19:57:38 	301 		395 	0 	
2010-09-01 20:04:25 	203 		345 	0 	
2010-09-01 20:06:24 	319 		240 	0 	
2010-09-01 20:10:04 	218 		395 	0 	
2010-09-01 20:11:14 	408 		695 	0 	
2010-09-01 20:12:02 	415 		695 	0 	
2010-09-01 20:21:06 	204 		705 	0 	
2010-09-01 20:25:54 	221 		395 	0 	
2010-09-01 20:29:11 	507 		2400 	0 	
2010-09-01 20:37:14 	305 		595 	0 	
2010-09-01 20:40:11 	323 		0 	600 	
2010-09-01 20:40:26 	323 		-5 	0 	
2010-09-01 20:40:39 	307 		395 	0 	
2010-09-01 20:45:45 	205 		345 	0 	
2010-09-01 20:50:13 	315 		-695 	0 	
2010-09-01 20:50:54 	315 		395 	0 	
2010-09-01 20:51:41 	302 		395 	0 	
2010-09-01 20:52:36 	407 		695 	0 	
2010-09-01 20:55:50 	308 		395 	0 	
2010-09-01 21:13:28 	323 		10 	0 	
2010-09-01 21:14:00 	306 		395 	0 	
2010-09-01 21:20:34 	404 		695 	0 	
2010-09-01 21:23:25 	405 		595 	0 	
2010-09-01 21:25:24 	612 		0 	1700 	
2010-09-01 21:29:06 	215 		645 	0 	
2010-09-01 21:31:07 	413 		695 	0 	
2010-09-01 21:38:16 	322 		535 	0 	
2010-09-01 21:39:23 	417 		695 	0 	
2010-09-01 21:39:40 	321 		395 	0 	
2010-09-01 21:41:33 	505 		800 	0 	
2010-09-01 21:42:24 	419 		695 	0 	
2010-09-01 21:43:56 	207 		345 	0 	
2010-09-01 21:49:20 	401 		210 	0 	
2010-09-01 21:50:55 	421 		695 	0 	
2010-09-01 21:53:29 	206 		345 	0 	
2010-09-01 21:54:41 	302 		210 	0 	
2010-09-01 21:59:54 	313 		695 	0 	
2010-09-01 22:14:05 	422 		695 	0 	
2010-09-01 22:17:47 	309 		695 	0 	
2010-09-01 22:30:06 	312 		395 	0 	
2010-09-01 22:30:21 	317 		395 	0 	
2010-09-01 22:32:35 	510 		800 	0 	
2010-09-01 22:34:10 	409 		395 	0 	
2010-09-01 22:36:49 	406 		190 	0 	
2010-09-01 22:41:44 	412 		535 	0 	
2010-09-01 22:41:55 	202 		345 	0 	
2010-09-01 22:42:40 	510 		30 	0 	
2010-09-01 22:53:19 	220 		695 	0 	
2010-09-01 22:53:37 	221 		695 	0 	
2010-09-01 22:53:49 	301 		395 	0 	
2010-09-01 22:55:20 	401 		395 	0 	
2010-09-01 23:17:38 	218 		695 	0 	
2010-09-01 23:19:23 	402 		695 	0 	
2010-09-01 23:28:14 	323 		20 	0 	
2010-09-01 23:29:51 	320 		276 	0 	
2010-09-01 23:33:28 	303 		645 	0 	
2010-09-01 23:34:48 	316 		645 	0 	
 			Total:		54022 	2300		

=== RECHIT LIST ===

Room No. 513 	 Rechit Date: 2010-09-01 18:28:45



Food and Beverage Sales

		
 
Order Code# 1283346166225 	 09-01 19:29
		 FREE TAPSILOG 	 0.00
		 FREE LONGSILOG 	 0.00
Order Code# 1283393476185 	 09-01 19:29
		 Package Meal #3 (Sinigang na Sugpo, 1 Fried Tilapia, 2 Plain rice, 2 Ice Tea) 	 210.00
				 Sub Total:		 210.00 






V1