MSHOGUN 1: SHIFT END REPORT
Friday November 04, 2011 7:59:04 AM

SALES TRANSACTION
Room Sales Order			16320
FnB Sales Order			770
Beer Sales Order			370
Misc Sales Order			40
Room Sales Adjustment			0
GROSS SALES			17500

DISCOUNT
Room				0
FnB				0
Misc				0

DEPOSIT				4730
REFUND				

TOTAL ACCOUNTABILITY			22230

CASH DECLARATION			10015
CARD				0
FUNDS SAFEKEEP			0
TOTAL CASH DECLARED			10015

TOTAL CASH ON SYSTEM			10015
OVER/SHORTAGES 			0

ROOM	 # OF CHECK-OUT	AMT
Value 		3	1465
Regular 		5	2865
Classique 		22	11990
Premium 		0	0
Regent 		0	0
Queen 		0	0
Gemini 		0	0
Family 		0	0
Executive Suite 	0	0
Mega Suite 	0	0

DISCOUNT 
Value 			  
Regular 		  
Classique 		  
Premium 		  
Regent 			  
Queen 		  
Gemini 		  
Family 		  
Executive Suite 	  
Mega Suite 		  


=== RESERVATIONS ===

Deposits:


Claimed:



SECURITY DEPOSITS

Deposits:
Claimed:


=== SALES BREAKDOWN ===

Transaction Date	Room No.	Cash	Card

2011-11-04 00:18:28 	304 		695 	0 	
2011-11-04 00:18:47 	322 		395 	0 	
2011-11-04 00:36:12 	412 		395 	0 	
2011-11-04 00:39:29 	305 		210 	0 	
2011-11-04 00:49:28 	221 		395 	0 	
2011-11-04 00:49:42 	220 		395 	0 	
2011-11-04 01:55:27 	313 		695 	0 	
2011-11-04 01:55:46 	322 		140 	0 	
2011-11-04 02:03:35 	210 		200 	0 	
2011-11-04 02:20:06 	221 		275 	0 	
2011-11-04 02:20:28 	408 		695 	0 	
2011-11-04 02:20:46 	308 		695 	0 	
2011-11-04 02:38:07 	Lobby 		180 	0 	
2011-11-04 02:38:50 	312 		395 	0 	
2011-11-04 03:42:11 	401 		395 	0 	
2011-11-04 04:13:40 	412 		395 	0 	
2011-11-04 05:15:10 	312 		20 	0 	
2011-11-04 05:35:41 	213 		345 	0 	
2011-11-04 05:36:00 	213 		20 	0 	
2011-11-04 05:44:42 	320 		345 	0 	
2011-11-04 05:48:24 	418 		705 	0 	
2011-11-04 06:19:21 	414 		345 	0 	
2011-11-04 06:33:10 	316 		465 	0 	
2011-11-04 06:57:20 	403 		345 	0 	
2011-11-04 07:04:15 	314 		160 	0 	
2011-11-04 07:08:35 	416 		345 	0 	
2011-11-04 07:44:00 	315 		25 	0 	
2011-11-04 07:55:22 	211 		345 	0 	
 			Total:		10015 	0		

=== RECHIT LIST ===




V1