MSHOGUN 1: SHIFT END REPORT
Thursday October 28, 2010 12:01:56 AM

SALES TRANSACTION
Room Sales Order			35620
FnB Sales Order			2255
Beer Sales Order			90
Misc Sales Order			60
Room Sales Adjustment			0
GROSS SALES			38025

DISCOUNT
Room				0
FnB				0
Misc				0

DEPOSIT				23065
REFUND				

TOTAL ACCOUNTABILITY			61090

CASH DECLARATION			9973
CARD				0
FUNDS SAFEKEEP			40000
TOTAL CASH DECLARED			49973

TOTAL CASH ON SYSTEM			9973
OVER/SHORTAGES 			0

ROOM	 # OF CHECK-OUT	AMT
Value 		12	3300
Regular 		34	12570
Classique 		50	19750
Premium 		0	0
Regent 		0	0
Queen 		0	0
Gemini 		0	0
Family 		0	0
Executive Suite 	0	0
Mega Suite 	0	0

DISCOUNT 
Value 			  
Regular 		  
Classique 		  
Premium 		  
Regent 			  
Queen 		  
Gemini 		  
Family 		  
Executive Suite 	  
Mega Suite 		  


=== RESERVATIONS ===

Deposits:


Claimed:



SECURITY DEPOSITS

Deposits:
Claimed:


=== SALES BREAKDOWN ===

Transaction Date	Room No.	Cash	Card

2010-10-27 16:06:13 	309 		316 	0 	
2010-10-27 16:07:33 	318 		345 	0 	
2010-10-27 16:09:29 	312 		395 	0 	
2010-10-27 16:09:39 	313 		395 	0 	
2010-10-27 16:17:31 	317 		316 	0 	
2010-10-27 16:18:52 	304 		395 	0 	
2010-10-27 16:19:01 	319 		407 	0 	
2010-10-27 16:24:09 	316 		345 	0 	
2010-10-27 16:25:16 	302 		395 	0 	
2010-10-27 16:26:24 	301 		395 	0 	
2010-10-27 16:27:56 	314 		345 	0 	
2010-10-27 16:36:14 	404 		210 	0 	
2010-10-27 16:36:34 	315 		395 	0 	
2010-10-27 16:38:19 	218 		395 	0 	
2010-10-27 16:40:13 	305 		10 	0 	
2010-10-27 16:48:27 	221 		395 	0 	
2010-10-27 16:48:44 	402 		395 	0 	
2010-10-27 17:08:38 	308 		395 	0 	
2010-10-27 17:11:33 	307 		395 	0 	
2010-10-27 17:18:01 	313 		25 	0 	
2010-10-27 17:19:05 	405 		275 	0 	
2010-10-27 17:22:43 	303 		345 	0 	
2010-10-27 17:29:14 	405 		40 	0 	
2010-10-27 17:34:42 	215 		345 	0 	
2010-10-27 17:37:16 	318 		705 	0 	
2010-10-27 17:39:35 	413 		395 	0 	
2010-10-27 17:45:25 	420 		345 	0 	
2010-10-27 17:46:56 	311 		275 	0 	
2010-10-27 17:48:19 	209 		275 	0 	
2010-10-27 17:58:06 	315 		25 	0 	
2010-10-27 17:58:24 	204 		345 	0 	
2010-10-27 18:01:41 	418 		345 	0 	
2010-10-27 18:02:48 	406 		395 	0 	
2010-10-27 18:03:43 	419 		695 	0 	
2010-10-27 18:06:12 	424 		595 	0 	
2010-10-27 18:07:56 	323 		595 	0 	
2010-10-27 18:08:50 	312 		395 	0 	
2010-10-27 18:23:57 	309 		395 	0 	
2010-10-27 18:24:08 	421 		695 	0 	
2010-10-27 18:24:56 	408 		695 	0 	
2010-10-27 18:26:02 	301 		395 	0 	
2010-10-27 18:29:47 	209 		110 	0 	
2010-10-27 18:33:43 	211 		585 	0 	
2010-10-27 18:49:47 	409 		835 	0 	
2010-10-27 18:49:58 	324 		275 	0 	
2010-10-27 18:51:24 	220 		695 	0 	
2010-10-27 18:53:42 	301 		320 	0 	
2010-10-27 18:54:06 	412 		395 	0 	
2010-10-27 18:57:27 	422 		395 	0 	
2010-10-27 19:02:05 	305 		595 	0 	
2010-10-27 19:03:47 	207 		276 	0 	
2010-10-27 19:04:51 	407 		395 	0 	
2010-10-27 19:10:04 	319 		695 	0 	
2010-10-27 19:15:49 	219 		395 	0 	
2010-10-27 19:16:08 	401 		395 	0 	
2010-10-27 19:16:15 	321 		395 	0 	
2010-10-27 19:16:26 	317 		395 	0 	
2010-10-27 19:16:47 	412 		30 	0 	
2010-10-27 19:17:01 	418 		195 	0 	
2010-10-27 19:19:55 	404 		395 	0 	
2010-10-27 19:22:38 	417 		395 	0 	
2010-10-27 19:22:59 	216 		275 	0 	
2010-10-27 19:30:48 	405 		595 	0 	
2010-10-27 19:31:14 	218 		395 	0 	
2010-10-27 19:35:00 	415 		395 	0 	
2010-10-27 19:37:55 	416 		345 	0 	
2010-10-27 19:42:49 	208 		275 	0 	
2010-10-27 19:43:02 	214 		275 	0 	
2010-10-27 19:43:32 	214 		20 	0 	
2010-10-27 19:43:47 	210 		345 	0 	
2010-10-27 19:44:44 	313 		695 	0 	
2010-10-27 19:45:45 	206 		345 	0 	
2010-10-27 19:55:33 	404 		245 	0 	
2010-10-27 19:55:45 	415 		115 	0 	
2010-10-27 19:57:52 	215 		345 	0 	
2010-10-27 20:00:47 	403 		645 	0 	
2010-10-27 20:01:34 	315 		695 	0 	
2010-10-27 20:05:31 	311 		275 	0 	
2010-10-27 20:07:54 	304 		395 	0 	
2010-10-27 20:08:16 	318 		-360 	0 	
2010-10-27 20:13:15 	306 		695 	0 	
2010-10-27 20:13:26 	202 		345 	0 	
2010-10-27 20:14:11 	414 		645 	0 	
2010-10-27 20:15:42 	302 		395 	0 	
2010-10-27 20:16:37 	203 		345 	0 	
2010-10-27 20:17:26 	303 		645 	0 	
2010-10-27 20:20:10 	213 		345 	0 	
2010-10-27 20:21:58 	314 		345 	0 	
2010-10-27 20:22:32 	307 		395 	0 	
2010-10-27 20:31:11 	320 		345 	0 	
2010-10-27 20:33:14 	311 		198 	0 	
2010-10-27 20:42:44 	316 		345 	0 	
2010-10-27 20:44:36 	420 		645 	0 	
2010-10-27 20:47:57 	204 		345 	0 	
2010-10-27 20:51:15 	207 		345 	0 	
2010-10-27 20:52:51 	319 		15 	0 	
2010-10-27 20:53:46 	423 		595 	0 	
2010-10-27 20:55:10 	402 		695 	0 	
2010-10-27 20:56:04 	322 		395 	0 	
2010-10-27 20:58:41 	219 		695 	0 	
2010-10-27 21:05:00 	413 		695 	0 	
2010-10-27 21:06:17 	212 		595 	0 	
2010-10-27 21:07:12 	414 		10 	0 	
2010-10-27 21:11:52 	312 		395 	0 	
2010-10-27 21:23:01 	212 		50 	0 	
2010-10-27 21:23:22 	302 		100 	0 	
2010-10-27 21:34:55 	221 		395 	0 	
2010-10-27 21:35:26 	201 		345 	0 	
2010-10-27 21:37:43 	410 		275 	0 	
2010-10-27 21:38:16 	312 		25 	0 	
2010-10-27 21:51:22 	324 		595 	0 	
2010-10-27 22:00:56 	208 		275 	0 	
2010-10-27 22:05:05 	215 		280 	0 	
2010-10-27 22:05:20 	315 		25 	0 	
2010-10-27 22:06:12 	307 		695 	0 	
2010-10-27 22:18:13 	422 		695 	0 	
2010-10-27 22:24:37 	309 		395 	0 	
2010-10-27 22:44:42 	417 		695 	0 	
2010-10-27 22:49:01 	317 		695 	0 	
2010-10-27 23:07:21 	404 		395 	0 	
2010-10-27 23:11:46 	401 		395 	0 	
2010-10-27 23:17:02 	304 		695 	0 	
2010-10-27 23:26:17 	406 		695 	0 	
2010-10-27 23:29:47 	302 		695 	0 	
2010-10-27 23:30:27 	314 		465 	0 	
2010-10-27 23:45:15 	407 		395 	0 	
2010-10-27 23:48:26 	412 		395 	0 	
2010-10-27 23:52:17 	215 		120 	0 	
 			Total:		49973 	0		

=== RECHIT LIST ===




V1