MSHOGUN 1: SHIFT END REPORT
Wednesday December 14, 2011 3:59:32 PM

SALES TRANSACTION
Room Sales Order			35340
FnB Sales Order			3200
Beer Sales Order			90
Misc Sales Order			50
Room Sales Adjustment			-395
GROSS SALES			38285

DISCOUNT
Room				0
FnB				0
Misc				0

DEPOSIT				8225
REFUND				

TOTAL ACCOUNTABILITY			46510

CASH DECLARATION			5307
CARD				695
FUNDS SAFEKEEP			20000
TOTAL CASH DECLARED			26002

TOTAL CASH ON SYSTEM			5307
OVER/SHORTAGES 			0

ROOM	 # OF CHECK-OUT	AMT
Value 		11	6165
Regular 		14	9630
Classique 		35	19545
Premium 		0	0
Regent 		0	0
Queen 		0	0
Gemini 		0	0
Family 		0	0
Executive Suite 	0	0
Mega Suite 	0	0

DISCOUNT 
Value 			  
Regular 		  
Classique 		  
Premium 		  
Regent 			  
Queen 		  
Gemini 		  
Family 		  
Executive Suite 	  
Mega Suite 		  


=== RESERVATIONS ===

Deposits:


Claimed:



SECURITY DEPOSITS

Deposits:
Claimed:


=== SALES BREAKDOWN ===

Transaction Date	Room No.	Cash	Card

2011-12-14 08:18:56 	423 		130 	0 	
2011-12-14 08:21:46 	304 		395 	0 	
2011-12-14 08:28:01 	314 		200 	0 	
2011-12-14 08:48:00 	408 		395 	0 	
2011-12-14 08:48:08 	301 		395 	0 	
2011-12-14 08:55:06 	412 		395 	0 	
2011-12-14 09:00:21 	306 		395 	0 	
2011-12-14 09:07:40 	206 		345 	0 	
2011-12-14 09:22:48 	307 		395 	0 	
2011-12-14 09:26:26 	323 		200 	0 	
2011-12-14 09:33:23 	317 		140 	0 	
2011-12-14 09:35:39 	407 		395 	0 	
2011-12-14 09:35:47 	205 		345 	0 	
2011-12-14 09:37:04 	210 		276 	0 	
2011-12-14 09:56:13 	311 		275 	0 	
2011-12-14 09:59:18 	301 		150 	0 	
2011-12-14 09:59:24 	408 		335 	0 	
2011-12-14 10:06:09 	418 		240 	0 	
2011-12-14 10:07:43 	417 		420 	0 	
2011-12-14 10:07:58 	204 		1200 	0 	
2011-12-14 10:25:06 	321 		280 	0 	
2011-12-14 10:31:07 	219 		395 	0 	
2011-12-14 10:40:18 	309 		395 	0 	
2011-12-14 10:54:30 	308 		395 	0 	
2011-12-14 11:02:24 	207 		465 	0 	
2011-12-14 11:04:10 	406 		420 	0 	
2011-12-14 11:23:32 	305 		275 	0 	
2011-12-14 11:33:41 	214 		275 	0 	
2011-12-14 11:49:24 	410 		575 	0 	
2011-12-14 12:10:58 	402 		395 	0 	
2011-12-14 12:33:59 	404 		395 	0 	
2011-12-14 12:36:16 	215 		645 	0 	
2011-12-14 12:42:48 	406 		395 	0 	
2011-12-14 12:45:19 	413 		395 	0 	
2011-12-14 13:15:02 	415 		395 	0 	
2011-12-14 13:15:42 	405 		275 	0 	
2011-12-14 13:17:00 	417 		395 	0 	
2011-12-14 13:17:18 	422 		395 	0 	
2011-12-14 13:18:56 	413 		245 	0 	
2011-12-14 13:19:54 	307 		140 	0 	
2011-12-14 13:21:19 	420 		825 	0 	
2011-12-14 13:28:25 	417 		50 	0 	
2011-12-14 13:37:53 	424 		275 	0 	
2011-12-14 13:42:21 	210 		120 	0 	
2011-12-14 13:48:49 	203 		360 	0 	
2011-12-14 13:51:42 	424 		20 	0 	
2011-12-14 14:06:21 	208 		275 	0 	
2011-12-14 14:07:06 	208 		10 	0 	
2011-12-14 14:13:09 	408 		395 	0 	
2011-12-14 14:25:29 	214 		240 	0 	
2011-12-14 14:26:21 	419 		395 	0 	
2011-12-14 14:31:53 	421 		395 	0 	
2011-12-14 14:33:31 	413 		395 	0 	
2011-12-14 14:33:53 	413 		80 	0 	
2011-12-14 14:34:00 	412 		395 	0 	
2011-12-14 14:36:12 	403 		345 	0 	
2011-12-14 14:50:38 	401 		316 	0 	
2011-12-14 15:03:05 	219 		395 	0 	
2011-12-14 15:06:33 	219 		-395 	0 	
2011-12-14 15:06:50 	209 		275 	0 	
2011-12-14 15:10:32 	409 		395 	0 	
2011-12-14 15:15:20 	322 		395 	0 	
2011-12-14 15:15:32 	407 		815 	0 	
2011-12-14 15:19:19 	418 		705 	0 	
2011-12-14 15:27:09 	416 		345 	0 	
2011-12-14 15:35:39 	321 		535 	0 	
2011-12-14 15:35:48 	319 		395 	0 	
2011-12-14 15:37:14 	423 		700 	0 	
2011-12-14 15:39:15 	317 		395 	0 	
2011-12-14 15:44:55 	212 		275 	0 	
2011-12-14 15:47:04 	414 		345 	0 	
2011-12-14 15:51:33 	411 		275 	0 	
 			Total:		25307 	0		

=== RECHIT LIST ===




V1