MSHOGUN 1: SHIFT END REPORT
Saturday November 12, 2011 3:59:59 PM

SALES TRANSACTION
Room Sales Order			44225
FnB Sales Order			2553
Beer Sales Order			180
Misc Sales Order			75
Room Sales Adjustment			0
GROSS SALES			47033

DISCOUNT
Room				0
FnB				0
Misc				0

DEPOSIT				17610
REFUND				

TOTAL ACCOUNTABILITY			64643

CASH DECLARATION			8793
CARD				0
FUNDS SAFEKEEP			30000
TOTAL CASH DECLARED			38793

TOTAL CASH ON SYSTEM			8773
OVER/SHORTAGES 			20

ROOM	 # OF CHECK-OUT	AMT
Value 		15	7865
Regular 		21	13425
Classique 		41	22935
Premium 		0	0
Regent 		0	0
Queen 		0	0
Gemini 		0	0
Family 		0	0
Executive Suite 	0	0
Mega Suite 	0	0

DISCOUNT 
Value 			  
Regular 		  
Classique 		  
Premium 		  
Regent 			  
Queen 		  
Gemini 		  
Family 		  
Executive Suite 	  
Mega Suite 		  


=== RESERVATIONS ===

Deposits:


Claimed:



SECURITY DEPOSITS

Deposits:
Claimed:


=== SALES BREAKDOWN ===

Transaction Date	Room No.	Cash	Card

2011-11-12 08:07:52 	324 		100 	0 	
2011-11-12 08:10:37 	213 		125 	0 	
2011-11-12 08:31:33 	319 		25 	0 	
2011-11-12 08:31:39 	212 		205 	0 	
2011-11-12 08:36:27 	307 		395 	0 	
2011-11-12 08:39:14 	301 		395 	0 	
2011-11-12 09:07:14 	319 		280 	0 	
2011-11-12 09:07:53 	207 		345 	0 	
2011-11-12 09:16:37 	413 		140 	0 	
2011-11-12 09:16:58 	414 		345 	0 	
2011-11-12 09:23:53 	407 		395 	0 	
2011-11-12 09:26:52 	406 		395 	0 	
2011-11-12 09:30:43 	314 		345 	0 	
2011-11-12 09:41:22 	409 		85 	0 	
2011-11-12 09:50:45 	410 		300 	0 	
2011-11-12 09:53:22 	416 		705 	0 	
2011-11-12 10:06:07 	415 		395 	0 	
2011-11-12 10:09:40 	313 		40 	0 	
2011-11-12 10:11:28 	210 		360 	0 	
2011-11-12 10:12:31 	415 		25 	0 	
2011-11-12 10:14:28 	208 		275 	0 	
2011-11-12 10:18:02 	322 		395 	0 	
2011-11-12 10:34:24 	212 		300 	0 	
2011-11-12 10:39:15 	321 		395 	0 	
2011-11-12 10:42:13 	304 		395 	0 	
2011-11-12 10:49:43 	209 		275 	0 	
2011-11-12 10:54:55 	215 		240 	0 	
2011-11-12 10:57:06 	319 		395 	0 	
2011-11-12 10:59:55 	315 		395 	0 	
2011-11-12 11:08:05 	320 		585 	0 	
2011-11-12 11:17:32 	424 		275 	0 	
2011-11-12 11:31:38 	313 		395 	0 	
2011-11-12 11:57:12 	408 		560 	0 	
2011-11-12 11:59:48 	309 		395 	0 	
2011-11-12 12:04:22 	402 		395 	0 	
2011-11-12 12:08:42 	Lobby 		40 	0 	
2011-11-12 12:08:55 	Lobby 		50 	0 	
2011-11-12 12:14:14 	401 		395 	0 	
2011-11-12 12:15:52 	419 		395 	0 	
2011-11-12 12:16:30 	404 		395 	0 	
2011-11-12 12:18:11 	318 		705 	0 	
2011-11-12 12:23:51 	421 		316 	0 	
2011-11-12 12:28:04 	401 		45 	0 	
2011-11-12 12:31:43 	307 		395 	0 	
2011-11-12 12:32:57 	312 		316 	0 	
2011-11-12 12:36:00 	217 		200 	0 	
2011-11-12 12:38:22 	213 		480 	0 	
2011-11-12 12:45:12 	204 		276 	0 	
2011-11-12 12:47:11 	304 		395 	0 	
2011-11-12 12:47:19 	306 		395 	0 	
2011-11-12 12:49:12 	210 		345 	0 	
2011-11-12 12:50:21 	316 		705 	0 	
2011-11-12 12:51:59 	416 		275 	0 	
2011-11-12 12:55:40 	214 		275 	0 	
2011-11-12 13:06:12 	409 		420 	0 	
2011-11-12 13:08:11 	205 		120 	0 	
2011-11-12 13:10:40 	412 		395 	0 	
2011-11-12 13:13:41 	301 		395 	0 	
2011-11-12 13:20:37 	218 		395 	0 	
2011-11-12 13:20:45 	203 		345 	0 	
2011-11-12 13:28:17 	403 		705 	0 	
2011-11-12 13:28:59 	420 		705 	0 	
2011-11-12 13:29:32 	418 		705 	0 	
2011-11-12 13:29:47 	303 		345 	0 	
2011-11-12 13:32:26 	215 		585 	0 	
2011-11-12 13:34:11 	410 		275 	0 	
2011-11-12 13:34:20 	411 		275 	0 	
2011-11-12 13:38:52 	321 		395 	0 	
2011-11-12 13:39:27 	322 		395 	0 	
2011-11-12 13:40:05 	216 		0 	775 	
2011-11-12 13:47:32 	317 		535 	0 	
2011-11-12 13:51:31 	314 		276 	0 	
2011-11-12 13:51:52 	414 		465 	0 	
2011-11-12 13:58:16 	404 		395 	0 	
2011-11-12 14:00:00 	406 		395 	0 	
2011-11-12 14:13:26 	423 		275 	0 	
2011-11-12 14:13:54 	407 		395 	0 	
2011-11-12 14:31:03 	408 		675 	0 	
2011-11-12 14:38:01 	424 		275 	0 	
2011-11-12 14:38:09 	417 		395 	0 	
2011-11-12 14:38:15 	422 		395 	0 	
2011-11-12 14:50:38 	308 		395 	0 	
2011-11-12 14:51:15 	319 		316 	0 	
2011-11-12 14:52:24 	408 		225 	0 	
2011-11-12 14:52:32 	424 		20 	0 	
2011-11-12 14:52:49 	212 		275 	0 	
2011-11-12 14:54:33 	209 		275 	0 	
2011-11-12 14:56:02 	402 		395 	0 	
2011-11-12 14:58:34 	310 		275 	0 	
2011-11-12 15:03:00 	413 		395 	0 	
2011-11-12 15:03:43 	401 		395 	0 	
2011-11-12 15:04:57 	315 		395 	0 	
2011-11-12 15:05:04 	401 		25 	0 	
2011-11-12 15:06:07 	311 		275 	0 	
2011-11-12 15:09:47 	324 		275 	0 	
2011-11-12 15:10:48 	213 		705 	0 	
2011-11-12 15:11:13 	415 		395 	0 	
2011-11-12 15:16:13 	203 		345 	0 	
2011-11-12 15:19:13 	301 		30 	0 	
2011-11-12 15:22:23 	211 		1188 	0 	
2011-11-12 15:24:49 	206 		345 	0 	
2011-11-12 15:27:44 	309 		395 	0 	
2011-11-12 15:29:02 	213 		115 	0 	
2011-11-12 15:29:16 	205 		345 	0 	
2011-11-12 15:32:56 	323 		275 	0 	
2011-11-12 15:34:34 	415 		235 	0 	
2011-11-12 15:36:54 	419 		395 	0 	
2011-11-12 15:44:38 	412 		535 	0 	
2011-11-12 15:48:32 	307 		395 	0 	
2011-11-12 15:50:09 	306 		395 	0 	
2011-11-12 15:51:38 	204 		345 	0 	
 			Total:		38773 	775		

=== RECHIT LIST ===




V1