MSHOGUN 1: SHIFT END REPORT
Tuesday February 07, 2012 4:00:10 PM

SALES TRANSACTION
Room Sales Order			24065
FnB Sales Order			1661
Beer Sales Order			0
Misc Sales Order			75
Room Sales Adjustment			0
GROSS SALES			25801

DISCOUNT
Room				0
FnB				0
Misc				0

DEPOSIT				14085
REFUND				

TOTAL ACCOUNTABILITY			39886

CASH DECLARATION			10027
CARD				0
FUNDS SAFEKEEP			20000
TOTAL CASH DECLARED			30027

TOTAL CASH ON SYSTEM			10027
OVER/SHORTAGES 			0

ROOM	 # OF CHECK-OUT	AMT
Value 		8	2520
Regular 		16	9240
Classique 		27	12305
Premium 		0	0
Regent 		0	0
Queen 		0	0
Gemini 		0	0
Family 		0	0
Executive Suite 	0	0
Mega Suite 	0	0

DISCOUNT 
Value 			  
Regular 		  
Classique 		  
Premium 		  
Regent 			  
Queen 		  
Gemini 		  
Family 		  
Executive Suite 	  
Mega Suite 		  


=== RESERVATIONS ===

Deposits:


Claimed:



SECURITY DEPOSITS

Deposits:
Claimed:


=== SALES BREAKDOWN ===

Transaction Date	Room No.	Cash	Card

2012-02-07 08:09:22 	309 		395 	0 	
2012-02-07 08:29:23 	201 		198 	0 	
2012-02-07 08:44:15 	418 		1425 	0 	
2012-02-07 08:52:40 	412 		140 	0 	
2012-02-07 09:06:26 	418 		120 	0 	
2012-02-07 09:06:29 	418 		65 	0 	
2012-02-07 09:07:05 	316 		15 	0 	
2012-02-07 09:07:41 	318 		180 	0 	
2012-02-07 09:17:24 	303 		70 	0 	
2012-02-07 09:22:52 	219 		395 	0 	
2012-02-07 09:31:09 	302 		10 	0 	
2012-02-07 09:43:14 	220 		395 	0 	
2012-02-07 10:14:52 	416 		825 	0 	
2012-02-07 10:27:51 	221 		395 	0 	
2012-02-07 10:56:42 	404 		395 	0 	
2012-02-07 11:02:36 	414 		465 	0 	
2012-02-07 11:18:52 	420 		345 	0 	
2012-02-07 11:29:33 	406 		395 	0 	
2012-02-07 11:32:17 	410 		275 	0 	
2012-02-07 11:41:21 	220 		105 	0 	
2012-02-07 11:47:28 	413 		316 	0 	
2012-02-07 11:49:13 	412 		316 	0 	
2012-02-07 11:50:20 	409 		395 	0 	
2012-02-07 12:06:55 	403 		585 	0 	
2012-02-07 12:07:38 	402 		395 	0 	
2012-02-07 12:09:24 	411 		275 	0 	
2012-02-07 12:12:13 	401 		316 	0 	
2012-02-07 12:25:40 	314 		705 	0 	
2012-02-07 12:26:52 	323 		275 	0 	
2012-02-07 12:30:14 	410 		315 	0 	
2012-02-07 12:31:41 	305 		275 	0 	
2012-02-07 12:36:07 	307 		395 	0 	
2012-02-07 12:38:13 	308 		395 	0 	
2012-02-07 12:52:38 	320 		345 	0 	
2012-02-07 12:54:24 	316 		345 	0 	
2012-02-07 12:54:41 	316 		20 	0 	
2012-02-07 12:56:40 	313 		535 	0 	
2012-02-07 12:58:24 	324 		275 	0 	
2012-02-07 12:59:07 	312 		395 	0 	
2012-02-07 13:00:39 	406 		210 	0 	
2012-02-07 13:03:27 	202 		345 	0 	
2012-02-07 13:05:59 	211 		480 	0 	
2012-02-07 13:09:50 	321 		395 	0 	
2012-02-07 13:09:58 	310 		275 	0 	
2012-02-07 13:14:04 	306 		395 	0 	
2012-02-07 13:20:37 	415 		316 	0 	
2012-02-07 13:25:18 	208 		275 	0 	
2012-02-07 13:27:53 	403 		220 	0 	
2012-02-07 13:28:10 	319 		395 	0 	
2012-02-07 13:41:26 	315 		395 	0 	
2012-02-07 13:43:33 	309 		395 	0 	
2012-02-07 13:48:28 	419 		395 	0 	
2012-02-07 13:50:05 	417 		395 	0 	
2012-02-07 13:54:19 	203 		465 	0 	
2012-02-07 14:03:01 	215 		585 	0 	
2012-02-07 14:03:23 	209 		275 	0 	
2012-02-07 14:03:38 	404 		395 	0 	
2012-02-07 14:05:44 	220 		815 	0 	
2012-02-07 14:06:05 	302 		395 	0 	
2012-02-07 14:08:48 	219 		395 	0 	
2012-02-07 14:09:24 	316 		160 	0 	
2012-02-07 14:12:12 	212 		275 	0 	
2012-02-07 14:13:11 	406 		395 	0 	
2012-02-07 14:14:29 	221 		395 	0 	
2012-02-07 14:17:55 	204 		345 	0 	
2012-02-07 14:26:45 	214 		275 	0 	
2012-02-07 14:39:22 	301 		395 	0 	
2012-02-07 14:42:11 	409 		395 	0 	
2012-02-07 14:42:18 	218 		395 	0 	
2012-02-07 14:48:24 	412 		395 	0 	
2012-02-07 14:50:47 	211 		345 	0 	
2012-02-07 14:58:19 	321 		80 	0 	
2012-02-07 14:58:44 	206 		345 	0 	
2012-02-07 14:59:03 	210 		345 	0 	
2012-02-07 15:20:13 	308 		395 	0 	
2012-02-07 15:20:30 	308 		100 	0 	
2012-02-07 15:24:56 	414 		345 	0 	
2012-02-07 15:26:20 	408 		395 	0 	
2012-02-07 15:31:26 	408 		50 	0 	
2012-02-07 15:41:58 	301 		310 	0 	
2012-02-07 15:43:56 	317 		395 	0 	
2012-02-07 15:44:02 	322 		395 	0 	
2012-02-07 15:45:23 	306 		395 	0 	
2012-02-07 15:46:15 	209 		275 	0 	
2012-02-07 15:52:44 	219 		395 	0 	
2012-02-07 15:58:31 	207 		345 	0 	
 			Total:		30027 	0		

=== RECHIT LIST ===




V1