MSHOGUN 1: SHIFT END REPORT
Saturday January 28, 2012 12:00:02 AM

SALES TRANSACTION
Room Sales Order			12900
FnB Sales Order			375
Beer Sales Order			315
Misc Sales Order			45
Room Sales Adjustment			0
GROSS SALES			13635

DISCOUNT
Room				0
FnB				0
Misc				0

DEPOSIT				31715
REFUND				

TOTAL ACCOUNTABILITY			45350

CASH DECLARATION			3807
CARD				345
FUNDS SAFEKEEP			30000
TOTAL CASH DECLARED			34152

TOTAL CASH ON SYSTEM			3807
OVER/SHORTAGES 			0

ROOM	 # OF CHECK-OUT	AMT
Value 		4	1100
Regular 		11	4155
Classique 		19	7645
Premium 		0	0
Regent 		0	0
Queen 		0	0
Gemini 		0	0
Family 		0	0
Executive Suite 	0	0
Mega Suite 	0	0

DISCOUNT 
Value 			  
Regular 		  
Classique 		  
Premium 		  
Regent 			  
Queen 		  
Gemini 		  
Family 		  
Executive Suite 	  
Mega Suite 		  


=== RESERVATIONS ===

Deposits:


Claimed:



SECURITY DEPOSITS

Deposits:
Claimed:


=== SALES BREAKDOWN ===

Transaction Date	Room No.	Cash	Card

2012-01-27 20:24:43 	213 		120 	0 	
2012-01-27 20:25:14 	418 		10 	0 	
2012-01-27 20:29:26 	403 		345 	0 	
2012-01-27 20:31:18 	203 		645 	0 	
2012-01-27 20:33:10 	211 		645 	0 	
2012-01-27 20:33:43 	414 		645 	0 	
2012-01-27 20:34:33 	424 		275 	0 	
2012-01-27 20:36:11 	420 		645 	0 	
2012-01-27 20:37:02 	213 		0 	345 	
2012-01-27 20:38:27 	210 		230 	0 	
2012-01-27 20:38:36 	205 		345 	0 	
2012-01-27 20:44:12 	324 		595 	0 	
2012-01-27 20:44:18 	323 		595 	0 	
2012-01-27 20:44:37 	423 		595 	0 	
2012-01-27 20:46:35 	214 		595 	0 	
2012-01-27 20:47:37 	302 		695 	0 	
2012-01-27 20:48:02 	412 		395 	0 	
2012-01-27 20:48:41 	320 		345 	0 	
2012-01-27 20:50:07 	405 		595 	0 	
2012-01-27 20:51:10 	411 		275 	0 	
2012-01-27 20:54:07 	212 		595 	0 	
2012-01-27 20:55:29 	305 		595 	0 	
2012-01-27 20:56:05 	315 		695 	0 	
2012-01-27 21:04:12 	407 		60 	0 	
2012-01-27 21:04:21 	307 		350 	0 	
2012-01-27 21:04:38 	411 		180 	0 	
2012-01-27 21:06:38 	321 		695 	0 	
2012-01-27 21:07:22 	308 		395 	0 	
2012-01-27 21:10:03 	404 		25 	0 	
2012-01-27 21:10:51 	421 		695 	0 	
2012-01-27 21:11:56 	204 		276 	0 	
2012-01-27 21:13:09 	314 		345 	0 	
2012-01-27 21:15:16 	319 		695 	0 	
2012-01-27 21:26:19 	416 		645 	0 	
2012-01-27 21:27:15 	410 		275 	0 	
2012-01-27 21:27:35 	310 		595 	0 	
2012-01-27 21:27:40 	311 		595 	0 	
2012-01-27 21:27:51 	409 		395 	0 	
2012-01-27 21:29:32 	417 		695 	0 	
2012-01-27 21:30:08 	220 		140 	0 	
2012-01-27 21:31:46 	321 		70 	0 	
2012-01-27 21:32:00 	413 		210 	0 	
2012-01-27 21:32:07 	306 		210 	0 	
2012-01-27 21:32:38 	213 		120 	0 	
2012-01-27 21:35:24 	422 		0 	695 	
2012-01-27 21:37:39 	209 		595 	0 	
2012-01-27 21:40:41 	404 		695 	0 	
2012-01-27 21:42:27 	208 		595 	0 	
2012-01-27 21:45:39 	408 		695 	0 	
2012-01-27 21:48:46 	218 		695 	0 	
2012-01-27 21:52:39 	221 		395 	0 	
2012-01-27 21:52:48 	220 		395 	0 	
2012-01-27 21:54:53 	308 		695 	0 	
2012-01-27 21:59:35 	318 		645 	0 	
2012-01-27 22:05:48 	205 		645 	0 	
2012-01-27 22:06:08 	403 		645 	0 	
2012-01-27 22:07:31 	217 		595 	0 	
2012-01-27 22:08:11 	207 		345 	0 	
2012-01-27 22:11:29 	419 		695 	0 	
2012-01-27 22:15:00 	322 		695 	0 	
2012-01-27 22:18:26 	303 		645 	0 	
2012-01-27 22:25:33 	312 		695 	0 	
2012-01-27 22:27:30 	309 		395 	0 	
2012-01-27 22:29:04 	202 		645 	0 	
2012-01-27 22:33:30 	424 		205 	0 	
2012-01-27 22:33:42 	207 		180 	0 	
2012-01-27 22:33:50 	308 		290 	0 	
2012-01-27 22:37:15 	304 		0 	695 	
2012-01-27 22:39:46 	221 		695 	0 	
2012-01-27 22:41:51 	216 		595 	0 	
2012-01-27 22:42:33 	411 		595 	0 	
2012-01-27 22:46:31 	312 		345 	0 	
2012-01-27 22:46:51 	301 		316 	0 	
2012-01-27 23:16:08 	204 		645 	0 	
2012-01-27 23:23:45 	313 		50 	0 	
2012-01-27 23:27:19 	210 		0 	645 	
2012-01-27 23:43:19 	314 		345 	0 	
 			Total:		33807 	2380		

=== RECHIT LIST ===




V1