MSHOGUN 1: SHIFT END REPORT
Sunday August 22, 2010 8:00:22 AM

SALES TRANSACTION
Room Sales Order			47240
FnB Sales Order			3315
Beer Sales Order			360
Misc Sales Order			65
Room Sales Adjustment			0
GROSS SALES			50980

DISCOUNT
Room				0
FnB				0
Misc				0

DEPOSIT				10845
REFUND				

TOTAL ACCOUNTABILITY			61825

CASH DECLARATION			5000
CARD				1150
FUNDS SAFEKEEP			20000
TOTAL CASH DECLARED			26150

TOTAL CASH ON SYSTEM			4140
OVER/SHORTAGES 			860

ROOM	 # OF CHECK-OUT	AMT
Value 		11	6165
Regular 		15	9195
Classique 		29	16955
Premium 		3	1950
Regent 		6	5325
Queen 		1	1250
Gemini 		1	600
Family 		4	4700
Executive Suite 	1	1100
Mega Suite 	0	0

DISCOUNT 
Value 			  
Regular 		  
Classique 		  
Premium 		  
Regent 			  
Queen 		  
Gemini 		  
Family 		  
Executive Suite 	  
Mega Suite 		  


=== RESERVATIONS ===

Deposits:


Claimed:



SECURITY DEPOSITS

Deposits:
Claimed:


=== SALES BREAKDOWN ===

Transaction Date	Room No.	Cash	Card

2010-08-22 00:06:56 	323 		575 	0 	
2010-08-22 00:11:22 	617 		850 	0 	
2010-08-22 00:11:33 	417 		395 	0 	
2010-08-22 00:13:30 	202 		705 	0 	
2010-08-22 00:20:10 	608 		445 	0 	
2010-08-22 00:20:11 	608 		60 	0 	
2010-08-22 00:20:23 	217 		80 	0 	
2010-08-22 00:20:24 	217 		40 	0 	
2010-08-22 00:21:36 	409 		140 	0 	
2010-08-22 00:30:35 	316 		345 	0 	
2010-08-22 00:31:05 	307 		40 	0 	
2010-08-22 00:33:48 	409 		395 	0 	
2010-08-22 00:36:13 	607 		600 	0 	
2010-08-22 00:38:00 	606 		950 	0 	
2010-08-22 00:42:41 	603 		1050 	0 	
2010-08-22 00:52:34 	407 		190 	0 	
2010-08-22 00:54:28 	605 		650 	0 	
2010-08-22 00:54:39 	522 		750 	0 	
2010-08-22 01:04:36 	611 		650 	0 	
2010-08-22 01:30:15 	301 		395 	0 	
2010-08-22 01:32:01 	316 		360 	0 	
2010-08-22 01:40:27 	322 		395 	0 	
2010-08-22 02:16:06 	219 		815 	0 	
2010-08-22 02:54:15 	304 		170 	0 	
2010-08-22 03:10:05 	304 		395 	0 	
2010-08-22 03:14:02 	210 		705 	0 	
2010-08-22 03:22:04 	304 		75 	0 	
2010-08-22 03:38:31 	518 		25 	0 	
2010-08-22 03:45:25 	316 		705 	0 	
2010-08-22 03:49:12 	409 		395 	0 	
2010-08-22 03:55:11 	417 		675 	0 	
2010-08-22 04:04:48 	402 		395 	0 	
2010-08-22 04:13:13 	205 		240 	0 	
2010-08-22 04:21:03 	518 		65 	0 	
2010-08-22 04:29:15 	205 		345 	0 	
2010-08-22 04:32:37 	201 		585 	0 	
2010-08-22 04:40:48 	304 		395 	0 	
2010-08-22 04:41:47 	311 		275 	0 	
2010-08-22 04:47:23 	304 		25 	0 	
2010-08-22 04:49:22 	611 		300 	0 	
2010-08-22 05:01:48 	219 		-420 	0 	
2010-08-22 05:18:48 	301 		140 	0 	
2010-08-22 05:19:11 	322 		395 	0 	
2010-08-22 05:23:28 	505 		800 	0 	
2010-08-22 05:27:28 	519 		800 	0 	
2010-08-22 05:31:36 	609 		400 	0 	
2010-08-22 06:00:40 	520 		180 	0 	
2010-08-22 06:22:17 	508 		295 	0 	
2010-08-22 06:23:48 	506 		800 	0 	
2010-08-22 06:25:25 	218 		60 	0 	
2010-08-22 06:36:18 	517 		260 	0 	
2010-08-22 06:39:36 	513 		175 	0 	
2010-08-22 06:40:41 	322 		240 	0 	
2010-08-22 06:40:56 	323 		275 	0 	
2010-08-22 06:42:13 	602 		1100 	0 	
2010-08-22 06:42:41 	301 		395 	0 	
2010-08-22 06:45:57 	506 		210 	0 	
2010-08-22 06:47:18 	422 		395 	0 	
2010-08-22 06:57:27 	602 		45 	0 	
2010-08-22 06:57:59 	202 		310 	0 	
2010-08-22 07:06:01 	422 		65 	0 	
2010-08-22 07:06:03 	422 		20 	0 	
2010-08-22 07:40:03 	318 		160 	0 	
2010-08-22 07:49:40 	404 		395 	0 	
 			Total:		24140 	0		

=== RECHIT LIST ===

Room No. 614 	 Rechit Date: 2010-08-22 01:17:10







V1