MSHOGUN 1: SHIFT END REPORT
Wednesday March 09, 2011 12:00:05 AM

SALES TRANSACTION
Room Sales Order			34140
FnB Sales Order			1125
Beer Sales Order			240
Misc Sales Order			30
Room Sales Adjustment			0
GROSS SALES			35535

DISCOUNT
Room				0
FnB				0
Misc				0

DEPOSIT				22125
REFUND				

TOTAL ACCOUNTABILITY			57660

CASH DECLARATION			264
CARD				0
FUNDS SAFEKEEP			50000
TOTAL CASH DECLARED			50264

TOTAL CASH ON SYSTEM			259
OVER/SHORTAGES 			5

ROOM	 # OF CHECK-OUT	AMT
Value 		5	1475
Regular 		23	8775
Classique 		58	23890
Premium 		0	0
Regent 		0	0
Queen 		0	0
Gemini 		0	0
Family 		0	0
Executive Suite 	0	0
Mega Suite 	0	0

DISCOUNT 
Value 			  
Regular 		  
Classique 		  
Premium 		  
Regent 			  
Queen 		  
Gemini 		  
Family 		  
Executive Suite 	  
Mega Suite 		  


=== RESERVATIONS ===

Deposits:


Claimed:



SECURITY DEPOSITS

Deposits:
Claimed:


=== SALES BREAKDOWN ===

Transaction Date	Room No.	Cash	Card

2011-03-08 16:05:26 	219 		395 	0 	
2011-03-08 16:07:46 	304 		395 	0 	
2011-03-08 16:11:51 	308 		395 	0 	
2011-03-08 16:22:18 	312 		395 	0 	
2011-03-08 16:23:50 	302 		140 	0 	
2011-03-08 16:26:25 	319 		395 	0 	
2011-03-08 16:30:40 	213 		345 	0 	
2011-03-08 16:31:01 	213 		360 	0 	
2011-03-08 16:32:43 	321 		395 	0 	
2011-03-08 16:42:12 	406 		395 	0 	
2011-03-08 16:45:06 	404 		395 	0 	
2011-03-08 16:53:22 	402 		395 	0 	
2011-03-08 16:56:50 	407 		395 	0 	
2011-03-08 17:05:59 	205 		345 	0 	
2011-03-08 17:15:49 	309 		395 	0 	
2011-03-08 17:19:51 	302 		395 	0 	
2011-03-08 17:32:39 	315 		395 	0 	
2011-03-08 17:34:55 	307 		395 	0 	
2011-03-08 17:41:17 	408 		395 	0 	
2011-03-08 17:53:42 	202 		345 	0 	
2011-03-08 17:55:02 	409 		316 	0 	
2011-03-08 17:56:12 	301 		395 	0 	
2011-03-08 18:14:38 	211 		345 	0 	
2011-03-08 18:14:51 	322 		395 	0 	
2011-03-08 18:17:26 	207 		345 	0 	
2011-03-08 18:18:54 	306 		140 	0 	
2011-03-08 18:24:39 	401 		395 	0 	
2011-03-08 18:36:23 	404 		395 	0 	
2011-03-08 18:36:32 	406 		395 	0 	
2011-03-08 18:37:20 	212 		100 	0 	
2011-03-08 18:38:06 	317 		535 	0 	
2011-03-08 18:38:24 	218 		535 	0 	
2011-03-08 18:38:50 	304 		395 	0 	
2011-03-08 18:39:04 	412 		395 	0 	
2011-03-08 18:39:45 	215 		465 	0 	
2011-03-08 18:40:59 	413 		316 	0 	
2011-03-08 18:43:50 	422 		695 	0 	
2011-03-08 18:49:45 	210 		345 	0 	
2011-03-08 18:49:55 	423 		595 	0 	
2011-03-08 18:50:06 	424 		595 	0 	
2011-03-08 18:50:23 	306 		395 	0 	
2011-03-08 18:53:32 	313 		395 	0 	
2011-03-08 18:53:45 	411 		595 	0 	
2011-03-08 18:54:51 	415 		395 	0 	
2011-03-08 18:55:39 	219 		395 	0 	
2011-03-08 18:57:54 	410 		275 	0 	
2011-03-08 19:01:27 	405 		595 	0 	
2011-03-08 19:02:39 	313 		50 	0 	
2011-03-08 19:03:56 	419 		395 	0 	
2011-03-08 19:07:58 	421 		395 	0 	
2011-03-08 19:08:42 	321 		395 	0 	
2011-03-08 19:13:19 	303 		345 	0 	
2011-03-08 19:20:42 	314 		645 	0 	
2011-03-08 19:23:27 	221 		316 	0 	
2011-03-08 19:27:25 	219 		140 	0 	
2011-03-08 19:31:29 	308 		395 	0 	
2011-03-08 19:31:41 	315 		395 	0 	
2011-03-08 19:31:53 	322 		695 	0 	
2011-03-08 19:32:15 	402 		695 	0 	
2011-03-08 19:37:20 	417 		395 	0 	
2011-03-08 19:39:18 	307 		395 	0 	
2011-03-08 19:40:42 	307 		50 	0 	
2011-03-08 19:44:21 	201 		345 	0 	
2011-03-08 19:44:28 	305 		595 	0 	
2011-03-08 19:46:41 	323 		275 	0 	
2011-03-08 19:48:40 	322 		120 	0 	
2011-03-08 19:49:53 	316 		276 	0 	
2011-03-08 19:50:12 	316 		10 	0 	
2011-03-08 19:50:24 	206 		345 	0 	
2011-03-08 19:53:11 	316 		10 	0 	
2011-03-08 19:53:40 	318 		345 	0 	
2011-03-08 19:56:26 	324 		595 	0 	
2011-03-08 19:57:52 	320 		345 	0 	
2011-03-08 20:01:12 	403 		345 	0 	
2011-03-08 20:06:14 	420 		645 	0 	
2011-03-08 20:06:35 	319 		140 	0 	
2011-03-08 20:08:41 	414 		645 	0 	
2011-03-08 20:13:36 	416 		345 	0 	
2011-03-08 20:13:46 	418 		645 	0 	
2011-03-08 20:14:31 	216 		595 	0 	
2011-03-08 20:15:05 	321 		395 	0 	
2011-03-08 20:20:59 	303 		705 	0 	
2011-03-08 20:32:15 	305 		15 	0 	
2011-03-08 20:32:26 	210 		435 	0 	
2011-03-08 20:51:12 	415 		80 	0 	
2011-03-08 20:52:38 	304 		395 	0 	
2011-03-08 20:52:48 	208 		275 	0 	
2011-03-08 20:56:56 	415 		80 	0 	
2011-03-08 21:03:57 	221 		395 	0 	
2011-03-08 21:04:07 	209 		595 	0 	
2011-03-08 21:13:01 	310 		595 	0 	
2011-03-08 21:13:12 	207 		345 	0 	
2011-03-08 21:13:22 	408 		695 	0 	
2011-03-08 21:13:38 	308 		695 	0 	
2011-03-08 21:19:59 	409 		695 	0 	
2011-03-08 21:25:13 	301 		395 	0 	
2011-03-08 21:27:38 	205 		345 	0 	
2011-03-08 21:32:45 	309 		395 	0 	
2011-03-08 21:34:13 	204 		705 	0 	
2011-03-08 21:34:26 	401 		395 	0 	
2011-03-08 21:46:51 	212 		595 	0 	
2011-03-08 21:50:29 	310 		215 	0 	
2011-03-08 21:51:39 	211 		345 	0 	
2011-03-08 22:02:01 	415 		395 	0 	
2011-03-08 22:14:35 	214 		595 	0 	
2011-03-08 22:17:37 	311 		575 	0 	
2011-03-08 22:17:50 	410 		595 	0 	
2011-03-08 22:18:49 	213 		220 	0 	
2011-03-08 22:24:37 	421 		695 	0 	
2011-03-08 22:34:00 	406 		695 	0 	
2011-03-08 22:35:08 	317 		695 	0 	
2011-03-08 22:37:46 	219 		140 	0 	
2011-03-08 22:39:45 	214 		280 	0 	
2011-03-08 22:43:02 	407 		395 	0 	
2011-03-08 22:51:32 	210 		345 	0 	
2011-03-08 22:51:46 	312 		395 	0 	
2011-03-08 23:02:26 	312 		20 	0 	
2011-03-08 23:10:28 	306 		395 	0 	
2011-03-08 23:10:41 	309 		695 	0 	
2011-03-08 23:13:44 	313 		695 	0 	
2011-03-08 23:19:28 	416 		200 	0 	
2011-03-08 23:25:13 	307 		140 	0 	
2011-03-08 23:35:55 	302 		695 	0 	
2011-03-08 23:36:09 	413 		695 	0 	
 			Total:		50259 	0		

=== RECHIT LIST ===




V1