MSHOGUN 1: SHIFT END REPORT
Tuesday March 29, 2011 12:00:03 AM

SALES TRANSACTION
Room Sales Order			31285
FnB Sales Order			1245
Beer Sales Order			460
Misc Sales Order			30
Room Sales Adjustment			0
GROSS SALES			33020

DISCOUNT
Room				0
FnB				0
Misc				0

DEPOSIT				21925
REFUND				

TOTAL ACCOUNTABILITY			54945

CASH DECLARATION			3144
CARD				0
FUNDS SAFEKEEP			40000
TOTAL CASH DECLARED			43144

TOTAL CASH ON SYSTEM			3144
OVER/SHORTAGES 			0

ROOM	 # OF CHECK-OUT	AMT
Value 		4	1100
Regular 		27	10155
Classique 		50	20030
Premium 		0	0
Regent 		0	0
Queen 		0	0
Gemini 		0	0
Family 		0	0
Executive Suite 	0	0
Mega Suite 	0	0

DISCOUNT 
Value 			  
Regular 		  
Classique 		  
Premium 		  
Regent 			  
Queen 		  
Gemini 		  
Family 		  
Executive Suite 	  
Mega Suite 		  


=== RESERVATIONS ===

Deposits:


Claimed:



SECURITY DEPOSITS

Deposits:
Claimed:


=== SALES BREAKDOWN ===

Transaction Date	Room No.	Cash	Card

2011-03-28 16:06:42 	221 		395 	0 	
2011-03-28 16:07:39 	406 		365 	0 	
2011-03-28 16:09:34 	220 		395 	0 	
2011-03-28 16:09:41 	205 		345 	0 	
2011-03-28 16:12:28 	210 		345 	0 	
2011-03-28 16:12:43 	219 		395 	0 	
2011-03-28 16:21:18 	401 		395 	0 	
2011-03-28 16:32:03 	201 		345 	0 	
2011-03-28 16:44:08 	412 		395 	0 	
2011-03-28 16:56:42 	415 		395 	0 	
2011-03-28 17:01:45 	417 		395 	0 	
2011-03-28 17:17:32 	419 		395 	0 	
2011-03-28 17:27:29 	309 		395 	0 	
2011-03-28 17:29:18 	421 		395 	0 	
2011-03-28 17:29:25 	304 		395 	0 	
2011-03-28 17:39:03 	207 		120 	0 	
2011-03-28 17:41:18 	204 		276 	0 	
2011-03-28 17:42:34 	205 		345 	0 	
2011-03-28 17:45:05 	204 		85 	0 	
2011-03-28 17:46:38 	413 		395 	0 	
2011-03-28 17:50:09 	202 		345 	0 	
2011-03-28 17:57:23 	413 		105 	0 	
2011-03-28 18:00:24 	307 		395 	0 	
2011-03-28 18:17:43 	301 		316 	0 	
2011-03-28 18:20:41 	313 		695 	0 	
2011-03-28 18:21:43 	315 		395 	0 	
2011-03-28 18:25:09 	219 		395 	0 	
2011-03-28 18:31:38 	321 		395 	0 	
2011-03-28 18:33:53 	416 		645 	0 	
2011-03-28 18:36:26 	207 		345 	0 	
2011-03-28 18:36:33 	203 		345 	0 	
2011-03-28 18:40:00 	211 		345 	0 	
2011-03-28 18:43:24 	306 		140 	0 	
2011-03-28 18:45:11 	208 		275 	0 	
2011-03-28 18:47:33 	310 		275 	0 	
2011-03-28 18:47:46 	402 		395 	0 	
2011-03-28 18:59:22 	306 		395 	0 	
2011-03-28 19:02:55 	408 		395 	0 	
2011-03-28 19:03:05 	407 		316 	0 	
2011-03-28 19:03:58 	218 		395 	0 	
2011-03-28 19:10:28 	420 		345 	0 	
2011-03-28 19:11:46 	220 		395 	0 	
2011-03-28 19:20:56 	409 		395 	0 	
2011-03-28 19:28:19 	401 		395 	0 	
2011-03-28 19:30:20 	204 		345 	0 	
2011-03-28 19:33:01 	421 		395 	0 	
2011-03-28 19:33:15 	303 		345 	0 	
2011-03-28 19:35:17 	314 		345 	0 	
2011-03-28 19:37:49 	302 		695 	0 	
2011-03-28 19:42:15 	406 		695 	0 	
2011-03-28 19:42:38 	221 		395 	0 	
2011-03-28 19:53:52 	305 		595 	0 	
2011-03-28 19:56:35 	418 		645 	0 	
2011-03-28 20:00:45 	422 		395 	0 	
2011-03-28 20:01:07 	412 		316 	0 	
2011-03-28 20:05:44 	419 		695 	0 	
2011-03-28 20:19:02 	415 		695 	0 	
2011-03-28 20:19:15 	307 		395 	0 	
2011-03-28 20:22:28 	417 		695 	0 	
2011-03-28 20:28:25 	423 		595 	0 	
2011-03-28 20:29:22 	309 		395 	0 	
2011-03-28 20:31:44 	424 		595 	0 	
2011-03-28 20:34:59 	413 		695 	0 	
2011-03-28 20:35:10 	210 		345 	0 	
2011-03-28 20:37:30 	407 		160 	0 	
2011-03-28 20:39:13 	308 		395 	0 	
2011-03-28 20:49:18 	403 		645 	0 	
2011-03-28 20:52:26 	211 		345 	0 	
2011-03-28 20:52:53 	421 		210 	0 	
2011-03-28 21:14:00 	408 		695 	0 	
2011-03-28 21:22:06 	319 		395 	0 	
2011-03-28 21:23:11 	318 		645 	0 	
2011-03-28 21:28:03 	211 		135 	0 	
2011-03-28 21:32:04 	306 		395 	0 	
2011-03-28 21:33:25 	304 		695 	0 	
2011-03-28 21:39:25 	215 		645 	0 	
2011-03-28 21:42:55 	311 		595 	0 	
2011-03-28 21:51:12 	404 		695 	0 	
2011-03-28 21:53:32 	401 		395 	0 	
2011-03-28 21:54:51 	321 		695 	0 	
2011-03-28 21:56:23 	306 		225 	0 	
2011-03-28 21:58:27 	315 		695 	0 	
2011-03-28 21:59:07 	213 		345 	0 	
2011-03-28 22:00:59 	219 		695 	0 	
2011-03-28 22:04:27 	220 		695 	0 	
2011-03-28 22:05:15 	415 		50 	0 	
2011-03-28 22:18:23 	301 		395 	0 	
2011-03-28 22:19:03 	209 		275 	0 	
2011-03-28 22:20:21 	307 		695 	0 	
2011-03-28 22:25:49 	221 		395 	0 	
2011-03-28 22:28:57 	421 		695 	0 	
2011-03-28 22:34:30 	409 		395 	0 	
2011-03-28 22:38:35 	314 		345 	0 	
2011-03-28 22:38:51 	314 		40 	0 	
2011-03-28 22:41:17 	420 		345 	0 	
2011-03-28 22:50:12 	407 		695 	0 	
2011-03-28 23:05:24 	203 		345 	0 	
2011-03-28 23:08:07 	209 		85 	0 	
2011-03-28 23:23:03 	303 		585 	0 	
2011-03-28 23:29:29 	316 		645 	0 	
2011-03-28 23:32:09 	303 		105 	0 	
2011-03-28 23:46:18 	204 		585 	0 	
 			Total:		43144 	0		

=== RECHIT LIST ===




V1