MSHOGUN 1: SHIFT END REPORT
Monday December 19, 2011 12:01:32 AM

SALES TRANSACTION
Room Sales Order			50730
FnB Sales Order			3811
Beer Sales Order			315
Misc Sales Order			55
Room Sales Adjustment			0
GROSS SALES			54911

DISCOUNT
Room				0
FnB				0
Misc				0

DEPOSIT				41415
REFUND				

TOTAL ACCOUNTABILITY			96326

CASH DECLARATION			1111
CARD				0
FUNDS SAFEKEEP			70000
TOTAL CASH DECLARED			71111

TOTAL CASH ON SYSTEM			2080
OVER/SHORTAGES 			-969

ROOM	 # OF CHECK-OUT	AMT
Value 		20	6700
Regular 		36	15840
Classique 		66	28190
Premium 		0	0
Regent 		0	0
Queen 		0	0
Gemini 		0	0
Family 		0	0
Executive Suite 	0	0
Mega Suite 	0	0

DISCOUNT 
Value 			  
Regular 		  
Classique 		  
Premium 		  
Regent 			  
Queen 		  
Gemini 		  
Family 		  
Executive Suite 	  
Mega Suite 		  


=== RESERVATIONS ===

Deposits:


Claimed:



SECURITY DEPOSITS

Deposits:
Claimed:


=== SALES BREAKDOWN ===

Transaction Date	Room No.	Cash	Card

2011-12-18 16:06:55 	203 		345 	0 	
2011-12-18 16:13:51 	310 		275 	0 	
2011-12-18 16:14:03 	315 		395 	0 	
2011-12-18 16:14:18 	323 		275 	0 	
2011-12-18 16:15:50 	424 		575 	0 	
2011-12-18 16:28:22 	218 		395 	0 	
2011-12-18 16:28:37 	209 		275 	0 	
2011-12-18 16:28:56 	413 		395 	0 	
2011-12-18 16:29:15 	404 		395 	0 	
2011-12-18 16:36:01 	311 		275 	0 	
2011-12-18 16:36:32 	417 		15 	0 	
2011-12-18 16:38:17 	306 		395 	0 	
2011-12-18 16:42:55 	214 		275 	0 	
2011-12-18 16:43:38 	303 		345 	0 	
2011-12-18 16:49:57 	401 		395 	0 	
2011-12-18 16:52:23 	415 		316 	0 	
2011-12-18 16:54:06 	313 		675 	0 	
2011-12-18 16:59:15 	324 		275 	0 	
2011-12-18 17:01:35 	211 		585 	0 	
2011-12-18 17:04:12 	316 		345 	0 	
2011-12-18 17:04:45 	218 		205 	0 	
2011-12-18 17:05:33 	205 		395 	0 	
2011-12-18 17:05:55 	318 		345 	0 	
2011-12-18 17:07:35 	319 		395 	0 	
2011-12-18 17:09:15 	405 		275 	0 	
2011-12-18 17:11:31 	311 		100 	0 	
2011-12-18 17:11:35 	311 		165 	0 	
2011-12-18 17:16:04 	305 		275 	0 	
2011-12-18 17:18:37 	302 		395 	0 	
2011-12-18 17:24:27 	215 		345 	0 	
2011-12-18 17:29:39 	313 		30 	0 	
2011-12-18 17:29:43 	313 		318 	0 	
2011-12-18 17:35:29 	412 		140 	0 	
2011-12-18 17:42:16 	208 		275 	0 	
2011-12-18 17:42:30 	322 		395 	0 	
2011-12-18 17:49:27 	304 		395 	0 	
2011-12-18 17:51:28 	309 		395 	0 	
2011-12-18 17:56:07 	219 		395 	0 	
2011-12-18 18:01:59 	402 		395 	0 	
2011-12-18 18:09:47 	218 		695 	0 	
2011-12-18 18:09:55 	220 		395 	0 	
2011-12-18 18:12:27 	419 		695 	0 	
2011-12-18 18:17:17 	412 		395 	0 	
2011-12-18 18:17:28 	307 		395 	0 	
2011-12-18 18:27:42 	213 		645 	0 	
2011-12-18 18:27:52 	416 		645 	0 	
2011-12-18 18:29:27 	216 		595 	0 	
2011-12-18 18:32:58 	312 		395 	0 	
2011-12-18 18:38:40 	408 		675 	0 	
2011-12-18 18:38:48 	221 		395 	0 	
2011-12-18 18:44:30 	321 		695 	0 	
2011-12-18 18:45:51 	301 		395 	0 	
2011-12-18 18:46:04 	418 		645 	0 	
2011-12-18 18:46:14 	217 		275 	0 	
2011-12-18 18:48:41 	409 		140 	0 	
2011-12-18 18:50:12 	424 		135 	0 	
2011-12-18 18:51:00 	423 		595 	0 	
2011-12-18 18:51:08 	404 		395 	0 	
2011-12-18 18:51:23 	421 		695 	0 	
2011-12-18 18:53:25 	320 		300 	0 	
2011-12-18 18:58:06 	320 		645 	0 	
2011-12-18 19:10:51 	315 		205 	0 	
2011-12-18 19:12:26 	315 		695 	0 	
2011-12-18 19:16:17 	417 		695 	0 	
2011-12-18 19:21:00 	317 		695 	0 	
2011-12-18 19:23:03 	212 		275 	0 	
2011-12-18 19:23:19 	304 		695 	0 	
2011-12-18 19:25:11 	309 		695 	0 	
2011-12-18 19:26:39 	420 		645 	0 	
2011-12-18 19:27:52 	203 		345 	0 	
2011-12-18 19:35:08 	422 		140 	0 	
2011-12-18 19:36:45 	206 		345 	0 	
2011-12-18 19:37:35 	202 		345 	0 	
2011-12-18 19:38:06 	402 		695 	0 	
2011-12-18 19:38:19 	205 		345 	0 	
2011-12-18 19:38:29 	210 		345 	0 	
2011-12-18 19:40:11 	405 		595 	0 	
2011-12-18 19:40:28 	308 		695 	0 	
2011-12-18 19:40:42 	314 		645 	0 	
2011-12-18 19:40:58 	318 		345 	0 	
2011-12-18 19:41:08 	414 		345 	0 	
2011-12-18 19:41:52 	403 		345 	0 	
2011-12-18 19:44:53 	406 		395 	0 	
2011-12-18 19:46:42 	324 		165 	0 	
2011-12-18 19:50:00 	411 		595 	0 	
2011-12-18 19:50:40 	306 		395 	0 	
2011-12-18 19:51:06 	409 		395 	0 	
2011-12-18 19:56:37 	221 		50 	0 	
2011-12-18 20:00:48 	213 		135 	0 	
2011-12-18 20:01:08 	321 		195 	0 	
2011-12-18 20:02:30 	410 		595 	0 	
2011-12-18 20:02:46 	323 		595 	0 	
2011-12-18 20:03:09 	415 		695 	0 	
2011-12-18 20:06:39 	413 		695 	0 	
2011-12-18 20:06:57 	422 		695 	0 	
2011-12-18 20:10:05 	214 		595 	0 	
2011-12-18 20:10:19 	319 		395 	0 	
2011-12-18 20:11:55 	403 		115 	0 	
2011-12-18 20:12:17 	302 		695 	0 	
2011-12-18 20:12:49 	316 		645 	0 	
2011-12-18 20:13:34 	311 		275 	0 	
2011-12-18 20:16:34 	303 		345 	0 	
2011-12-18 20:16:44 	207 		345 	0 	
2011-12-18 20:17:29 	305 		10 	0 	
2011-12-18 20:18:57 	324 		595 	0 	
2011-12-18 20:19:15 	407 		695 	0 	
2011-12-18 20:24:34 	401 		140 	0 	
2011-12-18 20:26:59 	413 		120 	0 	
2011-12-18 20:27:54 	301 		395 	0 	
2011-12-18 20:28:03 	208 		275 	0 	
2011-12-18 20:31:53 	209 		275 	0 	
2011-12-18 20:33:00 	221 		395 	0 	
2011-12-18 20:34:12 	310 		595 	0 	
2011-12-18 20:35:14 	401 		395 	0 	
2011-12-18 20:35:27 	219 		695 	0 	
2011-12-18 20:47:48 	322 		395 	0 	
2011-12-18 20:50:11 	324 		50 	0 	
2011-12-18 20:51:02 	423 		210 	0 	
2011-12-18 20:54:25 	215 		645 	0 	
2011-12-18 20:54:41 	312 		395 	0 	
2011-12-18 21:04:13 	409 		395 	0 	
2011-12-18 21:04:24 	204 		345 	0 	
2011-12-18 21:04:37 	220 		395 	0 	
2011-12-18 21:04:53 	217 		595 	0 	
2011-12-18 21:05:19 	219 		465 	0 	
2011-12-18 21:06:51 	307 		395 	0 	
2011-12-18 21:08:10 	404 		695 	0 	
2011-12-18 21:13:57 	319 		395 	0 	
2011-12-18 21:22:42 	219 		30 	0 	
2011-12-18 21:31:45 	412 		515 	0 	
2011-12-18 21:43:00 	209 		275 	0 	
2011-12-18 21:44:49 	205 		465 	0 	
2011-12-18 21:48:55 	313 		695 	0 	
2011-12-18 21:52:19 	403 		645 	0 	
2011-12-18 21:54:19 	216 		25 	0 	
2011-12-18 21:56:37 	206 		645 	0 	
2011-12-18 22:02:49 	203 		645 	0 	
2011-12-18 22:03:28 	412 		695 	0 	
2011-12-18 22:08:10 	221 		135 	0 	
2011-12-18 22:11:46 	403 		50 	0 	
2011-12-18 22:18:49 	303 		645 	0 	
2011-12-18 22:21:13 	314 		90 	0 	
2011-12-18 22:24:52 	207 		585 	0 	
2011-12-18 22:25:05 	221 		695 	0 	
2011-12-18 22:25:18 	301 		395 	0 	
2011-12-18 22:30:52 	316 		110 	0 	
2011-12-18 22:39:05 	318 		645 	0 	
2011-12-18 22:40:08 	211 		645 	0 	
2011-12-18 22:45:08 	412 		190 	0 	
2011-12-18 22:45:47 	306 		695 	0 	
2011-12-18 22:46:01 	406 		695 	0 	
2011-12-18 22:47:56 	414 		645 	0 	
2011-12-18 22:50:07 	312 		316 	0 	
2011-12-18 22:54:28 	401 		395 	0 	
2011-12-18 22:56:11 	305 		595 	0 	
2011-12-18 22:56:41 	312 		50 	0 	
2011-12-18 22:59:55 	202 		645 	0 	
2011-12-18 23:17:21 	210 		345 	0 	
2011-12-18 23:17:37 	409 		395 	0 	
2011-12-18 23:18:58 	402 		55 	0 	
2011-12-18 23:28:58 	424 		595 	0 	
2011-12-18 23:29:10 	311 		275 	0 	
2011-12-18 23:29:36 	208 		275 	0 	
2011-12-18 23:29:47 	212 		275 	0 	
2011-12-18 23:39:10 	408 		695 	0 	
2011-12-18 23:42:50 	419 		695 	0 	
2011-12-18 23:43:03 	319 		695 	0 	
2011-12-18 23:43:18 	322 		395 	0 	
2011-12-18 23:51:25 	301 		395 	0 	
2011-12-18 23:55:58 	204 		645 	0 	
2011-12-18 23:57:12 	307 		695 	0 	
 			Total:		72080 	0		

=== RECHIT LIST ===




V1