MSHOGUN 1: SHIFT END REPORT
Sunday June 19, 2011 12:00:06 AM

SALES TRANSACTION
Room Sales Order			38585
FnB Sales Order			2345
Beer Sales Order			135
Misc Sales Order			70
Room Sales Adjustment			0
GROSS SALES			41135

DISCOUNT
Room				0
FnB				0
Misc				0

DEPOSIT				40215
REFUND				

TOTAL ACCOUNTABILITY			81350

CASH DECLARATION			5942
CARD				0
FUNDS SAFEKEEP			60000
TOTAL CASH DECLARED			65942

TOTAL CASH ON SYSTEM			5942
OVER/SHORTAGES 			0

ROOM	 # OF CHECK-OUT	AMT
Value 		17	4675
Regular 		32	12480
Classique 		50	21430
Premium 		0	0
Regent 		0	0
Queen 		0	0
Gemini 		0	0
Family 		0	0
Executive Suite 	0	0
Mega Suite 	0	0

DISCOUNT 
Value 			  
Regular 		  
Classique 		  
Premium 		  
Regent 			  
Queen 		  
Gemini 		  
Family 		  
Executive Suite 	  
Mega Suite 		  


=== RESERVATIONS ===

Deposits:


Claimed:



SECURITY DEPOSITS

Deposits:
Claimed:


=== SALES BREAKDOWN ===

Transaction Date	Room No.	Cash	Card

2011-06-18 16:12:57 	321 		395 	0 	
2011-06-18 16:14:07 	408 		395 	0 	
2011-06-18 16:19:19 	407 		395 	0 	
2011-06-18 16:22:47 	201 		345 	0 	
2011-06-18 16:22:57 	206 		345 	0 	
2011-06-18 16:29:54 	409 		316 	0 	
2011-06-18 16:31:58 	208 		275 	0 	
2011-06-18 16:32:25 	406 		815 	0 	
2011-06-18 16:34:10 	209 		275 	0 	
2011-06-18 16:35:14 	213 		345 	0 	
2011-06-18 16:43:14 	310 		275 	0 	
2011-06-18 16:46:36 	302 		395 	0 	
2011-06-18 16:53:09 	316 		345 	0 	
2011-06-18 16:58:21 	309 		395 	0 	
2011-06-18 17:00:32 	401 		395 	0 	
2011-06-18 17:04:07 	311 		275 	0 	
2011-06-18 17:04:14 	422 		395 	0 	
2011-06-18 17:05:43 	218 		395 	0 	
2011-06-18 17:08:11 	410 		275 	0 	
2011-06-18 17:12:00 	219 		395 	0 	
2011-06-18 17:14:00 	304 		395 	0 	
2011-06-18 17:16:16 	301 		395 	0 	
2011-06-18 17:19:22 	307 		65 	0 	
2011-06-18 17:19:58 	211 		30 	0 	
2011-06-18 17:20:11 	307 		380 	0 	
2011-06-18 17:29:19 	405 		275 	0 	
2011-06-18 17:30:16 	312 		395 	0 	
2011-06-18 17:32:06 	315 		395 	0 	
2011-06-18 17:36:37 	207 		345 	0 	
2011-06-18 17:41:23 	204 		345 	0 	
2011-06-18 17:41:55 	317 		395 	0 	
2011-06-18 17:49:11 	203 		345 	0 	
2011-06-18 17:51:47 	422 		10 	0 	
2011-06-18 17:52:02 	207 		25 	0 	
2011-06-18 17:52:35 	221 		395 	0 	
2011-06-18 17:56:32 	217 		275 	0 	
2011-06-18 18:00:44 	306 		535 	0 	
2011-06-18 18:03:28 	402 		395 	0 	
2011-06-18 18:07:48 	221 		135 	0 	
2011-06-18 18:08:19 	404 		675 	0 	
2011-06-18 18:14:34 	215 		345 	0 	
2011-06-18 18:14:53 	419 		395 	0 	
2011-06-18 18:22:47 	415 		695 	0 	
2011-06-18 18:22:56 	417 		395 	0 	
2011-06-18 18:23:08 	314 		345 	0 	
2011-06-18 18:23:18 	320 		345 	0 	
2011-06-18 18:25:23 	403 		345 	0 	
2011-06-18 18:26:02 	206 		130 	0 	
2011-06-18 18:26:40 	220 		395 	0 	
2011-06-18 18:33:14 	205 		345 	0 	
2011-06-18 18:33:21 	201 		345 	0 	
2011-06-18 18:34:32 	403 		30 	0 	
2011-06-18 18:34:52 	420 		645 	0 	
2011-06-18 18:35:06 	414 		345 	0 	
2011-06-18 18:38:03 	209 		275 	0 	
2011-06-18 18:38:57 	214 		275 	0 	
2011-06-18 18:41:25 	216 		275 	0 	
2011-06-18 18:44:49 	212 		275 	0 	
2011-06-18 18:50:45 	412 		395 	0 	
2011-06-18 18:52:49 	309 		240 	0 	
2011-06-18 18:54:48 	305 		275 	0 	
2011-06-18 18:55:59 	308 		395 	0 	
2011-06-18 18:56:39 	321 		210 	0 	
2011-06-18 18:57:38 	324 		275 	0 	
2011-06-18 18:57:55 	424 		595 	0 	
2011-06-18 19:03:05 	423 		595 	0 	
2011-06-18 19:04:04 	323 		275 	0 	
2011-06-18 19:06:18 	307 		395 	0 	
2011-06-18 19:25:22 	310 		260 	0 	
2011-06-18 19:38:27 	420 		180 	0 	
2011-06-18 19:47:30 	309 		316 	0 	
2011-06-18 19:49:49 	316 		645 	0 	
2011-06-18 19:51:09 	322 		695 	0 	
2011-06-18 19:53:15 	312 		395 	0 	
2011-06-18 19:59:21 	302 		695 	0 	
2011-06-18 20:00:37 	304 		695 	0 	
2011-06-18 20:13:14 	307 		695 	0 	
2011-06-18 20:13:36 	301 		395 	0 	
2011-06-18 20:14:16 	305 		595 	0 	
2011-06-18 20:15:54 	321 		140 	0 	
2011-06-18 20:16:54 	308 		695 	0 	
2011-06-18 20:18:22 	303 		645 	0 	
2011-06-18 20:23:23 	405 		595 	0 	
2011-06-18 20:24:53 	310 		275 	0 	
2011-06-18 20:29:20 	315 		695 	0 	
2011-06-18 20:31:26 	204 		825 	0 	
2011-06-18 20:37:25 	401 		395 	0 	
2011-06-18 20:38:56 	409 		395 	0 	
2011-06-18 20:40:33 	408 		695 	0 	
2011-06-18 20:45:29 	219 		695 	0 	
2011-06-18 20:45:38 	421 		695 	0 	
2011-06-18 20:50:43 	320 		645 	0 	
2011-06-18 20:55:27 	422 		695 	0 	
2011-06-18 20:59:15 	412 		815 	0 	
2011-06-18 21:03:27 	218 		695 	0 	
2011-06-18 21:05:06 	220 		695 	0 	
2011-06-18 21:08:27 	207 		345 	0 	
2011-06-18 21:10:17 	215 		345 	0 	
2011-06-18 21:13:01 	313 		395 	0 	
2011-06-18 21:14:30 	407 		695 	0 	
2011-06-18 21:18:03 	221 		695 	0 	
2011-06-18 21:18:59 	220 		50 	0 	
2011-06-18 21:20:08 	303 		50 	0 	
2011-06-18 21:20:28 	420 		120 	0 	
2011-06-18 21:21:12 	216 		595 	0 	
2011-06-18 21:21:28 	402 		695 	0 	
2011-06-18 21:23:46 	219 		80 	0 	
2011-06-18 21:24:41 	319 		695 	0 	
2011-06-18 21:30:09 	318 		345 	0 	
2011-06-18 21:31:58 	403 		645 	0 	
2011-06-18 21:32:38 	416 		645 	0 	
2011-06-18 21:33:53 	413 		395 	0 	
2011-06-18 21:35:33 	418 		645 	0 	
2011-06-18 21:37:31 	309 		395 	0 	
2011-06-18 21:38:31 	417 		695 	0 	
2011-06-18 21:41:22 	321 		695 	0 	
2011-06-18 21:42:44 	419 		695 	0 	
2011-06-18 21:48:01 	213 		645 	0 	
2011-06-18 21:52:12 	210 		345 	0 	
2011-06-18 21:52:23 	414 		645 	0 	
2011-06-18 21:54:30 	211 		645 	0 	
2011-06-18 21:56:40 	212 		595 	0 	
2011-06-18 22:01:39 	206 		645 	0 	
2011-06-18 22:01:49 	205 		645 	0 	
2011-06-18 22:02:01 	314 		645 	0 	
2011-06-18 22:05:08 	418 		100 	0 	
2011-06-18 22:05:43 	306 		240 	0 	
2011-06-18 22:06:00 	323 		595 	0 	
2011-06-18 22:09:22 	324 		595 	0 	
2011-06-18 22:11:12 	203 		645 	0 	
2011-06-18 22:12:31 	406 		660 	0 	
2011-06-18 22:13:02 	201 		345 	0 	
2011-06-18 22:17:45 	413 		370 	0 	
2011-06-18 22:18:01 	217 		595 	0 	
2011-06-18 22:19:34 	411 		595 	0 	
2011-06-18 22:20:21 	410 		595 	0 	
2011-06-18 22:26:33 	310 		475 	0 	
2011-06-18 22:27:09 	208 		275 	0 	
2011-06-18 22:34:36 	406 		695 	0 	
2011-06-18 22:38:22 	209 		275 	0 	
2011-06-18 22:40:26 	211 		275 	0 	
2011-06-18 22:40:36 	411 		140 	0 	
2011-06-18 22:44:38 	317 		695 	0 	
2011-06-18 22:47:51 	409 		395 	0 	
2011-06-18 22:55:17 	214 		595 	0 	
2011-06-18 23:06:42 	312 		0 	695 	
2011-06-18 23:21:50 	301 		0 	395 	
2011-06-18 23:22:14 	208 		275 	0 	
2011-06-18 23:29:12 	312 		275 	0 	
2011-06-18 23:29:39 	307 		160 	0 	
2011-06-18 23:30:48 	404 		395 	0 	
2011-06-18 23:36:27 	401 		675 	0 	
2011-06-18 23:38:25 	212 		235 	0 	
2011-06-18 23:48:34 	313 		695 	0 	
 			Total:		65942 	1090		

=== RECHIT LIST ===




V1