MSHOGUN 1: SHIFT END REPORT
Wednesday August 11, 2010 8:00:11 AM

SALES TRANSACTION
Room Sales Order			21010
FnB Sales Order			380
Beer Sales Order			350
Misc Sales Order			125
Room Sales Adjustment			0
GROSS SALES			21865

DISCOUNT
Room				0
FnB				0
Misc				0

DEPOSIT				9665
REFUND				

TOTAL ACCOUNTABILITY			31530

CASH DECLARATION			5910
CARD				0
FUNDS SAFEKEEP			10000
TOTAL CASH DECLARED			15910

TOTAL CASH ON SYSTEM			5910
OVER/SHORTAGES 			0

ROOM	 # OF CHECK-OUT	AMT
Value 		6	2590
Regular 		6	3330
Classique 		19	9265
Premium 		1	750
Regent 		4	3375
Queen 		0	0
Gemini 		0	0
Family 		2	1700
Executive Suite 	0	0
Mega Suite 	0	0

DISCOUNT 
Value 			  
Regular 		  
Classique 		  
Premium 		  
Regent 			  
Queen 		  
Gemini 		  
Family 		  
Executive Suite 	  
Mega Suite 		  


=== RESERVATIONS ===

Deposits:


Claimed:



SECURITY DEPOSITS

Deposits:
Claimed:


=== SALES BREAKDOWN ===

Transaction Date	Room No.	Cash	Card

2010-08-11 00:16:41 	502 		265 	0 	
2010-08-11 00:33:39 	314 		345 	0 	
2010-08-11 00:39:40 	403 		645 	0 	
2010-08-11 00:53:39 	302 		395 	0 	
2010-08-11 01:05:44 	311 		275 	0 	
2010-08-11 01:07:01 	303 		585 	0 	
2010-08-11 01:13:42 	516 		800 	0 	
2010-08-11 01:20:24 	324 		275 	0 	
2010-08-11 01:24:07 	608 		850 	0 	
2010-08-11 01:43:55 	417 		280 	0 	
2010-08-11 02:04:25 	307 		395 	0 	
2010-08-11 02:15:51 	601 		250 	0 	
2010-08-11 02:36:46 	405 		275 	0 	
2010-08-11 02:36:53 	601 		40 	0 	
2010-08-11 02:39:57 	322 		395 	0 	
2010-08-11 02:40:12 	301 		395 	0 	
2010-08-11 03:06:04 	420 		345 	0 	
2010-08-11 03:08:54 	319 		395 	0 	
2010-08-11 03:34:12 	411 		275 	0 	
2010-08-11 03:57:58 	309 		395 	0 	
2010-08-11 04:00:19 	301 		50 	0 	
2010-08-11 04:06:25 	610 		650 	0 	
2010-08-11 04:18:42 	313 		50 	0 	
2010-08-11 04:34:12 	310 		300 	0 	
2010-08-11 04:38:23 	612 		2550 	0 	
2010-08-11 04:41:01 	615 		850 	0 	
2010-08-11 04:42:02 	304 		535 	0 	
2010-08-11 04:59:11 	321 		395 	0 	
2010-08-11 05:21:33 	615 		250 	0 	
2010-08-11 05:48:40 	523 		450 	0 	
2010-08-11 05:52:03 	312 		395 	0 	
2010-08-11 06:20:58 	215 		345 	0 	
2010-08-11 06:35:23 	508 		45 	0 	
2010-08-11 06:58:10 	320 		25 	0 	
2010-08-11 07:04:13 	616 		850 	0 	
2010-08-11 07:09:40 	510 		175 	0 	
2010-08-11 07:22:25 	303 		120 	0 	
 			Total:		15910 	0		

=== RECHIT LIST ===




V1