MSHOGUN 1: SHIFT END REPORT
Tuesday September 20, 2011 3:58:30 PM

SALES TRANSACTION
Room Sales Order			26800
FnB Sales Order			1545
Beer Sales Order			305
Misc Sales Order			160
Room Sales Adjustment			0
GROSS SALES			28810

DISCOUNT
Room				0
FnB				0
Misc				0

DEPOSIT				10080
REFUND				

TOTAL ACCOUNTABILITY			38890

CASH DECLARATION			6004
CARD				0
FUNDS SAFEKEEP			20000
TOTAL CASH DECLARED			26004

TOTAL CASH ON SYSTEM			6004
OVER/SHORTAGES 			0

ROOM	 # OF CHECK-OUT	AMT
Value 		5	1795
Regular 		19	10455
Classique 		30	14550
Premium 		0	0
Regent 		0	0
Queen 		0	0
Gemini 		0	0
Family 		0	0
Executive Suite 	0	0
Mega Suite 	0	0

DISCOUNT 
Value 			  
Regular 		  
Classique 		  
Premium 		  
Regent 			  
Queen 		  
Gemini 		  
Family 		  
Executive Suite 	  
Mega Suite 		  


=== RESERVATIONS ===

Deposits:


Claimed:



SECURITY DEPOSITS

Deposits:
Claimed:


=== SALES BREAKDOWN ===

Transaction Date	Room No.	Cash	Card

2011-09-20 08:05:20 	318 		405 	0 	
2011-09-20 08:07:55 	309 		105 	0 	
2011-09-20 08:09:57 	406 		395 	0 	
2011-09-20 08:31:21 	218 		50 	0 	
2011-09-20 09:21:09 	404 		395 	0 	
2011-09-20 09:23:07 	408 		395 	0 	
2011-09-20 09:34:22 	205 		345 	0 	
2011-09-20 09:41:54 	303 		120 	0 	
2011-09-20 09:53:08 	322 		395 	0 	
2011-09-20 10:10:48 	206 		945 	0 	
2011-09-20 10:27:15 	412 		316 	0 	
2011-09-20 10:33:57 	208 		375 	0 	
2011-09-20 10:35:28 	203 		465 	0 	
2011-09-20 10:42:56 	413 		395 	0 	
2011-09-20 10:50:27 	310 		275 	0 	
2011-09-20 10:55:30 	218 		395 	0 	
2011-09-20 11:12:05 	203 		40 	0 	
2011-09-20 11:12:19 	421 		395 	0 	
2011-09-20 11:13:45 	419 		316 	0 	
2011-09-20 11:23:05 	203 		60 	0 	
2011-09-20 11:30:57 	212 		275 	0 	
2011-09-20 11:39:16 	317 		395 	0 	
2011-09-20 11:41:55 	415 		395 	0 	
2011-09-20 11:44:16 	417 		675 	0 	
2011-09-20 11:48:55 	420 		345 	0 	
2011-09-20 11:55:06 	316 		345 	0 	
2011-09-20 12:19:29 	402 		395 	0 	
2011-09-20 12:23:19 	308 		395 	0 	
2011-09-20 12:25:50 	407 		316 	0 	
2011-09-20 12:27:36 	406 		395 	0 	
2011-09-20 12:28:53 	418 		705 	0 	
2011-09-20 12:34:18 	407 		25 	0 	
2011-09-20 12:37:41 	308 		30 	0 	
2011-09-20 12:37:57 	318 		345 	0 	
2011-09-20 12:50:18 	319 		395 	0 	
2011-09-20 12:57:08 	414 		155 	0 	
2011-09-20 13:01:48 	204 		360 	0 	
2011-09-20 13:02:41 	219 		395 	0 	
2011-09-20 13:03:16 	311 		575 	0 	
2011-09-20 13:10:48 	321 		395 	0 	
2011-09-20 13:21:31 	410 		275 	0 	
2011-09-20 13:21:41 	205 		345 	0 	
2011-09-20 13:22:43 	411 		275 	0 	
2011-09-20 13:23:55 	408 		395 	0 	
2011-09-20 13:26:25 	220 		395 	0 	
2011-09-20 13:28:24 	210 		345 	0 	
2011-09-20 13:34:57 	316 		275 	0 	
2011-09-20 13:35:09 	419 		395 	0 	
2011-09-20 13:35:44 	421 		395 	0 	
2011-09-20 13:46:20 	405 		475 	0 	
2011-09-20 13:46:39 	403 		585 	0 	
2011-09-20 13:50:19 	205 		10 	0 	
2011-09-20 13:50:29 	219 		210 	0 	
2011-09-20 13:50:51 	320 		345 	0 	
2011-09-20 13:50:58 	213 		345 	0 	
2011-09-20 13:51:06 	415 		395 	0 	
2011-09-20 13:54:16 	403 		20 	0 	
2011-09-20 14:29:12 	324 		275 	0 	
2011-09-20 14:29:23 	215 		345 	0 	
2011-09-20 14:29:36 	414 		825 	0 	
2011-09-20 14:30:46 	401 		395 	0 	
2011-09-20 14:38:59 	311 		435 	0 	
2011-09-20 14:51:30 	314 		276 	0 	
2011-09-20 14:53:27 	406 		395 	0 	
2011-09-20 15:03:48 	323 		575 	0 	
2011-09-20 15:08:32 	209 		275 	0 	
2011-09-20 15:13:25 	302 		395 	0 	
2011-09-20 15:16:02 	401 		170 	0 	
2011-09-20 15:21:06 	404 		395 	0 	
2011-09-20 15:23:56 	407 		395 	0 	
2011-09-20 15:30:45 	204 		345 	0 	
2011-09-20 15:36:31 	317 		395 	0 	
2011-09-20 15:42:28 	207 		345 	0 	
2011-09-20 15:54:44 	319 		395 	0 	
 			Total:		26004 	0		

=== RECHIT LIST ===




V1