MSHOGUN 1: SHIFT END REPORT
Wednesday August 04, 2010 12:00:45 AM

SALES TRANSACTION
Room Sales Order			33305
FnB Sales Order			2279
Beer Sales Order			260
Misc Sales Order			0
Room Sales Adjustment			0
GROSS SALES			35844

DISCOUNT
Room				0
FnB				0
Misc				0

DEPOSIT				25985
REFUND				

TOTAL ACCOUNTABILITY			61829

CASH DECLARATION			1745
CARD				0
FUNDS SAFEKEEP			50000
TOTAL CASH DECLARED			51745

TOTAL CASH ON SYSTEM			1540
OVER/SHORTAGES 			205

ROOM	 # OF CHECK-OUT	AMT
Value 		4	1100
Regular 		10	4890
Classique 		49	20615
Premium 		9	4050
Regent 		3	1800
Queen 		1	850
Gemini 		0	0
Family 		0	0
Executive Suite 	0	0
Mega Suite 	0	0

DISCOUNT 
Value 			  
Regular 		  
Classique 		  
Premium 		  
Regent 			  
Queen 		  
Gemini 		  
Family 		  
Executive Suite 	  
Mega Suite 		  


=== RESERVATIONS ===

Deposits:


Claimed:



SECURITY DEPOSITS

Deposits:
Claimed:


=== SALES BREAKDOWN ===

Transaction Date	Room No.	Cash	Card

2010-08-03 16:05:22 	509 		190 	0 	
2010-08-03 16:09:55 	319 		675 	0 	
2010-08-03 16:10:01 	317 		395 	0 	
2010-08-03 16:13:20 	409 		140 	0 	
2010-08-03 16:29:48 	315 		395 	0 	
2010-08-03 16:36:29 	302 		395 	0 	
2010-08-03 16:39:56 	301 		395 	0 	
2010-08-03 16:42:23 	321 		395 	0 	
2010-08-03 16:56:30 	506 		1600 	0 	
2010-08-03 16:56:42 	320 		705 	0 	
2010-08-03 17:03:58 	409 		395 	0 	
2010-08-03 17:05:00 	409 		25 	0 	
2010-08-03 17:09:29 	321 		357 	0 	
2010-08-03 17:15:38 	322 		395 	0 	
2010-08-03 17:18:03 	419 		395 	0 	
2010-08-03 17:20:02 	308 		395 	0 	
2010-08-03 17:26:19 	402 		395 	0 	
2010-08-03 17:26:56 	406 		395 	0 	
2010-08-03 17:28:34 	404 		675 	0 	
2010-08-03 17:29:21 	316 		705 	0 	
2010-08-03 17:33:19 	422 		535 	0 	
2010-08-03 17:34:05 	421 		316 	0 	
2010-08-03 17:35:51 	302 		470 	0 	
2010-08-03 17:35:51 	302 		135 	0 	
2010-08-03 17:36:10 	302 		-470 	0 	
2010-08-03 17:37:06 	304 		395 	0 	
2010-08-03 17:40:41 	505 		365 	0 	
2010-08-03 17:50:36 	522 		450 	0 	
2010-08-03 17:50:44 	510 		500 	0 	
2010-08-03 17:50:53 	514 		800 	0 	
2010-08-03 17:52:36 	523 		450 	0 	
2010-08-03 17:55:03 	406 		290 	0 	
2010-08-03 17:56:28 	409 		395 	0 	
2010-08-03 17:57:59 	303 		345 	0 	
2010-08-03 17:58:22 	309 		316 	0 	
2010-08-03 17:58:50 	305 		275 	0 	
2010-08-03 18:01:00 	521 		450 	0 	
2010-08-03 18:01:45 	401 		395 	0 	
2010-08-03 18:03:17 	302 		395 	0 	
2010-08-03 18:03:49 	313 		395 	0 	
2010-08-03 18:06:52 	415 		395 	0 	
2010-08-03 18:16:03 	510 		190 	0 	
2010-08-03 18:19:13 	420 		25 	0 	
2010-08-03 18:23:16 	220 		395 	0 	
2010-08-03 18:25:30 	312 		395 	0 	
2010-08-03 18:34:15 	514 		150 	0 	
2010-08-03 18:34:26 	601 		240 	0 	
2010-08-03 18:38:25 	219 		395 	0 	
2010-08-03 18:39:51 	508 		450 	0 	
2010-08-03 18:41:05 	218 		316 	0 	
2010-08-03 18:42:09 	221 		395 	0 	
2010-08-03 18:46:07 	307 		395 	0 	
2010-08-03 18:47:16 	312 		67 	0 	
2010-08-03 18:49:30 	520 		800 	0 	
2010-08-03 18:52:15 	504 		500 	0 	
2010-08-03 18:56:54 	314 		345 	0 	
2010-08-03 18:58:44 	306 		395 	0 	
2010-08-03 19:00:35 	411 		595 	0 	
2010-08-03 19:00:40 	405 		595 	0 	
2010-08-03 19:05:32 	417 		695 	0 	
2010-08-03 19:05:57 	518 		360 	0 	
2010-08-03 19:06:27 	518 		40 	0 	
2010-08-03 19:09:06 	324 		595 	0 	
2010-08-03 19:11:29 	611 		250 	0 	
2010-08-03 19:14:25 	508 		450 	0 	
2010-08-03 19:16:02 	410 		595 	0 	
2010-08-03 19:17:42 	324 		50 	0 	
2010-08-03 19:21:44 	321 		695 	0 	
2010-08-03 19:25:06 	310 		275 	0 	
2010-08-03 19:29:54 	324 		130 	0 	
2010-08-03 19:31:14 	301 		395 	0 	
2010-08-03 19:32:51 	308 		395 	0 	
2010-08-03 19:34:28 	516 		800 	0 	
2010-08-03 19:34:36 	515 		800 	0 	
2010-08-03 19:34:47 	408 		395 	0 	
2010-08-03 19:40:52 	318 		465 	0 	
2010-08-03 19:43:53 	418 		276 	0 	
2010-08-03 19:45:47 	409 		395 	0 	
2010-08-03 19:49:55 	315 		395 	0 	
2010-08-03 19:50:57 	414 		276 	0 	
2010-08-03 19:59:17 	402 		695 	0 	
2010-08-03 20:06:47 	317 		316 	0 	
2010-08-03 20:09:04 	409 		140 	0 	
2010-08-03 20:18:50 	412 		395 	0 	
2010-08-03 20:25:13 	317 		50 	0 	
2010-08-03 20:29:18 	406 		695 	0 	
2010-08-03 20:51:37 	517 		595 	0 	
2010-08-03 20:54:03 	305 		275 	0 	
2010-08-03 20:54:10 	401 		395 	0 	
2010-08-03 20:56:58 	205 		645 	0 	
2010-08-03 20:57:33 	419 		695 	0 	
2010-08-03 20:59:09 	311 		275 	0 	
2010-08-03 20:59:55 	413 		395 	0 	
2010-08-03 21:09:45 	203 		345 	0 	
2010-08-03 21:15:26 	421 		140 	0 	
2010-08-03 21:16:59 	514 		190 	0 	
2010-08-03 21:17:09 	505 		260 	0 	
2010-08-03 21:17:17 	306 		50 	0 	
2010-08-03 21:17:47 	319 		395 	0 	
2010-08-03 21:24:02 	322 		140 	0 	
2010-08-03 21:24:21 	420 		645 	0 	
2010-08-03 21:25:27 	407 		695 	0 	
2010-08-03 21:30:49 	518 		45 	0 	
2010-08-03 21:32:19 	302 		395 	0 	
2010-08-03 21:38:04 	406 		160 	0 	
2010-08-03 21:38:15 	311 		50 	0 	
2010-08-03 21:38:23 	419 		240 	0 	
2010-08-03 21:38:30 	205 		10 	0 	
2010-08-03 21:44:27 	421 		695 	0 	
2010-08-03 21:51:21 	404 		695 	0 	
2010-08-03 21:55:24 	615 		1700 	0 	
2010-08-03 21:57:26 	415 		695 	0 	
2010-08-03 22:06:40 	308 		695 	0 	
2010-08-03 22:07:48 	418 		645 	0 	
2010-08-03 22:17:10 	206 		345 	0 	
2010-08-03 22:31:39 	503 		800 	0 	
2010-08-03 22:32:22 	317 		195 	0 	
2010-08-03 22:32:42 	305 		90 	0 	
2010-08-03 22:39:08 	419 		50 	0 	
2010-08-03 22:39:10 	419 		40 	0 	
2010-08-03 22:49:03 	507 		800 	0 	
2010-08-03 22:58:14 	320 		465 	0 	
2010-08-03 23:00:09 	205 		10 	0 	
2010-08-03 23:21:14 	209 		475 	0 	
2010-08-03 23:22:17 	307 		395 	0 	
2010-08-03 23:32:50 	204 		345 	0 	
2010-08-03 23:48:23 	315 		695 	0 	
 			Total:		51540 	0		

=== RECHIT LIST ===

Room No. 617 	 Rechit Date: 2010-08-03 19:08:24







V1