MSHOGUN 1: SHIFT END REPORT
Wednesday October 05, 2011 7:57:18 AM

SALES TRANSACTION
Room Sales Order			28460
FnB Sales Order			1040
Beer Sales Order			0
Misc Sales Order			10
Room Sales Adjustment			0
GROSS SALES			29510

DISCOUNT
Room				0
FnB				0
Misc				0

DEPOSIT				2415
REFUND				

TOTAL ACCOUNTABILITY			31925

CASH DECLARATION			7370
CARD				2491
FUNDS SAFEKEEP			0
TOTAL CASH DECLARED			9861

TOTAL CASH ON SYSTEM			7370
OVER/SHORTAGES 			0

ROOM	 # OF CHECK-OUT	AMT
Value 		9	4275
Regular 		15	8835
Classique 		26	15350
Premium 		0	0
Regent 		0	0
Queen 		0	0
Gemini 		0	0
Family 		0	0
Executive Suite 	0	0
Mega Suite 	0	0

DISCOUNT 
Value 			  
Regular 		  
Classique 		  
Premium 		  
Regent 			  
Queen 		  
Gemini 		  
Family 		  
Executive Suite 	  
Mega Suite 		  


=== RESERVATIONS ===

Deposits:


Claimed:



SECURITY DEPOSITS

Deposits:
Claimed:


=== SALES BREAKDOWN ===

Transaction Date	Room No.	Cash	Card

2011-10-05 00:45:14 	303 		345 	0 	
2011-10-05 00:45:26 	304 		395 	0 	
2011-10-05 00:51:21 	309 		395 	0 	
2011-10-05 00:59:23 	212 		475 	0 	
2011-10-05 01:07:17 	210 		345 	0 	
2011-10-05 01:21:16 	422 		395 	0 	
2011-10-05 01:32:52 	322 		395 	0 	
2011-10-05 01:45:09 	306 		695 	0 	
2011-10-05 02:11:28 	209 		275 	0 	
2011-10-05 03:07:09 	322 		395 	0 	
2011-10-05 03:41:57 	323 		275 	0 	
2011-10-05 04:21:35 	304 		395 	0 	
2011-10-05 05:19:06 	410 		50 	0 	
2011-10-05 05:20:43 	422 		140 	0 	
2011-10-05 05:59:32 	411 		275 	0 	
2011-10-05 06:27:39 	213 		50 	0 	
2011-10-05 06:29:09 	218 		320 	0 	
2011-10-05 06:52:26 	421 		250 	0 	
2011-10-05 06:55:18 	319 		395 	0 	
2011-10-05 07:10:19 	214 		275 	0 	
2011-10-05 07:46:38 	311 		110 	0 	
2011-10-05 07:48:29 	419 		140 	0 	
2011-10-05 07:50:37 	206 		585 	0 	
 			Total:		7370 	0		

=== RECHIT LIST ===




V1