MSHOGUN 1: SHIFT END REPORT
Saturday January 07, 2012 8:00:02 AM

SALES TRANSACTION
Room Sales Order			26935
FnB Sales Order			1120
Beer Sales Order			0
Misc Sales Order			40
Room Sales Adjustment			0
GROSS SALES			28095

DISCOUNT
Room				0
FnB				0
Misc				0

DEPOSIT				5905
REFUND				

TOTAL ACCOUNTABILITY			34000

CASH DECLARATION			2066
CARD				695
FUNDS SAFEKEEP			10000
TOTAL CASH DECLARED			12761

TOTAL CASH ON SYSTEM			2066
OVER/SHORTAGES 			0

ROOM	 # OF CHECK-OUT	AMT
Value 		12	5000
Regular 		16	8700
Classique 		21	13235
Premium 		0	0
Regent 		0	0
Queen 		0	0
Gemini 		0	0
Family 		0	0
Executive Suite 	0	0
Mega Suite 	0	0

DISCOUNT 
Value 			  
Regular 		  
Classique 		  
Premium 		  
Regent 			  
Queen 		  
Gemini 		  
Family 		  
Executive Suite 	  
Mega Suite 		  


=== RESERVATIONS ===

Deposits:


Claimed:



SECURITY DEPOSITS

Deposits:
Claimed:


=== SALES BREAKDOWN ===

Transaction Date	Room No.	Cash	Card

2012-01-07 00:08:05 	409 		140 	0 	
2012-01-07 00:35:46 	205 		645 	0 	
2012-01-07 00:51:32 	409 		695 	0 	
2012-01-07 01:23:53 	422 		400 	0 	
2012-01-07 01:37:58 	312 		395 	0 	
2012-01-07 01:52:33 	201 		345 	0 	
2012-01-07 01:57:34 	203 		345 	0 	
2012-01-07 01:59:22 	309 		395 	0 	
2012-01-07 02:06:37 	209 		275 	0 	
2012-01-07 02:16:24 	206 		705 	0 	
2012-01-07 02:19:11 	216 		275 	0 	
2012-01-07 02:27:25 	423 		775 	0 	
2012-01-07 02:38:02 	208 		375 	0 	
2012-01-07 02:56:16 	210 		345 	0 	
2012-01-07 03:26:10 	204 		705 	0 	
2012-01-07 03:26:21 	404 		395 	0 	
2012-01-07 03:27:42 	411 		575 	0 	
2012-01-07 04:06:05 	201 		276 	0 	
2012-01-07 04:22:25 	216 		275 	0 	
2012-01-07 04:58:52 	410 		50 	0 	
2012-01-07 04:59:00 	201 		25 	0 	
2012-01-07 05:28:55 	Lobby 		30 	0 	
2012-01-07 05:41:59 	416 		585 	0 	
2012-01-07 05:44:55 	309 		395 	0 	
2012-01-07 05:55:54 	209 		275 	0 	
2012-01-07 05:58:20 	203 		120 	0 	
2012-01-07 06:30:12 	413 		395 	0 	
2012-01-07 06:45:07 	218 		0 	395 	
2012-01-07 07:00:08 	210 		345 	0 	
2012-01-07 07:17:41 	323 		230 	0 	
2012-01-07 07:19:12 	422 		210 	0 	
2012-01-07 07:26:54 	321 		675 	0 	
2012-01-07 07:55:36 	306 		395 	0 	
 			Total:		12066 	395		

=== RECHIT LIST ===




V1