MSHOGUN 1: SHIFT END REPORT
Tuesday December 13, 2011 12:01:14 AM

SALES TRANSACTION
Room Sales Order			36445
FnB Sales Order			2930
Beer Sales Order			440
Misc Sales Order			30
Room Sales Adjustment			0
GROSS SALES			39845

DISCOUNT
Room				0
FnB				0
Misc				0

DEPOSIT				26800
REFUND				

TOTAL ACCOUNTABILITY			66645

CASH DECLARATION			3249
CARD				435
FUNDS SAFEKEEP			50000
TOTAL CASH DECLARED			53684

TOTAL CASH ON SYSTEM			3149
OVER/SHORTAGES 			100

ROOM	 # OF CHECK-OUT	AMT
Value 		10	2950
Regular 		26	10230
Classique 		55	23265
Premium 		0	0
Regent 		0	0
Queen 		0	0
Gemini 		0	0
Family 		0	0
Executive Suite 	0	0
Mega Suite 	0	0

DISCOUNT 
Value 			  
Regular 		  
Classique 		  
Premium 		  
Regent 			  
Queen 		  
Gemini 		  
Family 		  
Executive Suite 	  
Mega Suite 		  


=== RESERVATIONS ===

Deposits:


Claimed:



SECURITY DEPOSITS

Deposits:
Claimed:


=== SALES BREAKDOWN ===

Transaction Date	Room No.	Cash	Card

2011-12-12 16:08:11 	307 		395 	0 	
2011-12-12 16:14:12 	304 		395 	0 	
2011-12-12 16:25:05 	310 		75 	0 	
2011-12-12 16:25:08 	310 		75 	0 	
2011-12-12 16:25:17 	312 		25 	0 	
2011-12-12 16:26:35 	221 		395 	0 	
2011-12-12 16:27:26 	213 		110 	0 	
2011-12-12 16:40:41 	308 		395 	0 	
2011-12-12 16:45:26 	303 		345 	0 	
2011-12-12 16:59:39 	214 		275 	0 	
2011-12-12 17:09:08 	313 		395 	0 	
2011-12-12 17:09:34 	315 		395 	0 	
2011-12-12 17:09:57 	206 		585 	0 	
2011-12-12 17:10:06 	301 		316 	0 	
2011-12-12 17:12:40 	210 		345 	0 	
2011-12-12 17:13:21 	324 		90 	0 	
2011-12-12 17:13:42 	324 		95 	0 	
2011-12-12 17:20:22 	315 		90 	0 	
2011-12-12 17:25:46 	404 		395 	0 	
2011-12-12 17:30:58 	312 		140 	0 	
2011-12-12 17:41:48 	202 		345 	0 	
2011-12-12 17:42:02 	211 		465 	0 	
2011-12-12 17:42:30 	215 		345 	0 	
2011-12-12 17:43:01 	317 		316 	0 	
2011-12-12 17:45:18 	313 		80 	0 	
2011-12-12 17:49:26 	309 		316 	0 	
2011-12-12 17:58:13 	319 		395 	0 	
2011-12-12 17:59:50 	314 		345 	0 	
2011-12-12 18:02:17 	212 		275 	0 	
2011-12-12 18:10:39 	316 		345 	0 	
2011-12-12 18:12:06 	304 		395 	0 	
2011-12-12 18:19:43 	216 		275 	0 	
2011-12-12 18:20:07 	305 		275 	0 	
2011-12-12 18:28:45 	210 		50 	0 	
2011-12-12 18:30:52 	403 		645 	0 	
2011-12-12 18:31:04 	318 		345 	0 	
2011-12-12 18:31:18 	218 		395 	0 	
2011-12-12 18:31:32 	320 		276 	0 	
2011-12-12 18:31:50 	423 		595 	0 	
2011-12-12 18:32:02 	414 		465 	0 	
2011-12-12 18:32:13 	209 		275 	0 	
2011-12-12 18:32:24 	416 		276 	0 	
2011-12-12 18:46:41 	418 		345 	0 	
2011-12-12 18:49:30 	321 		316 	0 	
2011-12-12 18:52:34 	205 		120 	0 	
2011-12-12 18:55:46 	417 		695 	0 	
2011-12-12 18:56:12 	424 		595 	0 	
2011-12-12 19:08:51 	220 		395 	0 	
2011-12-12 19:10:29 	307 		395 	0 	
2011-12-12 19:10:40 	408 		395 	0 	
2011-12-12 19:16:50 	412 		395 	0 	
2011-12-12 19:18:48 	406 		395 	0 	
2011-12-12 19:26:18 	323 		595 	0 	
2011-12-12 19:26:33 	312 		395 	0 	
2011-12-12 19:28:00 	213 		645 	0 	
2011-12-12 19:28:10 	301 		395 	0 	
2011-12-12 19:28:24 	322 		395 	0 	
2011-12-12 19:30:16 	203 		345 	0 	
2011-12-12 19:30:31 	409 		395 	0 	
2011-12-12 19:32:05 	422 		395 	0 	
2011-12-12 19:41:41 	324 		595 	0 	
2011-12-12 19:44:26 	401 		395 	0 	
2011-12-12 19:44:37 	402 		395 	0 	
2011-12-12 19:53:14 	319 		695 	0 	
2011-12-12 19:57:56 	205 		276 	0 	
2011-12-12 19:58:11 	405 		595 	0 	
2011-12-12 20:02:49 	422 		10 	0 	
2011-12-12 20:03:59 	420 		645 	0 	
2011-12-12 20:07:09 	214 		595 	0 	
2011-12-12 20:09:41 	315 		395 	0 	
2011-12-12 20:09:52 	219 		395 	0 	
2011-12-12 20:14:11 	413 		395 	0 	
2011-12-12 20:14:25 	207 		345 	0 	
2011-12-12 20:15:11 	221 		395 	0 	
2011-12-12 20:18:00 	308 		395 	0 	
2011-12-12 20:20:00 	306 		395 	0 	
2011-12-12 20:20:56 	312 		210 	0 	
2011-12-12 20:24:01 	303 		345 	0 	
2011-12-12 20:24:10 	415 		695 	0 	
2011-12-12 20:24:39 	304 		316 	0 	
2011-12-12 20:24:56 	309 		395 	0 	
2011-12-12 20:29:56 	419 		695 	0 	
2011-12-12 20:33:45 	313 		695 	0 	
2011-12-12 20:36:12 	416 		645 	0 	
2011-12-12 20:39:08 	207 		270 	0 	
2011-12-12 20:40:29 	219 		290 	0 	
2011-12-12 20:41:21 	419 		10 	0 	
2011-12-12 20:47:25 	404 		695 	0 	
2011-12-12 20:51:27 	317 		695 	0 	
2011-12-12 20:55:04 	206 		345 	0 	
2011-12-12 20:57:49 	210 		345 	0 	
2011-12-12 20:58:06 	410 		595 	0 	
2011-12-12 21:03:35 	308 		25 	0 	
2011-12-12 21:03:38 	308 		80 	0 	
2011-12-12 21:04:30 	416 		80 	0 	
2011-12-12 21:05:21 	311 		275 	0 	
2011-12-12 21:05:33 	316 		645 	0 	
2011-12-12 21:05:42 	212 		275 	0 	
2011-12-12 21:06:02 	314 		645 	0 	
2011-12-12 21:12:37 	322 		395 	0 	
2011-12-12 21:16:22 	220 		395 	0 	
2011-12-12 21:16:37 	202 		345 	0 	
2011-12-12 21:18:53 	204 		276 	0 	
2011-12-12 21:25:33 	411 		595 	0 	
2011-12-12 21:25:58 	418 		645 	0 	
2011-12-12 21:26:11 	215 		645 	0 	
2011-12-12 21:26:24 	310 		595 	0 	
2011-12-12 21:28:00 	320 		345 	0 	
2011-12-12 21:29:42 	218 		695 	0 	
2011-12-12 21:42:31 	405 		10 	0 	
2011-12-12 21:43:05 	317 		415 	0 	
2011-12-12 21:43:09 	317 		10 	0 	
2011-12-12 21:44:02 	307 		395 	0 	
2011-12-12 21:44:33 	204 		50 	0 	
2011-12-12 21:48:42 	402 		0 	435 	
2011-12-12 21:50:49 	304 		170 	0 	
2011-12-12 21:51:11 	307 		20 	0 	
2011-12-12 21:52:35 	305 		595 	0 	
2011-12-12 22:12:36 	321 		395 	0 	
2011-12-12 22:12:57 	302 		695 	0 	
2011-12-12 22:13:14 	203 		345 	0 	
2011-12-12 22:13:28 	209 		275 	0 	
2011-12-12 22:16:05 	408 		695 	0 	
2011-12-12 22:18:42 	306 		695 	0 	
2011-12-12 22:23:39 	211 		345 	0 	
2011-12-12 22:25:30 	418 		325 	0 	
2011-12-12 22:30:29 	208 		275 	0 	
2011-12-12 22:34:26 	221 		395 	0 	
2011-12-12 22:34:48 	318 		645 	0 	
2011-12-12 22:40:40 	309 		395 	0 	
2011-12-12 22:45:26 	407 		560 	0 	
2011-12-12 22:52:21 	301 		395 	0 	
2011-12-12 23:03:32 	421 		695 	0 	
2011-12-12 23:04:16 	216 		595 	0 	
2011-12-12 23:11:59 	301 		90 	0 	
2011-12-12 23:13:00 	321 		260 	0 	
2011-12-12 23:29:15 	402 		140 	0 	
2011-12-12 23:36:15 	204 		210 	0 	
2011-12-12 23:37:40 	422 		140 	0 	
2011-12-12 23:44:45 	407 		695 	0 	
2011-12-12 23:47:24 	219 		395 	0 	
2011-12-12 23:49:06 	421 		285 	0 	
 			Total:		53149 	435		

=== RECHIT LIST ===




V1