MSHOGUN 1: SHIFT END REPORT
Wednesday February 29, 2012 12:00:07 AM

SALES TRANSACTION
Room Sales Order			39235
FnB Sales Order			1165
Beer Sales Order			705
Misc Sales Order			50
Room Sales Adjustment			0
GROSS SALES			41155

DISCOUNT
Room				0
FnB				0
Misc				0

DEPOSIT				36355
REFUND				

TOTAL ACCOUNTABILITY			77510

CASH DECLARATION			4833
CARD				0
FUNDS SAFEKEEP			60000
TOTAL CASH DECLARED			64833

TOTAL CASH ON SYSTEM			4833
OVER/SHORTAGES 			0

ROOM	 # OF CHECK-OUT	AMT
Value 		15	4125
Regular 		34	12570
Classique 		56	22540
Premium 		0	0
Regent 		0	0
Queen 		0	0
Gemini 		0	0
Family 		0	0
Executive Suite 	0	0
Mega Suite 	0	0

DISCOUNT 
Value 			  
Regular 		  
Classique 		  
Premium 		  
Regent 			  
Queen 		  
Gemini 		  
Family 		  
Executive Suite 	  
Mega Suite 		  


=== RESERVATIONS ===

Deposits:


Claimed:



SECURITY DEPOSITS

Deposits:
Claimed:


=== SALES BREAKDOWN ===

Transaction Date	Room No.	Cash	Card

2012-02-28 16:09:19 	401 		395 	0 	
2012-02-28 16:10:24 	318 		585 	0 	
2012-02-28 16:12:21 	305 		275 	0 	
2012-02-28 16:13:56 	406 		395 	0 	
2012-02-28 16:15:26 	413 		395 	0 	
2012-02-28 16:19:49 	208 		275 	0 	
2012-02-28 16:24:14 	215 		345 	0 	
2012-02-28 16:28:50 	309 		395 	0 	
2012-02-28 16:33:00 	321 		395 	0 	
2012-02-28 16:37:14 	209 		275 	0 	
2012-02-28 16:38:12 	217 		275 	0 	
2012-02-28 16:41:58 	301 		395 	0 	
2012-02-28 17:04:21 	307 		395 	0 	
2012-02-28 17:12:39 	210 		345 	0 	
2012-02-28 17:13:01 	217 		135 	0 	
2012-02-28 17:16:48 	313 		395 	0 	
2012-02-28 17:17:14 	304 		395 	0 	
2012-02-28 17:19:42 	207 		345 	0 	
2012-02-28 17:24:08 	316 		345 	0 	
2012-02-28 17:25:19 	314 		75 	0 	
2012-02-28 17:25:53 	306 		316 	0 	
2012-02-28 17:31:14 	302 		395 	0 	
2012-02-28 17:31:45 	413 		100 	0 	
2012-02-28 17:32:36 	211 		345 	0 	
2012-02-28 17:36:14 	204 		345 	0 	
2012-02-28 17:39:02 	308 		395 	0 	
2012-02-28 17:43:30 	322 		395 	0 	
2012-02-28 17:44:02 	211 		25 	0 	
2012-02-28 17:56:10 	409 		395 	0 	
2012-02-28 17:56:37 	409 		50 	0 	
2012-02-28 17:58:51 	414 		345 	0 	
2012-02-28 17:59:35 	205 		345 	0 	
2012-02-28 18:01:49 	422 		395 	0 	
2012-02-28 18:01:56 	218 		395 	0 	
2012-02-28 18:05:55 	319 		695 	0 	
2012-02-28 18:07:28 	219 		395 	0 	
2012-02-28 18:10:04 	403 		345 	0 	
2012-02-28 18:14:05 	416 		345 	0 	
2012-02-28 18:20:51 	201 		345 	0 	
2012-02-28 18:21:43 	319 		30 	0 	
2012-02-28 18:21:53 	220 		395 	0 	
2012-02-28 18:32:15 	408 		395 	0 	
2012-02-28 18:33:09 	315 		395 	0 	
2012-02-28 18:33:18 	317 		395 	0 	
2012-02-28 18:33:51 	310 		275 	0 	
2012-02-28 18:35:35 	202 		345 	0 	
2012-02-28 18:38:41 	404 		695 	0 	
2012-02-28 18:38:49 	406 		395 	0 	
2012-02-28 18:39:01 	402 		395 	0 	
2012-02-28 18:43:17 	418 		345 	0 	
2012-02-28 18:49:16 	216 		595 	0 	
2012-02-28 18:49:23 	203 		345 	0 	
2012-02-28 18:49:39 	213 		345 	0 	
2012-02-28 18:51:12 	208 		275 	0 	
2012-02-28 19:02:00 	412 		395 	0 	
2012-02-28 19:09:50 	419 		695 	0 	
2012-02-28 19:22:29 	421 		395 	0 	
2012-02-28 19:23:58 	306 		395 	0 	
2012-02-28 19:24:26 	321 		755 	0 	
2012-02-28 19:28:24 	212 		275 	0 	
2012-02-28 19:31:30 	415 		395 	0 	
2012-02-28 19:34:23 	414 		276 	0 	
2012-02-28 19:37:35 	305 		595 	0 	
2012-02-28 19:40:45 	320 		345 	0 	
2012-02-28 19:42:54 	404 		300 	0 	
2012-02-28 19:43:05 	323 		595 	0 	
2012-02-28 19:49:23 	214 		595 	0 	
2012-02-28 19:50:08 	321 		695 	0 	
2012-02-28 19:51:04 	324 		595 	0 	
2012-02-28 19:56:16 	401 		395 	0 	
2012-02-28 19:56:57 	407 		695 	0 	
2012-02-28 19:57:14 	304 		695 	0 	
2012-02-28 19:59:07 	301 		395 	0 	
2012-02-28 20:00:26 	409 		395 	0 	
2012-02-28 20:07:22 	307 		395 	0 	
2012-02-28 20:08:50 	207 		345 	0 	
2012-02-28 20:12:52 	217 		595 	0 	
2012-02-28 20:13:02 	203 		276 	0 	
2012-02-28 20:13:33 	311 		275 	0 	
2012-02-28 20:14:35 	411 		595 	0 	
2012-02-28 20:17:57 	322 		395 	0 	
2012-02-28 20:18:16 	411 		10 	0 	
2012-02-28 20:18:41 	209 		275 	0 	
2012-02-28 20:21:32 	405 		595 	0 	
2012-02-28 20:29:07 	206 		345 	0 	
2012-02-28 20:29:17 	422 		395 	0 	
2012-02-28 20:30:14 	316 		645 	0 	
2012-02-28 20:30:23 	423 		595 	0 	
2012-02-28 20:33:50 	309 		395 	0 	
2012-02-28 20:34:53 	312 		395 	0 	
2012-02-28 20:36:38 	315 		695 	0 	
2012-02-28 20:37:40 	302 		395 	0 	
2012-02-28 20:39:10 	301 		230 	0 	
2012-02-28 20:40:12 	424 		595 	0 	
2012-02-28 20:41:32 	210 		345 	0 	
2012-02-28 20:44:16 	303 		345 	0 	
2012-02-28 20:44:23 	410 		595 	0 	
2012-02-28 20:44:29 	418 		645 	0 	
2012-02-28 20:44:35 	416 		345 	0 	
2012-02-28 20:49:55 	318 		45 	0 	
2012-02-28 20:51:14 	420 		645 	0 	
2012-02-28 20:51:21 	317 		395 	0 	
2012-02-28 20:58:52 	215 		0 	645 	
2012-02-28 20:59:12 	213 		645 	0 	
2012-02-28 20:59:22 	211 		645 	0 	
2012-02-28 20:59:29 	201 		345 	0 	
2012-02-28 21:00:59 	204 		645 	0 	
2012-02-28 21:01:15 	219 		50 	0 	
2012-02-28 21:03:02 	202 		345 	0 	
2012-02-28 21:05:53 	403 		345 	0 	
2012-02-28 21:06:02 	322 		160 	0 	
2012-02-28 21:06:29 	414 		10 	0 	
2012-02-28 21:06:37 	319 		50 	0 	
2012-02-28 21:06:52 	318 		345 	0 	
2012-02-28 21:17:25 	205 		645 	0 	
2012-02-28 21:20:53 	205 		30 	0 	
2012-02-28 21:22:14 	Lobby 		25 	0 	
2012-02-28 21:24:34 	310 		275 	0 	
2012-02-28 21:25:35 	221 		695 	0 	
2012-02-28 21:26:03 	204 		275 	0 	
2012-02-28 21:26:31 	218 		695 	0 	
2012-02-28 21:27:37 	314 		345 	0 	
2012-02-28 21:30:41 	413 		695 	0 	
2012-02-28 21:31:16 	313 		695 	0 	
2012-02-28 21:31:57 	415 		695 	0 	
2012-02-28 21:38:01 	408 		395 	0 	
2012-02-28 21:45:40 	206 		645 	0 	
2012-02-28 21:49:52 	417 		0 	695 	
2012-02-28 21:52:50 	409 		395 	0 	
2012-02-28 21:55:40 	406 		695 	0 	
2012-02-28 21:55:50 	308 		695 	0 	
2012-02-28 21:56:54 	402 		260 	0 	
2012-02-28 22:06:41 	412 		395 	0 	
2012-02-28 22:09:44 	312 		395 	0 	
2012-02-28 22:09:50 	220 		695 	0 	
2012-02-28 22:10:24 	401 		395 	0 	
2012-02-28 22:15:23 	318 		345 	0 	
2012-02-28 22:27:56 	322 		695 	0 	
2012-02-28 22:32:02 	421 		695 	0 	
2012-02-28 22:33:06 	320 		645 	0 	
2012-02-28 22:33:57 	414 		645 	0 	
2012-02-28 22:37:24 	313 		275 	0 	
2012-02-28 22:39:54 	402 		0 	695 	
2012-02-28 22:40:59 	208 		275 	0 	
2012-02-28 22:43:48 	422 		695 	0 	
2012-02-28 22:51:05 	212 		595 	0 	
2012-02-28 22:51:12 	306 		695 	0 	
2012-02-28 22:56:47 	311 		595 	0 	
2012-02-28 23:10:19 	416 		645 	0 	
2012-02-28 23:16:20 	207 		705 	0 	
2012-02-28 23:28:05 	311 		140 	0 	
2012-02-28 23:28:16 	409 		395 	0 	
2012-02-28 23:37:23 	302 		695 	0 	
2012-02-28 23:37:29 	307 		695 	0 	
2012-02-28 23:39:48 	303 		645 	0 	
2012-02-28 23:48:48 	314 		645 	0 	
 			Total:		64833 	2035		

=== RECHIT LIST ===




V1