MSHOGUN 1: SHIFT END REPORT
Tuesday January 18, 2011 8:00:01 AM

SALES TRANSACTION
Room Sales Order			20850
FnB Sales Order			1470
Beer Sales Order			90
Misc Sales Order			50
Room Sales Adjustment			0
GROSS SALES			22460

DISCOUNT
Room				0
FnB				0
Misc				0

DEPOSIT				3500
REFUND				

TOTAL ACCOUNTABILITY			25960

CASH DECLARATION			7910
CARD				0
FUNDS SAFEKEEP			0
TOTAL CASH DECLARED			7910

TOTAL CASH ON SYSTEM			8910
OVER/SHORTAGES 			-1000

ROOM	 # OF CHECK-OUT	AMT
Value 		5	2755
Regular 		13	7245
Classique 		18	10850
Premium 		0	0
Regent 		0	0
Queen 		0	0
Gemini 		0	0
Family 		0	0
Executive Suite 	0	0
Mega Suite 	0	0

DISCOUNT 
Value 			  
Regular 		  
Classique 		  
Premium 		  
Regent 			  
Queen 		  
Gemini 		  
Family 		  
Executive Suite 	  
Mega Suite 		  


=== RESERVATIONS ===

Deposits:


Claimed:



SECURITY DEPOSITS

Deposits:
Claimed:


=== SALES BREAKDOWN ===

Transaction Date	Room No.	Cash	Card

2011-01-18 00:09:01 	313 		40 	0 	
2011-01-18 00:15:37 	319 		695 	0 	
2011-01-18 00:15:55 	321 		695 	0 	
2011-01-18 00:38:26 	307 		695 	0 	
2011-01-18 01:05:18 	202 		465 	0 	
2011-01-18 01:14:06 	415 		695 	0 	
2011-01-18 01:26:51 	215 		585 	0 	
2011-01-18 01:52:47 	Lobby 		25 	0 	
2011-01-18 01:53:07 	205 		465 	0 	
2011-01-18 02:04:34 	313 		55 	0 	
2011-01-18 03:14:04 	301 		395 	0 	
2011-01-18 03:35:57 	303 		120 	0 	
2011-01-18 03:41:31 	304 		395 	0 	
2011-01-18 04:54:37 	210 		705 	0 	
2011-01-18 05:58:31 	408 		50 	0 	
2011-01-18 06:05:04 	404 		50 	0 	
2011-01-18 06:20:58 	302 		395 	0 	
2011-01-18 06:35:37 	209 		275 	0 	
2011-01-18 06:42:22 	207 		465 	0 	
2011-01-18 06:49:14 	410 		165 	0 	
2011-01-18 06:58:26 	318 		235 	0 	
2011-01-18 07:13:55 	301 		140 	0 	
2011-01-18 07:24:04 	313 		260 	0 	
2011-01-18 07:28:02 	420 		170 	0 	
2011-01-18 07:47:03 	307 		675 	0 	
 			Total:		8910 	0		

=== RECHIT LIST ===




V1