MSHOGUN 1: SHIFT END REPORT
Friday August 05, 2011 7:57:57 AM

SALES TRANSACTION
Room Sales Order			0
FnB Sales Order			0
Beer Sales Order			0
Misc Sales Order			0
Room Sales Adjustment			0
GROSS SALES			0

DISCOUNT
Room				0
FnB				0
Misc				0

DEPOSIT				0
REFUND				

TOTAL ACCOUNTABILITY			0

CASH DECLARATION			3131
CARD				0
FUNDS SAFEKEEP			0
TOTAL CASH DECLARED			3131

TOTAL CASH ON SYSTEM			3131
OVER/SHORTAGES 			0

ROOM	 # OF CHECK-OUT	AMT
Value 		0	0
Regular 		0	0
Classique 		0	0
Premium 		0	0
Regent 		0	0
Queen 		0	0
Gemini 		0	0
Family 		0	0
Executive Suite 	0	0
Mega Suite 	0	0

DISCOUNT 
Value 			  
Regular 		  
Classique 		  
Premium 		  
Regent 			  
Queen 		  
Gemini 		  
Family 		  
Executive Suite 	  
Mega Suite 		  


=== RESERVATIONS ===

Deposits:


Claimed:



SECURITY DEPOSITS

Deposits:
Claimed:




=== RECHIT LIST ===




V1