MSHOGUN 1: SHIFT END REPORT
Sunday July 18, 2010 4:02:04 PM

SALES TRANSACTION
Room Sales Order			80000
FnB Sales Order			4395
Beer Sales Order			990
Misc Sales Order			70
Room Sales Adjustment			0
GROSS SALES			85455

DISCOUNT
Room				0
FnB				0
Misc				0

DEPOSIT				29055
REFUND				

TOTAL ACCOUNTABILITY			114510

CASH DECLARATION			8712
CARD				2840
FUNDS SAFEKEEP			50000
TOTAL CASH DECLARED			61552

TOTAL CASH ON SYSTEM			8692
OVER/SHORTAGES 			20

ROOM	 # OF CHECK-OUT	AMT
Value 		15	6685
Regular 		24	12300
Classique 		49	27415
Premium 		3	2250
Regent 		12	16725
Queen 		6	8250
Gemini 		3	3075
Family 		2	2100
Executive Suite 	0	0
Mega Suite 	1	1200

DISCOUNT 
Value 			  
Regular 		  
Classique 		  
Premium 		  
Regent 			  
Queen 		  
Gemini 		  
Family 		  
Executive Suite 	  
Mega Suite 		  


=== RESERVATIONS ===

Deposits:


Claimed:



SECURITY DEPOSITS

Deposits:
Claimed:


=== SALES BREAKDOWN ===

Transaction Date	Room No.	Cash	Card

2010-07-18 08:06:15 	601 		715 	0 	
2010-07-18 08:08:57 	304 		395 	0 	
2010-07-18 08:16:15 	306 		675 	0 	
2010-07-18 08:18:26 	409 		395 	0 	
2010-07-18 08:21:14 	303 		290 	0 	
2010-07-18 08:23:02 	313 		675 	0 	
2010-07-18 08:24:59 	301 		395 	0 	
2010-07-18 08:32:29 	617 		25 	0 	
2010-07-18 08:37:21 	219 		265 	0 	
2010-07-18 08:39:32 	513 		150 	0 	
2010-07-18 08:41:37 	418 		705 	0 	
2010-07-18 08:45:26 	512 		85 	0 	
2010-07-18 08:45:31 	512 		155 	0 	
2010-07-18 08:54:19 	523 		150 	0 	
2010-07-18 09:01:44 	317 		395 	0 	
2010-07-18 09:09:30 	522 		150 	0 	
2010-07-18 09:17:41 	211 		705 	0 	
2010-07-18 09:24:26 	514 		525 	0 	
2010-07-18 09:26:13 	408 		140 	0 	
2010-07-18 09:26:38 	316 		465 	0 	
2010-07-18 09:31:12 	609 		240 	0 	
2010-07-18 09:38:10 	417 		395 	0 	
2010-07-18 09:44:01 	516 		800 	0 	
2010-07-18 09:44:12 	406 		395 	0 	
2010-07-18 09:46:14 	608 		25 	0 	
2010-07-18 09:46:49 	321 		140 	0 	
2010-07-18 09:48:10 	413 		420 	0 	
2010-07-18 09:50:22 	519 		80 	0 	
2010-07-18 09:54:15 	322 		395 	0 	
2010-07-18 10:05:33 	507 		25 	0 	
2010-07-18 10:07:18 	407 		395 	0 	
2010-07-18 10:08:59 	401 		560 	0 	
2010-07-18 10:17:23 	312 		470 	0 	
2010-07-18 10:18:47 	422 		395 	0 	
2010-07-18 10:44:12 	303 		276 	0 	
2010-07-18 10:54:24 	206 		380 	0 	
2010-07-18 10:55:29 	Lobby 		125 	0 	
2010-07-18 10:57:43 	320 		276 	0 	
2010-07-18 11:08:01 	304 		395 	0 	
2010-07-18 11:11:23 	413 		395 	0 	
2010-07-18 11:12:51 	521 		420 	0 	
2010-07-18 11:18:46 	214 		275 	0 	
2010-07-18 11:23:43 	616 		185 	0 	
2010-07-18 11:32:38 	520 		800 	0 	
2010-07-18 11:33:03 	322 		290 	0 	
2010-07-18 11:36:12 	404 		500 	0 	
2010-07-18 11:41:17 	307 		535 	0 	
2010-07-18 11:43:10 	602 		2200 	0 	
2010-07-18 11:43:32 	302 		395 	0 	
2010-07-18 11:43:39 	305 		275 	0 	
2010-07-18 11:45:42 	204 		345 	0 	
2010-07-18 11:52:10 	408 		395 	0 	
2010-07-18 11:53:05 	504 		800 	0 	
2010-07-18 11:56:51 	402 		395 	0 	
2010-07-18 11:58:40 	207 		345 	0 	
2010-07-18 12:05:09 	414 		345 	0 	
2010-07-18 12:06:21 	523 		750 	0 	
2010-07-18 12:07:44 	417 		395 	0 	
2010-07-18 12:12:03 	310 		275 	0 	
2010-07-18 12:18:34 	420 		705 	0 	
2010-07-18 12:21:27 	416 		705 	0 	
2010-07-18 12:21:36 	309 		395 	0 	
2010-07-18 12:43:08 	606 		225 	0 	
2010-07-18 12:43:32 	403 		345 	0 	
2010-07-18 12:50:27 	412 		395 	0 	
2010-07-18 12:51:47 	215 		585 	0 	
2010-07-18 12:55:31 	406 		395 	0 	
2010-07-18 12:56:55 	405 		275 	0 	
2010-07-18 12:57:41 	312 		395 	0 	
2010-07-18 13:02:10 	314 		345 	0 	
2010-07-18 13:06:26 	315 		395 	0 	
2010-07-18 13:09:33 	407 		395 	0 	
2010-07-18 13:12:27 	409 		395 	0 	
2010-07-18 13:14:47 	421 		395 	0 	
2010-07-18 13:21:45 	317 		395 	0 	
2010-07-18 13:26:12 	419 		395 	0 	
2010-07-18 13:30:26 	213 		345 	0 	
2010-07-18 13:32:40 	609 		50 	0 	
2010-07-18 13:34:02 	404 		395 	0 	
2010-07-18 13:35:10 	415 		395 	0 	
2010-07-18 13:37:34 	319 		395 	0 	
2010-07-18 13:44:03 	422 		395 	0 	
2010-07-18 13:45:24 	318 		585 	0 	
2010-07-18 13:47:03 	306 		395 	0 	
2010-07-18 13:49:41 	210 		705 	0 	
2010-07-18 13:49:51 	321 		395 	0 	
2010-07-18 13:54:02 	322 		395 	0 	
2010-07-18 13:56:05 	201 		345 	0 	
2010-07-18 13:57:28 	324 		275 	0 	
2010-07-18 14:05:01 	301 		395 	0 	
2010-07-18 14:05:55 	217 		575 	0 	
2010-07-18 14:11:56 	205 		240 	0 	
2010-07-18 14:12:58 	608 		850 	0 	
2010-07-18 14:14:10 	322 		85 	0 	
2010-07-18 14:14:21 	410 		275 	0 	
2010-07-18 14:14:30 	302 		395 	0 	
2010-07-18 14:15:44 	320 		345 	0 	
2010-07-18 14:16:16 	308 		395 	0 	
2010-07-18 14:22:17 	304 		395 	0 	
2010-07-18 14:22:31 	303 		345 	0 	
2010-07-18 14:23:29 	401 		395 	0 	
2010-07-18 14:26:09 	501 		500 	0 	
2010-07-18 14:27:37 	316 		345 	0 	
2010-07-18 14:27:46 	309 		395 	0 	
2010-07-18 14:30:18 	519 		375 	0 	
2010-07-18 14:34:21 	509 		450 	0 	
2010-07-18 14:36:33 	612 		850 	0 	
2010-07-18 14:37:03 	206 		345 	0 	
2010-07-18 14:39:48 	508 		450 	0 	
2010-07-18 14:41:54 	203 		345 	0 	
2010-07-18 14:43:27 	204 		345 	0 	
2010-07-18 14:47:13 	205 		345 	0 	
2010-07-18 14:49:18 	502 		500 	0 	
2010-07-18 14:50:21 	503 		500 	0 	
2010-07-18 14:50:54 	305 		275 	0 	
2010-07-18 14:51:42 	221 		395 	0 	
2010-07-18 14:52:28 	411 		275 	0 	
2010-07-18 14:54:05 	507 		500 	0 	
2010-07-18 14:55:23 	208 		275 	0 	
2010-07-18 14:57:15 	319 		140 	0 	
2010-07-18 14:57:18 	319 		135 	0 	
2010-07-18 14:57:36 	518 		450 	0 	
2010-07-18 14:59:59 	401 		50 	0 	
2010-07-18 15:00:04 	501 		50 	0 	
2010-07-18 15:00:58 	406 		395 	0 	
2010-07-18 15:03:59 	407 		395 	0 	
2010-07-18 15:05:29 	215 		90 	0 	
2010-07-18 15:05:57 	220 		395 	0 	
2010-07-18 15:07:30 	219 		395 	0 	
2010-07-18 15:08:42 	510 		500 	0 	
2010-07-18 15:10:06 	522 		450 	0 	
2010-07-18 15:13:15 	511 		500 	0 	
2010-07-18 15:13:36 	218 		395 	0 	
2010-07-18 15:19:09 	405 		475 	0 	
2010-07-18 15:21:41 	207 		585 	0 	
2010-07-18 15:35:12 	408 		395 	0 	
2010-07-18 15:37:07 	313 		395 	0 	
2010-07-18 15:37:31 	309 		395 	0 	
2010-07-18 15:38:36 	413 		395 	0 	
2010-07-18 15:40:50 	307 		395 	0 	
2010-07-18 15:42:06 	409 		395 	0 	
2010-07-18 15:43:20 	417 		395 	0 	
2010-07-18 15:46:36 	211 		345 	0 	
2010-07-18 15:47:44 	311 		275 	0 	
2010-07-18 15:51:32 	419 		395 	0 	
2010-07-18 15:56:38 	312 		395 	0 	
2010-07-18 15:59:58 	517 		800 	0 	
 			Total:		58692 	0		

=== RECHIT LIST ===




V1