MSHOGUN 1: SHIFT END REPORT
Wednesday September 28, 2011 4:01:34 PM

SALES TRANSACTION
Room Sales Order			22235
FnB Sales Order			990
Beer Sales Order			160
Misc Sales Order			100
Room Sales Adjustment			0
GROSS SALES			23485

DISCOUNT
Room				0
FnB				0
Misc				0

DEPOSIT				7745
REFUND				

TOTAL ACCOUNTABILITY			31230

CASH DECLARATION			10062
CARD				595
FUNDS SAFEKEEP			10000
TOTAL CASH DECLARED			20657

TOTAL CASH ON SYSTEM			10062
OVER/SHORTAGES 			0

ROOM	 # OF CHECK-OUT	AMT
Value 		8	3160
Regular 		12	5940
Classique 		25	13135
Premium 		0	0
Regent 		0	0
Queen 		0	0
Gemini 		0	0
Family 		0	0
Executive Suite 	0	0
Mega Suite 	0	0

DISCOUNT 
Value 			  
Regular 		  
Classique 		  
Premium 		  
Regent 			  
Queen 		  
Gemini 		  
Family 		  
Executive Suite 	  
Mega Suite 		  


=== RESERVATIONS ===

Deposits:


Claimed:



SECURITY DEPOSITS

Deposits:
Claimed:


=== SALES BREAKDOWN ===

Transaction Date	Room No.	Cash	Card

2011-09-28 08:02:02 	416 		120 	0 	
2011-09-28 08:03:33 	309 		395 	0 	
2011-09-28 08:52:02 	202 		50 	0 	
2011-09-28 09:16:06 	311 		275 	0 	
2011-09-28 09:46:37 	312 		395 	0 	
2011-09-28 09:52:41 	410 		110 	0 	
2011-09-28 10:00:14 	302 		395 	0 	
2011-09-28 10:32:26 	321 		395 	0 	
2011-09-28 10:39:18 	306 		395 	0 	
2011-09-28 10:54:39 	409 		310 	0 	
2011-09-28 10:58:16 	313 		395 	0 	
2011-09-28 11:00:01 	316 		585 	0 	
2011-09-28 11:05:29 	317 		395 	0 	
2011-09-28 11:14:21 	208 		275 	0 	
2011-09-28 11:14:30 	303 		345 	0 	
2011-09-28 11:17:34 	413 		395 	0 	
2011-09-28 11:24:00 	414 		345 	0 	
2011-09-28 11:44:35 	318 		345 	0 	
2011-09-28 12:03:03 	415 		675 	0 	
2011-09-28 12:19:18 	314 		825 	0 	
2011-09-28 12:27:45 	319 		395 	0 	
2011-09-28 12:35:24 	415 		300 	0 	
2011-09-28 12:35:27 	415 		150 	0 	
2011-09-28 12:41:22 	323 		275 	0 	
2011-09-28 12:41:41 	407 		395 	0 	
2011-09-28 12:46:22 	205 		345 	0 	
2011-09-28 12:50:19 	201 		345 	0 	
2011-09-28 13:08:20 	423 		275 	0 	
2011-09-28 13:08:33 	421 		395 	0 	
2011-09-28 13:08:58 	421 		100 	0 	
2011-09-28 13:09:12 	209 		275 	0 	
2011-09-28 13:14:28 	307 		395 	0 	
2011-09-28 13:42:49 	204 		345 	0 	
2011-09-28 13:43:41 	305 		275 	0 	
2011-09-28 13:43:52 	301 		395 	0 	
2011-09-28 13:49:44 	204 		20 	0 	
2011-09-28 13:53:30 	302 		316 	0 	
2011-09-28 13:53:46 	412 		395 	0 	
2011-09-28 13:56:17 	417 		395 	0 	
2011-09-28 14:01:35 	320 		345 	0 	
2011-09-28 14:08:20 	418 		585 	0 	
2011-09-28 14:13:17 	324 		275 	0 	
2011-09-28 14:13:25 	306 		395 	0 	
2011-09-28 14:27:10 	411 		275 	0 	
2011-09-28 14:31:41 	303 		345 	0 	
2011-09-28 14:44:07 	204 		150 	0 	
2011-09-28 14:50:53 	313 		140 	0 	
2011-09-28 14:51:22 	304 		395 	0 	
2011-09-28 14:58:57 	324 		210 	0 	
2011-09-28 15:09:56 	203 		345 	0 	
2011-09-28 15:10:16 	308 		395 	0 	
2011-09-28 15:12:53 	424 		275 	0 	
2011-09-28 15:21:03 	416 		345 	0 	
2011-09-28 15:21:19 	315 		395 	0 	
2011-09-28 15:27:34 	206 		585 	0 	
2011-09-28 15:44:47 	207 		345 	0 	
2011-09-28 15:50:13 	312 		395 	0 	
2011-09-28 15:54:06 	205 		345 	0 	
2011-09-28 15:55:45 	319 		316 	0 	
 			Total:		20062 	0		

=== RECHIT LIST ===




V1