MSHOGUN 1: SHIFT END REPORT
Friday June 24, 2011 7:52:12 AM

SALES TRANSACTION
Room Sales Order			18900
FnB Sales Order			2285
Beer Sales Order			270
Misc Sales Order			95
Room Sales Adjustment			0
GROSS SALES			21550

DISCOUNT
Room				0
FnB				0
Misc				0

DEPOSIT				3845
REFUND				

TOTAL ACCOUNTABILITY			25395

CASH DECLARATION			7120
CARD				2330
FUNDS SAFEKEEP			0
TOTAL CASH DECLARED			9450

TOTAL CASH ON SYSTEM			7120
OVER/SHORTAGES 			0

ROOM	 # OF CHECK-OUT	AMT
Value 		3	1785
Regular 		14	7290
Classique 		15	9825
Premium 		0	0
Regent 		0	0
Queen 		0	0
Gemini 		0	0
Family 		0	0
Executive Suite 	0	0
Mega Suite 	0	0

DISCOUNT 
Value 			  
Regular 		  
Classique 		  
Premium 		  
Regent 			  
Queen 		  
Gemini 		  
Family 		  
Executive Suite 	  
Mega Suite 		  


=== RESERVATIONS ===

Deposits:


Claimed:



SECURITY DEPOSITS

Deposits:
Claimed:


=== SALES BREAKDOWN ===

Transaction Date	Room No.	Cash	Card

2011-06-24 00:16:08 	401 		260 	0 	
2011-06-24 00:16:28 	418 		15 	0 	
2011-06-24 00:22:47 	322 		695 	0 	
2011-06-24 00:27:10 	414 		185 	0 	
2011-06-24 00:27:21 	215 		210 	0 	
2011-06-24 00:54:35 	201 		0 	645 	
2011-06-24 01:07:37 	306 		210 	0 	
2011-06-24 01:13:38 	220 		695 	0 	
2011-06-24 01:24:42 	206 		465 	0 	
2011-06-24 01:32:49 	306 		695 	0 	
2011-06-24 01:33:37 	210 		645 	0 	
2011-06-24 02:00:29 	207 		645 	0 	
2011-06-24 02:25:02 	210 		120 	0 	
2011-06-24 02:30:35 	421 		200 	0 	
2011-06-24 02:40:22 	320 		345 	0 	
2011-06-24 03:33:36 	414 		50 	0 	
2011-06-24 03:51:23 	421 		815 	0 	
2011-06-24 05:51:20 	320 		140 	0 	
2011-06-24 06:37:03 	412 		445 	0 	
2011-06-24 06:48:48 	317 		260 	0 	
2011-06-24 07:20:48 	201 		25 	0 	
 			Total:		7120 	645		

=== RECHIT LIST ===




V1