MSHOGUN 1: SHIFT END REPORT
Sunday October 30, 2011 7:57:57 AM

SALES TRANSACTION
Room Sales Order			26220
FnB Sales Order			1805
Beer Sales Order			360
Misc Sales Order			10
Room Sales Adjustment			0
GROSS SALES			28395

DISCOUNT
Room				0
FnB				0
Misc				0

DEPOSIT				7350
REFUND				

TOTAL ACCOUNTABILITY			35745

CASH DECLARATION			1940
CARD				885
FUNDS SAFEKEEP			10000
TOTAL CASH DECLARED			12825

TOTAL CASH ON SYSTEM			1940
OVER/SHORTAGES 			0

ROOM	 # OF CHECK-OUT	AMT
Value 		9	4755
Regular 		16	8460
Classique 		19	13005
Premium 		0	0
Regent 		0	0
Queen 		0	0
Gemini 		0	0
Family 		0	0
Executive Suite 	0	0
Mega Suite 	0	0

DISCOUNT 
Value 			  
Regular 		  
Classique 		  
Premium 		  
Regent 			  
Queen 		  
Gemini 		  
Family 		  
Executive Suite 	  
Mega Suite 		  


=== RESERVATIONS ===

Deposits:


Claimed:



SECURITY DEPOSITS

Deposits:
Claimed:


=== SALES BREAKDOWN ===

Transaction Date	Room No.	Cash	Card

2011-10-30 00:11:48 	206 		645 	0 	
2011-10-30 00:14:50 	416 		645 	0 	
2011-10-30 00:14:59 	409 		695 	0 	
2011-10-30 00:50:17 	207 		345 	0 	
2011-10-30 00:58:19 	424 		475 	0 	
2011-10-30 01:13:54 	203 		0 	345 	
2011-10-30 01:19:44 	203 		0 	540 	
2011-10-30 01:26:56 	315 		695 	0 	
2011-10-30 01:27:12 	204 		645 	0 	
2011-10-30 02:01:54 	424 		260 	0 	
2011-10-30 02:06:48 	207 		645 	0 	
2011-10-30 02:14:01 	410 		575 	0 	
2011-10-30 03:20:04 	423 		275 	0 	
2011-10-30 04:12:54 	422 		395 	0 	
2011-10-30 05:16:33 	203 		120 	0 	
2011-10-30 05:29:39 	203 		705 	0 	
2011-10-30 05:36:54 	304 		140 	0 	
2011-10-30 05:50:35 	418 		705 	0 	
2011-10-30 06:03:55 	421 		330 	0 	
2011-10-30 06:08:01 	314 		345 	0 	
2011-10-30 06:08:13 	321 		815 	0 	
2011-10-30 06:19:14 	417 		395 	0 	
2011-10-30 06:21:40 	304 		395 	0 	
2011-10-30 06:45:21 	214 		50 	0 	
2011-10-30 06:50:29 	423 		100 	0 	
2011-10-30 06:54:42 	424 		100 	0 	
2011-10-30 07:45:47 	415 		395 	0 	
2011-10-30 07:48:50 	211 		345 	0 	
2011-10-30 07:54:15 	416 		705 	0 	
 			Total:		11940 	885		

=== RECHIT LIST ===




V1