MSHOGUN 1: SHIFT END REPORT
Wednesday February 08, 2012 7:58:57 AM

SALES TRANSACTION
Room Sales Order			20445
FnB Sales Order			1330
Beer Sales Order			120
Misc Sales Order			140
Room Sales Adjustment			0
GROSS SALES			22035

DISCOUNT
Room				0
FnB				0
Misc				0

DEPOSIT				3895
REFUND				

TOTAL ACCOUNTABILITY			25930

CASH DECLARATION			855
CARD				0
FUNDS SAFEKEEP			10000
TOTAL CASH DECLARED			10855

TOTAL CASH ON SYSTEM			755
OVER/SHORTAGES 			100

ROOM	 # OF CHECK-OUT	AMT
Value 		8	3800
Regular 		10	6690
Classique 		17	9955
Premium 		0	0
Regent 		0	0
Queen 		0	0
Gemini 		0	0
Family 		0	0
Executive Suite 	0	0
Mega Suite 	0	0

DISCOUNT 
Value 			  
Regular 		  
Classique 		  
Premium 		  
Regent 			  
Queen 		  
Gemini 		  
Family 		  
Executive Suite 	  
Mega Suite 		  


=== RESERVATIONS ===

Deposits:


Claimed:



SECURITY DEPOSITS

Deposits:
Claimed:


=== SALES BREAKDOWN ===

Transaction Date	Room No.	Cash	Card

2012-02-08 00:05:30 	405 		50 	0 	
2012-02-08 00:12:19 	218 		395 	0 	
2012-02-08 00:12:32 	208 		275 	0 	
2012-02-08 00:18:28 	212 		275 	0 	
2012-02-08 00:24:35 	305 		180 	0 	
2012-02-08 00:31:22 	220 		695 	0 	
2012-02-08 00:36:42 	206 		645 	0 	
2012-02-08 00:38:00 	316 		825 	0 	
2012-02-08 00:39:29 	221 		695 	0 	
2012-02-08 00:43:31 	219 		695 	0 	
2012-02-08 00:50:09 	312 		395 	0 	
2012-02-08 00:55:41 	301 		395 	0 	
2012-02-08 01:13:43 	318 		705 	0 	
2012-02-08 01:29:00 	421 		150 	0 	
2012-02-08 01:48:36 	218 		395 	0 	
2012-02-08 02:05:30 	303 		25 	0 	
2012-02-08 03:30:19 	302 		395 	0 	
2012-02-08 03:34:08 	406 		90 	0 	
2012-02-08 03:52:34 	304 		395 	0 	
2012-02-08 04:25:13 	306 		395 	0 	
2012-02-08 04:56:44 	203 		705 	0 	
2012-02-08 05:30:27 	409 		420 	0 	
2012-02-08 05:44:08 	320 		0 	1425 	
2012-02-08 05:55:14 	421 		150 	0 	
2012-02-08 05:57:45 	314 		345 	0 	
2012-02-08 06:00:22 	312 		280 	0 	
2012-02-08 06:42:11 	215 		345 	0 	
2012-02-08 06:42:39 	215 		20 	0 	
2012-02-08 07:17:07 	302 		140 	0 	
2012-02-08 07:41:58 	413 		170 	0 	
2012-02-08 07:45:04 	410 		110 	0 	
 			Total:		10755 	1425		

=== RECHIT LIST ===




V1