MSHOGUN 1: SHIFT END REPORT
Monday April 18, 2011 4:00:50 PM

SALES TRANSACTION
Room Sales Order			29140
FnB Sales Order			1663
Beer Sales Order			180
Misc Sales Order			50
Room Sales Adjustment			0
GROSS SALES			31033

DISCOUNT
Room				0
FnB				0
Misc				0

DEPOSIT				11090
REFUND				

TOTAL ACCOUNTABILITY			42123

CASH DECLARATION			8802
CARD				298
FUNDS SAFEKEEP			20000
TOTAL CASH DECLARED			29100

TOTAL CASH ON SYSTEM			9086
OVER/SHORTAGES 			-284

ROOM	 # OF CHECK-OUT	AMT
Value 		7	2985
Regular 		17	8445
Classique 		38	17710
Premium 		0	0
Regent 		0	0
Queen 		0	0
Gemini 		0	0
Family 		0	0
Executive Suite 	0	0
Mega Suite 	0	0

DISCOUNT 
Value 			  
Regular 		  
Classique 		  
Premium 		  
Regent 			  
Queen 		  
Gemini 		  
Family 		  
Executive Suite 	  
Mega Suite 		  


=== RESERVATIONS ===

Deposits:


Claimed:



SECURITY DEPOSITS

Deposits:
Claimed:


=== SALES BREAKDOWN ===

Transaction Date	Room No.	Cash	Card

2011-04-18 09:06:55 	315 		395 	0 	
2011-04-18 09:19:24 	301 		395 	0 	
2011-04-18 09:26:30 	309 		395 	0 	
2011-04-18 09:28:39 	318 		10 	0 	
2011-04-18 09:35:55 	313 		395 	0 	
2011-04-18 10:12:07 	308 		395 	0 	
2011-04-18 10:13:40 	311 		275 	0 	
2011-04-18 10:16:04 	320 		345 	0 	
2011-04-18 10:20:30 	302 		395 	0 	
2011-04-18 10:21:44 	411 		275 	0 	
2011-04-18 10:24:39 	312 		395 	0 	
2011-04-18 10:26:03 	316 		345 	0 	
2011-04-18 10:30:23 	314 		345 	0 	
2011-04-18 10:58:26 	304 		395 	0 	
2011-04-18 11:02:46 	310 		275 	0 	
2011-04-18 11:28:00 	319 		395 	0 	
2011-04-18 11:48:31 	423 		0 	298 	
2011-04-18 11:48:31 	423 		298 	0 	
2011-04-18 11:50:42 	306 		395 	0 	
2011-04-18 11:50:58 	318 		345 	0 	
2011-04-18 11:53:33 	313 		230 	0 	
2011-04-18 11:55:12 	315 		395 	0 	
2011-04-18 11:58:08 	418 		516 	0 	
2011-04-18 11:58:22 	307 		815 	0 	
2011-04-18 12:00:11 	317 		395 	0 	
2011-04-18 12:06:08 	406 		395 	0 	
2011-04-18 12:11:57 	401 		395 	0 	
2011-04-18 12:12:58 	413 		395 	0 	
2011-04-18 12:14:01 	417 		395 	0 	
2011-04-18 12:20:15 	422 		395 	0 	
2011-04-18 12:26:53 	412 		395 	0 	
2011-04-18 12:27:02 	421 		395 	0 	
2011-04-18 12:27:10 	221 		395 	0 	
2011-04-18 12:37:31 	418 		210 	0 	
2011-04-18 12:44:01 	215 		345 	0 	
2011-04-18 12:44:08 	420 		49 	0 	
2011-04-18 12:44:08 	420 		276 	0 	
2011-04-18 12:44:14 	420 		-49 	0 	
2011-04-18 12:44:39 	308 		395 	0 	
2011-04-18 12:48:52 	407 		395 	0 	
2011-04-18 12:48:58 	419 		395 	0 	
2011-04-18 12:52:23 	322 		395 	0 	
2011-04-18 13:01:07 	309 		395 	0 	
2011-04-18 13:01:41 	210 		705 	0 	
2011-04-18 13:02:44 	215 		25 	0 	
2011-04-18 13:07:49 	312 		395 	0 	
2011-04-18 13:18:59 	416 		345 	0 	
2011-04-18 13:20:48 	304 		395 	0 	
2011-04-18 13:27:07 	413 		175 	0 	
2011-04-18 13:27:16 	314 		205 	0 	
2011-04-18 13:44:30 	208 		275 	0 	
2011-04-18 13:46:33 	313 		316 	0 	
2011-04-18 13:50:32 	304 		385 	0 	
2011-04-18 13:53:50 	205 		345 	0 	
2011-04-18 14:00:00 	202 		345 	0 	
2011-04-18 14:03:05 	204 		705 	0 	
2011-04-18 14:05:10 	314 		120 	0 	
2011-04-18 14:13:00 	206 		465 	0 	
2011-04-18 14:17:05 	319 		395 	0 	
2011-04-18 14:26:15 	320 		345 	0 	
2011-04-18 14:37:32 	206 		90 	0 	
2011-04-18 14:39:30 	414 		465 	0 	
2011-04-18 14:46:33 	316 		705 	0 	
2011-04-18 14:48:53 	313 		165 	0 	
2011-04-18 14:52:50 	415 		395 	0 	
2011-04-18 15:02:31 	201 		345 	0 	
2011-04-18 15:11:02 	318 		465 	0 	
2011-04-18 15:11:15 	407 		395 	0 	
2011-04-18 15:12:14 	301 		395 	0 	
2011-04-18 15:18:05 	306 		395 	0 	
2011-04-18 15:19:56 	422 		395 	0 	
2011-04-18 15:20:30 	302 		395 	0 	
2011-04-18 15:21:07 	419 		395 	0 	
2011-04-18 15:30:42 	421 		395 	0 	
2011-04-18 15:32:16 	420 		345 	0 	
2011-04-18 15:35:02 	315 		395 	0 	
2011-04-18 15:41:55 	316 		460 	0 	
2011-04-18 15:42:03 	422 		50 	0 	
2011-04-18 15:44:08 	406 		395 	0 	
2011-04-18 15:46:43 	221 		395 	0 	
2011-04-18 15:54:33 	312 		395 	0 	
2011-04-18 15:55:49 	308 		535 	0 	
 			Total:		29086 	298		

=== RECHIT LIST ===




V1