MSHOGUN 1: SHIFT END REPORT
Friday March 11, 2011 12:00:02 AM

SALES TRANSACTION
Room Sales Order			31975
FnB Sales Order			1065
Beer Sales Order			270
Misc Sales Order			85
Room Sales Adjustment			0
GROSS SALES			33395

DISCOUNT
Room				0
FnB				0
Misc				0

DEPOSIT				28745
REFUND				

TOTAL ACCOUNTABILITY			62140

CASH DECLARATION			488
CARD				1225
FUNDS SAFEKEEP			50000
TOTAL CASH DECLARED			51713

TOTAL CASH ON SYSTEM			488
OVER/SHORTAGES 			0

ROOM	 # OF CHECK-OUT	AMT
Value 		6	1650
Regular 		22	8670
Classique 		53	21655
Premium 		0	0
Regent 		0	0
Queen 		0	0
Gemini 		0	0
Family 		0	0
Executive Suite 	0	0
Mega Suite 	0	0

DISCOUNT 
Value 			  
Regular 		  
Classique 		  
Premium 		  
Regent 			  
Queen 		  
Gemini 		  
Family 		  
Executive Suite 	  
Mega Suite 		  


=== RESERVATIONS ===

Deposits:


Claimed:



SECURITY DEPOSITS

Deposits:
Claimed:


=== SALES BREAKDOWN ===

Transaction Date	Room No.	Cash	Card

2011-03-10 16:06:36 	220 		395 	0 	
2011-03-10 16:06:46 	221 		395 	0 	
2011-03-10 16:08:25 	203 		465 	0 	
2011-03-10 16:13:17 	219 		395 	0 	
2011-03-10 16:13:28 	301 		395 	0 	
2011-03-10 16:21:34 	218 		0 	395 	
2011-03-10 16:24:17 	204 		345 	0 	
2011-03-10 16:30:31 	202 		276 	0 	
2011-03-10 16:30:43 	317 		395 	0 	
2011-03-10 16:39:31 	314 		30 	0 	
2011-03-10 16:39:48 	309 		395 	0 	
2011-03-10 16:43:46 	304 		395 	0 	
2011-03-10 16:46:28 	211 		0 	345 	
2011-03-10 16:48:25 	211 		0 	0 	
2011-03-10 16:48:25 	211 		0 	90 	
2011-03-10 16:49:01 	402 		395 	0 	
2011-03-10 16:55:16 	406 		395 	0 	
2011-03-10 16:56:38 	319 		395 	0 	
2011-03-10 17:08:03 	201 		345 	0 	
2011-03-10 17:15:44 	312 		40 	0 	
2011-03-10 17:17:03 	401 		395 	0 	
2011-03-10 17:35:29 	315 		395 	0 	
2011-03-10 17:39:17 	310 		275 	0 	
2011-03-10 17:45:15 	321 		395 	0 	
2011-03-10 17:54:09 	408 		395 	0 	
2011-03-10 17:58:12 	409 		395 	0 	
2011-03-10 17:59:23 	407 		395 	0 	
2011-03-10 18:04:38 	413 		395 	0 	
2011-03-10 18:26:48 	320 		345 	0 	
2011-03-10 18:28:18 	407 		350 	0 	
2011-03-10 18:30:58 	412 		395 	0 	
2011-03-10 18:40:58 	402 		25 	0 	
2011-03-10 18:46:00 	415 		395 	0 	
2011-03-10 18:48:08 	221 		395 	0 	
2011-03-10 18:59:15 	404 		695 	0 	
2011-03-10 18:59:35 	301 		395 	0 	
2011-03-10 19:00:43 	212 		595 	0 	
2011-03-10 19:00:58 	206 		345 	0 	
2011-03-10 19:02:19 	312 		695 	0 	
2011-03-10 19:03:34 	215 		345 	0 	
2011-03-10 19:06:49 	313 		695 	0 	
2011-03-10 19:07:57 	308 		316 	0 	
2011-03-10 19:10:21 	220 		316 	0 	
2011-03-10 19:10:36 	306 		695 	0 	
2011-03-10 19:13:24 	322 		395 	0 	
2011-03-10 19:15:40 	307 		695 	0 	
2011-03-10 19:18:16 	408 		395 	0 	
2011-03-10 19:22:50 	219 		395 	0 	
2011-03-10 19:24:11 	421 		395 	0 	
2011-03-10 19:27:04 	413 		695 	0 	
2011-03-10 19:31:33 	311 		275 	0 	
2011-03-10 19:36:54 	407 		10 	0 	
2011-03-10 19:37:53 	303 		345 	0 	
2011-03-10 19:38:12 	319 		395 	0 	
2011-03-10 19:42:10 	316 		345 	0 	
2011-03-10 19:43:59 	402 		695 	0 	
2011-03-10 19:45:42 	419 		695 	0 	
2011-03-10 19:49:14 	317 		695 	0 	
2011-03-10 19:59:05 	422 		395 	0 	
2011-03-10 19:59:33 	218 		395 	0 	
2011-03-10 20:01:14 	413 		245 	0 	
2011-03-10 20:06:56 	315 		695 	0 	
2011-03-10 20:10:20 	417 		695 	0 	
2011-03-10 20:14:18 	209 		275 	0 	
2011-03-10 20:23:50 	307 		210 	0 	
2011-03-10 20:24:14 	301 		395 	0 	
2011-03-10 20:28:59 	214 		595 	0 	
2011-03-10 20:34:12 	309 		395 	0 	
2011-03-10 20:37:16 	304 		395 	0 	
2011-03-10 20:40:17 	410 		595 	0 	
2011-03-10 20:41:19 	302 		0 	695 	
2011-03-10 20:41:36 	411 		595 	0 	
2011-03-10 20:49:37 	322 		395 	0 	
2011-03-10 20:52:49 	413 		90 	0 	
2011-03-10 20:53:23 	406 		695 	0 	
2011-03-10 20:56:10 	207 		345 	0 	
2011-03-10 21:03:03 	321 		695 	0 	
2011-03-10 21:10:24 	310 		275 	0 	
2011-03-10 21:11:56 	318 		645 	0 	
2011-03-10 21:17:13 	321 		25 	0 	
2011-03-10 21:18:58 	221 		395 	0 	
2011-03-10 21:19:57 	408 		695 	0 	
2011-03-10 21:21:44 	420 		645 	0 	
2011-03-10 21:24:45 	409 		395 	0 	
2011-03-10 21:26:34 	202 		645 	0 	
2011-03-10 21:29:09 	210 		345 	0 	
2011-03-10 21:29:21 	216 		275 	0 	
2011-03-10 21:29:33 	201 		345 	0 	
2011-03-10 21:32:24 	305 		595 	0 	
2011-03-10 21:32:35 	211 		645 	0 	
2011-03-10 21:43:44 	203 		345 	0 	
2011-03-10 21:44:03 	204 		645 	0 	
2011-03-10 21:45:06 	319 		405 	0 	
2011-03-10 21:48:42 	414 		645 	0 	
2011-03-10 21:50:09 	414 		140 	0 	
2011-03-10 21:51:47 	308 		25 	0 	
2011-03-10 21:58:19 	421 		695 	0 	
2011-03-10 22:02:20 	205 		345 	0 	
2011-03-10 22:06:49 	206 		345 	0 	
2011-03-10 22:07:08 	403 		345 	0 	
2011-03-10 22:07:59 	402 		40 	0 	
2011-03-10 22:08:13 	412 		395 	0 	
2011-03-10 22:12:31 	320 		345 	0 	
2011-03-10 22:14:12 	409 		25 	0 	
2011-03-10 22:14:23 	302 		75 	0 	
2011-03-10 22:15:02 	305 		90 	0 	
2011-03-10 22:17:42 	319 		695 	0 	
2011-03-10 22:21:36 	418 		645 	0 	
2011-03-10 22:22:30 	423 		595 	0 	
2011-03-10 22:24:56 	308 		395 	0 	
2011-03-10 22:28:53 	314 		645 	0 	
2011-03-10 22:29:29 	314 		50 	0 	
2011-03-10 22:35:39 	303 		645 	0 	
2011-03-10 22:39:25 	219 		695 	0 	
2011-03-10 22:41:36 	215 		345 	0 	
2011-03-10 22:46:35 	309 		695 	0 	
2011-03-10 22:48:13 	424 		595 	0 	
2011-03-10 22:55:33 	418 		145 	0 	
2011-03-10 22:56:44 	401 		395 	0 	
2011-03-10 23:05:42 	220 		395 	0 	
2011-03-10 23:13:04 	416 		645 	0 	
2011-03-10 23:13:39 	221 		395 	0 	
2011-03-10 23:31:52 	322 		695 	0 	
2011-03-10 23:43:53 	415 		280 	0 	
2011-03-10 23:49:16 	422 		695 	0 	
 			Total:		50488 	1525		

=== RECHIT LIST ===




V1