MSHOGUN 1: SHIFT END REPORT
Saturday July 30, 2011 7:58:59 AM

SALES TRANSACTION
Room Sales Order			27590
FnB Sales Order			2415
Beer Sales Order			840
Misc Sales Order			20
Room Sales Adjustment			0
GROSS SALES			30865

DISCOUNT
Room				0
FnB				0
Misc				0

DEPOSIT				5700
REFUND				

TOTAL ACCOUNTABILITY			36565

CASH DECLARATION			4050
CARD				645
FUNDS SAFEKEEP			10000
TOTAL CASH DECLARED			14695

TOTAL CASH ON SYSTEM			3640
OVER/SHORTAGES 			410

ROOM	 # OF CHECK-OUT	AMT
Value 		12	6080
Regular 		11	6255
Classique 		25	15255
Premium 		0	0
Regent 		0	0
Queen 		0	0
Gemini 		0	0
Family 		0	0
Executive Suite 	0	0
Mega Suite 	0	0

DISCOUNT 
Value 			  
Regular 		  
Classique 		  
Premium 		  
Regent 			  
Queen 		  
Gemini 		  
Family 		  
Executive Suite 	  
Mega Suite 		  


=== RESERVATIONS ===

Deposits:


Claimed:



SECURITY DEPOSITS

Deposits:
Claimed:


=== SALES BREAKDOWN ===

Transaction Date	Room No.	Cash	Card

2011-07-30 00:08:42 	210 		705 	0 	
2011-07-30 00:10:08 	215 		90 	0 	
2011-07-30 00:11:17 	324 		190 	0 	
2011-07-30 00:37:36 	404 		60 	0 	
2011-07-30 00:38:03 	210 		10 	0 	
2011-07-30 00:43:20 	207 		705 	0 	
2011-07-30 00:46:23 	208 		475 	0 	
2011-07-30 00:47:26 	306 		395 	0 	
2011-07-30 00:48:59 	319 		395 	0 	
2011-07-30 01:12:15 	214 		575 	0 	
2011-07-30 01:32:13 	317 		300 	0 	
2011-07-30 01:55:19 	423 		275 	0 	
2011-07-30 02:11:35 	410 		275 	0 	
2011-07-30 02:21:16 	424 		215 	0 	
2011-07-30 02:35:16 	201 		345 	0 	
2011-07-30 02:36:38 	215 		0 	705 	
2011-07-30 02:50:37 	404 		675 	0 	
2011-07-30 03:29:02 	306 		365 	0 	
2011-07-30 03:53:04 	306 		535 	0 	
2011-07-30 03:56:02 	319 		395 	0 	
2011-07-30 04:06:44 	402 		395 	0 	
2011-07-30 04:12:56 	324 		400 	0 	
2011-07-30 04:43:51 	423 		275 	0 	
2011-07-30 05:30:08 	421 		675 	0 	
2011-07-30 05:35:38 	218 		295 	0 	
2011-07-30 05:56:29 	407 		395 	0 	
2011-07-30 06:01:07 	415 		110 	0 	
2011-07-30 06:08:36 	218 		815 	0 	
2011-07-30 06:10:37 	201 		345 	0 	
2011-07-30 06:12:45 	201 		50 	0 	
2011-07-30 06:19:50 	417 		50 	0 	
2011-07-30 06:34:46 	309 		395 	0 	
2011-07-30 06:39:35 	302 		395 	0 	
2011-07-30 06:46:57 	323 		640 	0 	
2011-07-30 06:58:19 	419 		50 	0 	
2011-07-30 07:31:00 	416 		705 	0 	
2011-07-30 07:36:51 	208 		275 	0 	
2011-07-30 07:37:43 	307 		395 	0 	
 			Total:		13640 	705		

=== RECHIT LIST ===




V1