MSHOGUN 1: SHIFT END REPORT
Tuesday June 21, 2011 4:00:08 PM

SALES TRANSACTION
Room Sales Order			18690
FnB Sales Order			960
Beer Sales Order			0
Misc Sales Order			100
Room Sales Adjustment			0
GROSS SALES			19750

DISCOUNT
Room				0
FnB				0
Misc				0

DEPOSIT				6580
REFUND				

TOTAL ACCOUNTABILITY			26330

CASH DECLARATION			7106
CARD				0
FUNDS SAFEKEEP			10000
TOTAL CASH DECLARED			17106

TOTAL CASH ON SYSTEM			7106
OVER/SHORTAGES 			0

ROOM	 # OF CHECK-OUT	AMT
Value 		10	3270
Regular 		9	4305
Classique 		21	11115
Premium 		0	0
Regent 		0	0
Queen 		0	0
Gemini 		0	0
Family 		0	0
Executive Suite 	0	0
Mega Suite 	0	0

DISCOUNT 
Value 			  
Regular 		  
Classique 		  
Premium 		  
Regent 			  
Queen 		  
Gemini 		  
Family 		  
Executive Suite 	  
Mega Suite 		  


=== RESERVATIONS ===

Deposits:


Claimed:



SECURITY DEPOSITS

Deposits:
Claimed:


=== SALES BREAKDOWN ===

Transaction Date	Room No.	Cash	Card

2011-06-21 08:19:48 	310 		100 	0 	
2011-06-21 08:45:39 	423 		275 	0 	
2011-06-21 08:45:45 	424 		275 	0 	
2011-06-21 09:01:07 	Lobby 		35 	0 	
2011-06-21 09:49:35 	218 		395 	0 	
2011-06-21 09:50:03 	217 		275 	0 	
2011-06-21 10:10:07 	306 		815 	0 	
2011-06-21 10:11:12 	315 		395 	0 	
2011-06-21 11:16:42 	301 		395 	0 	
2011-06-21 11:21:32 	216 		100 	0 	
2011-06-21 11:34:44 	305 		275 	0 	
2011-06-21 11:34:56 	208 		275 	0 	
2011-06-21 11:38:04 	310 		275 	0 	
2011-06-21 11:58:02 	Lobby 		35 	0 	
2011-06-21 11:59:44 	220 		395 	0 	
2011-06-21 12:08:10 	312 		395 	0 	
2011-06-21 12:11:54 	307 		395 	0 	
2011-06-21 12:22:41 	312 		50 	0 	
2011-06-21 12:31:32 	323 		275 	0 	
2011-06-21 12:40:07 	302 		815 	0 	
2011-06-21 12:55:59 	321 		395 	0 	
2011-06-21 13:00:11 	322 		395 	0 	
2011-06-21 13:11:04 	314 		345 	0 	
2011-06-21 13:15:07 	218 		316 	0 	
2011-06-21 13:15:20 	315 		675 	0 	
2011-06-21 13:20:36 	221 		395 	0 	
2011-06-21 13:21:10 	304 		395 	0 	
2011-06-21 13:22:52 	211 		345 	0 	
2011-06-21 13:35:49 	210 		345 	0 	
2011-06-21 13:44:25 	303 		345 	0 	
2011-06-21 13:45:11 	213 		345 	0 	
2011-06-21 13:45:48 	213 		20 	0 	
2011-06-21 13:46:36 	206 		345 	0 	
2011-06-21 13:52:49 	204 		345 	0 	
2011-06-21 14:05:38 	205 		345 	0 	
2011-06-21 14:22:25 	301 		395 	0 	
2011-06-21 14:26:02 	314 		240 	0 	
2011-06-21 14:26:38 	209 		275 	0 	
2011-06-21 14:28:54 	207 		465 	0 	
2011-06-21 14:38:36 	306 		395 	0 	
2011-06-21 14:40:01 	203 		345 	0 	
2011-06-21 14:45:05 	308 		395 	0 	
2011-06-21 14:52:34 	202 		345 	0 	
2011-06-21 14:57:48 	307 		395 	0 	
2011-06-21 15:28:39 	220 		395 	0 	
2011-06-21 15:35:40 	317 		395 	0 	
2011-06-21 15:42:01 	312 		395 	0 	
2011-06-21 15:45:28 	218 		395 	0 	
2011-06-21 15:48:15 	208 		275 	0 	
2011-06-21 15:50:01 	321 		395 	0 	
2011-06-21 15:51:08 	208 		10 	0 	
 			Total:		17106 	0		

=== RECHIT LIST ===




V1