MSHOGUN 1: SHIFT END REPORT
Tuesday September 21, 2010 12:00:51 AM

SALES TRANSACTION
Room Sales Order			37685
FnB Sales Order			1635
Beer Sales Order			240
Misc Sales Order			40
Room Sales Adjustment			0
GROSS SALES			39600

DISCOUNT
Room				0
FnB				0
Misc				0

DEPOSIT				29300
REFUND				

TOTAL ACCOUNTABILITY			68900

CASH DECLARATION			8613
CARD				1075
FUNDS SAFEKEEP			40000
TOTAL CASH DECLARED			49688

TOTAL CASH ON SYSTEM			8613
OVER/SHORTAGES 			0

ROOM	 # OF CHECK-OUT	AMT
Value 		11	3225
Regular 		23	9855
Classique 		53	21355
Premium 		0	0
Regent 		2	2400
Queen 		1	850
Gemini 		0	0
Family 		0	0
Executive Suite 	0	0
Mega Suite 	0	0

DISCOUNT 
Value 			  
Regular 		  
Classique 		  
Premium 		  
Regent 			  
Queen 		  
Gemini 		  
Family 		  
Executive Suite 	  
Mega Suite 		  


=== RESERVATIONS ===

Deposits:


Claimed:



SECURITY DEPOSITS

Deposits:
Claimed:


=== SALES BREAKDOWN ===

Transaction Date	Room No.	Cash	Card

2010-09-20 16:11:07 	408 		395 	0 	
2010-09-20 16:11:19 	404 		395 	0 	
2010-09-20 16:19:55 	303 		345 	0 	
2010-09-20 16:24:05 	210 		276 	0 	
2010-09-20 16:43:35 	402 		395 	0 	
2010-09-20 16:43:46 	209 		275 	0 	
2010-09-20 16:51:35 	413 		395 	0 	
2010-09-20 16:57:34 	302 		395 	0 	
2010-09-20 16:58:26 	410 		275 	0 	
2010-09-20 17:06:07 	409 		395 	0 	
2010-09-20 17:08:00 	318 		345 	0 	
2010-09-20 17:10:15 	319 		25 	0 	
2010-09-20 17:15:26 	308 		395 	0 	
2010-09-20 17:15:36 	415 		395 	0 	
2010-09-20 17:22:56 	221 		395 	0 	
2010-09-20 17:28:25 	412 		395 	0 	
2010-09-20 17:28:39 	317 		395 	0 	
2010-09-20 17:28:52 	403 		345 	0 	
2010-09-20 17:29:58 	519 		0 	4800 	
2010-09-20 17:31:45 	407 		395 	0 	
2010-09-20 17:34:44 	309 		395 	0 	
2010-09-20 17:46:44 	314 		345 	0 	
2010-09-20 17:47:23 	403 		160 	0 	
2010-09-20 17:54:29 	414 		345 	0 	
2010-09-20 18:07:06 	417 		395 	0 	
2010-09-20 18:07:14 	416 		345 	0 	
2010-09-20 18:14:14 	419 		395 	0 	
2010-09-20 18:14:28 	422 		395 	0 	
2010-09-20 18:17:57 	301 		395 	0 	
2010-09-20 18:18:06 	418 		345 	0 	
2010-09-20 18:24:30 	406 		395 	0 	
2010-09-20 18:25:03 	307 		395 	0 	
2010-09-20 18:26:12 	306 		395 	0 	
2010-09-20 18:31:23 	319 		395 	0 	
2010-09-20 18:31:32 	310 		275 	0 	
2010-09-20 18:34:09 	201 		240 	0 	
2010-09-20 18:35:46 	517 		1600 	0 	
2010-09-20 18:36:25 	420 		345 	0 	
2010-09-20 18:40:01 	208 		275 	0 	
2010-09-20 18:45:54 	313 		140 	0 	
2010-09-20 18:47:15 	323 		595 	0 	
2010-09-20 18:47:24 	312 		395 	0 	
2010-09-20 18:47:32 	321 		695 	0 	
2010-09-20 18:50:07 	322 		395 	0 	
2010-09-20 18:51:22 	315 		395 	0 	
2010-09-20 18:54:16 	410 		210 	0 	
2010-09-20 18:54:35 	306 		210 	0 	
2010-09-20 18:57:36 	421 		395 	0 	
2010-09-20 19:02:53 	313 		395 	0 	
2010-09-20 19:04:21 	411 		275 	0 	
2010-09-20 19:04:33 	220 		695 	0 	
2010-09-20 19:05:57 	304 		395 	0 	
2010-09-20 19:22:42 	415 		260 	0 	
2010-09-20 19:22:52 	321 		50 	0 	
2010-09-20 19:25:03 	218 		395 	0 	
2010-09-20 19:26:30 	423 		275 	0 	
2010-09-20 19:35:19 	219 		695 	0 	
2010-09-20 19:38:43 	404 		695 	0 	
2010-09-20 19:44:11 	403 		645 	0 	
2010-09-20 19:44:34 	303 		345 	0 	
2010-09-20 19:44:55 	209 		275 	0 	
2010-09-20 19:49:04 	404 		50 	0 	
2010-09-20 19:50:00 	213 		276 	0 	
2010-09-20 19:50:13 	402 		395 	0 	
2010-09-20 19:50:28 	217 		595 	0 	
2010-09-20 20:02:11 	423 		220 	0 	
2010-09-20 20:03:08 	413 		695 	0 	
2010-09-20 20:03:34 	408 		695 	0 	
2010-09-20 20:03:43 	302 		395 	0 	
2010-09-20 20:04:32 	308 		695 	0 	
2010-09-20 20:06:30 	312 		65 	0 	
2010-09-20 20:08:28 	406 		316 	0 	
2010-09-20 20:08:38 	417 		395 	0 	
2010-09-20 20:17:14 	419 		695 	0 	
2010-09-20 20:19:30 	316 		345 	0 	
2010-09-20 20:19:36 	415 		395 	0 	
2010-09-20 20:23:33 	214 		275 	0 	
2010-09-20 20:24:52 	324 		595 	0 	
2010-09-20 20:26:41 	211 		345 	0 	
2010-09-20 20:32:52 	206 		345 	0 	
2010-09-20 20:45:42 	408 		200 	0 	
2010-09-20 20:58:14 	412 		395 	0 	
2010-09-20 20:58:24 	205 		345 	0 	
2010-09-20 21:04:40 	313 		695 	0 	
2010-09-20 21:10:01 	314 		645 	0 	
2010-09-20 21:12:48 	419 		350 	0 	
2010-09-20 21:13:05 	414 		645 	0 	
2010-09-20 21:13:14 	407 		395 	0 	
2010-09-20 21:13:23 	422 		395 	0 	
2010-09-20 21:20:08 	416 		345 	0 	
2010-09-20 21:31:46 	319 		695 	0 	
2010-09-20 21:45:22 	522 		750 	0 	
2010-09-20 21:49:03 	516 		800 	0 	
2010-09-20 21:49:42 	306 		395 	0 	
2010-09-20 21:49:50 	307 		695 	0 	
2010-09-20 21:51:44 	301 		395 	0 	
2010-09-20 21:54:46 	514 		800 	0 	
2010-09-20 21:55:16 	405 		595 	0 	
2010-09-20 21:59:04 	515 		800 	0 	
2010-09-20 22:01:17 	523 		750 	0 	
2010-09-20 22:07:03 	407 		80 	0 	
2010-09-20 22:07:10 	220 		245 	0 	
2010-09-20 22:07:38 	313 		415 	0 	
2010-09-20 22:12:59 	321 		40 	0 	
2010-09-20 22:13:27 	305 		595 	0 	
2010-09-20 22:31:07 	423 		595 	0 	
2010-09-20 22:36:32 	422 		210 	0 	
2010-09-20 22:36:58 	523 		250 	0 	
2010-09-20 22:40:04 	310 		150 	0 	
2010-09-20 22:40:33 	305 		190 	0 	
2010-09-20 22:46:20 	215 		645 	0 	
2010-09-20 22:48:21 	308 		50 	0 	
2010-09-20 23:03:00 	304 		395 	0 	
2010-09-20 23:06:24 	406 		10 	0 	
2010-09-20 23:15:36 	310 		200 	0 	
2010-09-20 23:25:13 	415 		40 	0 	
2010-09-20 23:27:13 	424 		595 	0 	
2010-09-20 23:50:43 	418 		645 	0 	
2010-09-20 23:50:49 	420 		645 	0 	
2010-09-20 23:52:38 	320 		465 	0 	
 			Total:		48613 	4800		

=== RECHIT LIST ===




V1