MSHOGUN 1: SHIFT END REPORT
Wednesday March 23, 2011 8:00:16 AM

SALES TRANSACTION
Room Sales Order			18660
FnB Sales Order			1161
Beer Sales Order			225
Misc Sales Order			0
Room Sales Adjustment			0
GROSS SALES			20046

DISCOUNT
Room				0
FnB				0
Misc				0

DEPOSIT				2480
REFUND				

TOTAL ACCOUNTABILITY			22526

CASH DECLARATION			8892
CARD				0
FUNDS SAFEKEEP			0
TOTAL CASH DECLARED			8892

TOTAL CASH ON SYSTEM			8893
OVER/SHORTAGES 			-1

ROOM	 # OF CHECK-OUT	AMT
Value 		3	1445
Regular 		10	5130
Classique 		23	12085
Premium 		0	0
Regent 		0	0
Queen 		0	0
Gemini 		0	0
Family 		0	0
Executive Suite 	0	0
Mega Suite 	0	0

DISCOUNT 
Value 			  
Regular 		  
Classique 		  
Premium 		  
Regent 			  
Queen 		  
Gemini 		  
Family 		  
Executive Suite 	  
Mega Suite 		  


=== RESERVATIONS ===

Deposits:


Claimed:



SECURITY DEPOSITS

Deposits:
Claimed:


=== SALES BREAKDOWN ===

Transaction Date	Room No.	Cash	Card

2011-03-23 00:09:52 	Lobby 		45 	0 	
2011-03-23 00:20:17 	406 		50 	0 	
2011-03-23 00:26:53 	402 		50 	0 	
2011-03-23 00:47:55 	421 		10 	0 	
2011-03-23 00:53:17 	305 		275 	0 	
2011-03-23 00:56:49 	303 		115 	0 	
2011-03-23 01:03:23 	218 		395 	0 	
2011-03-23 01:04:55 	324 		475 	0 	
2011-03-23 01:05:08 	324 		25 	0 	
2011-03-23 01:17:56 	322 		395 	0 	
2011-03-23 01:24:01 	221 		395 	0 	
2011-03-23 01:50:21 	401 		395 	0 	
2011-03-23 02:13:15 	314 		345 	0 	
2011-03-23 02:17:39 	318 		345 	0 	
2011-03-23 02:20:36 	321 		695 	0 	
2011-03-23 02:35:44 	213 		345 	0 	
2011-03-23 02:49:43 	215 		345 	0 	
2011-03-23 03:17:17 	309 		395 	0 	
2011-03-23 03:18:07 	301 		395 	0 	
2011-03-23 03:18:44 	218 		25 	0 	
2011-03-23 03:20:45 	318 		245 	0 	
2011-03-23 04:25:59 	304 		105 	0 	
2011-03-23 04:26:00 	304 		110 	0 	
2011-03-23 04:26:21 	211 		465 	0 	
2011-03-23 04:38:37 	322 		395 	0 	
2011-03-23 04:46:23 	210 		585 	0 	
2011-03-23 04:54:14 	305 		210 	0 	
2011-03-23 06:44:37 	320 		228 	0 	
2011-03-23 06:57:37 	402 		240 	0 	
2011-03-23 07:26:54 	315 		55 	0 	
2011-03-23 07:28:06 	317 		395 	0 	
2011-03-23 07:32:17 	204 		345 	0 	
 			Total:		8893 	0		

=== RECHIT LIST ===




V1