MSHOGUN 1: SHIFT END REPORT
Thursday June 02, 2011 4:00:24 PM

SALES TRANSACTION
Room Sales Order			30380
FnB Sales Order			1700
Beer Sales Order			0
Misc Sales Order			160
Room Sales Adjustment			0
GROSS SALES			32240

DISCOUNT
Room				0
FnB				0
Misc				0

DEPOSIT				12035
REFUND				

TOTAL ACCOUNTABILITY			44275

CASH DECLARATION			6033
CARD				325
FUNDS SAFEKEEP			20000
TOTAL CASH DECLARED			26358

TOTAL CASH ON SYSTEM			6208
OVER/SHORTAGES 			-175

ROOM	 # OF CHECK-OUT	AMT
Value 		11	3965
Regular 		12	5640
Classique 		37	20775
Premium 		0	0
Regent 		0	0
Queen 		0	0
Gemini 		0	0
Family 		0	0
Executive Suite 	0	0
Mega Suite 	0	0

DISCOUNT 
Value 			  
Regular 		  
Classique 		  
Premium 		  
Regent 			  
Queen 		  
Gemini 		  
Family 		  
Executive Suite 	  
Mega Suite 		  


=== RESERVATIONS ===

Deposits:


Claimed:



SECURITY DEPOSITS

Deposits:
Claimed:


=== SALES BREAKDOWN ===

Transaction Date	Room No.	Cash	Card

2011-06-02 09:01:15 	211 		200 	0 	
2011-06-02 09:23:52 	412 		20 	0 	
2011-06-02 09:44:39 	309 		395 	0 	
2011-06-02 09:48:44 	304 		316 	0 	
2011-06-02 10:06:55 	305 		275 	0 	
2011-06-02 10:13:23 	311 		275 	0 	
2011-06-02 10:23:53 	301 		395 	0 	
2011-06-02 10:34:22 	315 		395 	0 	
2011-06-02 10:34:30 	203 		345 	0 	
2011-06-02 10:40:31 	317 		535 	0 	
2011-06-02 10:47:35 	313 		395 	0 	
2011-06-02 11:05:21 	406 		395 	0 	
2011-06-02 11:08:50 	415 		560 	0 	
2011-06-02 11:13:11 	213 		345 	0 	
2011-06-02 11:16:31 	204 		65 	0 	
2011-06-02 11:20:54 	320 		345 	0 	
2011-06-02 11:26:31 	407 		395 	0 	
2011-06-02 11:31:37 	417 		395 	0 	
2011-06-02 11:40:07 	322 		0 	325 	
2011-06-02 11:41:28 	209 		275 	0 	
2011-06-02 11:48:26 	207 		276 	0 	
2011-06-02 11:53:54 	210 		345 	0 	
2011-06-02 11:54:02 	419 		395 	0 	
2011-06-02 11:56:01 	413 		395 	0 	
2011-06-02 12:00:25 	302 		430 	0 	
2011-06-02 12:01:21 	421 		535 	0 	
2011-06-02 12:03:18 	219 		395 	0 	
2011-06-02 12:10:03 	219 		45 	0 	
2011-06-02 12:18:34 	307 		395 	0 	
2011-06-02 12:26:53 	422 		596 	0 	
2011-06-02 12:33:43 	412 		395 	0 	
2011-06-02 12:54:38 	306 		395 	0 	
2011-06-02 13:06:00 	208 		575 	0 	
2011-06-02 13:10:06 	312 		395 	0 	
2011-06-02 13:12:11 	212 		275 	0 	
2011-06-02 13:12:46 	216 		275 	0 	
2011-06-02 13:14:08 	405 		275 	0 	
2011-06-02 13:26:06 	218 		395 	0 	
2011-06-02 13:27:23 	304 		395 	0 	
2011-06-02 13:30:47 	215 		345 	0 	
2011-06-02 13:39:55 	323 		275 	0 	
2011-06-02 13:41:55 	324 		275 	0 	
2011-06-02 13:56:36 	424 		275 	0 	
2011-06-02 14:01:57 	405 		50 	0 	
2011-06-02 14:06:58 	320 		345 	0 	
2011-06-02 14:07:08 	308 		395 	0 	
2011-06-02 14:10:57 	313 		395 	0 	
2011-06-02 14:23:22 	315 		395 	0 	
2011-06-02 14:23:34 	301 		395 	0 	
2011-06-02 14:25:15 	408 		395 	0 	
2011-06-02 14:31:25 	311 		475 	0 	
2011-06-02 14:37:57 	217 		275 	0 	
2011-06-02 14:44:51 	402 		395 	0 	
2011-06-02 14:48:37 	303 		345 	0 	
2011-06-02 14:48:43 	406 		395 	0 	
2011-06-02 15:02:51 	303 		30 	0 	
2011-06-02 15:04:13 	403 		345 	0 	
2011-06-02 15:04:24 	407 		395 	0 	
2011-06-02 15:11:04 	312 		395 	0 	
2011-06-02 15:11:12 	414 		345 	0 	
2011-06-02 15:12:42 	307 		395 	0 	
2011-06-02 15:19:18 	317 		395 	0 	
2011-06-02 15:19:26 	302 		395 	0 	
2011-06-02 15:19:32 	416 		345 	0 	
2011-06-02 15:20:34 	404 		840 	0 	
2011-06-02 15:24:21 	322 		395 	0 	
2011-06-02 15:24:40 	314 		345 	0 	
2011-06-02 15:25:21 	319 		395 	0 	
2011-06-02 15:30:52 	321 		395 	0 	
2011-06-02 15:35:05 	412 		395 	0 	
2011-06-02 15:38:00 	322 		40 	0 	
2011-06-02 15:41:49 	416 		25 	0 	
2011-06-02 15:54:28 	415 		395 	0 	
2011-06-02 15:54:39 	405 		275 	0 	
2011-06-02 15:54:46 	420 		345 	0 	
2011-06-02 15:54:53 	413 		395 	0 	
 			Total:		26208 	325		

=== RECHIT LIST ===




V1