MSHOGUN 1: SHIFT END REPORT
Sunday June 05, 2011 12:00:04 AM

SALES TRANSACTION
Room Sales Order			48780
FnB Sales Order			1730
Beer Sales Order			360
Misc Sales Order			135
Room Sales Adjustment			0
GROSS SALES			51005

DISCOUNT
Room				0
FnB				0
Misc				0

DEPOSIT				39068
REFUND				

TOTAL ACCOUNTABILITY			90073

CASH DECLARATION			9860
CARD				0
FUNDS SAFEKEEP			60000
TOTAL CASH DECLARED			69860

TOTAL CASH ON SYSTEM			9865
OVER/SHORTAGES 			-5

ROOM	 # OF CHECK-OUT	AMT
Value 		19	6545
Regular 		31	12015
Classique 		68	30220
Premium 		0	0
Regent 		0	0
Queen 		0	0
Gemini 		0	0
Family 		0	0
Executive Suite 	0	0
Mega Suite 	0	0

DISCOUNT 
Value 			  
Regular 		  
Classique 		  
Premium 		  
Regent 			  
Queen 		  
Gemini 		  
Family 		  
Executive Suite 	  
Mega Suite 		  


=== RESERVATIONS ===

Deposits:


Claimed:



SECURITY DEPOSITS

Deposits:
Claimed:


=== SALES BREAKDOWN ===

Transaction Date	Room No.	Cash	Card

2011-06-04 16:04:56 	206 		110 	0 	
2011-06-04 16:05:55 	208 		275 	0 	
2011-06-04 16:15:53 	207 		345 	0 	
2011-06-04 16:17:56 	202 		345 	0 	
2011-06-04 16:18:20 	205 		345 	0 	
2011-06-04 16:20:14 	203 		345 	0 	
2011-06-04 16:21:06 	307 		135 	0 	
2011-06-04 16:21:52 	305 		85 	0 	
2011-06-04 16:36:45 	206 		345 	0 	
2011-06-04 16:37:28 	211 		345 	0 	
2011-06-04 16:40:15 	213 		345 	0 	
2011-06-04 16:42:21 	320 		345 	0 	
2011-06-04 16:43:41 	322 		395 	0 	
2011-06-04 16:48:42 	318 		276 	0 	
2011-06-04 16:49:04 	308 		395 	0 	
2011-06-04 16:52:31 	307 		395 	0 	
2011-06-04 16:59:33 	315 		395 	0 	
2011-06-04 17:02:01 	306 		395 	0 	
2011-06-04 17:02:09 	407 		395 	0 	
2011-06-04 17:06:50 	408 		675 	0 	
2011-06-04 17:12:19 	414 		345 	0 	
2011-06-04 17:12:59 	417 		50 	0 	
2011-06-04 17:13:37 	420 		345 	0 	
2011-06-04 17:13:49 	319 		395 	0 	
2011-06-04 17:16:08 	418 		345 	0 	
2011-06-04 17:17:09 	301 		395 	0 	
2011-06-04 17:18:24 	404 		140 	0 	
2011-06-04 17:19:11 	220 		395 	0 	
2011-06-04 17:20:49 	302 		395 	0 	
2011-06-04 17:21:28 	419 		395 	0 	
2011-06-04 17:22:44 	209 		275 	0 	
2011-06-04 17:23:28 	401 		560 	0 	
2011-06-04 17:31:24 	317 		395 	0 	
2011-06-04 17:35:43 	221 		395 	0 	
2011-06-04 17:36:16 	219 		316 	0 	
2011-06-04 17:37:07 	402 		395 	0 	
2011-06-04 17:42:39 	312 		395 	0 	
2011-06-04 17:44:45 	404 		395 	0 	
2011-06-04 17:48:05 	416 		345 	0 	
2011-06-04 17:48:41 	310 		275 	0 	
2011-06-04 17:50:21 	201 		345 	0 	
2011-06-04 18:00:09 	212 		475 	0 	
2011-06-04 18:02:48 	409 		395 	0 	
2011-06-04 18:04:37 	423 		100 	0 	
2011-06-04 18:14:28 	311 		275 	0 	
2011-06-04 18:27:28 	309 		395 	0 	
2011-06-04 18:28:17 	309 		50 	0 	
2011-06-04 18:28:24 	401 		395 	0 	
2011-06-04 18:29:36 	301 		395 	0 	
2011-06-04 18:31:51 	422 		395 	0 	
2011-06-04 18:36:13 	412 		395 	0 	
2011-06-04 18:36:36 	313 		535 	0 	
2011-06-04 18:41:01 	321 		395 	0 	
2011-06-04 18:43:14 	210 		345 	0 	
2011-06-04 18:44:08 	202 		345 	0 	
2011-06-04 18:46:54 	406 		535 	0 	
2011-06-04 18:49:44 	421 		395 	0 	
2011-06-04 18:52:21 	415 		395 	0 	
2011-06-04 18:56:31 	206 		345 	0 	
2011-06-04 18:57:52 	403 		645 	0 	
2011-06-04 19:00:44 	302 		695 	0 	
2011-06-04 19:02:18 	218 		395 	0 	
2011-06-04 19:05:43 	307 		395 	0 	
2011-06-04 19:06:32 	303 		645 	0 	
2011-06-04 19:09:31 	410 		275 	0 	
2011-06-04 19:13:03 	204 		345 	0 	
2011-06-04 19:13:10 	420 		645 	0 	
2011-06-04 19:14:31 	314 		645 	0 	
2011-06-04 19:17:43 	215 		645 	0 	
2011-06-04 19:20:42 	205 		190 	0 	
2011-06-04 19:21:32 	316 		345 	0 	
2011-06-04 19:21:56 	208 		275 	0 	
2011-06-04 19:23:33 	423 		595 	0 	
2011-06-04 19:27:09 	418 		345 	0 	
2011-06-04 19:28:42 	417 		395 	0 	
2011-06-04 19:35:17 	217 		275 	0 	
2011-06-04 19:36:12 	420 		40 	0 	
2011-06-04 19:41:01 	305 		275 	0 	
2011-06-04 19:41:29 	315 		395 	0 	
2011-06-04 19:42:47 	323 		595 	0 	
2011-06-04 19:43:36 	323 		10 	0 	
2011-06-04 19:44:49 	216 		275 	0 	
2011-06-04 19:52:19 	419 		695 	0 	
2011-06-04 19:55:00 	413 		695 	0 	
2011-06-04 19:55:12 	402 		395 	0 	
2011-06-04 19:56:47 	324 		275 	0 	
2011-06-04 20:00:02 	407 		695 	0 	
2011-06-04 20:01:22 	303 		198 	0 	
2011-06-04 20:13:50 	205 		345 	0 	
2011-06-04 20:20:34 	415 		285 	0 	
2011-06-04 20:21:42 	311 		275 	0 	
2011-06-04 20:30:42 	211 		645 	0 	
2011-06-04 20:33:51 	308 		695 	0 	
2011-06-04 20:34:59 	218 		695 	0 	
2011-06-04 20:35:53 	419 		200 	0 	
2011-06-04 20:36:46 	306 		695 	0 	
2011-06-04 20:38:31 	213 		645 	0 	
2011-06-04 20:39:41 	309 		395 	0 	
2011-06-04 20:41:37 	321 		695 	0 	
2011-06-04 20:49:49 	312 		395 	0 	
2011-06-04 20:59:38 	304 		420 	0 	
2011-06-04 21:03:50 	319 		695 	0 	
2011-06-04 21:05:34 	220 		695 	0 	
2011-06-04 21:07:10 	317 		695 	0 	
2011-06-04 21:08:06 	405 		595 	0 	
2011-06-04 21:09:30 	219 		695 	0 	
2011-06-04 21:11:38 	320 		645 	0 	
2011-06-04 21:12:13 	207 		345 	0 	
2011-06-04 21:13:10 	221 		395 	0 	
2011-06-04 21:15:01 	203 		645 	0 	
2011-06-04 21:17:27 	318 		645 	0 	
2011-06-04 21:18:55 	304 		695 	0 	
2011-06-04 21:19:56 	322 		695 	0 	
2011-06-04 21:22:15 	305 		595 	0 	
2011-06-04 21:23:14 	416 		120 	0 	
2011-06-04 21:23:59 	417 		210 	0 	
2011-06-04 21:25:54 	424 		595 	0 	
2011-06-04 21:27:01 	319 		270 	0 	
2011-06-04 21:30:04 	404 		695 	0 	
2011-06-04 21:33:00 	201 		585 	0 	
2011-06-04 21:34:08 	417 		695 	0 	
2011-06-04 21:36:57 	409 		675 	0 	
2011-06-04 21:38:09 	414 		645 	0 	
2011-06-04 21:41:53 	402 		695 	0 	
2011-06-04 21:42:43 	401 		395 	0 	
2011-06-04 21:47:16 	421 		695 	0 	
2011-06-04 21:48:08 	316 		40 	0 	
2011-06-04 21:53:05 	416 		645 	0 	
2011-06-04 21:54:29 	412 		395 	0 	
2011-06-04 21:57:04 	310 		275 	0 	
2011-06-04 21:57:51 	408 		695 	0 	
2011-06-04 22:02:33 	201 		115 	0 	
2011-06-04 22:04:16 	404 		205 	0 	
2011-06-04 22:04:23 	203 		210 	0 	
2011-06-04 22:05:41 	422 		695 	0 	
2011-06-04 22:06:38 	316 		645 	0 	
2011-06-04 22:09:07 	210 		345 	0 	
2011-06-04 22:10:04 	204 		645 	0 	
2011-06-04 22:11:50 	301 		395 	0 	
2011-06-04 22:17:07 	311 		10 	0 	
2011-06-04 22:17:50 	206 		645 	0 	
2011-06-04 22:19:21 	319 		180 	0 	
2011-06-04 22:19:53 	202 		645 	0 	
2011-06-04 22:33:43 	208 		275 	0 	
2011-06-04 22:38:44 	406 		695 	0 	
2011-06-04 22:41:45 	311 		275 	0 	
2011-06-04 22:43:21 	418 		645 	0 	
2011-06-04 22:44:27 	410 		275 	0 	
2011-06-04 22:45:37 	216 		595 	0 	
2011-06-04 22:46:12 	415 		140 	0 	
2011-06-04 22:49:03 	217 		275 	0 	
2011-06-04 22:52:15 	315 		695 	0 	
2011-06-04 22:57:43 	313 		695 	0 	
2011-06-04 23:01:18 	324 		595 	0 	
2011-06-04 23:10:36 	209 		475 	0 	
2011-06-04 23:13:25 	307 		815 	0 	
2011-06-04 23:14:23 	317 		100 	0 	
2011-06-04 23:15:15 	301 		395 	0 	
2011-06-04 23:20:27 	415 		0 	695 	
2011-06-04 23:36:16 	309 		395 	0 	
2011-06-04 23:38:01 	214 		275 	0 	
2011-06-04 23:39:12 	307 		80 	0 	
2011-06-04 23:39:58 	324 		175 	0 	
2011-06-04 23:46:41 	412 		815 	0 	
2011-06-04 23:47:00 	Lobby 		110 	0 	
2011-06-04 23:49:22 	212 		340 	0 	
2011-06-04 23:50:40 	208 		275 	0 	
2011-06-04 23:53:14 	312 		145 	0 	
 			Total:		69865 	695		

=== RECHIT LIST ===




V1