MSHOGUN 1: SHIFT END REPORT
Wednesday May 04, 2011 8:00:21 AM

SALES TRANSACTION
Room Sales Order			25035
FnB Sales Order			1058
Beer Sales Order			180
Misc Sales Order			10
Room Sales Adjustment			0
GROSS SALES			26283

DISCOUNT
Room				0
FnB				0
Misc				0

DEPOSIT				4395
REFUND				

TOTAL ACCOUNTABILITY			30678

CASH DECLARATION			2735
CARD				1040
FUNDS SAFEKEEP			10000
TOTAL CASH DECLARED			13775

TOTAL CASH ON SYSTEM			2785
OVER/SHORTAGES 			-50

ROOM	 # OF CHECK-OUT	AMT
Value 		7	3605
Regular 		20	10800
Classique 		18	10630
Premium 		0	0
Regent 		0	0
Queen 		0	0
Gemini 		0	0
Family 		0	0
Executive Suite 	0	0
Mega Suite 	0	0

DISCOUNT 
Value 			  
Regular 		  
Classique 		  
Premium 		  
Regent 			  
Queen 		  
Gemini 		  
Family 		  
Executive Suite 	  
Mega Suite 		  


=== RESERVATIONS ===

Deposits:


Claimed:



SECURITY DEPOSITS

Deposits:
Claimed:


=== SALES BREAKDOWN ===

Transaction Date	Room No.	Cash	Card

2011-05-04 00:09:02 	210 		585 	0 	
2011-05-04 00:12:00 	412 		695 	0 	
2011-05-04 00:16:12 	210 		25 	0 	
2011-05-04 00:21:37 	203 		240 	0 	
2011-05-04 00:24:40 	314 		645 	0 	
2011-05-04 00:31:50 	408 		395 	0 	
2011-05-04 00:42:15 	219 		200 	0 	
2011-05-04 00:42:19 	219 		50 	0 	
2011-05-04 00:45:10 	201 		585 	0 	
2011-05-04 01:00:12 	415 		695 	0 	
2011-05-04 01:11:27 	420 		645 	0 	
2011-05-04 01:12:14 	201 		50 	0 	
2011-05-04 01:19:29 	213 		585 	0 	
2011-05-04 01:22:19 	416 		345 	0 	
2011-05-04 01:24:08 	421 		395 	0 	
2011-05-04 01:36:12 	408 		695 	0 	
2011-05-04 01:41:15 	408 		100 	0 	
2011-05-04 02:52:42 	409 		395 	0 	
2011-05-04 02:59:59 	221 		280 	0 	
2011-05-04 03:45:46 	303 		345 	0 	
2011-05-04 03:46:42 	303 		25 	0 	
2011-05-04 03:47:05 	301 		675 	0 	
2011-05-04 03:54:08 	401 		0 	395 	
2011-05-04 03:54:22 	211 		345 	0 	
2011-05-04 04:13:53 	421 		395 	0 	
2011-05-04 04:23:19 	204 		345 	0 	
2011-05-04 04:52:09 	301 		25 	0 	
2011-05-04 05:20:03 	304 		395 	0 	
2011-05-04 05:22:56 	410 		200 	0 	
2011-05-04 05:27:21 	219 		280 	0 	
2011-05-04 05:29:09 	416 		705 	0 	
2011-05-04 06:41:21 	211 		55 	0 	
2011-05-04 07:01:26 	422 		175 	0 	
2011-05-04 07:02:02 	312 		25 	0 	
2011-05-04 07:02:06 	312 		25 	0 	
2011-05-04 07:06:56 	202 		100 	0 	
2011-05-04 07:09:09 	415 		175 	0 	
2011-05-04 07:10:55 	315 		255 	0 	
2011-05-04 07:17:45 	418 		50 	0 	
2011-05-04 07:19:51 	307 		50 	0 	
2011-05-04 07:23:09 	402 		395 	0 	
2011-05-04 07:50:37 	401 		140 	0 	
 			Total:		12785 	395		

=== RECHIT LIST ===




V1