MSHOGUN 1: SHIFT END REPORT
Tuesday February 08, 2011 4:00:05 PM

SALES TRANSACTION
Room Sales Order			26675
FnB Sales Order			1769
Beer Sales Order			0
Misc Sales Order			20
Room Sales Adjustment			0
GROSS SALES			28464

DISCOUNT
Room				0
FnB				0
Misc				0

DEPOSIT				12920
REFUND				

TOTAL ACCOUNTABILITY			41384

CASH DECLARATION			6700
CARD				695
FUNDS SAFEKEEP			20000
TOTAL CASH DECLARED			27395

TOTAL CASH ON SYSTEM			6705
OVER/SHORTAGES 			-5

ROOM	 # OF CHECK-OUT	AMT
Value 		4	1740
Regular 		18	8670
Classique 		31	16265
Premium 		0	0
Regent 		0	0
Queen 		0	0
Gemini 		0	0
Family 		0	0
Executive Suite 	0	0
Mega Suite 	0	0

DISCOUNT 
Value 			  
Regular 		  
Classique 		  
Premium 		  
Regent 			  
Queen 		  
Gemini 		  
Family 		  
Executive Suite 	  
Mega Suite 		  


=== RESERVATIONS ===

Deposits:


Claimed:



SECURITY DEPOSITS

Deposits:
Claimed:


=== SALES BREAKDOWN ===

Transaction Date	Room No.	Cash	Card

2011-02-08 08:03:24 	320 		295 	0 	
2011-02-08 08:04:30 	316 		225 	0 	
2011-02-08 09:08:08 	308 		395 	0 	
2011-02-08 09:21:15 	321 		190 	0 	
2011-02-08 09:30:33 	312 		50 	0 	
2011-02-08 09:33:05 	218 		395 	0 	
2011-02-08 09:38:42 	419 		440 	0 	
2011-02-08 09:48:55 	212 		275 	0 	
2011-02-08 10:01:00 	212 		25 	0 	
2011-02-08 10:02:18 	207 		345 	0 	
2011-02-08 10:06:30 	219 		316 	0 	
2011-02-08 10:16:08 	307 		395 	0 	
2011-02-08 10:23:35 	302 		316 	0 	
2011-02-08 10:32:25 	210 		276 	0 	
2011-02-08 10:47:53 	204 		345 	0 	
2011-02-08 11:09:48 	301 		395 	0 	
2011-02-08 11:12:46 	309 		395 	0 	
2011-02-08 11:21:15 	214 		275 	0 	
2011-02-08 11:34:49 	220 		395 	0 	
2011-02-08 11:39:03 	213 		345 	0 	
2011-02-08 11:40:55 	404 		395 	0 	
2011-02-08 11:52:44 	303 		705 	0 	
2011-02-08 12:01:35 	211 		465 	0 	
2011-02-08 12:17:00 	318 		345 	0 	
2011-02-08 12:31:45 	220 		190 	0 	
2011-02-08 12:36:49 	315 		395 	0 	
2011-02-08 12:38:34 	319 		395 	0 	
2011-02-08 12:40:08 	206 		345 	0 	
2011-02-08 12:46:23 	315 		50 	0 	
2011-02-08 12:46:47 	406 		395 	0 	
2011-02-08 12:56:02 	404 		110 	0 	
2011-02-08 12:56:28 	407 		395 	0 	
2011-02-08 13:04:12 	202 		345 	0 	
2011-02-08 13:11:03 	216 		275 	0 	
2011-02-08 13:13:09 	203 		345 	0 	
2011-02-08 13:20:35 	313 		395 	0 	
2011-02-08 13:20:45 	308 		395 	0 	
2011-02-08 13:22:17 	205 		276 	0 	
2011-02-08 13:29:06 	324 		575 	0 	
2011-02-08 13:29:30 	413 		395 	0 	
2011-02-08 13:30:09 	316 		705 	0 	
2011-02-08 13:48:45 	219 		395 	0 	
2011-02-08 13:50:17 	220 		395 	0 	
2011-02-08 14:06:52 	307 		675 	0 	
2011-02-08 14:10:43 	218 		395 	0 	
2011-02-08 14:13:24 	221 		395 	0 	
2011-02-08 14:18:41 	321 		395 	0 	
2011-02-08 14:19:25 	215 		276 	0 	
2011-02-08 14:19:54 	304 		395 	0 	
2011-02-08 14:26:56 	412 		675 	0 	
2011-02-08 14:31:08 	204 		345 	0 	
2011-02-08 14:38:16 	403 		345 	0 	
2011-02-08 14:44:26 	419 		815 	0 	
2011-02-08 14:55:40 	416 		345 	0 	
2011-02-08 14:56:51 	302 		395 	0 	
2011-02-08 15:05:36 	404 		395 	0 	
2011-02-08 15:05:48 	402 		395 	0 	
2011-02-08 15:09:50 	309 		395 	0 	
2011-02-08 15:13:25 	322 		395 	0 	
2011-02-08 15:15:23 	407 		395 	0 	
2011-02-08 15:21:06 	212 		275 	0 	
2011-02-08 15:22:19 	219 		395 	0 	
2011-02-08 15:24:19 	418 		345 	0 	
2011-02-08 15:24:57 	420 		705 	0 	
2011-02-08 15:29:34 	422 		395 	0 	
2011-02-08 15:32:48 	213 		120 	0 	
2011-02-08 15:33:27 	421 		395 	0 	
2011-02-08 15:40:36 	401 		395 	0 	
2011-02-08 15:45:23 	201 		345 	0 	
2011-02-08 15:45:40 	221 		395 	0 	
2011-02-08 15:47:36 	312 		395 	0 	
2011-02-08 15:49:24 	220 		300 	0 	
2011-02-08 15:54:15 	413 		50 	0 	
 			Total:		26705 	0		

=== RECHIT LIST ===




V1