MSHOGUN 1: SHIFT END REPORT
Wednesday October 20, 2010 12:00:02 AM

SALES TRANSACTION
Room Sales Order			28520
FnB Sales Order			1320
Beer Sales Order			680
Misc Sales Order			110
Room Sales Adjustment			0
GROSS SALES			30630

DISCOUNT
Room				0
FnB				0
Misc				0

DEPOSIT				16281
REFUND				

TOTAL ACCOUNTABILITY			46911

CASH DECLARATION			7304
CARD				345
FUNDS SAFEKEEP			30000
TOTAL CASH DECLARED			37649

TOTAL CASH ON SYSTEM			7304
OVER/SHORTAGES 			0

ROOM	 # OF CHECK-OUT	AMT
Value 		12	3600
Regular 		23	9375
Classique 		39	15545
Premium 		0	0
Regent 		0	0
Queen 		0	0
Gemini 		0	0
Family 		0	0
Executive Suite 	0	0
Mega Suite 	0	0

DISCOUNT 
Value 			  
Regular 		  
Classique 		  
Premium 		  
Regent 			  
Queen 		  
Gemini 		  
Family 		  
Executive Suite 	  
Mega Suite 		  


=== RESERVATIONS ===

Deposits:


Claimed:



SECURITY DEPOSITS

Deposits:
Claimed:


=== SALES BREAKDOWN ===

Transaction Date	Room No.	Cash	Card

2010-10-19 16:09:00 	316 		345 	0 	
2010-10-19 16:12:53 	304 		395 	0 	
2010-10-19 16:17:44 	208 		275 	0 	
2010-10-19 16:18:27 	309 		395 	0 	
2010-10-19 16:18:56 	308 		395 	0 	
2010-10-19 16:20:18 	303 		276 	0 	
2010-10-19 16:26:24 	315 		395 	0 	
2010-10-19 16:27:05 	211 		0 	345 	
2010-10-19 16:28:59 	212 		275 	0 	
2010-10-19 16:31:32 	215 		345 	0 	
2010-10-19 16:36:03 	317 		395 	0 	
2010-10-19 16:40:55 	414 		240 	0 	
2010-10-19 16:47:37 	212 		230 	0 	
2010-10-19 16:54:20 	312 		395 	0 	
2010-10-19 16:56:42 	422 		55 	0 	
2010-10-19 17:03:40 	402 		395 	0 	
2010-10-19 17:13:38 	313 		395 	0 	
2010-10-19 17:20:12 	407 		395 	0 	
2010-10-19 17:28:25 	207 		345 	0 	
2010-10-19 17:30:36 	310 		160 	0 	
2010-10-19 17:31:33 	404 		395 	0 	
2010-10-19 17:33:57 	307 		395 	0 	
2010-10-19 17:34:55 	307 		30 	0 	
2010-10-19 17:37:22 	314 		276 	0 	
2010-10-19 17:37:44 	303 		345 	0 	
2010-10-19 17:38:21 	301 		395 	0 	
2010-10-19 17:48:06 	410 		275 	0 	
2010-10-19 17:49:42 	418 		240 	0 	
2010-10-19 17:50:19 	306 		395 	0 	
2010-10-19 17:56:15 	423 		275 	0 	
2010-10-19 18:07:07 	312 		275 	0 	
2010-10-19 18:07:16 	424 		595 	0 	
2010-10-19 18:10:01 	316 		465 	0 	
2010-10-19 18:13:07 	302 		695 	0 	
2010-10-19 18:16:40 	405 		275 	0 	
2010-10-19 18:16:56 	213 		345 	0 	
2010-10-19 18:21:43 	214 		275 	0 	
2010-10-19 18:23:50 	406 		395 	0 	
2010-10-19 18:25:59 	322 		395 	0 	
2010-10-19 18:30:01 	423 		290 	0 	
2010-10-19 18:30:09 	207 		90 	0 	
2010-10-19 18:37:58 	324 		275 	0 	
2010-10-19 18:41:39 	321 		395 	0 	
2010-10-19 18:45:55 	319 		395 	0 	
2010-10-19 18:46:09 	218 		316 	0 	
2010-10-19 18:49:49 	219 		695 	0 	
2010-10-19 18:49:57 	216 		275 	0 	
2010-10-19 18:57:38 	305 		595 	0 	
2010-10-19 18:58:18 	209 		275 	0 	
2010-10-19 18:59:22 	403 		345 	0 	
2010-10-19 19:00:37 	310 		595 	0 	
2010-10-19 19:01:46 	309 		395 	0 	
2010-10-19 19:03:26 	304 		395 	0 	
2010-10-19 19:04:58 	315 		395 	0 	
2010-10-19 19:05:40 	403 		40 	0 	
2010-10-19 19:05:58 	301 		395 	0 	
2010-10-19 19:10:52 	412 		395 	0 	
2010-10-19 19:11:50 	409 		395 	0 	
2010-10-19 19:17:56 	308 		695 	0 	
2010-10-19 19:21:24 	414 		645 	0 	
2010-10-19 19:26:35 	408 		695 	0 	
2010-10-19 19:36:01 	210 		345 	0 	
2010-10-19 19:40:41 	205 		345 	0 	
2010-10-19 19:43:29 	220 		695 	0 	
2010-10-19 19:43:41 	413 		695 	0 	
2010-10-19 19:46:04 	213 		360 	0 	
2010-10-19 19:51:49 	422 		395 	0 	
2010-10-19 19:52:29 	409 		20 	0 	
2010-10-19 19:52:35 	409 		320 	0 	
2010-10-19 19:52:48 	408 		198 	0 	
2010-10-19 19:54:10 	312 		0 	695 	
2010-10-19 19:56:06 	301 		50 	0 	
2010-10-19 20:08:23 	405 		595 	0 	
2010-10-19 20:13:02 	417 		395 	0 	
2010-10-19 20:13:09 	215 		345 	0 	
2010-10-19 20:17:13 	415 		695 	0 	
2010-10-19 20:21:03 	421 		695 	0 	
2010-10-19 20:22:39 	409 		20 	0 	
2010-10-19 20:24:44 	221 		395 	0 	
2010-10-19 20:28:37 	312 		10 	0 	
2010-10-19 20:36:17 	420 		345 	0 	
2010-10-19 20:36:30 	404 		395 	0 	
2010-10-19 20:49:48 	407 		395 	0 	
2010-10-19 21:16:28 	317 		695 	0 	
2010-10-19 21:18:21 	412 		695 	0 	
2010-10-19 21:26:30 	313 		695 	0 	
2010-10-19 21:42:00 	419 		395 	0 	
2010-10-19 21:42:21 	419 		20 	0 	
2010-10-19 21:43:28 	418 		645 	0 	
2010-10-19 21:44:57 	306 		140 	0 	
2010-10-19 21:48:09 	416 		345 	0 	
2010-10-19 21:53:56 	315 		395 	0 	
2010-10-19 21:55:59 	324 		595 	0 	
2010-10-19 21:56:44 	303 		345 	0 	
2010-10-19 22:07:09 	306 		695 	0 	
2010-10-19 22:12:25 	311 		275 	0 	
2010-10-19 22:26:31 	312 		30 	0 	
2010-10-19 22:31:15 	302 		50 	0 	
2010-10-19 22:43:58 	305 		198 	0 	
2010-10-19 22:55:28 	212 		375 	0 	
2010-10-19 23:32:06 	409 		395 	0 	
2010-10-19 23:42:16 	301 		395 	0 	
2010-10-19 23:45:36 	304 		395 	0 	
 			Total:		37304 	1040		

=== RECHIT LIST ===




V1