MSHOGUN 1: SHIFT END REPORT
Wednesday November 17, 2010 8:00:05 AM

SALES TRANSACTION
Room Sales Order			23785
FnB Sales Order			1570
Beer Sales Order			555
Misc Sales Order			40
Room Sales Adjustment			0
GROSS SALES			25950

DISCOUNT
Room				0
FnB				0
Misc				0

DEPOSIT				2570
REFUND				

TOTAL ACCOUNTABILITY			28520

CASH DECLARATION			6300
CARD				0
FUNDS SAFEKEEP			0
TOTAL CASH DECLARED			6300

TOTAL CASH ON SYSTEM			6300
OVER/SHORTAGES 			0

ROOM	 # OF CHECK-OUT	AMT
Value 		6	3130
Regular 		12	6600
Classique 		25	14055
Premium 		0	0
Regent 		0	0
Queen 		0	0
Gemini 		0	0
Family 		0	0
Executive Suite 	0	0
Mega Suite 	0	0

DISCOUNT 
Value 			  
Regular 		  
Classique 		  
Premium 		  
Regent 			  
Queen 		  
Gemini 		  
Family 		  
Executive Suite 	  
Mega Suite 		  


=== RESERVATIONS ===

Deposits:


Claimed:



SECURITY DEPOSITS

Deposits:
Claimed:


=== SALES BREAKDOWN ===

Transaction Date	Room No.	Cash	Card

2010-11-17 00:08:40 	421 		695 	0 	
2010-11-17 00:18:55 	309 		395 	0 	
2010-11-17 00:25:19 	406 		695 	0 	
2010-11-17 01:05:25 	221 		695 	0 	
2010-11-17 01:26:00 	409 		140 	0 	
2010-11-17 01:56:06 	316 		345 	0 	
2010-11-17 02:42:01 	218 		395 	0 	
2010-11-17 02:57:21 	322 		395 	0 	
2010-11-17 03:17:24 	221 		210 	0 	
2010-11-17 03:19:32 	412 		395 	0 	
2010-11-17 03:50:39 	412 		350 	0 	
2010-11-17 04:15:23 	219 		395 	0 	
2010-11-17 04:32:33 	403 		345 	0 	
2010-11-17 04:34:23 	219 		180 	0 	
2010-11-17 04:51:08 	305 		275 	0 	
2010-11-17 05:49:02 	316 		120 	0 	
2010-11-17 07:32:04 	216 		275 	0 	
 			Total:		6300 	0		

=== RECHIT LIST ===




V1