MSHOGUN 1: SHIFT END REPORT
Monday February 07, 2011 12:00:03 AM

SALES TRANSACTION
Room Sales Order			37245
FnB Sales Order			2445
Beer Sales Order			430
Misc Sales Order			50
Room Sales Adjustment			0
GROSS SALES			40170

DISCOUNT
Room				0
FnB				0
Misc				0

DEPOSIT				21990
REFUND				

TOTAL ACCOUNTABILITY			62160

CASH DECLARATION			2976
CARD				0
FUNDS SAFEKEEP			40000
TOTAL CASH DECLARED			42976

TOTAL CASH ON SYSTEM			2956
OVER/SHORTAGES 			20

ROOM	 # OF CHECK-OUT	AMT
Value 		12	3300
Regular 		31	13935
Classique 		46	20010
Premium 		0	0
Regent 		0	0
Queen 		0	0
Gemini 		0	0
Family 		0	0
Executive Suite 	0	0
Mega Suite 	0	0

DISCOUNT 
Value 			  
Regular 		  
Classique 		  
Premium 		  
Regent 			  
Queen 		  
Gemini 		  
Family 		  
Executive Suite 	  
Mega Suite 		  


=== RESERVATIONS ===

Deposits:


Claimed:



SECURITY DEPOSITS

Deposits:
Claimed:


=== SALES BREAKDOWN ===

Transaction Date	Room No.	Cash	Card

2011-02-06 16:05:19 	219 		395 	0 	
2011-02-06 16:13:34 	304 		395 	0 	
2011-02-06 16:17:24 	315 		230 	0 	
2011-02-06 16:18:32 	402 		395 	0 	
2011-02-06 16:19:22 	404 		395 	0 	
2011-02-06 16:19:52 	417 		150 	0 	
2011-02-06 16:20:24 	408 		395 	0 	
2011-02-06 16:20:42 	302 		395 	0 	
2011-02-06 16:26:43 	320 		705 	0 	
2011-02-06 16:30:00 	416 		345 	0 	
2011-02-06 16:33:34 	409 		395 	0 	
2011-02-06 16:37:18 	315 		395 	0 	
2011-02-06 16:42:09 	205 		345 	0 	
2011-02-06 16:50:42 	420 		345 	0 	
2011-02-06 16:58:06 	307 		316 	0 	
2011-02-06 16:58:33 	208 		275 	0 	
2011-02-06 16:58:39 	307 		10 	0 	
2011-02-06 16:59:35 	314 		210 	0 	
2011-02-06 17:05:11 	220 		395 	0 	
2011-02-06 17:06:45 	207 		345 	0 	
2011-02-06 17:08:50 	303 		345 	0 	
2011-02-06 17:23:11 	218 		395 	0 	
2011-02-06 17:35:58 	205 		30 	0 	
2011-02-06 17:36:33 	303 		290 	0 	
2011-02-06 17:40:05 	212 		275 	0 	
2011-02-06 17:47:16 	321 		395 	0 	
2011-02-06 17:47:55 	407 		560 	0 	
2011-02-06 17:49:19 	212 		10 	0 	
2011-02-06 18:04:28 	218 		90 	0 	
2011-02-06 18:05:54 	301 		395 	0 	
2011-02-06 18:08:58 	314 		705 	0 	
2011-02-06 18:12:32 	422 		395 	0 	
2011-02-06 18:13:14 	302 		395 	0 	
2011-02-06 18:14:42 	415 		695 	0 	
2011-02-06 18:15:20 	213 		270 	0 	
2011-02-06 18:16:40 	412 		395 	0 	
2011-02-06 18:27:50 	221 		395 	0 	
2011-02-06 18:38:18 	218 		395 	0 	
2011-02-06 18:41:50 	313 		395 	0 	
2011-02-06 18:41:59 	319 		395 	0 	
2011-02-06 18:46:26 	207 		345 	0 	
2011-02-06 18:46:47 	413 		695 	0 	
2011-02-06 18:48:09 	314 		165 	0 	
2011-02-06 18:48:11 	314 		45 	0 	
2011-02-06 18:48:37 	420 		110 	0 	
2011-02-06 18:52:14 	418 		345 	0 	
2011-02-06 18:53:19 	306 		140 	0 	
2011-02-06 18:53:56 	201 		345 	0 	
2011-02-06 18:57:40 	214 		275 	0 	
2011-02-06 18:58:02 	216 		595 	0 	
2011-02-06 19:00:00 	215 		645 	0 	
2011-02-06 19:00:13 	206 		345 	0 	
2011-02-06 19:01:18 	421 		695 	0 	
2011-02-06 19:07:04 	311 		275 	0 	
2011-02-06 19:07:57 	323 		275 	0 	
2011-02-06 19:19:49 	324 		595 	0 	
2011-02-06 19:21:54 	310 		595 	0 	
2011-02-06 19:28:14 	305 		275 	0 	
2011-02-06 19:40:22 	221 		695 	0 	
2011-02-06 19:40:28 	219 		695 	0 	
2011-02-06 19:48:03 	317 		395 	0 	
2011-02-06 19:50:12 	405 		595 	0 	
2011-02-06 19:51:57 	306 		695 	0 	
2011-02-06 19:55:12 	424 		595 	0 	
2011-02-06 19:56:10 	423 		595 	0 	
2011-02-06 20:00:45 	209 		275 	0 	
2011-02-06 20:02:19 	319 		240 	0 	
2011-02-06 20:04:02 	410 		595 	0 	
2011-02-06 20:04:56 	411 		275 	0 	
2011-02-06 20:07:43 	322 		280 	0 	
2011-02-06 20:17:12 	401 		395 	0 	
2011-02-06 20:23:02 	314 		340 	0 	
2011-02-06 20:25:06 	316 		645 	0 	
2011-02-06 20:45:11 	209 		240 	0 	
2011-02-06 20:50:54 	203 		295 	0 	
2011-02-06 21:08:26 	202 		345 	0 	
2011-02-06 21:19:27 	210 		345 	0 	
2011-02-06 21:20:56 	203 		345 	0 	
2011-02-06 21:26:20 	305 		100 	0 	
2011-02-06 21:30:38 	407 		695 	0 	
2011-02-06 21:32:01 	423 		75 	0 	
2011-02-06 21:33:25 	404 		695 	0 	
2011-02-06 21:38:11 	408 		695 	0 	
2011-02-06 21:52:14 	412 		0 	395 	
2011-02-06 21:52:45 	313 		695 	0 	
2011-02-06 21:56:52 	321 		695 	0 	
2011-02-06 22:00:04 	214 		595 	0 	
2011-02-06 22:00:14 	409 		395 	0 	
2011-02-06 22:01:57 	212 		595 	0 	
2011-02-06 22:08:20 	402 		695 	0 	
2011-02-06 22:18:17 	305 		50 	0 	
2011-02-06 22:27:29 	204 		345 	0 	
2011-02-06 22:44:09 	208 		275 	0 	
2011-02-06 22:44:16 	205 		645 	0 	
2011-02-06 22:45:44 	307 		420 	0 	
2011-02-06 22:50:30 	315 		695 	0 	
2011-02-06 22:50:36 	209 		275 	0 	
2011-02-06 23:00:00 	301 		395 	0 	
2011-02-06 23:01:29 	301 		50 	0 	
2011-02-06 23:02:06 	304 		695 	0 	
2011-02-06 23:12:32 	218 		395 	0 	
2011-02-06 23:25:12 	220 		395 	0 	
2011-02-06 23:30:34 	424 		25 	0 	
2011-02-06 23:32:48 	218 		20 	0 	
2011-02-06 23:44:00 	204 		165 	0 	
2011-02-06 23:44:14 	304 		30 	0 	
2011-02-06 23:50:52 	308 		695 	0 	
2011-02-06 23:51:58 	319 		395 	0 	
2011-02-06 23:52:28 	406 		695 	0 	
2011-02-06 23:54:25 	307 		675 	0 	
 			Total:		42956 	395		

=== RECHIT LIST ===




V1