MSHOGUN 1: SHIFT END REPORT
Thursday October 13, 2011 3:59:16 PM

SALES TRANSACTION
Room Sales Order			27370
FnB Sales Order			3921
Beer Sales Order			270
Misc Sales Order			0
Room Sales Adjustment			0
GROSS SALES			31561

DISCOUNT
Room				0
FnB				0
Misc				0

DEPOSIT				8185
REFUND				

TOTAL ACCOUNTABILITY			39746

CASH DECLARATION			3544
CARD				3240
FUNDS SAFEKEEP			20000
TOTAL CASH DECLARED			26784

TOTAL CASH ON SYSTEM			3544
OVER/SHORTAGES 			0

ROOM	 # OF CHECK-OUT	AMT
Value 		8	3480
Regular 		16	8160
Classique 		30	15730
Premium 		0	0
Regent 		0	0
Queen 		0	0
Gemini 		0	0
Family 		0	0
Executive Suite 	0	0
Mega Suite 	0	0

DISCOUNT 
Value 			  
Regular 		  
Classique 		  
Premium 		  
Regent 			  
Queen 		  
Gemini 		  
Family 		  
Executive Suite 	  
Mega Suite 		  


=== RESERVATIONS ===

Deposits:


Claimed:



SECURITY DEPOSITS

Deposits:
Claimed:


=== SALES BREAKDOWN ===

Transaction Date	Room No.	Cash	Card

2011-10-13 08:18:08 	403 		110 	0 	
2011-10-13 08:24:57 	221 		0 	760 	
2011-10-13 08:28:20 	305 		160 	0 	
2011-10-13 08:29:35 	301 		140 	0 	
2011-10-13 08:35:13 	409 		395 	0 	
2011-10-13 08:59:38 	413 		395 	0 	
2011-10-13 09:09:31 	415 		395 	0 	
2011-10-13 09:28:50 	203 		210 	0 	
2011-10-13 09:33:51 	209 		275 	0 	
2011-10-13 09:34:34 	419 		395 	0 	
2011-10-13 09:39:27 	323 		160 	0 	
2011-10-13 09:54:57 	210 		345 	0 	
2011-10-13 10:00:23 	409 		238 	0 	
2011-10-13 10:06:32 	202 		705 	0 	
2011-10-13 10:41:18 	208 		275 	0 	
2011-10-13 10:41:25 	218 		395 	0 	
2011-10-13 10:49:29 	319 		140 	0 	
2011-10-13 10:52:02 	219 		395 	0 	
2011-10-13 10:54:14 	207 		276 	0 	
2011-10-13 10:58:00 	205 		345 	0 	
2011-10-13 11:22:38 	213 		705 	0 	
2011-10-13 11:44:42 	220 		395 	0 	
2011-10-13 11:48:29 	221 		395 	0 	
2011-10-13 11:53:47 	417 		210 	0 	
2011-10-13 11:56:03 	414 		40 	0 	
2011-10-13 11:56:34 	201 		585 	0 	
2011-10-13 12:06:39 	308 		395 	0 	
2011-10-13 12:10:20 	314 		705 	0 	
2011-10-13 12:19:39 	307 		395 	0 	
2011-10-13 12:36:54 	316 		345 	0 	
2011-10-13 12:37:25 	318 		345 	0 	
2011-10-13 12:49:16 	211 		478 	0 	
2011-10-13 13:05:07 	203 		345 	0 	
2011-10-13 13:05:35 	313 		395 	0 	
2011-10-13 13:15:30 	301 		395 	0 	
2011-10-13 13:16:47 	315 		395 	0 	
2011-10-13 13:16:53 	319 		395 	0 	
2011-10-13 13:19:33 	317 		395 	0 	
2011-10-13 13:19:40 	302 		395 	0 	
2011-10-13 13:20:32 	220 		25 	0 	
2011-10-13 13:27:00 	212 		275 	0 	
2011-10-13 13:27:49 	210 		345 	0 	
2011-10-13 13:30:27 	214 		575 	0 	
2011-10-13 13:33:11 	312 		395 	0 	
2011-10-13 13:45:11 	301 		265 	0 	
2011-10-13 13:51:14 	304 		395 	0 	
2011-10-13 14:00:03 	313 		385 	0 	
2011-10-13 14:01:27 	303 		345 	0 	
2011-10-13 14:03:28 	204 		345 	0 	
2011-10-13 14:07:58 	216 		275 	0 	
2011-10-13 14:15:09 	317 		400 	0 	
2011-10-13 14:19:04 	306 		395 	0 	
2011-10-13 14:19:12 	217 		275 	0 	
2011-10-13 14:19:19 	309 		395 	0 	
2011-10-13 14:22:18 	310 		275 	0 	
2011-10-13 14:23:13 	211 		345 	0 	
2011-10-13 14:47:09 	305 		275 	0 	
2011-10-13 14:58:14 	205 		345 	0 	
2011-10-13 14:59:11 	202 		465 	0 	
2011-10-13 15:03:53 	307 		316 	0 	
2011-10-13 15:05:07 	320 		705 	0 	
2011-10-13 15:05:44 	320 		80 	0 	
2011-10-13 15:15:20 	319 		395 	0 	
2011-10-13 15:31:31 	206 		345 	0 	
2011-10-13 15:35:45 	315 		316 	0 	
2011-10-13 15:42:08 	219 		395 	0 	
2011-10-13 15:42:15 	218 		395 	0 	
2011-10-13 15:42:21 	207 		345 	0 	
 			Total:		23544 	760		

=== RECHIT LIST ===




V1