MSHOGUN 1: SHIFT END REPORT
Saturday June 18, 2011 4:00:56 PM

SALES TRANSACTION
Room Sales Order			39600
FnB Sales Order			1278
Beer Sales Order			120
Misc Sales Order			70
Room Sales Adjustment			0
GROSS SALES			41068

DISCOUNT
Room				0
FnB				0
Misc				0

DEPOSIT				13400
REFUND				

TOTAL ACCOUNTABILITY			54468

CASH DECLARATION			3077
CARD				1210
FUNDS SAFEKEEP			30000
TOTAL CASH DECLARED			34287

TOTAL CASH ON SYSTEM			2974
OVER/SHORTAGES 			103

ROOM	 # OF CHECK-OUT	AMT
Value 		11	4565
Regular 		26	13470
Classique 		43	21565
Premium 		0	0
Regent 		0	0
Queen 		0	0
Gemini 		0	0
Family 		0	0
Executive Suite 	0	0
Mega Suite 	0	0

DISCOUNT 
Value 			  
Regular 		  
Classique 		  
Premium 		  
Regent 			  
Queen 		  
Gemini 		  
Family 		  
Executive Suite 	  
Mega Suite 		  


=== RESERVATIONS ===

Deposits:


Claimed:



SECURITY DEPOSITS

Deposits:
Claimed:


=== SALES BREAKDOWN ===

Transaction Date	Room No.	Cash	Card

2011-06-18 08:23:39 	412 		395 	0 	
2011-06-18 08:26:04 	203 		120 	0 	
2011-06-18 08:48:26 	208 		200 	0 	
2011-06-18 08:57:18 	316 		120 	0 	
2011-06-18 08:58:26 	420 		155 	0 	
2011-06-18 09:00:57 	303 		345 	0 	
2011-06-18 09:33:04 	404 		395 	0 	
2011-06-18 09:34:05 	406 		395 	0 	
2011-06-18 09:51:40 	422 		395 	0 	
2011-06-18 10:17:12 	418 		345 	0 	
2011-06-18 10:27:01 	410 		275 	0 	
2011-06-18 10:27:25 	312 		420 	0 	
2011-06-18 10:30:31 	204 		30 	0 	
2011-06-18 10:33:47 	408 		395 	0 	
2011-06-18 10:33:54 	407 		395 	0 	
2011-06-18 10:45:05 	411 		275 	0 	
2011-06-18 10:50:38 	405 		275 	0 	
2011-06-18 10:53:31 	402 		395 	0 	
2011-06-18 11:01:43 	421 		395 	0 	
2011-06-18 11:21:27 	401 		395 	0 	
2011-06-18 11:23:29 	403 		705 	0 	
2011-06-18 11:31:18 	315 		395 	0 	
2011-06-18 11:32:14 	313 		395 	0 	
2011-06-18 11:33:59 	415 		675 	0 	
2011-06-18 11:38:58 	217 		275 	0 	
2011-06-18 11:39:14 	316 		345 	0 	
2011-06-18 11:40:29 	412 		395 	0 	
2011-06-18 11:44:52 	314 		585 	0 	
2011-06-18 11:45:20 	314 		25 	0 	
2011-06-18 11:45:33 	301 		395 	0 	
2011-06-18 11:46:41 	304 		395 	0 	
2011-06-18 11:49:12 	318 		345 	0 	
2011-06-18 11:52:25 	309 		395 	0 	
2011-06-18 11:56:41 	322 		395 	0 	
2011-06-18 11:56:48 	306 		395 	0 	
2011-06-18 12:02:25 	305 		275 	0 	
2011-06-18 12:05:10 	417 		395 	0 	
2011-06-18 12:12:59 	211 		465 	0 	
2011-06-18 12:19:22 	408 		395 	0 	
2011-06-18 12:28:17 	218 		395 	0 	
2011-06-18 12:33:08 	219 		316 	0 	
2011-06-18 12:34:37 	306 		398 	0 	
2011-06-18 12:50:51 	202 		345 	0 	
2011-06-18 12:55:08 	303 		350 	0 	
2011-06-18 13:01:04 	206 		345 	0 	
2011-06-18 13:01:20 	407 		395 	0 	
2011-06-18 13:02:02 	221 		395 	0 	
2011-06-18 13:20:39 	406 		395 	0 	
2011-06-18 13:30:24 	319 		535 	0 	
2011-06-18 13:33:45 	404 		395 	0 	
2011-06-18 13:37:17 	321 		0 	395 	
2011-06-18 13:48:05 	422 		395 	0 	
2011-06-18 13:48:12 	204 		345 	0 	
2011-06-18 13:48:49 	210 		345 	0 	
2011-06-18 13:50:59 	418 		585 	0 	
2011-06-18 13:53:45 	308 		395 	0 	
2011-06-18 13:55:13 	419 		395 	0 	
2011-06-18 13:59:17 	307 		815 	0 	
2011-06-18 13:59:23 	207 		345 	0 	
2011-06-18 13:59:54 	320 		345 	0 	
2011-06-18 14:00:54 	416 		345 	0 	
2011-06-18 14:03:36 	213 		345 	0 	
2011-06-18 14:15:50 	402 		395 	0 	
2011-06-18 14:17:44 	320 		50 	0 	
2011-06-18 14:17:50 	204 		15 	0 	
2011-06-18 14:28:49 	419 		270 	0 	
2011-06-18 14:29:00 	202 		585 	0 	
2011-06-18 14:31:35 	203 		345 	0 	
2011-06-18 14:31:48 	413 		395 	0 	
2011-06-18 14:35:13 	317 		395 	0 	
2011-06-18 14:36:39 	215 		345 	0 	
2011-06-18 14:41:07 	301 		395 	0 	
2011-06-18 14:45:00 	322 		395 	0 	
2011-06-18 14:50:42 	220 		395 	0 	
2011-06-18 14:51:32 	306 		395 	0 	
2011-06-18 14:57:46 	401 		395 	0 	
2011-06-18 14:57:53 	417 		395 	0 	
2011-06-18 15:01:35 	416 		585 	0 	
2011-06-18 15:03:01 	309 		210 	0 	
2011-06-18 15:18:18 	221 		395 	0 	
2011-06-18 15:23:01 	402 		395 	0 	
2011-06-18 15:26:10 	304 		140 	0 	
2011-06-18 15:29:42 	421 		395 	0 	
2011-06-18 15:34:42 	205 		345 	0 	
2011-06-18 15:34:52 	409 		395 	0 	
2011-06-18 15:41:00 	316 		345 	0 	
2011-06-18 15:41:07 	412 		395 	0 	
2011-06-18 15:41:16 	303 		345 	0 	
2011-06-18 15:42:41 	318 		345 	0 	
2011-06-18 15:51:24 	211 		345 	0 	
2011-06-18 15:51:52 	210 		465 	0 	
2011-06-18 15:58:56 	211 		30 	0 	
 			Total:		32974 	395		

=== RECHIT LIST ===




V1