MSHOGUN 1: SHIFT END REPORT
Monday October 31, 2011 7:51:46 AM

SALES TRANSACTION
Room Sales Order			35180
FnB Sales Order			1338
Beer Sales Order			135
Misc Sales Order			55
Room Sales Adjustment			0
GROSS SALES			36708

DISCOUNT
Room				0
FnB				0
Misc				0

DEPOSIT				2230
REFUND				

TOTAL ACCOUNTABILITY			38938

CASH DECLARATION			2968
CARD				0
FUNDS SAFEKEEP			10000
TOTAL CASH DECLARED			12968

TOTAL CASH ON SYSTEM			3233
OVER/SHORTAGES 			-265

ROOM	 # OF CHECK-OUT	AMT
Value 		14	7790
Regular 		21	10905
Classique 		27	16485
Premium 		0	0
Regent 		0	0
Queen 		0	0
Gemini 		0	0
Family 		0	0
Executive Suite 	0	0
Mega Suite 	0	0

DISCOUNT 
Value 			  
Regular 		  
Classique 		  
Premium 		  
Regent 			  
Queen 		  
Gemini 		  
Family 		  
Executive Suite 	  
Mega Suite 		  


=== RESERVATIONS ===

Deposits:


Claimed:



SECURITY DEPOSITS

Deposits:
Claimed:


=== SALES BREAKDOWN ===

Transaction Date	Room No.	Cash	Card

2011-10-31 00:09:17 	316 		345 	0 	
2011-10-31 00:10:13 	416 		345 	0 	
2011-10-31 00:12:29 	211 		645 	0 	
2011-10-31 00:15:34 	209 		575 	0 	
2011-10-31 00:16:28 	321 		695 	0 	
2011-10-31 00:20:24 	409 		50 	0 	
2011-10-31 00:25:23 	218 		695 	0 	
2011-10-31 00:26:41 	217 		575 	0 	
2011-10-31 00:30:55 	311 		575 	0 	
2011-10-31 00:43:56 	207 		245 	0 	
2011-10-31 00:49:26 	207 		345 	0 	
2011-10-31 00:51:13 	201 		50 	0 	
2011-10-31 01:09:44 	204 		90 	0 	
2011-10-31 01:14:30 	204 		645 	0 	
2011-10-31 01:15:39 	322 		695 	0 	
2011-10-31 01:16:01 	322 		50 	0 	
2011-10-31 01:26:23 	311 		198 	0 	
2011-10-31 01:54:32 	311 		60 	0 	
2011-10-31 02:04:06 	208 		575 	0 	
2011-10-31 02:08:46 	301 		395 	0 	
2011-10-31 02:18:11 	309 		395 	0 	
2011-10-31 02:41:51 	316 		345 	0 	
2011-10-31 02:58:24 	206 		345 	0 	
2011-10-31 03:16:51 	414 		345 	0 	
2011-10-31 04:06:05 	301 		815 	0 	
2011-10-31 04:37:34 	312 		395 	0 	
2011-10-31 04:54:09 	207 		50 	0 	
2011-10-31 04:54:36 	402 		395 	0 	
2011-10-31 05:40:47 	213 		50 	0 	
2011-10-31 05:57:17 	201 		600 	0 	
2011-10-31 06:09:59 	309 		395 	0 	
2011-10-31 06:13:51 	207 		240 	0 	
2011-10-31 06:49:02 	423 		10 	0 	
2011-10-31 07:01:21 	319 		140 	0 	
2011-10-31 07:13:31 	320 		585 	0 	
2011-10-31 07:32:47 	317 		140 	0 	
2011-10-31 07:47:26 	408 		140 	0 	
 			Total:		13233 	0		

=== RECHIT LIST ===




V1