MSHOGUN 1: SHIFT END REPORT
Tuesday November 22, 2011 4:00:01 PM

SALES TRANSACTION
Room Sales Order			29270
FnB Sales Order			1260
Beer Sales Order			330
Misc Sales Order			20
Room Sales Adjustment			0
GROSS SALES			30880

DISCOUNT
Room				0
FnB				0
Misc				0

DEPOSIT				9135
REFUND				

TOTAL ACCOUNTABILITY			40015

CASH DECLARATION			6037
CARD				0
FUNDS SAFEKEEP			20000
TOTAL CASH DECLARED			26037

TOTAL CASH ON SYSTEM			6057
OVER/SHORTAGES 			-20

ROOM	 # OF CHECK-OUT	AMT
Value 		10	4330
Regular 		15	8055
Classique 		31	16885
Premium 		0	0
Regent 		0	0
Queen 		0	0
Gemini 		0	0
Family 		0	0
Executive Suite 	0	0
Mega Suite 	0	0

DISCOUNT 
Value 			  
Regular 		  
Classique 		  
Premium 		  
Regent 			  
Queen 		  
Gemini 		  
Family 		  
Executive Suite 	  
Mega Suite 		  


=== RESERVATIONS ===

Deposits:


Claimed:



SECURITY DEPOSITS

Deposits:
Claimed:


=== SALES BREAKDOWN ===

Transaction Date	Room No.	Cash	Card

2011-11-22 08:07:16 	315 		140 	0 	
2011-11-22 08:13:32 	316 		825 	0 	
2011-11-22 08:32:44 	318 		705 	0 	
2011-11-22 08:47:10 	314 		120 	0 	
2011-11-22 09:01:35 	407 		150 	0 	
2011-11-22 09:08:12 	420 		636 	0 	
2011-11-22 09:14:38 	208 		275 	0 	
2011-11-22 09:22:26 	202 		465 	0 	
2011-11-22 09:30:25 	308 		395 	0 	
2011-11-22 09:31:52 	312 		395 	0 	
2011-11-22 09:32:16 	422 		395 	0 	
2011-11-22 09:34:18 	202 		20 	0 	
2011-11-22 09:48:41 	407 		395 	0 	
2011-11-22 09:54:00 	211 		705 	0 	
2011-11-22 09:54:21 	204 		345 	0 	
2011-11-22 10:14:00 	424 		200 	0 	
2011-11-22 10:14:48 	207 		345 	0 	
2011-11-22 10:47:09 	206 		345 	0 	
2011-11-22 10:54:43 	215 		345 	0 	
2011-11-22 10:56:38 	320 		50 	0 	
2011-11-22 10:58:25 	313 		395 	0 	
2011-11-22 11:01:15 	323 		100 	0 	
2011-11-22 11:10:54 	315 		395 	0 	
2011-11-22 11:19:06 	414 		705 	0 	
2011-11-22 11:19:38 	309 		395 	0 	
2011-11-22 11:36:30 	306 		395 	0 	
2011-11-22 11:44:11 	317 		395 	0 	
2011-11-22 11:50:18 	206 		110 	0 	
2011-11-22 12:00:44 	416 		705 	0 	
2011-11-22 12:14:39 	205 		585 	0 	
2011-11-22 12:18:07 	209 		275 	0 	
2011-11-22 12:29:00 	204 		465 	0 	
2011-11-22 12:29:26 	412 		395 	0 	
2011-11-22 12:31:49 	423 		275 	0 	
2011-11-22 12:41:54 	211 		205 	0 	
2011-11-22 13:04:32 	413 		395 	0 	
2011-11-22 13:10:32 	303 		345 	0 	
2011-11-22 13:14:46 	213 		945 	0 	
2011-11-22 13:17:50 	322 		395 	0 	
2011-11-22 13:18:10 	217 		275 	0 	
2011-11-22 13:29:39 	210 		825 	0 	
2011-11-22 13:36:43 	302 		395 	0 	
2011-11-22 13:41:16 	207 		705 	0 	
2011-11-22 13:41:31 	321 		395 	0 	
2011-11-22 13:43:36 	206 		705 	0 	
2011-11-22 13:44:03 	319 		675 	0 	
2011-11-22 13:57:37 	216 		275 	0 	
2011-11-22 13:57:57 	418 		345 	0 	
2011-11-22 14:04:05 	221 		316 	0 	
2011-11-22 14:11:16 	202 		705 	0 	
2011-11-22 14:11:35 	221 		25 	0 	
2011-11-22 14:19:07 	421 		395 	0 	
2011-11-22 14:19:51 	406 		395 	0 	
2011-11-22 14:31:49 	417 		395 	0 	
2011-11-22 14:33:09 	208 		275 	0 	
2011-11-22 14:34:49 	313 		395 	0 	
2011-11-22 14:35:08 	308 		395 	0 	
2011-11-22 14:40:16 	306 		50 	0 	
2011-11-22 14:41:39 	307 		395 	0 	
2011-11-22 15:11:58 	422 		395 	0 	
2011-11-22 15:17:56 	402 		395 	0 	
2011-11-22 15:26:07 	215 		345 	0 	
2011-11-22 15:32:22 	305 		275 	0 	
2011-11-22 15:37:53 	312 		395 	0 	
2011-11-22 15:40:32 	317 		395 	0 	
2011-11-22 15:50:26 	315 		395 	0 	
 			Total:		26057 	0		

=== RECHIT LIST ===




V1