MSHOGUN 1: SHIFT END REPORT
Friday March 11, 2011 8:00:05 AM

SALES TRANSACTION
Room Sales Order			19645
FnB Sales Order			1418
Beer Sales Order			180
Misc Sales Order			45
Room Sales Adjustment			0
GROSS SALES			21288

DISCOUNT
Room				0
FnB				0
Misc				0

DEPOSIT				4470
REFUND				

TOTAL ACCOUNTABILITY			25758

CASH DECLARATION			9658
CARD				695
FUNDS SAFEKEEP			0
TOTAL CASH DECLARED			10353

TOTAL CASH ON SYSTEM			9658
OVER/SHORTAGES 			0

ROOM	 # OF CHECK-OUT	AMT
Value 		5	2335
Regular 		11	4995
Classique 		21	12315
Premium 		0	0
Regent 		0	0
Queen 		0	0
Gemini 		0	0
Family 		0	0
Executive Suite 	0	0
Mega Suite 	0	0

DISCOUNT 
Value 			  
Regular 		  
Classique 		  
Premium 		  
Regent 			  
Queen 		  
Gemini 		  
Family 		  
Executive Suite 	  
Mega Suite 		  


=== RESERVATIONS ===

Deposits:


Claimed:



SECURITY DEPOSITS

Deposits:
Claimed:


=== SALES BREAKDOWN ===

Transaction Date	Room No.	Cash	Card

2011-03-11 00:10:20 	412 		695 	0 	
2011-03-11 00:10:32 	415 		695 	0 	
2011-03-11 00:21:17 	407 		695 	0 	
2011-03-11 00:34:43 	401 		395 	0 	
2011-03-11 00:36:59 	407 		50 	0 	
2011-03-11 00:41:10 	210 		80 	0 	
2011-03-11 00:49:56 	208 		275 	0 	
2011-03-11 00:51:56 	218 		695 	0 	
2011-03-11 00:53:20 	409 		395 	0 	
2011-03-11 00:53:31 	301 		395 	0 	
2011-03-11 01:10:31 	209 		275 	0 	
2011-03-11 01:11:55 	209 		20 	0 	
2011-03-11 01:23:21 	206 		345 	0 	
2011-03-11 01:26:07 	401 		25 	0 	
2011-03-11 01:41:24 	204 		185 	0 	
2011-03-11 02:00:15 	220 		535 	0 	
2011-03-11 02:04:31 	208 		50 	0 	
2011-03-11 03:28:11 	205 		345 	0 	
2011-03-11 04:13:35 	312 		25 	0 	
2011-03-11 04:29:39 	316 		585 	0 	
2011-03-11 05:18:33 	317 		255 	0 	
2011-03-11 05:24:16 	309 		110 	0 	
2011-03-11 05:29:11 	320 		705 	0 	
2011-03-11 05:30:40 	213 		345 	0 	
2011-03-11 05:37:50 	307 		395 	0 	
2011-03-11 06:11:25 	409 		280 	0 	
2011-03-11 06:41:05 	402 		50 	0 	
2011-03-11 06:54:02 	313 		198 	0 	
2011-03-11 07:24:13 	306 		395 	0 	
2011-03-11 07:43:48 	302 		165 	0 	
 			Total:		9658 	0		

=== RECHIT LIST ===




V1