MSHOGUN 1: SHIFT END REPORT
Thursday March 17, 2011 12:00:09 AM

SALES TRANSACTION
Room Sales Order			34795
FnB Sales Order			2595
Beer Sales Order			180
Misc Sales Order			80
Room Sales Adjustment			0
GROSS SALES			37650

DISCOUNT
Room				0
FnB				0
Misc				0

DEPOSIT				25655
REFUND				

TOTAL ACCOUNTABILITY			63305

CASH DECLARATION			5795
CARD				0
FUNDS SAFEKEEP			40000
TOTAL CASH DECLARED			45795

TOTAL CASH ON SYSTEM			11367
OVER/SHORTAGES 			-5572

ROOM	 # OF CHECK-OUT	AMT
Value 		11	3025
Regular 		26	10530
Classique 		52	21240
Premium 		0	0
Regent 		0	0
Queen 		0	0
Gemini 		0	0
Family 		0	0
Executive Suite 	0	0
Mega Suite 	0	0

DISCOUNT 
Value 			  
Regular 		  
Classique 		  
Premium 		  
Regent 			  
Queen 		  
Gemini 		  
Family 		  
Executive Suite 	  
Mega Suite 		  


=== RESERVATIONS ===

Deposits:


Claimed:



SECURITY DEPOSITS

Deposits:
Claimed:


=== SALES BREAKDOWN ===

Transaction Date	Room No.	Cash	Card

2011-03-16 16:05:51 	204 		276 	0 	
2011-03-16 16:28:09 	202 		240 	0 	
2011-03-16 16:28:49 	219 		395 	0 	
2011-03-16 16:34:05 	315 		395 	0 	
2011-03-16 16:35:27 	308 		395 	0 	
2011-03-16 16:43:15 	402 		395 	0 	
2011-03-16 16:48:50 	407 		395 	0 	
2011-03-16 16:54:53 	401 		316 	0 	
2011-03-16 17:01:41 	409 		395 	0 	
2011-03-16 17:01:49 	203 		345 	0 	
2011-03-16 17:02:19 	301 		395 	0 	
2011-03-16 17:04:58 	406 		395 	0 	
2011-03-16 17:13:33 	306 		395 	0 	
2011-03-16 17:26:02 	307 		395 	0 	
2011-03-16 17:27:33 	209 		275 	0 	
2011-03-16 17:27:39 	205 		345 	0 	
2011-03-16 17:29:16 	309 		395 	0 	
2011-03-16 17:32:22 	409 		160 	0 	
2011-03-16 17:33:25 	211 		585 	0 	
2011-03-16 17:34:51 	311 		275 	0 	
2011-03-16 17:47:27 	319 		316 	0 	
2011-03-16 18:02:46 	207 		345 	0 	
2011-03-16 18:02:53 	421 		395 	0 	
2011-03-16 18:04:56 	302 		395 	0 	
2011-03-16 18:07:32 	417 		395 	0 	
2011-03-16 18:10:17 	219 		25 	0 	
2011-03-16 18:11:12 	206 		345 	0 	
2011-03-16 18:15:27 	415 		316 	0 	
2011-03-16 18:15:37 	321 		395 	0 	
2011-03-16 18:16:04 	419 		395 	0 	
2011-03-16 18:21:09 	404 		395 	0 	
2011-03-16 18:36:47 	220 		395 	0 	
2011-03-16 18:37:10 	221 		316 	0 	
2011-03-16 18:37:18 	320 		345 	0 	
2011-03-16 18:39:31 	412 		395 	0 	
2011-03-16 18:41:07 	312 		395 	0 	
2011-03-16 18:47:18 	318 		345 	0 	
2011-03-16 18:50:47 	321 		240 	0 	
2011-03-16 18:53:15 	406 		695 	0 	
2011-03-16 18:53:39 	305 		275 	0 	
2011-03-16 18:53:49 	407 		316 	0 	
2011-03-16 18:57:34 	218 		140 	0 	
2011-03-16 18:59:10 	306 		115 	0 	
2011-03-16 18:59:39 	219 		695 	0 	
2011-03-16 18:59:45 	410 		595 	0 	
2011-03-16 19:00:49 	409 		395 	0 	
2011-03-16 19:01:49 	202 		345 	0 	
2011-03-16 19:05:40 	305 		180 	0 	
2011-03-16 19:08:18 	218 		316 	0 	
2011-03-16 19:08:30 	304 		395 	0 	
2011-03-16 19:09:56 	316 		345 	0 	
2011-03-16 19:14:31 	420 		645 	0 	
2011-03-16 19:17:08 	306 		395 	0 	
2011-03-16 19:18:41 	313 		140 	0 	
2011-03-16 19:19:08 	414 		645 	0 	
2011-03-16 19:20:11 	418 		645 	0 	
2011-03-16 19:22:24 	215 		465 	0 	
2011-03-16 19:25:13 	201 		345 	0 	
2011-03-16 19:29:07 	409 		225 	0 	
2011-03-16 19:29:56 	208 		275 	0 	
2011-03-16 19:37:16 	204 		345 	0 	
2011-03-16 19:39:38 	215 		240 	0 	
2011-03-16 19:40:51 	210 		345 	0 	
2011-03-16 19:42:50 	203 		345 	0 	
2011-03-16 19:47:03 	303 		345 	0 	
2011-03-16 19:49:44 	403 		645 	0 	
2011-03-16 19:51:05 	314 		345 	0 	
2011-03-16 19:52:37 	422 		395 	0 	
2011-03-16 19:55:24 	308 		395 	0 	
2011-03-16 19:55:31 	212 		275 	0 	
2011-03-16 20:01:11 	320 		30 	0 	
2011-03-16 20:03:11 	313 		395 	0 	
2011-03-16 20:25:09 	408 		395 	0 	
2011-03-16 20:26:25 	323 		595 	0 	
2011-03-16 20:26:37 	317 		695 	0 	
2011-03-16 20:28:48 	309 		395 	0 	
2011-03-16 20:39:23 	319 		395 	0 	
2011-03-16 20:40:37 	209 		275 	0 	
2011-03-16 20:52:54 	402 		695 	0 	
2011-03-16 20:54:43 	414 		25 	0 	
2011-03-16 20:55:43 	409 		150 	0 	
2011-03-16 20:59:00 	415 		695 	0 	
2011-03-16 21:01:55 	220 		695 	0 	
2011-03-16 21:02:36 	318 		645 	0 	
2011-03-16 21:02:59 	415 		25 	0 	
2011-03-16 21:03:32 	209 		205 	0 	
2011-03-16 21:03:35 	209 		40 	0 	
2011-03-16 21:04:57 	214 		275 	0 	
2011-03-16 21:06:09 	301 		395 	0 	
2011-03-16 21:13:58 	417 		695 	0 	
2011-03-16 21:35:09 	213 		645 	0 	
2011-03-16 21:40:19 	407 		695 	0 	
2011-03-16 21:42:44 	313 		695 	0 	
2011-03-16 21:44:45 	307 		695 	0 	
2011-03-16 21:53:36 	409 		395 	0 	
2011-03-16 22:03:14 	303 		645 	0 	
2011-03-16 22:05:22 	324 		595 	0 	
2011-03-16 22:11:37 	211 		210 	0 	
2011-03-16 22:13:10 	215 		645 	0 	
2011-03-16 22:21:21 	312 		395 	0 	
2011-03-16 22:21:34 	412 		695 	0 	
2011-03-16 22:24:51 	401 		395 	0 	
2011-03-16 22:28:40 	205 		345 	0 	
2011-03-16 22:29:24 	218 		695 	0 	
2011-03-16 22:29:49 	418 		55 	0 	
2011-03-16 22:33:56 	207 		345 	0 	
2011-03-16 22:36:54 	411 		275 	0 	
2011-03-16 22:38:43 	315 		815 	0 	
2011-03-16 22:41:28 	211 		645 	0 	
2011-03-16 22:42:29 	421 		695 	0 	
2011-03-16 22:46:26 	221 		395 	0 	
2011-03-16 22:48:38 	422 		695 	0 	
2011-03-16 22:48:52 	319 		395 	0 	
2011-03-16 22:56:02 	306 		395 	0 	
2011-03-16 23:00:38 	211 		80 	0 	
2011-03-16 23:03:20 	315 		695 	0 	
2011-03-16 23:05:39 	312 		695 	0 	
2011-03-16 23:18:36 	319 		20 	0 	
2011-03-16 23:22:25 	202 		345 	0 	
2011-03-16 23:22:39 	203 		345 	0 	
2011-03-16 23:25:44 	321 		395 	0 	
2011-03-16 23:27:10 	413 		695 	0 	
2011-03-16 23:28:16 	422 		315 	0 	
2011-03-16 23:28:57 	309 		10 	0 	
2011-03-16 23:32:32 	320 		465 	0 	
2011-03-16 23:34:37 	311 		275 	0 	
2011-03-16 23:36:34 	316 		705 	0 	
2011-03-16 23:37:56 	206 		585 	0 	
 			Total:		51367 	0		

=== RECHIT LIST ===




V1