MSHOGUN 1: SHIFT END REPORT
Wednesday July 07, 2010 3:59:49 PM

SALES TRANSACTION
Room Sales Order			32540
FnB Sales Order			1885
Beer Sales Order			400
Misc Sales Order			145
Room Sales Adjustment			0
GROSS SALES			34970

DISCOUNT
Room				0
FnB				0
Misc				0

DEPOSIT				17575
REFUND				

TOTAL ACCOUNTABILITY			52545

CASH DECLARATION			1880
CARD				1485
FUNDS SAFEKEEP			30000
TOTAL CASH DECLARED			33365

TOTAL CASH ON SYSTEM			1875
OVER/SHORTAGES 			5

ROOM	 # OF CHECK-OUT	AMT
Value 		7	3285
Regular 		15	6975
Classique 		30	15730
Premium 		0	0
Regent 		4	4000
Queen 		0	0
Gemini 		0	0
Family 		1	1050
Executive Suite 	0	0
Mega Suite 	1	1500

DISCOUNT 
Value 			  
Regular 		  
Classique 		  
Premium 		  
Regent 			  
Queen 		  
Gemini 		  
Family 		  
Executive Suite 	  
Mega Suite 		  


=== RESERVATIONS ===

Deposits:


Claimed:



SECURITY DEPOSITS

Deposits:
Claimed:


=== SALES BREAKDOWN ===

Transaction Date	Room No.	Cash	Card

2010-07-07 08:38:55 	517 		1600 	0 	
2010-07-07 08:42:39 	404 		140 	0 	
2010-07-07 08:44:08 	511 		610 	0 	
2010-07-07 08:56:49 	517 		40 	0 	
2010-07-07 09:11:47 	323 		100 	0 	
2010-07-07 09:26:59 	613 		490 	0 	
2010-07-07 09:28:45 	306 		395 	0 	
2010-07-07 09:29:07 	208 		275 	0 	
2010-07-07 09:40:49 	314 		345 	0 	
2010-07-07 09:58:56 	203 		345 	0 	
2010-07-07 09:59:12 	304 		395 	0 	
2010-07-07 10:27:12 	519 		800 	0 	
2010-07-07 10:33:29 	307 		395 	0 	
2010-07-07 11:00:44 	324 		520 	0 	
2010-07-07 11:01:09 	519 		450 	0 	
2010-07-07 11:26:52 	211 		345 	0 	
2010-07-07 11:30:25 	221 		395 	0 	
2010-07-07 11:30:47 	317 		395 	0 	
2010-07-07 11:31:27 	317 		30 	0 	
2010-07-07 11:36:47 	318 		345 	0 	
2010-07-07 11:39:17 	320 		345 	0 	
2010-07-07 11:50:16 	319 		395 	0 	
2010-07-07 11:59:07 	302 		395 	0 	
2010-07-07 12:03:58 	516 		220 	0 	
2010-07-07 12:09:32 	611 		10 	0 	
2010-07-07 12:18:30 	315 		395 	0 	
2010-07-07 12:22:46 	301 		0 	395 	
2010-07-07 12:25:27 	306 		395 	0 	
2010-07-07 12:28:12 	206 		345 	0 	
2010-07-07 12:40:44 	313 		140 	0 	
2010-07-07 12:42:24 	307 		395 	0 	
2010-07-07 12:52:22 	304 		395 	0 	
2010-07-07 12:54:21 	213 		345 	0 	
2010-07-07 12:56:12 	309 		395 	0 	
2010-07-07 12:58:55 	303 		585 	0 	
2010-07-07 13:00:10 	308 		395 	0 	
2010-07-07 13:07:23 	316 		705 	0 	
2010-07-07 13:07:33 	218 		395 	0 	
2010-07-07 13:08:18 	322 		395 	0 	
2010-07-07 13:11:07 	210 		345 	0 	
2010-07-07 13:14:55 	520 		1600 	0 	
2010-07-07 13:33:39 	218 		185 	0 	
2010-07-07 13:34:49 	215 		345 	0 	
2010-07-07 13:37:27 	512 		1600 	0 	
2010-07-07 13:39:55 	215 		15 	0 	
2010-07-07 13:41:29 	313 		395 	0 	
2010-07-07 13:43:27 	312 		395 	0 	
2010-07-07 13:49:07 	515 		0 	290 	
2010-07-07 13:49:30 	212 		275 	0 	
2010-07-07 13:57:11 	313 		45 	0 	
2010-07-07 14:05:22 	305 		275 	0 	
2010-07-07 14:10:27 	317 		395 	0 	
2010-07-07 14:11:59 	214 		275 	0 	
2010-07-07 14:18:19 	219 		395 	0 	
2010-07-07 14:19:02 	219 		20 	0 	
2010-07-07 14:21:58 	306 		210 	0 	
2010-07-07 14:28:30 	220 		395 	0 	
2010-07-07 14:30:22 	205 		345 	0 	
2010-07-07 14:31:37 	402 		395 	0 	
2010-07-07 14:40:22 	517 		180 	0 	
2010-07-07 14:43:36 	315 		535 	0 	
2010-07-07 14:57:05 	518 		750 	0 	
2010-07-07 15:03:12 	316 		300 	0 	
2010-07-07 15:11:00 	314 		345 	0 	
2010-07-07 15:13:05 	409 		395 	0 	
2010-07-07 15:14:32 	221 		395 	0 	
2010-07-07 15:20:03 	301 		395 	0 	
2010-07-07 15:25:56 	318 		345 	0 	
2010-07-07 15:27:48 	613 		1200 	0 	
2010-07-07 15:27:58 	302 		395 	0 	
2010-07-07 15:29:23 	405 		275 	0 	
2010-07-07 15:32:02 	319 		395 	0 	
2010-07-07 15:38:30 	404 		395 	0 	
2010-07-07 15:39:22 	406 		395 	0 	
2010-07-07 15:42:06 	521 		750 	0 	
2010-07-07 15:42:56 	208 		275 	0 	
2010-07-07 15:49:39 	515 		800 	0 	
2010-07-07 15:49:48 	407 		395 	0 	
 			Total:		31875 	685		

=== RECHIT LIST ===

Room No. 608 	 Rechit Date: 2010-07-07 09:47:25







V1