MSHOGUN 1: SHIFT END REPORT
Friday July 30, 2010 4:01:25 PM

SALES TRANSACTION
Room Sales Order			30365
FnB Sales Order			1955
Beer Sales Order			210
Misc Sales Order			358
Room Sales Adjustment			100
GROSS SALES			32988

DISCOUNT
Room				0
FnB				0
Misc				0

DEPOSIT				20542
REFUND				

TOTAL ACCOUNTABILITY			53530

CASH DECLARATION			2386
CARD				0
FUNDS SAFEKEEP			30000
TOTAL CASH DECLARED			32386

TOTAL CASH ON SYSTEM			2386
OVER/SHORTAGES 			0

ROOM	 # OF CHECK-OUT	AMT
Value 		6	1970
Regular 		5	1725
Classique 		34	16570
Premium 		3	2250
Regent 		2	1600
Queen 		2	2950
Gemini 		1	2350
Family 		1	1050
Executive Suite 	0	0
Mega Suite 	0	0

DISCOUNT 
Value 			  
Regular 		  
Classique 		  
Premium 		  
Regent 			  
Queen 		  
Gemini 		  
Family 		  
Executive Suite 	  
Mega Suite 		  


=== RESERVATIONS ===

Deposits:


Claimed:



SECURITY DEPOSITS

Deposits:
Claimed:


=== SALES BREAKDOWN ===

Transaction Date	Room No.	Cash	Card

2010-07-30 08:02:13 	219 		50 	0 	
2010-07-30 08:08:00 	617 		850 	0 	
2010-07-30 08:10:26 	521 		125 	0 	
2010-07-30 08:11:15 	304 		395 	0 	
2010-07-30 08:29:44 	310 		275 	0 	
2010-07-30 08:43:01 	316 		345 	0 	
2010-07-30 08:56:30 	604 		25 	0 	
2010-07-30 08:58:26 	611 		130 	0 	
2010-07-30 09:03:26 	305 		25 	0 	
2010-07-30 09:14:59 	306 		395 	0 	
2010-07-30 09:16:25 	301 		395 	0 	
2010-07-30 09:34:12 	601 		430 	0 	
2010-07-30 09:36:22 	406 		395 	0 	
2010-07-30 09:49:05 	616 		1700 	0 	
2010-07-30 09:50:41 	615 		850 	0 	
2010-07-30 10:02:24 	612 		850 	0 	
2010-07-30 10:02:43 	404 		535 	0 	
2010-07-30 10:27:18 	609 		850 	0 	
2010-07-30 10:29:07 	402 		395 	0 	
2010-07-30 10:29:42 	402 		50 	0 	
2010-07-30 10:50:34 	Lobby 		25 	0 	
2010-07-30 11:02:12 	421 		395 	0 	
2010-07-30 11:09:08 	409 		395 	0 	
2010-07-30 11:17:56 	405 		275 	0 	
2010-07-30 11:42:55 	402 		100 	0 	
2010-07-30 11:44:29 	414 		345 	0 	
2010-07-30 11:49:30 	512 		8 	0 	
2010-07-30 11:49:50 	403 		705 	0 	
2010-07-30 11:55:05 	417 		395 	0 	
2010-07-30 12:04:31 	608 		1700 	0 	
2010-07-30 12:05:25 	410 		275 	0 	
2010-07-30 12:11:23 	419 		395 	0 	
2010-07-30 12:14:58 	413 		395 	0 	
2010-07-30 12:17:16 	402 		100 	0 	
2010-07-30 12:22:27 	415 		535 	0 	
2010-07-30 12:30:51 	418 		345 	0 	
2010-07-30 12:31:43 	422 		395 	0 	
2010-07-30 12:47:59 	305 		275 	0 	
2010-07-30 12:51:21 	407 		395 	0 	
2010-07-30 12:51:37 	420 		705 	0 	
2010-07-30 12:57:14 	306 		395 	0 	
2010-07-30 13:03:03 	402 		30 	0 	
2010-07-30 13:11:46 	308 		395 	0 	
2010-07-30 13:12:00 	307 		395 	0 	
2010-07-30 13:25:05 	402 		316 	0 	
2010-07-30 13:27:31 	513 		1600 	0 	
2010-07-30 13:29:32 	421 		395 	0 	
2010-07-30 13:30:06 	310 		275 	0 	
2010-07-30 13:31:03 	309 		395 	0 	
2010-07-30 13:31:45 	409 		365 	0 	
2010-07-30 13:34:32 	307 		105 	0 	
2010-07-30 13:41:18 	310 		80 	0 	
2010-07-30 13:46:06 	416 		345 	0 	
2010-07-30 13:47:52 	303 		345 	0 	
2010-07-30 13:49:11 	514 		0 	1600 	
2010-07-30 13:49:32 	302 		395 	0 	
2010-07-30 13:51:18 	304 		395 	0 	
2010-07-30 13:51:32 	305 		20 	0 	
2010-07-30 14:00:30 	413 		395 	0 	
2010-07-30 14:20:22 	409 		395 	0 	
2010-07-30 14:21:18 	417 		395 	0 	
2010-07-30 14:27:11 	304 		50 	0 	
2010-07-30 14:29:33 	405 		275 	0 	
2010-07-30 14:37:23 	421 		395 	0 	
2010-07-30 14:42:43 	308 		395 	0 	
2010-07-30 14:43:15 	307 		395 	0 	
2010-07-30 14:44:29 	307 		50 	0 	
2010-07-30 14:44:42 	312 		395 	0 	
2010-07-30 15:00:38 	512 		1600 	0 	
2010-07-30 15:03:17 	509 		450 	0 	
2010-07-30 15:22:33 	419 		395 	0 	
2010-07-30 15:25:30 	407 		395 	0 	
2010-07-30 15:26:42 	Lobby 		200 	0 	
2010-07-30 15:28:53 	315 		395 	0 	
2010-07-30 15:31:15 	410 		275 	0 	
2010-07-30 15:33:50 	412 		395 	0 	
2010-07-30 15:43:00 	304 		347 	0 	
2010-07-30 15:54:54 	408 		395 	0 	
2010-07-30 15:55:53 	508 		750 	0 	
2010-07-30 15:58:56 	509 		180 	0 	
 			Total:		32386 	1600		

=== RECHIT LIST ===




V1