MSHOGUN 1: SHIFT END REPORT
Monday November 22, 2010 12:03:07 AM

SALES TRANSACTION
Room Sales Order			47075
FnB Sales Order			1762
Beer Sales Order			435
Misc Sales Order			50
Room Sales Adjustment			0
GROSS SALES			49322

DISCOUNT
Room				0
FnB				0
Misc				0

DEPOSIT				26053
REFUND				

TOTAL ACCOUNTABILITY			75375

CASH DECLARATION			206
CARD				395
FUNDS SAFEKEEP			50000
TOTAL CASH DECLARED			50601

TOTAL CASH ON SYSTEM			206
OVER/SHORTAGES 			0

ROOM	 # OF CHECK-OUT	AMT
Value 		20	6300
Regular 		37	15165
Classique 		62	25610
Premium 		0	0
Regent 		0	0
Queen 		0	0
Gemini 		0	0
Family 		0	0
Executive Suite 	0	0
Mega Suite 	0	0

DISCOUNT 
Value 			  
Regular 		  
Classique 		  
Premium 		  
Regent 			  
Queen 		  
Gemini 		  
Family 		  
Executive Suite 	  
Mega Suite 		  


=== RESERVATIONS ===

Deposits:


Claimed:



SECURITY DEPOSITS

Deposits:
Claimed:


=== SALES BREAKDOWN ===

Transaction Date	Room No.	Cash	Card

2010-11-21 16:04:37 	312 		190 	0 	
2010-11-21 16:05:34 	415 		395 	0 	
2010-11-21 16:06:45 	419 		395 	0 	
2010-11-21 16:09:23 	414 		345 	0 	
2010-11-21 16:11:22 	306 		395 	0 	
2010-11-21 16:11:34 	311 		275 	0 	
2010-11-21 16:12:59 	410 		275 	0 	
2010-11-21 16:21:59 	417 		395 	0 	
2010-11-21 16:22:16 	411 		475 	0 	
2010-11-21 16:26:33 	321 		395 	0 	
2010-11-21 16:27:32 	413 		395 	0 	
2010-11-21 16:28:14 	418 		30 	0 	
2010-11-21 16:28:18 	418 		180 	0 	
2010-11-21 16:28:28 	414 		50 	0 	
2010-11-21 16:31:43 	319 		395 	0 	
2010-11-21 16:38:34 	409 		395 	0 	
2010-11-21 16:47:21 	317 		395 	0 	
2010-11-21 16:49:10 	322 		395 	0 	
2010-11-21 16:49:45 	424 		210 	0 	
2010-11-21 16:50:20 	409 		50 	0 	
2010-11-21 16:51:42 	207 		345 	0 	
2010-11-21 16:52:07 	205 		345 	0 	
2010-11-21 16:55:02 	213 		345 	0 	
2010-11-21 17:02:35 	217 		275 	0 	
2010-11-21 17:05:26 	301 		395 	0 	
2010-11-21 17:12:34 	303 		345 	0 	
2010-11-21 17:17:07 	419 		135 	0 	
2010-11-21 17:17:15 	213 		152 	0 	
2010-11-21 17:18:12 	305 		275 	0 	
2010-11-21 17:26:21 	206 		345 	0 	
2010-11-21 17:26:32 	202 		345 	0 	
2010-11-21 17:26:42 	309 		395 	0 	
2010-11-21 17:29:03 	307 		395 	0 	
2010-11-21 17:32:24 	302 		395 	0 	
2010-11-21 17:32:48 	218 		395 	0 	
2010-11-21 17:36:07 	219 		316 	0 	
2010-11-21 17:49:43 	411 		205 	0 	
2010-11-21 17:50:27 	407 		140 	0 	
2010-11-21 18:00:31 	304 		535 	0 	
2010-11-21 18:01:57 	220 		395 	0 	
2010-11-21 18:02:43 	212 		275 	0 	
2010-11-21 18:03:39 	215 		345 	0 	
2010-11-21 18:05:39 	315 		395 	0 	
2010-11-21 18:08:37 	214 		275 	0 	
2010-11-21 18:10:04 	214 		20 	0 	
2010-11-21 18:13:24 	415 		250 	0 	
2010-11-21 18:17:26 	320 		345 	0 	
2010-11-21 18:20:25 	204 		345 	0 	
2010-11-21 18:22:14 	221 		395 	0 	
2010-11-21 18:25:58 	210 		345 	0 	
2010-11-21 18:26:10 	313 		695 	0 	
2010-11-21 18:26:42 	211 		345 	0 	
2010-11-21 18:30:30 	409 		250 	0 	
2010-11-21 18:37:54 	308 		395 	0 	
2010-11-21 18:42:30 	406 		395 	0 	
2010-11-21 18:42:41 	407 		395 	0 	
2010-11-21 18:46:50 	310 		275 	0 	
2010-11-21 18:48:14 	201 		345 	0 	
2010-11-21 18:58:38 	324 		595 	0 	
2010-11-21 19:07:30 	313 		180 	0 	
2010-11-21 19:08:22 	207 		345 	0 	
2010-11-21 19:15:15 	408 		695 	0 	
2010-11-21 19:17:32 	404 		395 	0 	
2010-11-21 19:19:56 	403 		645 	0 	
2010-11-21 19:22:12 	316 		645 	0 	
2010-11-21 19:26:37 	319 		695 	0 	
2010-11-21 19:32:07 	324 		65 	0 	
2010-11-21 19:40:51 	322 		110 	0 	
2010-11-21 19:44:34 	402 		695 	0 	
2010-11-21 19:46:01 	318 		345 	0 	
2010-11-21 19:48:11 	316 		210 	0 	
2010-11-21 19:49:17 	409 		395 	0 	
2010-11-21 19:57:11 	405 		595 	0 	
2010-11-21 19:57:23 	413 		695 	0 	
2010-11-21 19:59:10 	417 		695 	0 	
2010-11-21 20:01:31 	301 		395 	0 	
2010-11-21 20:02:42 	412 		395 	0 	
2010-11-21 20:03:38 	414 		645 	0 	
2010-11-21 20:11:01 	410 		595 	0 	
2010-11-21 20:12:11 	314 		345 	0 	
2010-11-21 20:13:34 	321 		695 	0 	
2010-11-21 20:18:26 	312 		395 	0 	
2010-11-21 20:22:20 	401 		395 	0 	
2010-11-21 20:33:04 	419 		0 	395 	
2010-11-21 20:33:23 	206 		645 	0 	
2010-11-21 20:33:34 	416 		645 	0 	
2010-11-21 20:37:01 	203 		645 	0 	
2010-11-21 20:41:05 	421 		395 	0 	
2010-11-21 20:44:05 	413 		198 	0 	
2010-11-21 20:44:12 	410 		210 	0 	
2010-11-21 20:45:32 	422 		395 	0 	
2010-11-21 20:52:46 	317 		140 	0 	
2010-11-21 20:53:13 	309 		395 	0 	
2010-11-21 21:06:19 	307 		395 	0 	
2010-11-21 21:10:15 	308 		695 	0 	
2010-11-21 21:14:04 	406 		395 	0 	
2010-11-21 21:21:50 	305 		100 	0 	
2010-11-21 21:24:29 	415 		395 	0 	
2010-11-21 21:26:32 	215 		645 	0 	
2010-11-21 21:26:47 	202 		645 	0 	
2010-11-21 21:30:12 	205 		345 	0 	
2010-11-21 21:34:33 	308 		180 	0 	
2010-11-21 21:39:04 	204 		645 	0 	
2010-11-21 21:47:10 	418 		345 	0 	
2010-11-21 21:59:44 	210 		345 	0 	
2010-11-21 22:03:47 	315 		695 	0 	
2010-11-21 22:11:41 	306 		695 	0 	
2010-11-21 22:14:25 	218 		395 	0 	
2010-11-21 22:14:57 	414 		165 	0 	
2010-11-21 22:21:51 	320 		645 	0 	
2010-11-21 22:22:03 	317 		695 	0 	
2010-11-21 22:26:31 	404 		695 	0 	
2010-11-21 22:26:43 	302 		695 	0 	
2010-11-21 22:27:35 	219 		395 	0 	
2010-11-21 22:27:54 	212 		595 	0 	
2010-11-21 22:28:30 	214 		275 	0 	
2010-11-21 22:34:03 	210 		40 	0 	
2010-11-21 22:37:05 	407 		695 	0 	
2010-11-21 22:50:19 	208 		275 	0 	
2010-11-21 22:56:02 	419 		695 	0 	
2010-11-21 23:10:01 	202 		80 	0 	
2010-11-21 23:11:49 	317 		50 	0 	
2010-11-21 23:13:01 	212 		135 	0 	
2010-11-21 23:13:15 	301 		395 	0 	
2010-11-21 23:21:07 	318 		645 	0 	
2010-11-21 23:24:39 	213 		345 	0 	
2010-11-21 23:40:55 	209 		275 	0 	
2010-11-21 23:42:01 	305 		595 	0 	
2010-11-21 23:43:30 	312 		395 	0 	
2010-11-21 23:56:47 	304 		395 	0 	
 			Total:		50206 	395		

=== RECHIT LIST ===




V1