MSHOGUN 1: SHIFT END REPORT
Friday November 25, 2011 4:01:17 PM

SALES TRANSACTION
Room Sales Order			33540
FnB Sales Order			2941
Beer Sales Order			40
Misc Sales Order			95
Room Sales Adjustment			0
GROSS SALES			36616

DISCOUNT
Room				0
FnB				0
Misc				0

DEPOSIT				11105
REFUND				

TOTAL ACCOUNTABILITY			47721

CASH DECLARATION			4794
CARD				2180
FUNDS SAFEKEEP			20000
TOTAL CASH DECLARED			26974

TOTAL CASH ON SYSTEM			4764
OVER/SHORTAGES 			30

ROOM	 # OF CHECK-OUT	AMT
Value 		7	3185
Regular 		16	8640
Classique 		41	21715
Premium 		0	0
Regent 		0	0
Queen 		0	0
Gemini 		0	0
Family 		0	0
Executive Suite 	0	0
Mega Suite 	0	0

DISCOUNT 
Value 			  
Regular 		  
Classique 		  
Premium 		  
Regent 			  
Queen 		  
Gemini 		  
Family 		  
Executive Suite 	  
Mega Suite 		  


=== RESERVATIONS ===

Deposits:


Claimed:



SECURITY DEPOSITS

Deposits:
Claimed:


=== SALES BREAKDOWN ===

Transaction Date	Room No.	Cash	Card

2011-11-25 08:05:48 	406 		140 	0 	
2011-11-25 08:11:41 	415 		535 	0 	
2011-11-25 08:22:23 	412 		395 	0 	
2011-11-25 08:25:10 	319 		395 	0 	
2011-11-25 09:00:24 	316 		705 	0 	
2011-11-25 09:00:43 	316 		50 	0 	
2011-11-25 09:12:25 	305 		275 	0 	
2011-11-25 09:33:07 	318 		345 	0 	
2011-11-25 10:02:29 	303 		345 	0 	
2011-11-25 10:09:04 	417 		160 	0 	
2011-11-25 10:36:44 	409 		250 	0 	
2011-11-25 10:37:12 	309 		395 	0 	
2011-11-25 11:06:17 	310 		100 	0 	
2011-11-25 11:11:34 	306 		395 	0 	
2011-11-25 11:20:10 	319 		316 	0 	
2011-11-25 11:49:18 	312 		395 	0 	
2011-11-25 11:49:45 	307 		395 	0 	
2011-11-25 11:58:59 	403 		345 	0 	
2011-11-25 12:04:51 	320 		360 	0 	
2011-11-25 12:09:53 	414 		345 	0 	
2011-11-25 12:11:11 	317 		395 	0 	
2011-11-25 12:20:18 	323 		275 	0 	
2011-11-25 12:26:29 	318 		215 	0 	
2011-11-25 12:28:04 	324 		475 	0 	
2011-11-25 12:40:47 	404 		395 	0 	
2011-11-25 12:45:34 	402 		0 	395 	
2011-11-25 12:53:21 	313 		395 	0 	
2011-11-25 12:57:08 	315 		395 	0 	
2011-11-25 12:59:17 	321 		395 	0 	
2011-11-25 13:00:07 	416 		345 	0 	
2011-11-25 13:05:54 	413 		395 	0 	
2011-11-25 13:11:45 	320 		345 	0 	
2011-11-25 13:16:54 	301 		395 	0 	
2011-11-25 13:17:20 	321 		210 	0 	
2011-11-25 13:20:42 	309 		395 	0 	
2011-11-25 13:21:17 	303 		345 	0 	
2011-11-25 13:22:34 	302 		395 	0 	
2011-11-25 13:29:55 	305 		275 	0 	
2011-11-25 13:45:34 	302 		30 	0 	
2011-11-25 13:47:20 	307 		395 	0 	
2011-11-25 13:49:02 	322 		395 	0 	
2011-11-25 13:52:55 	422 		395 	0 	
2011-11-25 13:55:47 	318 		276 	0 	
2011-11-25 13:55:59 	308 		395 	0 	
2011-11-25 13:56:13 	408 		395 	0 	
2011-11-25 13:57:15 	420 		585 	0 	
2011-11-25 13:59:40 	317 		260 	0 	
2011-11-25 14:00:45 	412 		395 	0 	
2011-11-25 14:01:28 	308 		20 	0 	
2011-11-25 14:05:04 	406 		395 	0 	
2011-11-25 14:08:30 	409 		395 	0 	
2011-11-25 14:09:35 	304 		395 	0 	
2011-11-25 14:12:35 	210 		345 	0 	
2011-11-25 14:17:09 	312 		290 	0 	
2011-11-25 14:23:05 	219 		395 	0 	
2011-11-25 14:29:05 	211 		345 	0 	
2011-11-25 14:34:32 	218 		395 	0 	
2011-11-25 14:41:41 	215 		345 	0 	
2011-11-25 14:48:20 	213 		585 	0 	
2011-11-25 14:50:20 	206 		345 	0 	
2011-11-25 15:07:17 	215 		435 	0 	
2011-11-25 15:07:51 	207 		465 	0 	
2011-11-25 15:08:16 	319 		140 	0 	
2011-11-25 15:09:49 	310 		275 	0 	
2011-11-25 15:11:04 	312 		316 	0 	
2011-11-25 15:14:01 	313 		0 	395 	
2011-11-25 15:15:01 	204 		345 	0 	
2011-11-25 15:16:34 	205 		276 	0 	
2011-11-25 15:17:46 	309 		395 	0 	
2011-11-25 15:18:13 	314 		345 	0 	
2011-11-25 15:28:40 	205 		120 	0 	
2011-11-25 15:30:28 	221 		395 	0 	
2011-11-25 15:37:32 	302 		15 	0 	
2011-11-25 15:40:53 	306 		395 	0 	
2011-11-25 15:42:59 	319 		395 	0 	
 			Total:		24764 	790		

=== RECHIT LIST ===




V1