MSHOGUN 1: SHIFT END REPORT
Saturday January 01, 2011 4:00:02 PM

SALES TRANSACTION
Room Sales Order			30660
FnB Sales Order			2320
Beer Sales Order			305
Misc Sales Order			125
Room Sales Adjustment			0
GROSS SALES			33410

DISCOUNT
Room				0
FnB				0
Misc				0

DEPOSIT				11130
REFUND				

TOTAL ACCOUNTABILITY			44540

CASH DECLARATION			12047
CARD				0
FUNDS SAFEKEEP			10000
TOTAL CASH DECLARED			22047

TOTAL CASH ON SYSTEM			12047
OVER/SHORTAGES 			0

ROOM	 # OF CHECK-OUT	AMT
Value 		8	3260
Regular 		15	7275
Classique 		35	20125
Premium 		0	0
Regent 		0	0
Queen 		0	0
Gemini 		0	0
Family 		0	0
Executive Suite 	0	0
Mega Suite 	0	0

DISCOUNT 
Value 			  
Regular 		  
Classique 		  
Premium 		  
Regent 			  
Queen 		  
Gemini 		  
Family 		  
Executive Suite 	  
Mega Suite 		  


=== RESERVATIONS ===

Deposits:


Claimed:



SECURITY DEPOSITS

Deposits:

2011-01-01 08:35:40	695	Management Endorsement [  113496  ]: Claimed:


=== SALES BREAKDOWN ===

Transaction Date	Room No.	Cash	Card

2011-01-01 08:08:28 	207 		276 	0 	
2011-01-01 08:08:36 	412 		395 	0 	
2011-01-01 08:17:42 	307 		80 	0 	
2011-01-01 08:24:54 	421 		110 	0 	
2011-01-01 08:35:40 	421 		695 	0 	
2011-01-01 08:39:48 	209 		305 	0 	
2011-01-01 08:52:57 	304 		395 	0 	
2011-01-01 08:58:38 	419 		395 	0 	
2011-01-01 09:51:04 	306 		395 	0 	
2011-01-01 10:07:03 	206 		345 	0 	
2011-01-01 10:15:32 	210 		345 	0 	
2011-01-01 10:26:24 	215 		120 	0 	
2011-01-01 10:27:28 	203 		345 	0 	
2011-01-01 10:45:29 	218 		255 	0 	
2011-01-01 11:03:26 	204 		345 	0 	
2011-01-01 11:17:00 	208 		275 	0 	
2011-01-01 11:20:26 	309 		395 	0 	
2011-01-01 11:30:49 	202 		465 	0 	
2011-01-01 11:34:06 	205 		345 	0 	
2011-01-01 12:10:09 	303 		705 	0 	
2011-01-01 12:12:34 	204 		25 	0 	
2011-01-01 12:12:42 	402 		290 	0 	
2011-01-01 12:16:28 	321 		395 	0 	
2011-01-01 12:17:00 	309 		200 	0 	
2011-01-01 12:19:27 	209 		275 	0 	
2011-01-01 12:27:36 	311 		275 	0 	
2011-01-01 13:00:04 	307 		395 	0 	
2011-01-01 13:00:59 	306 		395 	0 	
2011-01-01 13:03:29 	212 		275 	0 	
2011-01-01 13:04:00 	302 		395 	0 	
2011-01-01 13:10:13 	211 		705 	0 	
2011-01-01 13:15:52 	301 		395 	0 	
2011-01-01 13:20:32 	304 		395 	0 	
2011-01-01 13:20:39 	308 		395 	0 	
2011-01-01 13:59:33 	319 		395 	0 	
2011-01-01 14:02:04 	315 		395 	0 	
2011-01-01 14:23:56 	309 		395 	0 	
2011-01-01 14:31:59 	203 		120 	0 	
2011-01-01 14:32:23 	305 		275 	0 	
2011-01-01 14:34:05 	312 		395 	0 	
2011-01-01 14:36:27 	309 		25 	0 	
2011-01-01 14:38:10 	314 		396 	0 	
2011-01-01 14:38:51 	307 		395 	0 	
2011-01-01 14:39:30 	317 		395 	0 	
2011-01-01 14:47:18 	322 		395 	0 	
2011-01-01 14:47:27 	221 		395 	0 	
2011-01-01 14:54:02 	310 		275 	0 	
2011-01-01 14:54:09 	207 		345 	0 	
2011-01-01 14:54:15 	316 		345 	0 	
2011-01-01 14:56:32 	219 		395 	0 	
2011-01-01 15:08:42 	319 		395 	0 	
2011-01-01 15:12:56 	315 		160 	0 	
2011-01-01 15:19:29 	306 		395 	0 	
2011-01-01 15:20:15 	218 		395 	0 	
2011-01-01 15:21:11 	220 		395 	0 	
2011-01-01 15:23:14 	406 		395 	0 	
2011-01-01 15:31:31 	210 		345 	0 	
2011-01-01 15:34:11 	209 		275 	0 	
2011-01-01 15:45:28 	215 		345 	0 	
2011-01-01 15:46:58 	320 		345 	0 	
2011-01-01 15:48:03 	318 		585 	0 	
2011-01-01 15:54:24 	407 		395 	0 	
2011-01-01 15:54:47 	408 		395 	0 	
2011-01-01 15:57:12 	409 		395 	0 	
2011-01-01 15:57:35 	404 		395 	0 	
 			Total:		22742 	0		

=== RECHIT LIST ===




V1