MSHOGUN 1: SHIFT END REPORT
Friday April 01, 2011 8:00:05 AM

SALES TRANSACTION
Room Sales Order			29300
FnB Sales Order			1328
Beer Sales Order			335
Misc Sales Order			0
Room Sales Adjustment			0
GROSS SALES			30963

DISCOUNT
Room				0
FnB				0
Misc				0

DEPOSIT				6230
REFUND				

TOTAL ACCOUNTABILITY			37193

CASH DECLARATION			4659
CARD				0
FUNDS SAFEKEEP			10000
TOTAL CASH DECLARED			14659

TOTAL CASH ON SYSTEM			4579
OVER/SHORTAGES 			80

ROOM	 # OF CHECK-OUT	AMT
Value 		7	3605
Regular 		20	9480
Classique 		29	16215
Premium 		0	0
Regent 		0	0
Queen 		0	0
Gemini 		0	0
Family 		0	0
Executive Suite 	0	0
Mega Suite 	0	0

DISCOUNT 
Value 			  
Regular 		  
Classique 		  
Premium 		  
Regent 			  
Queen 		  
Gemini 		  
Family 		  
Executive Suite 	  
Mega Suite 		  


=== RESERVATIONS ===

Deposits:


Claimed:



SECURITY DEPOSITS

Deposits:
Claimed:


=== SALES BREAKDOWN ===

Transaction Date	Room No.	Cash	Card

2011-04-01 00:07:09 	412 		395 	0 	
2011-04-01 00:07:18 	407 		695 	0 	
2011-04-01 00:08:53 	422 		395 	0 	
2011-04-01 00:12:13 	220 		395 	0 	
2011-04-01 00:12:25 	204 		345 	0 	
2011-04-01 00:18:48 	407 		50 	0 	
2011-04-01 00:22:52 	316 		645 	0 	
2011-04-01 00:26:05 	215 		645 	0 	
2011-04-01 00:31:42 	220 		210 	0 	
2011-04-01 00:37:12 	203 		345 	0 	
2011-04-01 00:41:52 	213 		645 	0 	
2011-04-01 00:47:54 	308 		50 	0 	
2011-04-01 00:48:11 	206 		345 	0 	
2011-04-01 00:59:39 	207 		345 	0 	
2011-04-01 01:15:08 	210 		465 	0 	
2011-04-01 01:34:05 	214 		375 	0 	
2011-04-01 01:34:16 	309 		395 	0 	
2011-04-01 01:36:33 	409 		395 	0 	
2011-04-01 01:59:59 	404 		210 	0 	
2011-04-01 02:13:12 	218 		395 	0 	
2011-04-01 02:13:18 	221 		395 	0 	
2011-04-01 02:17:26 	301 		395 	0 	
2011-04-01 02:38:31 	404 		695 	0 	
2011-04-01 02:42:12 	401 		395 	0 	
2011-04-01 02:42:55 	303 		645 	0 	
2011-04-01 02:53:13 	208 		575 	0 	
2011-04-01 03:03:45 	202 		276 	0 	
2011-04-01 03:55:57 	322 		280 	0 	
2011-04-01 05:20:33 	302 		150 	0 	
2011-04-01 05:21:46 	417 		50 	0 	
2011-04-01 05:24:01 	211 		345 	0 	
2011-04-01 05:39:29 	401 		198 	0 	
2011-04-01 06:02:48 	423 		275 	0 	
2011-04-01 06:18:49 	303 		50 	0 	
2011-04-01 06:20:09 	218 		140 	0 	
2011-04-01 06:31:21 	301 		140 	0 	
2011-04-01 06:33:06 	205 		345 	0 	
2011-04-01 06:34:49 	216 		25 	0 	
2011-04-01 06:35:18 	213 		280 	0 	
2011-04-01 06:36:34 	307 		395 	0 	
2011-04-01 07:12:04 	204 		345 	0 	
2011-04-01 07:52:54 	407 		170 	0 	
2011-04-01 07:56:06 	214 		275 	0 	
 			Total:		14579 	0		

=== RECHIT LIST ===




V1