MSHOGUN 1: SHIFT END REPORT
Friday December 10, 2010 4:00:02 PM

SALES TRANSACTION
Room Sales Order			35195
FnB Sales Order			3185
Beer Sales Order			330
Misc Sales Order			20
Room Sales Adjustment			0
GROSS SALES			38730

DISCOUNT
Room				0
FnB				0
Misc				0

DEPOSIT				5195
REFUND				

TOTAL ACCOUNTABILITY			43925

CASH DECLARATION			521
CARD				0
FUNDS SAFEKEEP			20000
TOTAL CASH DECLARED			20521

TOTAL CASH ON SYSTEM			517
OVER/SHORTAGES 			4

ROOM	 # OF CHECK-OUT	AMT
Value 		9	3835
Regular 		17	8925
Classique 		41	22435
Premium 		0	0
Regent 		0	0
Queen 		0	0
Gemini 		0	0
Family 		0	0
Executive Suite 	0	0
Mega Suite 	0	0

DISCOUNT 
Value 			  
Regular 		  
Classique 		  
Premium 		  
Regent 			  
Queen 		  
Gemini 		  
Family 		  
Executive Suite 	  
Mega Suite 		  


=== RESERVATIONS ===

Deposits:


Claimed:



SECURITY DEPOSITS

Deposits:
Claimed:


=== SALES BREAKDOWN ===

Transaction Date	Room No.	Cash	Card

2010-12-10 08:01:20 	307 		235 	0 	
2010-12-10 08:11:09 	204 		345 	0 	
2010-12-10 08:41:38 	314 		705 	0 	
2010-12-10 08:52:41 	316 		345 	0 	
2010-12-10 08:52:51 	220 		360 	0 	
2010-12-10 08:53:03 	312 		210 	0 	
2010-12-10 08:53:30 	309 		395 	0 	
2010-12-10 08:54:26 	307 		395 	0 	
2010-12-10 08:57:51 	423 		100 	0 	
2010-12-10 09:10:24 	321 		395 	0 	
2010-12-10 09:28:48 	415 		395 	0 	
2010-12-10 09:45:41 	301 		395 	0 	
2010-12-10 10:00:29 	202 		345 	0 	
2010-12-10 10:12:33 	404 		395 	0 	
2010-12-10 10:55:15 	312 		395 	0 	
2010-12-10 11:00:25 	417 		675 	0 	
2010-12-10 11:17:11 	408 		395 	0 	
2010-12-10 11:24:57 	407 		395 	0 	
2010-12-10 11:33:49 	315 		395 	0 	
2010-12-10 11:36:16 	208 		275 	0 	
2010-12-10 11:36:50 	313 		395 	0 	
2010-12-10 11:37:47 	404 		295 	0 	
2010-12-10 11:42:30 	401 		395 	0 	
2010-12-10 11:42:46 	304 		395 	0 	
2010-12-10 12:01:01 	204 		345 	0 	
2010-12-10 12:17:40 	207 		276 	0 	
2010-12-10 12:19:03 	209 		275 	0 	
2010-12-10 12:25:05 	317 		680 	0 	
2010-12-10 12:33:37 	304 		240 	0 	
2010-12-10 12:33:42 	304 		75 	0 	
2010-12-10 12:33:44 	304 		20 	0 	
2010-12-10 12:43:13 	206 		276 	0 	
2010-12-10 12:47:30 	308 		395 	0 	
2010-12-10 12:47:42 	319 		395 	0 	
2010-12-10 13:02:19 	406 		395 	0 	
2010-12-10 13:08:09 	419 		395 	0 	
2010-12-10 13:08:22 	421 		395 	0 	
2010-12-10 13:08:32 	306 		395 	0 	
2010-12-10 13:10:28 	307 		395 	0 	
2010-12-10 13:14:32 	206 		210 	0 	
2010-12-10 13:27:41 	301 		395 	0 	
2010-12-10 13:36:16 	402 		395 	0 	
2010-12-10 13:50:57 	406 		80 	0 	
2010-12-10 13:52:28 	212 		275 	0 	
2010-12-10 13:54:41 	322 		395 	0 	
2010-12-10 14:01:35 	212 		170 	0 	
2010-12-10 14:04:00 	313 		210 	0 	
2010-12-10 14:08:56 	315 		25 	0 	
2010-12-10 14:11:50 	301 		25 	0 	
2010-12-10 14:15:32 	404 		140 	0 	
2010-12-10 14:24:34 	214 		275 	0 	
2010-12-10 14:35:26 	210 		345 	0 	
2010-12-10 14:38:40 	208 		275 	0 	
2010-12-10 14:49:29 	209 		275 	0 	
2010-12-10 15:06:14 	302 		395 	0 	
2010-12-10 15:09:47 	401 		395 	0 	
2010-12-10 15:11:33 	407 		395 	0 	
2010-12-10 15:22:38 	306 		195 	0 	
2010-12-10 15:28:03 	211 		345 	0 	
2010-12-10 15:32:07 	213 		345 	0 	
2010-12-10 15:38:42 	207 		585 	0 	
2010-12-10 15:38:55 	306 		395 	0 	
 			Total:		20517 	0		

=== RECHIT LIST ===




V1