MSHOGUN 1: SHIFT END REPORT
Thursday September 30, 2010 4:01:09 PM

SALES TRANSACTION
Room Sales Order			34425
FnB Sales Order			3364
Beer Sales Order			270
Misc Sales Order			40
Room Sales Adjustment			0
GROSS SALES			38099

DISCOUNT
Room				0
FnB				0
Misc				0

DEPOSIT				16783
REFUND				

TOTAL ACCOUNTABILITY			54882

CASH DECLARATION			10974
CARD				1735
FUNDS SAFEKEEP			20000
TOTAL CASH DECLARED			32709

TOTAL CASH ON SYSTEM			10974
OVER/SHORTAGES 			0

ROOM	 # OF CHECK-OUT	AMT
Value 		6	1970
Regular 		15	6375
Classique 		28	14480
Premium 		0	0
Regent 		3	3200
Queen 		0	0
Gemini 		0	0
Family 		1	8400
Executive Suite 	0	0
Mega Suite 	0	0

DISCOUNT 
Value 			  
Regular 		  
Classique 		  
Premium 		  
Regent 			  
Queen 		  
Gemini 		  
Family 		  
Executive Suite 	  
Mega Suite 		  


=== RESERVATIONS ===

Deposits:


Claimed:



SECURITY DEPOSITS

Deposits:
Claimed:


=== SALES BREAKDOWN ===

Transaction Date	Room No.	Cash	Card

2010-09-30 08:10:00 	307 		180 	0 	
2010-09-30 08:22:42 	215 		345 	0 	
2010-09-30 08:38:35 	511 		800 	0 	
2010-09-30 09:02:13 	511 		275 	0 	
2010-09-30 09:04:56 	511 		40 	0 	
2010-09-30 09:21:01 	414 		345 	0 	
2010-09-30 09:33:45 	611 		100 	0 	
2010-09-30 09:50:19 	406 		295 	0 	
2010-09-30 10:00:22 	220 		395 	0 	
2010-09-30 10:05:39 	407 		395 	0 	
2010-09-30 10:24:20 	408 		395 	0 	
2010-09-30 10:33:21 	409 		395 	0 	
2010-09-30 10:47:25 	416 		705 	0 	
2010-09-30 10:49:04 	409 		190 	0 	
2010-09-30 10:54:01 	221 		420 	0 	
2010-09-30 10:56:16 	322 		50 	0 	
2010-09-30 11:07:09 	403 		516 	0 	
2010-09-30 11:10:14 	406 		395 	0 	
2010-09-30 11:13:26 	413 		395 	0 	
2010-09-30 11:39:51 	313 		395 	0 	
2010-09-30 11:41:56 	611 		220 	0 	
2010-09-30 11:42:38 	215 		345 	0 	
2010-09-30 11:42:46 	502 		800 	0 	
2010-09-30 11:43:33 	422 		316 	0 	
2010-09-30 11:44:01 	219 		395 	0 	
2010-09-30 11:44:11 	405 		275 	0 	
2010-09-30 11:44:22 	410 		275 	0 	
2010-09-30 11:44:32 	402 		395 	0 	
2010-09-30 11:47:05 	419 		395 	0 	
2010-09-30 11:59:15 	612 		378 	0 	
2010-09-30 12:11:29 	417 		395 	0 	
2010-09-30 12:25:21 	415 		395 	0 	
2010-09-30 12:34:28 	314 		345 	0 	
2010-09-30 12:49:33 	304 		395 	0 	
2010-09-30 12:49:42 	311 		275 	0 	
2010-09-30 13:01:10 	315 		395 	0 	
2010-09-30 13:02:01 	316 		705 	0 	
2010-09-30 13:06:20 	310 		275 	0 	
2010-09-30 13:06:25 	312 		395 	0 	
2010-09-30 13:16:43 	319 		395 	0 	
2010-09-30 13:16:51 	302 		395 	0 	
2010-09-30 13:17:45 	317 		395 	0 	
2010-09-30 13:26:55 	307 		395 	0 	
2010-09-30 13:27:55 	305 		375 	0 	
2010-09-30 13:30:08 	323 		275 	0 	
2010-09-30 13:31:57 	308 		395 	0 	
2010-09-30 13:44:30 	306 		395 	0 	
2010-09-30 13:50:57 	304 		40 	0 	
2010-09-30 13:51:44 	318 		0 	345 	
2010-09-30 13:55:37 	303 		345 	0 	
2010-09-30 13:58:58 	324 		275 	0 	
2010-09-30 14:01:43 	214 		275 	0 	
2010-09-30 14:02:32 	213 		705 	0 	
2010-09-30 14:03:19 	211 		345 	0 	
2010-09-30 14:05:39 	405 		210 	0 	
2010-09-30 14:10:56 	212 		275 	0 	
2010-09-30 14:16:49 	209 		275 	0 	
2010-09-30 14:16:55 	204 		345 	0 	
2010-09-30 14:17:02 	207 		345 	0 	
2010-09-30 14:27:30 	220 		395 	0 	
2010-09-30 14:34:17 	312 		234 	0 	
2010-09-30 14:36:10 	208 		275 	0 	
2010-09-30 14:38:22 	205 		345 	0 	
2010-09-30 14:46:18 	221 		395 	0 	
2010-09-30 14:50:13 	410 		210 	0 	
2010-09-30 14:56:12 	202 		345 	0 	
2010-09-30 14:56:45 	417 		25 	0 	
2010-09-30 15:00:39 	203 		345 	0 	
2010-09-30 15:03:12 	307 		395 	0 	
2010-09-30 15:03:27 	206 		585 	0 	
2010-09-30 15:06:06 	511 		340 	0 	
2010-09-30 15:06:21 	208 		90 	0 	
2010-09-30 15:15:24 	322 		395 	0 	
2010-09-30 15:16:37 	218 		395 	0 	
2010-09-30 15:19:26 	313 		395 	0 	
2010-09-30 15:23:03 	315 		395 	0 	
2010-09-30 15:26:41 	307 		40 	0 	
2010-09-30 15:27:06 	301 		395 	0 	
2010-09-30 15:27:59 	212 		275 	0 	
2010-09-30 15:42:16 	219 		395 	0 	
2010-09-30 15:43:10 	213 		60 	0 	
2010-09-30 15:43:12 	213 		340 	0 	
2010-09-30 15:44:03 	309 		395 	0 	
2010-09-30 15:54:54 	513 		1600 	0 	
2010-09-30 15:55:17 	311 		275 	0 	
2010-09-30 15:55:31 	402 		395 	0 	
2010-09-30 15:59:18 	319 		395 	0 	
 			Total:		30974 	345		

=== RECHIT LIST ===




V1