MSHOGUN 1: SHIFT END REPORT
Thursday April 28, 2011 8:00:02 AM

SALES TRANSACTION
Room Sales Order			23660
FnB Sales Order			1445
Beer Sales Order			90
Misc Sales Order			70
Room Sales Adjustment			0
GROSS SALES			25265

DISCOUNT
Room				0
FnB				0
Misc				0

DEPOSIT				4120
REFUND				

TOTAL ACCOUNTABILITY			29385

CASH DECLARATION			9925
CARD				695
FUNDS SAFEKEEP			0
TOTAL CASH DECLARED			10620

TOTAL CASH ON SYSTEM			9930
OVER/SHORTAGES 			-5

ROOM	 # OF CHECK-OUT	AMT
Value 		9	4815
Regular 		16	7740
Classique 		19	11105
Premium 		0	0
Regent 		0	0
Queen 		0	0
Gemini 		0	0
Family 		0	0
Executive Suite 	0	0
Mega Suite 	0	0

DISCOUNT 
Value 			  
Regular 		  
Classique 		  
Premium 		  
Regent 			  
Queen 		  
Gemini 		  
Family 		  
Executive Suite 	  
Mega Suite 		  


=== RESERVATIONS ===

Deposits:


Claimed:



SECURITY DEPOSITS

Deposits:
Claimed:


=== SALES BREAKDOWN ===

Transaction Date	Room No.	Cash	Card

2011-04-28 00:14:38 	401 		395 	0 	
2011-04-28 00:23:25 	203 		705 	0 	
2011-04-28 00:34:15 	403 		645 	0 	
2011-04-28 00:42:09 	218 		695 	0 	
2011-04-28 00:44:09 	407 		50 	0 	
2011-04-28 01:08:42 	313 		695 	0 	
2011-04-28 02:06:52 	209 		100 	0 	
2011-04-28 02:41:38 	312 		395 	0 	
2011-04-28 03:07:00 	309 		395 	0 	
2011-04-28 03:21:23 	206 		345 	0 	
2011-04-28 03:21:29 	207 		345 	0 	
2011-04-28 03:32:36 	221 		395 	0 	
2011-04-28 04:23:12 	303 		705 	0 	
2011-04-28 04:25:57 	316 		345 	0 	
2011-04-28 04:41:36 	215 		345 	0 	
2011-04-28 05:15:51 	204 		120 	0 	
2011-04-28 05:21:58 	211 		345 	0 	
2011-04-28 05:23:22 	424 		165 	0 	
2011-04-28 05:23:28 	423 		220 	0 	
2011-04-28 05:23:43 	308 		260 	0 	
2011-04-28 05:24:03 	408 		60 	0 	
2011-04-28 05:24:54 	312 		25 	0 	
2011-04-28 05:27:37 	414 		465 	0 	
2011-04-28 06:13:22 	301 		395 	0 	
2011-04-28 06:56:27 	316 		30 	0 	
2011-04-28 07:11:40 	420 		30 	0 	
2011-04-28 07:12:49 	219 		210 	0 	
2011-04-28 07:36:42 	203 		585 	0 	
2011-04-28 07:47:52 	207 		465 	0 	
 			Total:		9930 	0		

=== RECHIT LIST ===




V1