MSHOGUN 1: SHIFT END REPORT
Friday November 19, 2010 8:00:38 AM

SALES TRANSACTION
Room Sales Order			25000
FnB Sales Order			930
Beer Sales Order			90
Misc Sales Order			105
Room Sales Adjustment			0
GROSS SALES			26125

DISCOUNT
Room				0
FnB				0
Misc				0

DEPOSIT				5020
REFUND				

TOTAL ACCOUNTABILITY			31145

CASH DECLARATION			9570
CARD				0
FUNDS SAFEKEEP			0
TOTAL CASH DECLARED			9570

TOTAL CASH ON SYSTEM			10570
OVER/SHORTAGES 			-1000

ROOM	 # OF CHECK-OUT	AMT
Value 		10	4750
Regular 		13	6825
Classique 		23	13425
Premium 		0	0
Regent 		0	0
Queen 		0	0
Gemini 		0	0
Family 		0	0
Executive Suite 	0	0
Mega Suite 	0	0

DISCOUNT 
Value 			  
Regular 		  
Classique 		  
Premium 		  
Regent 			  
Queen 		  
Gemini 		  
Family 		  
Executive Suite 	  
Mega Suite 		  


=== RESERVATIONS ===

Deposits:


Claimed:



SECURITY DEPOSITS

Deposits:
Claimed:


=== SALES BREAKDOWN ===

Transaction Date	Room No.	Cash	Card

2010-11-19 00:06:59 	412 		395 	0 	
2010-11-19 00:07:07 	210 		345 	0 	
2010-11-19 00:07:48 	414 		120 	0 	
2010-11-19 00:11:55 	412 		70 	0 	
2010-11-19 00:12:42 	221 		695 	0 	
2010-11-19 00:15:29 	220 		395 	0 	
2010-11-19 00:41:42 	301 		395 	0 	
2010-11-19 00:51:51 	417 		695 	0 	
2010-11-19 01:09:17 	414 		345 	0 	
2010-11-19 01:24:57 	305 		275 	0 	
2010-11-19 01:25:04 	404 		395 	0 	
2010-11-19 01:31:35 	311 		275 	0 	
2010-11-19 01:40:34 	416 		645 	0 	
2010-11-19 01:52:14 	213 		345 	0 	
2010-11-19 01:59:30 	218 		15 	0 	
2010-11-19 02:04:06 	422 		695 	0 	
2010-11-19 02:25:22 	208 		275 	0 	
2010-11-19 02:40:12 	212 		475 	0 	
2010-11-19 02:53:47 	422 		110 	0 	
2010-11-19 03:21:32 	322 		395 	0 	
2010-11-19 04:12:04 	210 		120 	0 	
2010-11-19 04:51:11 	420 		705 	0 	
2010-11-19 05:19:55 	404 		395 	0 	
2010-11-19 06:36:27 	305 		200 	0 	
2010-11-19 06:42:54 	315 		90 	0 	
2010-11-19 06:52:41 	414 		345 	0 	
2010-11-19 07:01:17 	307 		205 	0 	
2010-11-19 07:12:58 	403 		25 	0 	
2010-11-19 07:38:31 	322 		140 	0 	
2010-11-19 07:51:36 	419 		250 	0 	
2010-11-19 07:52:13 	408 		395 	0 	
2010-11-19 07:54:25 	211 		345 	0 	
 			Total:		10570 	0		

=== RECHIT LIST ===




V1