MSHOGUN 1: SHIFT END REPORT
Saturday July 16, 2011 12:00:28 AM

SALES TRANSACTION
Room Sales Order			34110
FnB Sales Order			2865
Beer Sales Order			605
Misc Sales Order			30
Room Sales Adjustment			0
GROSS SALES			37610

DISCOUNT
Room				0
FnB				0
Misc				0

DEPOSIT				42438
REFUND				-355

TOTAL ACCOUNTABILITY			79693

CASH DECLARATION			8010
CARD				0
FUNDS SAFEKEEP			60000
TOTAL CASH DECLARED			68010

TOTAL CASH ON SYSTEM			7990
OVER/SHORTAGES 			20

ROOM	 # OF CHECK-OUT	AMT
Value 		19	5225
Regular 		25	9225
Classique 		48	19660
Premium 		0	0
Regent 		0	0
Queen 		0	0
Gemini 		0	0
Family 		0	0
Executive Suite 	0	0
Mega Suite 	0	0

DISCOUNT 
Value 			  
Regular 		  
Classique 		  
Premium 		  
Regent 			  
Queen 		  
Gemini 		  
Family 		  
Executive Suite 	  
Mega Suite 		  


=== RESERVATIONS ===

Deposits:


Claimed:



SECURITY DEPOSITS

Deposits:
Claimed:


=== SALES BREAKDOWN ===

Transaction Date	Room No.	Cash	Card

2011-07-15 16:09:04 	212 		275 	0 	
2011-07-15 16:12:12 	306 		395 	0 	
2011-07-15 16:12:21 	313 		675 	0 	
2011-07-15 16:12:29 	307 		395 	0 	
2011-07-15 16:14:13 	308 		395 	0 	
2011-07-15 16:15:23 	216 		275 	0 	
2011-07-15 16:24:53 	417 		200 	0 	
2011-07-15 16:25:30 	213 		270 	0 	
2011-07-15 16:27:43 	309 		395 	0 	
2011-07-15 16:34:19 	312 		395 	0 	
2011-07-15 16:34:27 	301 		395 	0 	
2011-07-15 16:37:01 	313 		220 	0 	
2011-07-15 16:38:59 	302 		395 	0 	
2011-07-15 16:39:15 	423 		275 	0 	
2011-07-15 16:48:33 	304 		395 	0 	
2011-07-15 16:50:17 	303 		345 	0 	
2011-07-15 16:53:22 	321 		280 	0 	
2011-07-15 17:13:25 	315 		395 	0 	
2011-07-15 17:18:03 	307 		110 	0 	
2011-07-15 17:22:37 	412 		395 	0 	
2011-07-15 17:25:45 	401 		395 	0 	
2011-07-15 17:33:18 	214 		275 	0 	
2011-07-15 17:38:00 	213 		210 	0 	
2011-07-15 17:38:06 	423 		30 	0 	
2011-07-15 17:38:55 	404 		395 	0 	
2011-07-15 17:42:10 	214 		10 	0 	
2011-07-15 17:42:54 	322 		395 	0 	
2011-07-15 17:43:04 	409 		395 	0 	
2011-07-15 17:45:29 	310 		275 	0 	
2011-07-15 17:50:36 	302 		285 	0 	
2011-07-15 17:53:39 	209 		60 	0 	
2011-07-15 18:00:16 	317 		316 	0 	
2011-07-15 18:01:46 	321 		395 	0 	
2011-07-15 18:02:37 	419 		395 	0 	
2011-07-15 18:05:16 	311 		275 	0 	
2011-07-15 18:06:12 	305 		275 	0 	
2011-07-15 18:07:52 	308 		395 	0 	
2011-07-15 18:08:00 	422 		395 	0 	
2011-07-15 18:09:54 	302 		60 	0 	
2011-07-15 18:13:22 	406 		395 	0 	
2011-07-15 18:17:28 	408 		395 	0 	
2011-07-15 18:17:36 	407 		395 	0 	
2011-07-15 18:17:45 	316 		276 	0 	
2011-07-15 18:28:00 	324 		275 	0 	
2011-07-15 18:31:35 	415 		395 	0 	
2011-07-15 18:32:17 	321 		265 	0 	
2011-07-15 18:32:32 	314 		276 	0 	
2011-07-15 18:36:57 	309 		395 	0 	
2011-07-15 18:38:45 	402 		395 	0 	
2011-07-15 18:41:00 	417 		395 	0 	
2011-07-15 18:44:44 	301 		395 	0 	
2011-07-15 18:49:36 	403 		705 	0 	
2011-07-15 18:51:04 	422 		190 	0 	
2011-07-15 18:56:12 	323 		275 	0 	
2011-07-15 18:58:50 	421 		695 	0 	
2011-07-15 19:04:29 	218 		695 	0 	
2011-07-15 19:05:21 	413 		0 	695 	
2011-07-15 19:07:44 	220 		395 	0 	
2011-07-15 19:09:19 	418 		345 	0 	
2011-07-15 19:15:34 	323 		65 	0 	
2011-07-15 19:15:45 	416 		645 	0 	
2011-07-15 19:15:55 	219 		316 	0 	
2011-07-15 19:21:39 	408 		220 	0 	
2011-07-15 19:22:44 	412 		395 	0 	
2011-07-15 19:23:20 	307 		316 	0 	
2011-07-15 19:29:52 	207 		345 	0 	
2011-07-15 19:31:13 	221 		695 	0 	
2011-07-15 19:31:39 	410 		595 	0 	
2011-07-15 19:32:38 	318 		0 	645 	
2011-07-15 19:34:13 	206 		276 	0 	
2011-07-15 19:34:21 	210 		345 	0 	
2011-07-15 19:35:19 	205 		345 	0 	
2011-07-15 19:37:44 	411 		595 	0 	
2011-07-15 19:44:47 	301 		695 	0 	
2011-07-15 19:44:52 	211 		345 	0 	
2011-07-15 19:45:07 	213 		645 	0 	
2011-07-15 19:45:14 	424 		275 	0 	
2011-07-15 19:46:55 	320 		645 	0 	
2011-07-15 19:47:11 	303 		645 	0 	
2011-07-15 19:51:27 	322 		395 	0 	
2011-07-15 19:51:35 	312 		395 	0 	
2011-07-15 19:51:42 	405 		595 	0 	
2011-07-15 19:53:33 	321 		695 	0 	
2011-07-15 19:54:30 	201 		345 	0 	
2011-07-15 19:58:11 	202 		345 	0 	
2011-07-15 20:04:21 	203 		345 	0 	
2011-07-15 20:06:21 	215 		645 	0 	
2011-07-15 20:08:34 	414 		645 	0 	
2011-07-15 20:12:15 	324 		595 	0 	
2011-07-15 20:12:22 	317 		695 	0 	
2011-07-15 20:15:58 	210 		100 	0 	
2011-07-15 20:16:05 	307 		240 	0 	
2011-07-15 20:16:53 	302 		695 	0 	
2011-07-15 20:17:10 	420 		345 	0 	
2011-07-15 20:23:53 	317 		50 	0 	
2011-07-15 20:27:26 	319 		695 	0 	
2011-07-15 20:28:32 	308 		395 	0 	
2011-07-15 20:28:39 	306 		395 	0 	
2011-07-15 20:29:42 	423 		595 	0 	
2011-07-15 20:31:08 	404 		395 	0 	
2011-07-15 20:32:56 	406 		695 	0 	
2011-07-15 20:33:03 	419 		695 	0 	
2011-07-15 20:36:10 	216 		595 	0 	
2011-07-15 20:37:00 	208 		275 	0 	
2011-07-15 20:37:21 	204 		345 	0 	
2011-07-15 20:39:49 	417 		695 	0 	
2011-07-15 20:42:56 	313 		395 	0 	
2011-07-15 20:43:05 	408 		695 	0 	
2011-07-15 20:47:11 	209 		275 	0 	
2011-07-15 20:47:19 	307 		695 	0 	
2011-07-15 20:49:05 	212 		275 	0 	
2011-07-15 20:55:45 	311 		595 	0 	
2011-07-15 20:55:55 	422 		695 	0 	
2011-07-15 21:02:22 	315 		695 	0 	
2011-07-15 21:05:32 	214 		275 	0 	
2011-07-15 21:05:39 	409 		695 	0 	
2011-07-15 21:06:02 	407 		695 	0 	
2011-07-15 21:08:04 	209 		25 	0 	
2011-07-15 21:08:13 	306 		135 	0 	
2011-07-15 21:13:47 	310 		595 	0 	
2011-07-15 21:14:06 	217 		275 	0 	
2011-07-15 21:20:34 	305 		275 	0 	
2011-07-15 21:20:44 	219 		695 	0 	
2011-07-15 21:20:51 	312 		695 	0 	
2011-07-15 21:22:28 	220 		695 	0 	
2011-07-15 21:28:14 	316 		645 	0 	
2011-07-15 21:32:20 	311 		290 	0 	
2011-07-15 21:32:28 	408 		270 	0 	
2011-07-15 21:32:35 	308 		180 	0 	
2011-07-15 21:36:26 	402 		695 	0 	
2011-07-15 21:44:43 	202 		645 	0 	
2011-07-15 21:45:43 	309 		695 	0 	
2011-07-15 21:48:13 	412 		695 	0 	
2011-07-15 21:49:40 	415 		695 	0 	
2011-07-15 21:50:19 	314 		645 	0 	
2011-07-15 21:53:45 	207 		645 	0 	
2011-07-15 21:55:48 	323 		595 	0 	
2011-07-15 21:57:58 	312 		308 	0 	
2011-07-15 21:58:15 	322 		395 	0 	
2011-07-15 22:05:59 	205 		645 	0 	
2011-07-15 22:08:54 	206 		50 	0 	
2011-07-15 22:09:12 	210 		645 	0 	
2011-07-15 22:09:46 	217 		180 	0 	
2011-07-15 22:11:42 	211 		645 	0 	
2011-07-15 22:15:06 	401 		316 	0 	
2011-07-15 22:18:32 	418 		345 	0 	
2011-07-15 22:22:03 	203 		645 	0 	
2011-07-15 22:29:08 	424 		595 	0 	
2011-07-15 22:37:05 	403 		645 	0 	
2011-07-15 22:37:05 	403 		355 	0 	
2011-07-15 22:37:11 	403 		-355 	0 	
2011-07-15 22:40:46 	301 		25 	0 	
2011-07-15 22:45:03 	308 		695 	0 	
2011-07-15 23:00:49 	201 		345 	0 	
2011-07-15 23:00:54 	404 		695 	0 	
2011-07-15 23:06:07 	206 		345 	0 	
2011-07-15 23:08:53 	420 		0 	645 	
2011-07-15 23:24:25 	313 		695 	0 	
2011-07-15 23:38:39 	421 		170 	0 	
2011-07-15 23:39:50 	409 		210 	0 	
2011-07-15 23:39:57 	305 		210 	0 	
2011-07-15 23:40:07 	211 		50 	0 	
2011-07-15 23:40:44 	217 		275 	0 	
2011-07-15 23:40:49 	305 		30 	0 	
2011-07-15 23:41:35 	307 		275 	0 	
2011-07-15 23:42:20 	306 		695 	0 	
2011-07-15 23:52:34 	313 		235 	0 	
2011-07-15 23:53:49 	208 		595 	0 	
 			Total:		67990 	1985		

=== RECHIT LIST ===




V1