MSHOGUN 1: SHIFT END REPORT
Monday January 10, 2011 12:00:02 AM

SALES TRANSACTION
Room Sales Order			40020
FnB Sales Order			2305
Beer Sales Order			0
Misc Sales Order			20
Room Sales Adjustment			0
GROSS SALES			42345

DISCOUNT
Room				0
FnB				0
Misc				0

DEPOSIT				27170
REFUND				

TOTAL ACCOUNTABILITY			69515

CASH DECLARATION			9845
CARD				980
FUNDS SAFEKEEP			40000
TOTAL CASH DECLARED			50825

TOTAL CASH ON SYSTEM			9845
OVER/SHORTAGES 			0

ROOM	 # OF CHECK-OUT	AMT
Value 		19	5425
Regular 		35	13635
Classique 		52	20960
Premium 		0	0
Regent 		0	0
Queen 		0	0
Gemini 		0	0
Family 		0	0
Executive Suite 	0	0
Mega Suite 	0	0

DISCOUNT 
Value 			  
Regular 		  
Classique 		  
Premium 		  
Regent 			  
Queen 		  
Gemini 		  
Family 		  
Executive Suite 	  
Mega Suite 		  


=== RESERVATIONS ===

Deposits:


Claimed:



SECURITY DEPOSITS

Deposits:
Claimed:


=== SALES BREAKDOWN ===

Transaction Date	Room No.	Cash	Card

2011-01-09 16:04:28 	402 		395 	0 	
2011-01-09 16:11:12 	306 		395 	0 	
2011-01-09 16:11:57 	315 		395 	0 	
2011-01-09 16:16:50 	209 		110 	0 	
2011-01-09 16:17:35 	319 		190 	0 	
2011-01-09 16:17:45 	412 		395 	0 	
2011-01-09 16:18:00 	408 		395 	0 	
2011-01-09 16:21:27 	401 		395 	0 	
2011-01-09 16:22:12 	201 		120 	0 	
2011-01-09 16:22:33 	205 		345 	0 	
2011-01-09 16:24:37 	202 		345 	0 	
2011-01-09 16:32:23 	203 		465 	0 	
2011-01-09 16:39:41 	406 		395 	0 	
2011-01-09 16:43:40 	218 		395 	0 	
2011-01-09 16:49:46 	211 		345 	0 	
2011-01-09 16:50:48 	422 		395 	0 	
2011-01-09 16:53:05 	216 		275 	0 	
2011-01-09 16:54:52 	318 		345 	0 	
2011-01-09 16:58:05 	407 		0 	395 	
2011-01-09 16:58:26 	201 		345 	0 	
2011-01-09 16:58:53 	419 		395 	0 	
2011-01-09 17:00:14 	207 		345 	0 	
2011-01-09 17:09:36 	221 		395 	0 	
2011-01-09 17:17:43 	208 		275 	0 	
2011-01-09 17:17:55 	219 		395 	0 	
2011-01-09 17:21:36 	301 		395 	0 	
2011-01-09 17:23:16 	415 		395 	0 	
2011-01-09 17:27:38 	417 		395 	0 	
2011-01-09 17:33:19 	206 		345 	0 	
2011-01-09 17:41:58 	309 		140 	0 	
2011-01-09 17:43:48 	213 		345 	0 	
2011-01-09 17:50:27 	307 		395 	0 	
2011-01-09 17:53:20 	208 		210 	0 	
2011-01-09 17:54:25 	404 		395 	0 	
2011-01-09 17:54:50 	303 		345 	0 	
2011-01-09 17:56:51 	403 		265 	0 	
2011-01-09 17:57:58 	418 		345 	0 	
2011-01-09 17:58:08 	316 		345 	0 	
2011-01-09 17:58:38 	308 		695 	0 	
2011-01-09 17:58:47 	416 		345 	0 	
2011-01-09 18:00:49 	309 		395 	0 	
2011-01-09 18:04:04 	321 		695 	0 	
2011-01-09 18:10:09 	312 		395 	0 	
2011-01-09 18:10:19 	313 		695 	0 	
2011-01-09 18:11:04 	321 		30 	0 	
2011-01-09 18:14:07 	310 		275 	0 	
2011-01-09 18:17:11 	322 		395 	0 	
2011-01-09 18:20:57 	323 		275 	0 	
2011-01-09 18:21:07 	212 		275 	0 	
2011-01-09 18:21:13 	317 		395 	0 	
2011-01-09 18:22:37 	210 		345 	0 	
2011-01-09 18:25:01 	303 		185 	0 	
2011-01-09 18:29:47 	414 		345 	0 	
2011-01-09 18:30:19 	303 		60 	0 	
2011-01-09 18:31:00 	324 		275 	0 	
2011-01-09 18:31:21 	305 		275 	0 	
2011-01-09 18:33:51 	302 		695 	0 	
2011-01-09 18:35:13 	320 		645 	0 	
2011-01-09 18:38:17 	205 		645 	0 	
2011-01-09 18:40:54 	311 		595 	0 	
2011-01-09 18:42:33 	209 		275 	0 	
2011-01-09 18:43:11 	409 		395 	0 	
2011-01-09 18:51:09 	205 		135 	0 	
2011-01-09 18:51:20 	411 		275 	0 	
2011-01-09 18:52:51 	423 		275 	0 	
2011-01-09 18:58:30 	424 		595 	0 	
2011-01-09 18:59:58 	424 		50 	0 	
2011-01-09 19:01:09 	405 		595 	0 	
2011-01-09 19:14:40 	204 		505 	0 	
2011-01-09 19:38:02 	306 		695 	0 	
2011-01-09 19:38:52 	304 		695 	0 	
2011-01-09 19:39:52 	301 		395 	0 	
2011-01-09 19:41:53 	319 		395 	0 	
2011-01-09 19:56:15 	314 		645 	0 	
2011-01-09 20:04:50 	420 		345 	0 	
2011-01-09 20:04:59 	202 		645 	0 	
2011-01-09 20:06:15 	204 		345 	0 	
2011-01-09 20:09:58 	221 		695 	0 	
2011-01-09 20:15:35 	406 		140 	0 	
2011-01-09 20:18:44 	321 		30 	0 	
2011-01-09 20:20:36 	211 		645 	0 	
2011-01-09 20:24:03 	220 		0 	695 	
2011-01-09 20:24:31 	208 		275 	0 	
2011-01-09 20:28:23 	219 		395 	0 	
2011-01-09 20:39:05 	322 		250 	0 	
2011-01-09 20:42:22 	212 		595 	0 	
2011-01-09 20:44:51 	302 		270 	0 	
2011-01-09 20:48:23 	307 		695 	0 	
2011-01-09 20:56:29 	422 		395 	0 	
2011-01-09 21:02:46 	419 		395 	0 	
2011-01-09 21:20:09 	415 		695 	0 	
2011-01-09 21:24:22 	421 		695 	0 	
2011-01-09 21:26:46 	408 		695 	0 	
2011-01-09 21:35:57 	402 		695 	0 	
2011-01-09 21:39:31 	417 		695 	0 	
2011-01-09 22:06:07 	412 		395 	0 	
2011-01-09 22:09:05 	407 		695 	0 	
2011-01-09 22:12:43 	215 		645 	0 	
2011-01-09 22:22:34 	213 		645 	0 	
2011-01-09 22:30:24 	208 		275 	0 	
2011-01-09 22:36:51 	401 		395 	0 	
2011-01-09 22:40:43 	303 		465 	0 	
2011-01-09 22:46:44 	407 		210 	0 	
2011-01-09 22:47:28 	403 		645 	0 	
2011-01-09 22:51:40 	404 		695 	0 	
2011-01-09 22:51:57 	409 		395 	0 	
2011-01-09 22:52:50 	406 		695 	0 	
2011-01-09 22:53:06 	218 		675 	0 	
2011-01-09 22:55:00 	315 		695 	0 	
2011-01-09 23:00:16 	318 		645 	0 	
2011-01-09 23:03:58 	317 		695 	0 	
2011-01-09 23:06:39 	419 		695 	0 	
2011-01-09 23:07:41 	420 		165 	0 	
2011-01-09 23:20:40 	216 		595 	0 	
2011-01-09 23:23:32 	209 		475 	0 	
2011-01-09 23:27:06 	316 		645 	0 	
2011-01-09 23:38:29 	203 		705 	0 	
2011-01-09 23:55:59 	319 		695 	0 	
 			Total:		49845 	1090		

=== RECHIT LIST ===




V1