MSHOGUN 1: SHIFT END REPORT
Wednesday October 19, 2011 7:57:17 AM

SALES TRANSACTION
Room Sales Order			23945
FnB Sales Order			855
Beer Sales Order			250
Misc Sales Order			20
Room Sales Adjustment			0
GROSS SALES			25070

DISCOUNT
Room				0
FnB				0
Misc				0

DEPOSIT				3115
REFUND				

TOTAL ACCOUNTABILITY			28185

CASH DECLARATION			4905
CARD				0
FUNDS SAFEKEEP			0
TOTAL CASH DECLARED			4905

TOTAL CASH ON SYSTEM			4985
OVER/SHORTAGES 			-80

ROOM	 # OF CHECK-OUT	AMT
Value 		12	6020
Regular 		8	4800
Classique 		23	13125
Premium 		0	0
Regent 		0	0
Queen 		0	0
Gemini 		0	0
Family 		0	0
Executive Suite 	0	0
Mega Suite 	0	0

DISCOUNT 
Value 			  
Regular 		  
Classique 		  
Premium 		  
Regent 			  
Queen 		  
Gemini 		  
Family 		  
Executive Suite 	  
Mega Suite 		  


=== RESERVATIONS ===

Deposits:


Claimed:



SECURITY DEPOSITS

Deposits:
Claimed:


=== SALES BREAKDOWN ===

Transaction Date	Room No.	Cash	Card

2011-10-19 00:11:20 	322 		395 	0 	
2011-10-19 00:14:48 	322 		45 	0 	
2011-10-19 00:37:00 	201 		645 	0 	
2011-10-19 01:20:24 	207 		80 	0 	
2011-10-19 01:39:26 	309 		200 	0 	
2011-10-19 04:03:13 	422 		395 	0 	
2011-10-19 04:15:55 	309 		395 	0 	
2011-10-19 04:38:27 	401 		395 	0 	
2011-10-19 04:38:37 	409 		395 	0 	
2011-10-19 04:43:51 	208 		200 	0 	
2011-10-19 05:49:40 	322 		395 	0 	
2011-10-19 05:51:14 	213 		160 	0 	
2011-10-19 07:01:25 	220 		100 	0 	
2011-10-19 07:29:52 	304 		395 	0 	
2011-10-19 07:45:15 	306 		395 	0 	
2011-10-19 07:45:31 	313 		395 	0 	
 			Total:		4985 	0		

=== RECHIT LIST ===




V1