MSHOGUN 1: SHIFT END REPORT
Wednesday December 15, 2010 12:00:36 AM

SALES TRANSACTION
Room Sales Order			28270
FnB Sales Order			2150
Beer Sales Order			665
Misc Sales Order			20
Room Sales Adjustment			0
GROSS SALES			31105

DISCOUNT
Room				0
FnB				0
Misc				0

DEPOSIT				28125
REFUND				

TOTAL ACCOUNTABILITY			59230

CASH DECLARATION			7986
CARD				0
FUNDS SAFEKEEP			40000
TOTAL CASH DECLARED			47986

TOTAL CASH ON SYSTEM			7986
OVER/SHORTAGES 			0

ROOM	 # OF CHECK-OUT	AMT
Value 		13	3675
Regular 		22	8910
Classique 		39	15685
Premium 		0	0
Regent 		0	0
Queen 		0	0
Gemini 		0	0
Family 		0	0
Executive Suite 	0	0
Mega Suite 	0	0

DISCOUNT 
Value 			  
Regular 		  
Classique 		  
Premium 		  
Regent 			  
Queen 		  
Gemini 		  
Family 		  
Executive Suite 	  
Mega Suite 		  


=== RESERVATIONS ===

Deposits:


Claimed:



SECURITY DEPOSITS

Deposits:
Claimed:


=== SALES BREAKDOWN ===

Transaction Date	Room No.	Cash	Card

2010-12-14 16:07:43 	413 		140 	0 	
2010-12-14 16:08:35 	306 		395 	0 	
2010-12-14 16:12:32 	412 		140 	0 	
2010-12-14 16:25:03 	314 		345 	0 	
2010-12-14 16:27:19 	312 		395 	0 	
2010-12-14 16:28:08 	323 		100 	0 	
2010-12-14 16:35:31 	217 		275 	0 	
2010-12-14 16:47:09 	305 		275 	0 	
2010-12-14 16:48:36 	309 		395 	0 	
2010-12-14 16:53:50 	205 		345 	0 	
2010-12-14 16:54:50 	208 		275 	0 	
2010-12-14 16:58:15 	311 		275 	0 	
2010-12-14 16:59:06 	315 		395 	0 	
2010-12-14 17:03:16 	304 		180 	0 	
2010-12-14 17:10:58 	309 		350 	0 	
2010-12-14 17:26:00 	303 		345 	0 	
2010-12-14 17:38:32 	301 		395 	0 	
2010-12-14 17:45:10 	318 		345 	0 	
2010-12-14 17:50:46 	202 		345 	0 	
2010-12-14 17:55:02 	320 		345 	0 	
2010-12-14 18:00:08 	202 		90 	0 	
2010-12-14 18:09:03 	214 		275 	0 	
2010-12-14 18:17:40 	308 		395 	0 	
2010-12-14 18:18:50 	204 		345 	0 	
2010-12-14 18:31:50 	302 		316 	0 	
2010-12-14 18:34:05 	307 		395 	0 	
2010-12-14 18:34:20 	317 		395 	0 	
2010-12-14 18:36:32 	404 		695 	0 	
2010-12-14 18:38:42 	406 		695 	0 	
2010-12-14 18:42:20 	321 		395 	0 	
2010-12-14 18:43:52 	319 		395 	0 	
2010-12-14 18:52:58 	408 		695 	0 	
2010-12-14 18:56:16 	206 		345 	0 	
2010-12-14 18:59:40 	307 		255 	0 	
2010-12-14 19:01:27 	403 		645 	0 	
2010-12-14 19:03:06 	212 		275 	0 	
2010-12-14 19:05:21 	416 		645 	0 	
2010-12-14 19:14:21 	218 		395 	0 	
2010-12-14 19:23:35 	310 		275 	0 	
2010-12-14 19:31:40 	211 		585 	0 	
2010-12-14 19:31:49 	306 		395 	0 	
2010-12-14 19:34:23 	407 		695 	0 	
2010-12-14 19:35:18 	301 		395 	0 	
2010-12-14 19:37:56 	315 		395 	0 	
2010-12-14 19:38:04 	213 		345 	0 	
2010-12-14 19:41:23 	309 		395 	0 	
2010-12-14 19:47:05 	306 		10 	0 	
2010-12-14 19:47:15 	307 		90 	0 	
2010-12-14 19:55:53 	308 		150 	0 	
2010-12-14 19:56:29 	420 		645 	0 	
2010-12-14 20:02:57 	210 		345 	0 	
2010-12-14 20:03:03 	220 		395 	0 	
2010-12-14 20:03:21 	303 		345 	0 	
2010-12-14 20:04:07 	413 		695 	0 	
2010-12-14 20:06:05 	208 		275 	0 	
2010-12-14 20:07:09 	419 		695 	0 	
2010-12-14 20:08:10 	402 		695 	0 	
2010-12-14 20:08:29 	407 		140 	0 	
2010-12-14 20:08:49 	421 		695 	0 	
2010-12-14 20:13:05 	417 		695 	0 	
2010-12-14 20:16:07 	415 		695 	0 	
2010-12-14 20:32:16 	422 		395 	0 	
2010-12-14 20:34:14 	412 		395 	0 	
2010-12-14 20:37:35 	314 		345 	0 	
2010-12-14 20:38:51 	412 		80 	0 	
2010-12-14 20:40:13 	409 		395 	0 	
2010-12-14 20:43:29 	322 		395 	0 	
2010-12-14 20:44:15 	221 		395 	0 	
2010-12-14 20:45:18 	313 		395 	0 	
2010-12-14 20:54:33 	317 		695 	0 	
2010-12-14 20:58:17 	415 		240 	0 	
2010-12-14 20:58:23 	412 		110 	0 	
2010-12-14 21:11:05 	206 		465 	0 	
2010-12-14 21:11:40 	405 		595 	0 	
2010-12-14 21:14:19 	313 		210 	0 	
2010-12-14 21:19:10 	307 		395 	0 	
2010-12-14 21:20:45 	202 		345 	0 	
2010-12-14 21:26:08 	219 		395 	0 	
2010-12-14 21:27:26 	209 		275 	0 	
2010-12-14 21:31:31 	209 		50 	0 	
2010-12-14 21:40:29 	316 		120 	0 	
2010-12-14 21:42:38 	423 		595 	0 	
2010-12-14 21:43:03 	302 		695 	0 	
2010-12-14 21:47:15 	421 		190 	0 	
2010-12-14 21:50:46 	301 		395 	0 	
2010-12-14 21:52:10 	220 		395 	0 	
2010-12-14 21:56:42 	418 		645 	0 	
2010-12-14 21:59:27 	414 		645 	0 	
2010-12-14 22:00:16 	415 		10 	0 	
2010-12-14 22:00:34 	304 		695 	0 	
2010-12-14 22:13:06 	401 		395 	0 	
2010-12-14 22:13:27 	318 		645 	0 	
2010-12-14 22:14:44 	423 		180 	0 	
2010-12-14 22:18:11 	308 		695 	0 	
2010-12-14 22:18:21 	218 		395 	0 	
2010-12-14 22:18:28 	221 		695 	0 	
2010-12-14 22:19:04 	316 		645 	0 	
2010-12-14 22:24:40 	205 		345 	0 	
2010-12-14 22:28:54 	314 		345 	0 	
2010-12-14 22:29:06 	320 		645 	0 	
2010-12-14 22:30:34 	215 		645 	0 	
2010-12-14 22:35:31 	204 		345 	0 	
2010-12-14 22:39:01 	401 		110 	0 	
2010-12-14 22:39:59 	321 		695 	0 	
2010-12-14 22:43:39 	415 		90 	0 	
2010-12-14 22:45:48 	315 		115 	0 	
2010-12-14 22:47:42 	215 		10 	0 	
2010-12-14 22:50:01 	313 		695 	0 	
2010-12-14 22:50:33 	213 		645 	0 	
2010-12-14 22:50:41 	303 		645 	0 	
2010-12-14 22:54:15 	419 		80 	0 	
2010-12-14 22:57:01 	208 		90 	0 	
2010-12-14 23:07:28 	309 		395 	0 	
2010-12-14 23:11:57 	304 		135 	0 	
2010-12-14 23:14:40 	203 		645 	0 	
2010-12-14 23:19:13 	424 		595 	0 	
2010-12-14 23:19:55 	216 		375 	0 	
2010-12-14 23:28:34 	216 		50 	0 	
2010-12-14 23:31:13 	202 		345 	0 	
2010-12-14 23:36:34 	310 		275 	0 	
2010-12-14 23:36:56 	422 		395 	0 	
2010-12-14 23:38:40 	313 		50 	0 	
2010-12-14 23:38:51 	304 		180 	0 	
2010-12-14 23:41:01 	218 		695 	0 	
 			Total:		47986 	0		

=== RECHIT LIST ===




V1