MSHOGUN 1: SHIFT END REPORT
Sunday February 12, 2012 4:01:02 PM

SALES TRANSACTION
Room Sales Order			41865
FnB Sales Order			1718
Beer Sales Order			225
Misc Sales Order			30
Room Sales Adjustment			-120
GROSS SALES			43718

DISCOUNT
Room				0
FnB				0
Misc				0

DEPOSIT				20660
REFUND				

TOTAL ACCOUNTABILITY			64378

CASH DECLARATION			10089
CARD				670
FUNDS SAFEKEEP			40000
TOTAL CASH DECLARED			50759

TOTAL CASH ON SYSTEM			9984
OVER/SHORTAGES 			105

ROOM	 # OF CHECK-OUT	AMT
Value 		14	6010
Regular 		24	13200
Classique 		45	22655
Premium 		0	0
Regent 		0	0
Queen 		0	0
Gemini 		0	0
Family 		0	0
Executive Suite 	0	0
Mega Suite 	0	0

DISCOUNT 
Value 			  
Regular 		  
Classique 		  
Premium 		  
Regent 			  
Queen 		  
Gemini 		  
Family 		  
Executive Suite 	  
Mega Suite 		  


=== RESERVATIONS ===

Deposits:


Claimed:



SECURITY DEPOSITS

Deposits:
Claimed:


=== SALES BREAKDOWN ===

Transaction Date	Room No.	Cash	Card

2012-02-12 08:09:04 	206 		135 	0 	
2012-02-12 08:09:45 	301 		395 	0 	
2012-02-12 08:17:51 	312 		395 	0 	
2012-02-12 08:22:39 	408 		395 	0 	
2012-02-12 08:32:07 	318 		345 	0 	
2012-02-12 08:52:58 	317 		395 	0 	
2012-02-12 08:57:34 	410 		300 	0 	
2012-02-12 09:07:03 	203 		120 	0 	
2012-02-12 09:08:07 	321 		395 	0 	
2012-02-12 09:12:56 	314 		945 	0 	
2012-02-12 09:19:06 	211 		705 	0 	
2012-02-12 09:22:25 	213 		120 	0 	
2012-02-12 09:24:03 	409 		700 	0 	
2012-02-12 09:25:34 	315 		395 	0 	
2012-02-12 09:26:27 	313 		395 	0 	
2012-02-12 09:32:13 	213 		-120 	0 	
2012-02-12 09:36:41 	309 		395 	0 	
2012-02-12 09:49:23 	407 		395 	0 	
2012-02-12 09:51:29 	404 		395 	0 	
2012-02-12 09:52:21 	406 		395 	0 	
2012-02-12 09:56:24 	221 		280 	0 	
2012-02-12 10:00:25 	322 		395 	0 	
2012-02-12 10:05:57 	413 		395 	0 	
2012-02-12 10:09:58 	421 		280 	0 	
2012-02-12 10:16:18 	419 		395 	0 	
2012-02-12 10:26:04 	212 		55 	0 	
2012-02-12 10:29:34 	415 		395 	0 	
2012-02-12 10:30:26 	416 		240 	0 	
2012-02-12 10:39:03 	206 		345 	0 	
2012-02-12 10:45:42 	420 		825 	0 	
2012-02-12 10:53:59 	321 		325 	0 	
2012-02-12 10:54:01 	321 		110 	0 	
2012-02-12 10:56:07 	208 		275 	0 	
2012-02-12 10:56:20 	209 		275 	0 	
2012-02-12 11:01:09 	215 		705 	0 	
2012-02-12 11:02:14 	412 		395 	0 	
2012-02-12 11:03:53 	207 		345 	0 	
2012-02-12 11:06:07 	423 		100 	0 	
2012-02-12 11:11:11 	417 		395 	0 	
2012-02-12 11:13:42 	219 		395 	0 	
2012-02-12 11:14:44 	218 		395 	0 	
2012-02-12 11:15:35 	220 		140 	0 	
2012-02-12 11:16:54 	205 		345 	0 	
2012-02-12 11:31:02 	203 		345 	0 	
2012-02-12 11:31:31 	301 		395 	0 	
2012-02-12 11:32:32 	221 		395 	0 	
2012-02-12 11:36:14 	314 		240 	0 	
2012-02-12 11:36:38 	214 		275 	0 	
2012-02-12 11:54:48 	401 		880 	0 	
2012-02-12 12:03:51 	319 		675 	0 	
2012-02-12 12:05:56 	320 		345 	0 	
2012-02-12 12:06:08 	317 		395 	0 	
2012-02-12 12:09:16 	218 		160 	0 	
2012-02-12 12:09:45 	416 		345 	0 	
2012-02-12 12:10:12 	311 		275 	0 	
2012-02-12 12:11:07 	311 		10 	0 	
2012-02-12 12:13:23 	403 		465 	0 	
2012-02-12 12:14:53 	410 		575 	0 	
2012-02-12 12:14:59 	404 		395 	0 	
2012-02-12 12:15:06 	308 		395 	0 	
2012-02-12 12:21:37 	315 		395 	0 	
2012-02-12 12:29:23 	206 		705 	0 	
2012-02-12 12:29:32 	307 		815 	0 	
2012-02-12 12:34:06 	312 		395 	0 	
2012-02-12 12:34:06 	312 		105 	0 	
2012-02-12 12:34:17 	312 		-105 	0 	
2012-02-12 12:36:18 	220 		395 	0 	
2012-02-12 12:45:39 	406 		675 	0 	
2012-02-12 12:45:48 	324 		575 	0 	
2012-02-12 12:48:48 	408 		675 	0 	
2012-02-12 12:51:10 	212 		275 	0 	
2012-02-12 12:51:16 	409 		395 	0 	
2012-02-12 12:54:32 	421 		395 	0 	
2012-02-12 12:57:44 	321 		815 	0 	
2012-02-12 13:00:02 	411 		275 	0 	
2012-02-12 13:02:34 	302 		395 	0 	
2012-02-12 13:04:09 	318 		276 	0 	
2012-02-12 13:08:43 	305 		275 	0 	
2012-02-12 13:10:57 	419 		316 	0 	
2012-02-12 13:11:32 	322 		395 	0 	
2012-02-12 13:13:32 	323 		575 	0 	
2012-02-12 13:21:50 	407 		535 	0 	
2012-02-12 13:26:28 	413 		815 	0 	
2012-02-12 13:29:39 	412 		395 	0 	
2012-02-12 13:29:47 	309 		395 	0 	
2012-02-12 13:36:02 	207 		345 	0 	
2012-02-12 13:40:40 	315 		316 	0 	
2012-02-12 13:41:25 	218 		395 	0 	
2012-02-12 13:47:00 	318 		270 	0 	
2012-02-12 13:57:02 	414 		480 	0 	
2012-02-12 13:58:07 	306 		395 	0 	
2012-02-12 14:06:06 	417 		395 	0 	
2012-02-12 14:08:29 	316 		705 	0 	
2012-02-12 14:10:54 	418 		705 	0 	
2012-02-12 14:12:21 	402 		395 	0 	
2012-02-12 14:16:18 	313 		395 	0 	
2012-02-12 14:17:01 	210 		345 	0 	
2012-02-12 14:18:45 	415 		395 	0 	
2012-02-12 14:24:31 	304 		395 	0 	
2012-02-12 14:28:22 	216 		275 	0 	
2012-02-12 14:29:57 	405 		275 	0 	
2012-02-12 14:30:05 	401 		395 	0 	
2012-02-12 14:32:00 	313 		180 	0 	
2012-02-12 14:34:11 	220 		395 	0 	
2012-02-12 14:45:01 	424 		275 	0 	
2012-02-12 14:46:29 	423 		275 	0 	
2012-02-12 14:46:35 	221 		395 	0 	
2012-02-12 14:47:41 	412 		395 	0 	
2012-02-12 14:50:27 	205 		516 	0 	
2012-02-12 14:51:04 	301 		395 	0 	
2012-02-12 14:51:10 	208 		275 	0 	
2012-02-12 14:57:02 	209 		575 	0 	
2012-02-12 14:57:29 	302 		395 	0 	
2012-02-12 15:02:09 	202 		345 	0 	
2012-02-12 15:08:03 	212 		275 	0 	
2012-02-12 15:13:15 	203 		345 	0 	
2012-02-12 15:13:49 	217 		275 	0 	
2012-02-12 15:15:19 	204 		345 	0 	
2012-02-12 15:16:27 	310 		275 	0 	
2012-02-12 15:17:13 	312 		395 	0 	
2012-02-12 15:23:43 	211 		345 	0 	
2012-02-12 15:24:54 	416 		345 	0 	
2012-02-12 15:30:33 	404 		395 	0 	
2012-02-12 15:34:00 	322 		395 	0 	
2012-02-12 15:35:20 	308 		395 	0 	
2012-02-12 15:37:56 	419 		395 	0 	
2012-02-12 15:38:46 	211 		30 	0 	
2012-02-12 15:45:11 	421 		395 	0 	
2012-02-12 15:45:39 	317 		395 	0 	
2012-02-12 15:53:24 	320 		345 	0 	
2012-02-12 15:53:34 	311 		275 	0 	
2012-02-12 15:56:41 	420 		55 	0 	
 			Total:		50089 	0		

=== RECHIT LIST ===




V1