MSHOGUN 1: SHIFT END REPORT
Monday December 13, 2010 12:02:32 AM

SALES TRANSACTION
Room Sales Order			44340
FnB Sales Order			1385
Beer Sales Order			490
Misc Sales Order			50
Room Sales Adjustment			0
GROSS SALES			46265

DISCOUNT
Room				0
FnB				0
Misc				0

DEPOSIT				29995
REFUND				

TOTAL ACCOUNTABILITY			76260

CASH DECLARATION			1207
CARD				345
FUNDS SAFEKEEP			60000
TOTAL CASH DECLARED			61552

TOTAL CASH ON SYSTEM			1207
OVER/SHORTAGES 			0

ROOM	 # OF CHECK-OUT	AMT
Value 		21	6775
Regular 		38	14070
Classique 		57	23495
Premium 		0	0
Regent 		0	0
Queen 		0	0
Gemini 		0	0
Family 		0	0
Executive Suite 	0	0
Mega Suite 	0	0

DISCOUNT 
Value 			  
Regular 		  
Classique 		  
Premium 		  
Regent 			  
Queen 		  
Gemini 		  
Family 		  
Executive Suite 	  
Mega Suite 		  


=== RESERVATIONS ===

Deposits:


Claimed:



SECURITY DEPOSITS

Deposits:
Claimed:


=== SALES BREAKDOWN ===

Transaction Date	Room No.	Cash	Card

2010-12-12 16:09:41 	419 		395 	0 	
2010-12-12 16:10:06 	202 		120 	0 	
2010-12-12 16:13:00 	204 		465 	0 	
2010-12-12 16:13:33 	201 		345 	0 	
2010-12-12 16:13:40 	311 		275 	0 	
2010-12-12 16:16:03 	412 		395 	0 	
2010-12-12 16:22:40 	208 		275 	0 	
2010-12-12 16:23:17 	324 		275 	0 	
2010-12-12 16:26:35 	405 		275 	0 	
2010-12-12 16:33:35 	411 		575 	0 	
2010-12-12 16:36:45 	411 		50 	0 	
2010-12-12 16:39:02 	410 		275 	0 	
2010-12-12 16:39:15 	422 		395 	0 	
2010-12-12 16:47:30 	423 		575 	0 	
2010-12-12 16:56:17 	424 		275 	0 	
2010-12-12 17:00:21 	411 		290 	0 	
2010-12-12 17:01:29 	206 		345 	0 	
2010-12-12 17:04:17 	205 		276 	0 	
2010-12-12 17:07:24 	412 		395 	0 	
2010-12-12 17:17:22 	206 		50 	0 	
2010-12-12 17:19:49 	211 		345 	0 	
2010-12-12 17:20:23 	221 		395 	0 	
2010-12-12 17:28:36 	218 		395 	0 	
2010-12-12 17:28:44 	306 		395 	0 	
2010-12-12 17:29:22 	213 		345 	0 	
2010-12-12 17:33:36 	321 		140 	0 	
2010-12-12 17:38:40 	308 		395 	0 	
2010-12-12 17:50:51 	304 		395 	0 	
2010-12-12 17:53:38 	203 		345 	0 	
2010-12-12 17:53:56 	215 		345 	0 	
2010-12-12 17:54:04 	318 		345 	0 	
2010-12-12 18:04:15 	219 		280 	0 	
2010-12-12 18:09:39 	302 		395 	0 	
2010-12-12 18:09:47 	212 		275 	0 	
2010-12-12 18:10:19 	216 		275 	0 	
2010-12-12 18:11:07 	303 		345 	0 	
2010-12-12 18:13:10 	316 		345 	0 	
2010-12-12 18:13:25 	309 		395 	0 	
2010-12-12 18:19:43 	312 		395 	0 	
2010-12-12 18:25:55 	301 		395 	0 	
2010-12-12 18:26:17 	307 		395 	0 	
2010-12-12 18:33:53 	313 		395 	0 	
2010-12-12 18:35:07 	317 		395 	0 	
2010-12-12 18:36:15 	404 		695 	0 	
2010-12-12 18:36:26 	409 		395 	0 	
2010-12-12 18:45:12 	305 		275 	0 	
2010-12-12 18:45:53 	406 		695 	0 	
2010-12-12 18:49:13 	310 		275 	0 	
2010-12-12 18:51:31 	310 		25 	0 	
2010-12-12 18:51:44 	219 		395 	0 	
2010-12-12 18:52:40 	204 		345 	0 	
2010-12-12 18:56:53 	405 		595 	0 	
2010-12-12 18:57:03 	314 		345 	0 	
2010-12-12 18:59:33 	319 		395 	0 	
2010-12-12 19:00:23 	320 		465 	0 	
2010-12-12 19:01:22 	219 		80 	0 	
2010-12-12 19:03:06 	220 		395 	0 	
2010-12-12 19:06:51 	207 		345 	0 	
2010-12-12 19:13:37 	413 		975 	0 	
2010-12-12 19:14:22 	415 		695 	0 	
2010-12-12 19:14:56 	321 		395 	0 	
2010-12-12 19:18:14 	315 		395 	0 	
2010-12-12 19:23:14 	307 		395 	0 	
2010-12-12 19:24:07 	313 		335 	0 	
2010-12-12 19:25:03 	410 		275 	0 	
2010-12-12 19:27:48 	306 		395 	0 	
2010-12-12 19:29:15 	202 		345 	0 	
2010-12-12 19:29:48 	322 		395 	0 	
2010-12-12 19:30:54 	416 		345 	0 	
2010-12-12 19:37:04 	210 		345 	0 	
2010-12-12 19:37:56 	324 		275 	0 	
2010-12-12 19:38:34 	418 		645 	0 	
2010-12-12 19:40:42 	307 		20 	0 	
2010-12-12 19:42:29 	422 		395 	0 	
2010-12-12 19:50:31 	408 		395 	0 	
2010-12-12 19:51:24 	201 		345 	0 	
2010-12-12 19:56:10 	304 		395 	0 	
2010-12-12 19:58:45 	403 		345 	0 	
2010-12-12 20:00:17 	421 		695 	0 	
2010-12-12 20:06:31 	203 		345 	0 	
2010-12-12 20:07:45 	Lobby 		35 	0 	
2010-12-12 20:07:45 	Lobby 		0 	0 	
2010-12-12 20:15:16 	417 		695 	0 	
2010-12-12 20:19:26 	407 		695 	0 	
2010-12-12 20:25:46 	402 		395 	0 	
2010-12-12 20:27:55 	419 		695 	0 	
2010-12-12 20:28:43 	412 		395 	0 	
2010-12-12 20:30:27 	207 		345 	0 	
2010-12-12 20:37:09 	308 		695 	0 	
2010-12-12 20:40:19 	206 		345 	0 	
2010-12-12 20:41:18 	402 		20 	0 	
2010-12-12 20:48:16 	414 		276 	0 	
2010-12-12 20:49:31 	205 		345 	0 	
2010-12-12 20:53:51 	420 		645 	0 	
2010-12-12 20:56:19 	214 		275 	0 	
2010-12-12 20:58:40 	314 		645 	0 	
2010-12-12 21:04:18 	213 		120 	0 	
2010-12-12 21:06:06 	303 		345 	0 	
2010-12-12 21:11:14 	221 		140 	0 	
2010-12-12 21:13:42 	302 		695 	0 	
2010-12-12 21:13:54 	312 		395 	0 	
2010-12-12 21:14:05 	323 		595 	0 	
2010-12-12 21:18:10 	317 		695 	0 	
2010-12-12 21:18:20 	316 		645 	0 	
2010-12-12 21:18:38 	215 		345 	0 	
2010-12-12 21:22:40 	309 		395 	0 	
2010-12-12 21:22:50 	315 		695 	0 	
2010-12-12 21:24:35 	314 		210 	0 	
2010-12-12 21:30:46 	324 		595 	0 	
2010-12-12 21:32:29 	215 		80 	0 	
2010-12-12 21:32:45 	322 		395 	0 	
2010-12-12 21:34:40 	318 		645 	0 	
2010-12-12 21:39:15 	303 		300 	0 	
2010-12-12 21:41:03 	307 		695 	0 	
2010-12-12 21:46:28 	218 		695 	0 	
2010-12-12 21:46:40 	205 		585 	0 	
2010-12-12 21:50:05 	205 		15 	0 	
2010-12-12 22:04:19 	220 		695 	0 	
2010-12-12 22:04:33 	301 		395 	0 	
2010-12-12 22:12:06 	211 		645 	0 	
2010-12-12 22:16:52 	411 		210 	0 	
2010-12-12 22:17:11 	202 		345 	0 	
2010-12-12 22:24:42 	213 		645 	0 	
2010-12-12 22:26:09 	204 		645 	0 	
2010-12-12 22:30:35 	303 		80 	0 	
2010-12-12 22:30:40 	309 		65 	0 	
2010-12-12 22:34:26 	409 		395 	0 	
2010-12-12 22:34:37 	313 		695 	0 	
2010-12-12 22:37:35 	305 		595 	0 	
2010-12-12 22:44:12 	212 		275 	0 	
2010-12-12 22:46:10 	203 		345 	0 	
2010-12-12 22:47:16 	208 		275 	0 	
2010-12-12 22:47:25 	310 		275 	0 	
2010-12-12 22:50:18 	304 		395 	0 	
2010-12-12 22:56:03 	209 		475 	0 	
2010-12-12 22:59:40 	322 		395 	0 	
2010-12-12 22:59:48 	306 		395 	0 	
2010-12-12 23:02:54 	416 		645 	0 	
2010-12-12 23:03:02 	216 		275 	0 	
2010-12-12 23:15:29 	219 		695 	0 	
2010-12-12 23:17:02 	221 		695 	0 	
2010-12-12 23:20:39 	204 		65 	0 	
2010-12-12 23:21:15 	310 		50 	0 	
2010-12-12 23:21:22 	409 		125 	0 	
2010-12-12 23:24:58 	422 		695 	0 	
2010-12-12 23:30:54 	206 		585 	0 	
2010-12-12 23:39:10 	210 		345 	0 	
2010-12-12 23:39:49 	423 		275 	0 	
2010-12-12 23:42:02 	303 		645 	0 	
2010-12-12 23:42:11 	410 		595 	0 	
2010-12-12 23:44:38 	319 		695 	0 	
2010-12-12 23:44:57 	206 		100 	0 	
2010-12-12 23:55:13 	411 		100 	0 	
2010-12-12 23:55:25 	411 		595 	0 	
2010-12-12 23:56:52 	408 		695 	0 	
 			Total:		61207 	0		

=== RECHIT LIST ===




V1