MSHOGUN 1: SHIFT END REPORT
Tuesday November 09, 2010 4:00:04 PM

SALES TRANSACTION
Room Sales Order			19990
FnB Sales Order			960
Beer Sales Order			170
Misc Sales Order			55
Room Sales Adjustment			0
GROSS SALES			21175

DISCOUNT
Room				0
FnB				0
Misc				0

DEPOSIT				9705
REFUND				

TOTAL ACCOUNTABILITY			30880

CASH DECLARATION			1298
CARD				0
FUNDS SAFEKEEP			20000
TOTAL CASH DECLARED			21298

TOTAL CASH ON SYSTEM			1298
OVER/SHORTAGES 			0

ROOM	 # OF CHECK-OUT	AMT
Value 		6	2290
Regular 		14	6030
Classique 		22	11670
Premium 		0	0
Regent 		0	0
Queen 		0	0
Gemini 		0	0
Family 		0	0
Executive Suite 	0	0
Mega Suite 	0	0

DISCOUNT 
Value 			  
Regular 		  
Classique 		  
Premium 		  
Regent 			  
Queen 		  
Gemini 		  
Family 		  
Executive Suite 	  
Mega Suite 		  


=== RESERVATIONS ===

Deposits:


Claimed:



SECURITY DEPOSITS

Deposits:
Claimed:


=== SALES BREAKDOWN ===

Transaction Date	Room No.	Cash	Card

2010-11-09 08:11:18 	406 		50 	0 	
2010-11-09 08:18:50 	420 		345 	0 	
2010-11-09 08:45:41 	315 		80 	0 	
2010-11-09 08:47:44 	306 		395 	0 	
2010-11-09 08:50:16 	416 		200 	0 	
2010-11-09 09:05:04 	302 		395 	0 	
2010-11-09 09:12:26 	320 		345 	0 	
2010-11-09 09:23:48 	304 		395 	0 	
2010-11-09 09:34:07 	303 		345 	0 	
2010-11-09 09:58:03 	307 		395 	0 	
2010-11-09 09:59:09 	307 		25 	0 	
2010-11-09 10:20:35 	319 		40 	0 	
2010-11-09 10:56:08 	313 		395 	0 	
2010-11-09 10:59:09 	311 		275 	0 	
2010-11-09 11:04:16 	309 		395 	0 	
2010-11-09 11:14:19 	403 		345 	0 	
2010-11-09 11:44:20 	315 		140 	0 	
2010-11-09 11:48:15 	317 		535 	0 	
2010-11-09 11:50:24 	310 		275 	0 	
2010-11-09 11:51:18 	310 		225 	0 	
2010-11-09 11:52:20 	324 		275 	0 	
2010-11-09 11:55:15 	321 		395 	0 	
2010-11-09 11:56:10 	318 		345 	0 	
2010-11-09 11:56:36 	314 		276 	0 	
2010-11-09 11:58:24 	316 		345 	0 	
2010-11-09 12:05:10 	322 		395 	0 	
2010-11-09 12:05:33 	308 		316 	0 	
2010-11-09 12:08:47 	316 		30 	0 	
2010-11-09 12:17:28 	323 		275 	0 	
2010-11-09 12:23:44 	301 		395 	0 	
2010-11-09 12:28:28 	204 		345 	0 	
2010-11-09 12:39:59 	323 		50 	0 	
2010-11-09 12:56:09 	307 		395 	0 	
2010-11-09 13:02:40 	203 		345 	0 	
2010-11-09 13:12:32 	206 		585 	0 	
2010-11-09 13:12:49 	304 		395 	0 	
2010-11-09 13:15:32 	307 		240 	0 	
2010-11-09 13:30:39 	302 		395 	0 	
2010-11-09 13:34:00 	306 		675 	0 	
2010-11-09 13:34:27 	301 		120 	0 	
2010-11-09 13:35:31 	205 		345 	0 	
2010-11-09 13:39:31 	202 		345 	0 	
2010-11-09 13:52:58 	322 		110 	0 	
2010-11-09 14:00:38 	Lobby 		180 	0 	
2010-11-09 14:06:52 	218 		395 	0 	
2010-11-09 14:11:20 	211 		345 	0 	
2010-11-09 14:19:19 	313 		395 	0 	
2010-11-09 14:26:33 	213 		705 	0 	
2010-11-09 14:37:58 	208 		275 	0 	
2010-11-09 14:39:34 	207 		465 	0 	
2010-11-09 14:44:55 	220 		395 	0 	
2010-11-09 14:49:20 	219 		535 	0 	
2010-11-09 14:53:05 	221 		395 	0 	
2010-11-09 14:53:52 	315 		395 	0 	
2010-11-09 14:55:00 	209 		275 	0 	
2010-11-09 14:55:28 	308 		316 	0 	
2010-11-09 14:56:58 	319 		395 	0 	
2010-11-09 14:59:59 	219 		40 	0 	
2010-11-09 15:00:01 	219 		40 	0 	
2010-11-09 15:00:13 	313 		50 	0 	
2010-11-09 15:00:21 	301 		395 	0 	
2010-11-09 15:10:11 	210 		345 	0 	
2010-11-09 15:13:55 	422 		395 	0 	
2010-11-09 15:37:04 	321 		395 	0 	
2010-11-09 15:46:13 	322 		395 	0 	
2010-11-09 15:46:21 	417 		395 	0 	
2010-11-09 15:47:24 	421 		395 	0 	
 			Total:		21298 	0		

=== RECHIT LIST ===




V1