MSHOGUN 1: SHIFT END REPORT
Monday October 17, 2011 3:58:26 PM

SALES TRANSACTION
Room Sales Order			22745
FnB Sales Order			2146
Beer Sales Order			0
Misc Sales Order			20
Room Sales Adjustment			0
GROSS SALES			24911

DISCOUNT
Room				0
FnB				0
Misc				0

DEPOSIT				12990
REFUND				

TOTAL ACCOUNTABILITY			37901

CASH DECLARATION			7201
CARD				345
FUNDS SAFEKEEP			20000
TOTAL CASH DECLARED			27546

TOTAL CASH ON SYSTEM			7091
OVER/SHORTAGES 			110

ROOM	 # OF CHECK-OUT	AMT
Value 		7	2445
Regular 		14	6930
Classique 		26	13370
Premium 		0	0
Regent 		0	0
Queen 		0	0
Gemini 		0	0
Family 		0	0
Executive Suite 	0	0
Mega Suite 	0	0

DISCOUNT 
Value 			  
Regular 		  
Classique 		  
Premium 		  
Regent 			  
Queen 		  
Gemini 		  
Family 		  
Executive Suite 	  
Mega Suite 		  


=== RESERVATIONS ===

Deposits:


Claimed:



SECURITY DEPOSITS

Deposits:
Claimed:


=== SALES BREAKDOWN ===

Transaction Date	Room No.	Cash	Card

2011-10-17 08:01:15 	320 		120 	0 	
2011-10-17 08:19:36 	301 		395 	0 	
2011-10-17 08:57:03 	209 		275 	0 	
2011-10-17 09:17:03 	306 		948 	0 	
2011-10-17 09:20:41 	211 		25 	0 	
2011-10-17 09:22:13 	408 		395 	0 	
2011-10-17 09:22:21 	407 		395 	0 	
2011-10-17 10:21:29 	401 		395 	0 	
2011-10-17 10:42:07 	309 		535 	0 	
2011-10-17 10:48:08 	208 		275 	0 	
2011-10-17 11:47:17 	307 		140 	0 	
2011-10-17 11:50:55 	319 		395 	0 	
2011-10-17 11:51:41 	408 		160 	0 	
2011-10-17 11:53:41 	306 		395 	0 	
2011-10-17 11:53:51 	216 		275 	0 	
2011-10-17 11:58:13 	212 		275 	0 	
2011-10-17 12:03:58 	211 		705 	0 	
2011-10-17 12:05:51 	319 		180 	0 	
2011-10-17 12:14:31 	203 		705 	0 	
2011-10-17 12:22:31 	412 		395 	0 	
2011-10-17 12:26:37 	413 		395 	0 	
2011-10-17 12:36:37 	308 		395 	0 	
2011-10-17 12:38:10 	321 		395 	0 	
2011-10-17 12:48:30 	315 		395 	0 	
2011-10-17 12:53:00 	410 		275 	0 	
2011-10-17 12:53:08 	219 		395 	0 	
2011-10-17 12:58:38 	414 		345 	0 	
2011-10-17 12:58:52 	420 		396 	0 	
2011-10-17 13:05:31 	318 		345 	0 	
2011-10-17 13:14:47 	418 		345 	0 	
2011-10-17 13:15:02 	301 		395 	0 	
2011-10-17 13:15:21 	303 		705 	0 	
2011-10-17 13:15:36 	307 		705 	0 	
2011-10-17 13:19:30 	321 		100 	0 	
2011-10-17 13:24:22 	207 		705 	0 	
2011-10-17 13:32:42 	304 		395 	0 	
2011-10-17 13:32:54 	302 		395 	0 	
2011-10-17 13:33:01 	419 		395 	0 	
2011-10-17 13:35:13 	422 		395 	0 	
2011-10-17 13:37:47 	407 		140 	0 	
2011-10-17 13:40:13 	309 		-140 	0 	
2011-10-17 13:43:14 	201 		345 	0 	
2011-10-17 13:45:41 	313 		395 	0 	
2011-10-17 13:45:59 	218 		395 	0 	
2011-10-17 13:50:50 	315 		50 	0 	
2011-10-17 13:59:07 	202 		345 	0 	
2011-10-17 13:59:54 	206 		0 	345 	
2011-10-17 14:00:07 	312 		395 	0 	
2011-10-17 14:00:20 	322 		395 	0 	
2011-10-17 14:03:07 	214 		575 	0 	
2011-10-17 14:08:39 	421 		395 	0 	
2011-10-17 14:20:44 	401 		395 	0 	
2011-10-17 14:24:44 	220 		395 	0 	
2011-10-17 14:26:42 	221 		395 	0 	
2011-10-17 14:34:11 	214 		120 	0 	
2011-10-17 14:36:49 	320 		345 	0 	
2011-10-17 14:37:02 	317 		395 	0 	
2011-10-17 14:37:15 	213 		345 	0 	
2011-10-17 14:37:22 	204 		345 	0 	
2011-10-17 14:37:29 	209 		275 	0 	
2011-10-17 14:38:03 	309 		395 	0 	
2011-10-17 14:47:22 	404 		395 	0 	
2011-10-17 15:00:43 	316 		276 	0 	
2011-10-17 15:00:53 	314 		345 	0 	
2011-10-17 15:18:00 	306 		395 	0 	
2011-10-17 15:18:23 	407 		395 	0 	
2011-10-17 15:30:16 	210 		345 	0 	
2011-10-17 15:38:39 	205 		345 	0 	
2011-10-17 15:43:26 	201 		355 	0 	
2011-10-17 15:46:07 	219 		316 	0 	
2011-10-17 15:47:23 	218 		395 	0 	
2011-10-17 15:51:07 	408 		395 	0 	
2011-10-17 15:51:13 	401 		395 	0 	
2011-10-17 15:54:09 	412 		395 	0 	
2011-10-17 15:58:05 	413 		395 	0 	
 			Total:		27091 	345		

=== RECHIT LIST ===




V1