MSHOGUN 1: SHIFT END REPORT
Sunday February 13, 2011 12:00:15 AM

SALES TRANSACTION
Room Sales Order			45450
FnB Sales Order			1795
Beer Sales Order			0
Misc Sales Order			50
Room Sales Adjustment			0
GROSS SALES			47295

DISCOUNT
Room				0
FnB				0
Misc				0

DEPOSIT				39455
REFUND				

TOTAL ACCOUNTABILITY			86750

CASH DECLARATION			5545
CARD				0
FUNDS SAFEKEEP			60000
TOTAL CASH DECLARED			65545

TOTAL CASH ON SYSTEM			5545
OVER/SHORTAGES 			0

ROOM	 # OF CHECK-OUT	AMT
Value 		10	3350
Regular 		37	14325
Classique 		65	27775
Premium 		0	0
Regent 		0	0
Queen 		0	0
Gemini 		0	0
Family 		0	0
Executive Suite 	0	0
Mega Suite 	0	0

DISCOUNT 
Value 			  
Regular 		  
Classique 		  
Premium 		  
Regent 			  
Queen 		  
Gemini 		  
Family 		  
Executive Suite 	  
Mega Suite 		  


=== RESERVATIONS ===

Deposits:


Claimed:



SECURITY DEPOSITS

Deposits:
Claimed:


=== SALES BREAKDOWN ===

Transaction Date	Room No.	Cash	Card

2011-02-12 16:09:20 	416 		345 	0 	
2011-02-12 16:10:07 	202 		585 	0 	
2011-02-12 16:12:29 	301 		395 	0 	
2011-02-12 16:14:00 	302 		140 	0 	
2011-02-12 16:14:45 	421 		55 	0 	
2011-02-12 16:15:09 	307 		535 	0 	
2011-02-12 16:20:06 	413 		395 	0 	
2011-02-12 16:27:19 	407 		395 	0 	
2011-02-12 16:28:22 	302 		395 	0 	
2011-02-12 16:35:01 	207 		345 	0 	
2011-02-12 16:36:19 	221 		395 	0 	
2011-02-12 16:38:26 	419 		395 	0 	
2011-02-12 16:39:13 	402 		395 	0 	
2011-02-12 16:39:42 	313 		395 	0 	
2011-02-12 16:40:38 	420 		345 	0 	
2011-02-12 16:41:13 	418 		345 	0 	
2011-02-12 16:43:22 	320 		345 	0 	
2011-02-12 16:43:47 	205 		345 	0 	
2011-02-12 16:49:56 	401 		395 	0 	
2011-02-12 16:52:01 	311 		375 	0 	
2011-02-12 16:53:39 	310 		275 	0 	
2011-02-12 16:55:05 	309 		395 	0 	
2011-02-12 16:59:10 	204 		10 	0 	
2011-02-12 17:08:12 	417 		395 	0 	
2011-02-12 17:08:57 	420 		180 	0 	
2011-02-12 17:13:51 	412 		535 	0 	
2011-02-12 17:23:05 	319 		115 	0 	
2011-02-12 17:31:26 	304 		395 	0 	
2011-02-12 17:37:42 	203 		20 	0 	
2011-02-12 17:38:10 	415 		395 	0 	
2011-02-12 17:38:30 	422 		395 	0 	
2011-02-12 17:40:38 	404 		395 	0 	
2011-02-12 17:42:06 	201 		345 	0 	
2011-02-12 17:42:16 	204 		345 	0 	
2011-02-12 17:47:42 	315 		395 	0 	
2011-02-12 18:06:25 	318 		705 	0 	
2011-02-12 18:07:15 	218 		395 	0 	
2011-02-12 18:23:50 	421 		535 	0 	
2011-02-12 18:27:57 	303 		240 	0 	
2011-02-12 18:33:17 	314 		585 	0 	
2011-02-12 18:39:03 	308 		695 	0 	
2011-02-12 18:39:52 	314 		10 	0 	
2011-02-12 18:41:35 	319 		695 	0 	
2011-02-12 18:42:18 	220 		395 	0 	
2011-02-12 18:45:59 	317 		395 	0 	
2011-02-12 18:46:09 	321 		395 	0 	
2011-02-12 18:46:38 	408 		395 	0 	
2011-02-12 18:47:58 	316 		345 	0 	
2011-02-12 18:52:13 	406 		395 	0 	
2011-02-12 18:58:26 	210 		345 	0 	
2011-02-12 18:58:44 	312 		395 	0 	
2011-02-12 18:59:52 	402 		695 	0 	
2011-02-12 19:02:10 	322 		695 	0 	
2011-02-12 19:02:58 	211 		645 	0 	
2011-02-12 19:04:21 	419 		695 	0 	
2011-02-12 19:07:58 	305 		275 	0 	
2011-02-12 19:13:24 	413 		695 	0 	
2011-02-12 19:14:12 	301 		395 	0 	
2011-02-12 19:17:32 	423 		0 	595 	
2011-02-12 19:18:36 	306 		695 	0 	
2011-02-12 19:18:53 	407 		395 	0 	
2011-02-12 19:19:03 	221 		695 	0 	
2011-02-12 19:19:59 	409 		395 	0 	
2011-02-12 19:21:34 	323 		595 	0 	
2011-02-12 19:26:14 	316 		265 	0 	
2011-02-12 19:26:21 	220 		325 	0 	
2011-02-12 19:26:46 	324 		595 	0 	
2011-02-12 19:27:23 	206 		345 	0 	
2011-02-12 19:32:42 	405 		595 	0 	
2011-02-12 19:42:26 	Lobby 		80 	0 	
2011-02-12 19:42:39 	Lobby 		210 	0 	
2011-02-12 19:43:46 	221 		50 	0 	
2011-02-12 19:43:55 	319 		330 	0 	
2011-02-12 19:47:21 	411 		595 	0 	
2011-02-12 19:50:32 	203 		345 	0 	
2011-02-12 19:58:28 	215 		345 	0 	
2011-02-12 20:04:29 	216 		595 	0 	
2011-02-12 20:06:09 	404 		395 	0 	
2011-02-12 20:06:22 	407 		395 	0 	
2011-02-12 20:07:45 	424 		595 	0 	
2011-02-12 20:08:45 	315 		695 	0 	
2011-02-12 20:09:25 	313 		695 	0 	
2011-02-12 20:12:00 	304 		695 	0 	
2011-02-12 20:12:44 	412 		395 	0 	
2011-02-12 20:14:02 	302 		395 	0 	
2011-02-12 20:16:40 	411 		10 	0 	
2011-02-12 20:16:52 	214 		595 	0 	
2011-02-12 20:17:18 	403 		645 	0 	
2011-02-12 20:23:23 	309 		395 	0 	
2011-02-12 20:30:15 	408 		695 	0 	
2011-02-12 20:30:37 	401 		395 	0 	
2011-02-12 20:31:13 	304 		65 	0 	
2011-02-12 20:31:19 	407 		25 	0 	
2011-02-12 20:35:20 	312 		395 	0 	
2011-02-12 20:35:34 	307 		395 	0 	
2011-02-12 20:37:02 	415 		695 	0 	
2011-02-12 20:38:37 	417 		395 	0 	
2011-02-12 20:42:40 	220 		695 	0 	
2011-02-12 20:43:53 	422 		695 	0 	
2011-02-12 20:45:20 	320 		345 	0 	
2011-02-12 20:50:17 	215 		40 	0 	
2011-02-12 20:51:24 	303 		645 	0 	
2011-02-12 20:52:29 	311 		210 	0 	
2011-02-12 20:54:58 	420 		645 	0 	
2011-02-12 20:56:23 	405 		270 	0 	
2011-02-12 20:56:44 	204 		645 	0 	
2011-02-12 20:57:06 	416 		345 	0 	
2011-02-12 20:58:59 	205 		705 	0 	
2011-02-12 21:00:47 	207 		345 	0 	
2011-02-12 21:00:57 	201 		345 	0 	
2011-02-12 21:02:30 	215 		345 	0 	
2011-02-12 21:04:47 	202 		645 	0 	
2011-02-12 21:05:40 	202 		10 	0 	
2011-02-12 21:07:16 	410 		595 	0 	
2011-02-12 21:10:08 	311 		595 	0 	
2011-02-12 21:12:14 	212 		595 	0 	
2011-02-12 21:12:27 	219 		395 	0 	
2011-02-12 21:17:06 	208 		275 	0 	
2011-02-12 21:17:48 	209 		275 	0 	
2011-02-12 21:27:29 	305 		25 	0 	
2011-02-12 21:27:58 	218 		695 	0 	
2011-02-12 21:34:30 	310 		775 	0 	
2011-02-12 21:35:20 	414 		585 	0 	
2011-02-12 21:39:36 	316 		645 	0 	
2011-02-12 21:42:17 	317 		0 	695 	
2011-02-12 21:44:31 	206 		645 	0 	
2011-02-12 21:45:39 	205 		210 	0 	
2011-02-12 21:46:20 	409 		695 	0 	
2011-02-12 21:53:47 	312 		695 	0 	
2011-02-12 21:59:44 	210 		345 	0 	
2011-02-12 22:02:31 	301 		695 	0 	
2011-02-12 22:07:22 	311 		30 	0 	
2011-02-12 22:08:00 	406 		395 	0 	
2011-02-12 22:25:43 	303 		50 	0 	
2011-02-12 22:31:13 	314 		645 	0 	
2011-02-12 22:43:24 	213 		645 	0 	
2011-02-12 22:44:48 	401 		695 	0 	
2011-02-12 22:46:15 	203 		645 	0 	
2011-02-12 23:00:09 	407 		695 	0 	
2011-02-12 23:02:42 	412 		110 	0 	
2011-02-12 23:03:26 	302 		695 	0 	
2011-02-12 23:03:50 	404 		395 	0 	
2011-02-12 23:06:28 	412 		695 	0 	
2011-02-12 23:09:38 	214 		80 	0 	
2011-02-12 23:09:41 	214 		110 	0 	
2011-02-12 23:11:32 	416 		345 	0 	
2011-02-12 23:13:04 	421 		140 	0 	
2011-02-12 23:13:48 	309 		695 	0 	
2011-02-12 23:20:50 	421 		395 	0 	
2011-02-12 23:23:41 	208 		275 	0 	
2011-02-12 23:25:14 	201 		345 	0 	
2011-02-12 23:25:31 	322 		50 	0 	
2011-02-12 23:30:15 	309 		40 	0 	
2011-02-12 23:30:44 	320 		645 	0 	
2011-02-12 23:32:34 	417 		695 	0 	
2011-02-12 23:32:55 	417 		210 	0 	
2011-02-12 23:47:13 	305 		200 	0 	
2011-02-12 23:49:22 	215 		25 	0 	
2011-02-12 23:51:56 	305 		595 	0 	
 			Total:		65545 	1290		

=== RECHIT LIST ===




V1