MSHOGUN 1: SHIFT END REPORT
Monday August 30, 2010 4:03:10 PM

SALES TRANSACTION
Room Sales Order			61870
FnB Sales Order			3720
Beer Sales Order			445
Misc Sales Order			245
Room Sales Adjustment			0
GROSS SALES			66280

DISCOUNT
Room				0
FnB				0
Misc				0

DEPOSIT				21615
REFUND				

TOTAL ACCOUNTABILITY			87895

CASH DECLARATION			952
CARD				1600
FUNDS SAFEKEEP			40000
TOTAL CASH DECLARED			42552

TOTAL CASH ON SYSTEM			3062
OVER/SHORTAGES 			-2110

ROOM	 # OF CHECK-OUT	AMT
Value 		11	4705
Regular 		16	8700
Classique 		39	21265
Premium 		4	3900
Regent 		11	14650
Queen 		2	3400
Gemini 		0	0
Family 		2	5250
Executive Suite 	0	0
Mega Suite 	0	0

DISCOUNT 
Value 			  
Regular 		  
Classique 		  
Premium 		  
Regent 			  
Queen 		  
Gemini 		  
Family 		  
Executive Suite 	  
Mega Suite 		  


=== RESERVATIONS ===

Deposits:


Claimed:



SECURITY DEPOSITS

Deposits:
Claimed:


=== SALES BREAKDOWN ===

Transaction Date	Room No.	Cash	Card

2010-08-30 08:02:22 	419 		140 	0 	
2010-08-30 08:03:05 	422 		260 	0 	
2010-08-30 08:11:02 	501 		350 	0 	
2010-08-30 08:17:58 	407 		395 	0 	
2010-08-30 08:20:49 	217 		275 	0 	
2010-08-30 08:25:23 	202 		345 	0 	
2010-08-30 08:31:24 	605 		110 	0 	
2010-08-30 08:34:34 	315 		310 	0 	
2010-08-30 08:46:17 	611 		50 	0 	
2010-08-30 08:57:22 	414 		120 	0 	
2010-08-30 09:10:15 	202 		110 	0 	
2010-08-30 09:16:54 	212 		275 	0 	
2010-08-30 09:17:07 	301 		395 	0 	
2010-08-30 09:18:49 	413 		395 	0 	
2010-08-30 09:28:34 	324 		375 	0 	
2010-08-30 09:29:36 	313 		395 	0 	
2010-08-30 09:36:51 	312 		395 	0 	
2010-08-30 09:48:03 	410 		300 	0 	
2010-08-30 09:57:08 	406 		395 	0 	
2010-08-30 10:18:05 	409 		395 	0 	
2010-08-30 10:18:21 	309 		395 	0 	
2010-08-30 10:22:50 	304 		395 	0 	
2010-08-30 10:35:43 	523 		150 	0 	
2010-08-30 10:40:19 	409 		15 	0 	
2010-08-30 10:40:29 	407 		250 	0 	
2010-08-30 10:49:03 	205 		345 	0 	
2010-08-30 10:49:14 	322 		395 	0 	
2010-08-30 11:14:07 	416 		585 	0 	
2010-08-30 11:14:41 	421 		675 	0 	
2010-08-30 11:15:59 	308 		170 	0 	
2010-08-30 11:16:19 	315 		140 	0 	
2010-08-30 11:20:39 	418 		120 	0 	
2010-08-30 11:22:16 	220 		420 	0 	
2010-08-30 11:51:50 	311 		275 	0 	
2010-08-30 11:56:18 	213 		345 	0 	
2010-08-30 11:58:37 	502 		800 	0 	
2010-08-30 12:00:20 	404 		395 	0 	
2010-08-30 12:02:48 	402 		535 	0 	
2010-08-30 12:03:55 	218 		535 	0 	
2010-08-30 12:10:04 	219 		395 	0 	
2010-08-30 12:17:16 	215 		345 	0 	
2010-08-30 12:23:45 	220 		395 	0 	
2010-08-30 12:23:56 	420 		276 	0 	
2010-08-30 12:30:23 	609 		85 	0 	
2010-08-30 12:31:23 	315 		395 	0 	
2010-08-30 12:31:55 	214 		275 	0 	
2010-08-30 12:34:24 	306 		675 	0 	
2010-08-30 12:43:41 	208 		275 	0 	
2010-08-30 12:46:04 	419 		395 	0 	
2010-08-30 12:47:05 	422 		395 	0 	
2010-08-30 12:54:03 	417 		675 	0 	
2010-08-30 12:54:17 	420 		210 	0 	
2010-08-30 12:54:30 	311 		180 	0 	
2010-08-30 12:54:51 	307 		395 	0 	
2010-08-30 12:59:05 	312 		395 	0 	
2010-08-30 13:01:21 	403 		505 	0 	
2010-08-30 13:02:16 	415 		395 	0 	
2010-08-30 13:07:59 	408 		395 	0 	
2010-08-30 13:16:34 	302 		395 	0 	
2010-08-30 13:21:16 	412 		395 	0 	
2010-08-30 13:24:24 	510 		800 	0 	
2010-08-30 13:25:44 	210 		345 	0 	
2010-08-30 13:26:37 	209 		275 	0 	
2010-08-30 13:27:46 	317 		395 	0 	
2010-08-30 13:35:05 	401 		395 	0 	
2010-08-30 13:37:37 	422 		235 	0 	
2010-08-30 13:37:51 	214 		25 	0 	
2010-08-30 13:39:23 	208 		65 	0 	
2010-08-30 13:40:14 	221 		395 	0 	
2010-08-30 13:43:09 	301 		395 	0 	
2010-08-30 13:48:07 	304 		395 	0 	
2010-08-30 13:48:29 	305 		275 	0 	
2010-08-30 13:50:10 	409 		395 	0 	
2010-08-30 13:57:01 	310 		275 	0 	
2010-08-30 14:00:32 	216 		275 	0 	
2010-08-30 14:01:27 	413 		395 	0 	
2010-08-30 14:12:07 	308 		395 	0 	
2010-08-30 14:13:18 	407 		395 	0 	
2010-08-30 14:14:06 	219 		395 	0 	
2010-08-30 14:26:29 	313 		280 	0 	
2010-08-30 14:26:52 	406 		395 	0 	
2010-08-30 14:32:58 	303 		345 	0 	
2010-08-30 14:34:49 	316 		705 	0 	
2010-08-30 14:36:13 	309 		675 	0 	
2010-08-30 14:38:58 	322 		395 	0 	
2010-08-30 14:42:53 	404 		395 	0 	
2010-08-30 14:43:10 	321 		395 	0 	
2010-08-30 14:45:51 	314 		276 	0 	
2010-08-30 14:49:38 	207 		345 	0 	
2010-08-30 14:54:47 	508 		450 	0 	
2010-08-30 14:55:55 	318 		345 	0 	
2010-08-30 15:02:40 	319 		675 	0 	
2010-08-30 15:05:30 	313 		395 	0 	
2010-08-30 15:09:03 	315 		150 	0 	
2010-08-30 15:09:49 	419 		395 	0 	
2010-08-30 15:11:01 	320 		345 	0 	
2010-08-30 15:13:09 	509 		450 	0 	
2010-08-30 15:16:52 	507 		800 	0 	
2010-08-30 15:18:48 	520 		800 	0 	
2010-08-30 15:20:02 	403 		345 	0 	
2010-08-30 15:28:25 	414 		345 	0 	
2010-08-30 15:29:19 	418 		345 	0 	
2010-08-30 15:31:05 	421 		395 	0 	
2010-08-30 15:32:01 	311 		275 	0 	
2010-08-30 15:34:49 	213 		465 	0 	
2010-08-30 15:36:09 	206 		345 	0 	
2010-08-30 15:37:24 	518 		450 	0 	
2010-08-30 15:42:28 	324 		275 	0 	
2010-08-30 15:44:13 	204 		465 	0 	
2010-08-30 15:45:21 	402 		395 	0 	
2010-08-30 15:45:44 	312 		395 	0 	
2010-08-30 15:47:46 	323 		275 	0 	
2010-08-30 15:49:59 	205 		345 	0 	
2010-08-30 15:52:14 	407 		395 	0 	
2010-08-30 15:54:27 	307 		395 	0 	
2010-08-30 15:55:03 	313 		40 	0 	
2010-08-30 15:55:28 	420 		345 	0 	
2010-08-30 15:57:05 	220 		395 	0 	
2010-08-30 16:00:21 	212 		275 	0 	
 			Total:		43062 	0		

=== RECHIT LIST ===

Room No. 610 	 Rechit Date: 2010-08-30 10:22:04







V1