MSHOGUN 1: SHIFT END REPORT
Thursday March 17, 2011 4:00:01 PM

SALES TRANSACTION
Room Sales Order			22480
FnB Sales Order			2610
Beer Sales Order			80
Misc Sales Order			30
Room Sales Adjustment			0
GROSS SALES			25200

DISCOUNT
Room				0
FnB				0
Misc				0

DEPOSIT				7465
REFUND				

TOTAL ACCOUNTABILITY			32665

CASH DECLARATION			1048
CARD				0
FUNDS SAFEKEEP			20000
TOTAL CASH DECLARED			21048

TOTAL CASH ON SYSTEM			1098
OVER/SHORTAGES 			-50

ROOM	 # OF CHECK-OUT	AMT
Value 		7	2245
Regular 		13	6285
Classique 		26	13950
Premium 		0	0
Regent 		0	0
Queen 		0	0
Gemini 		0	0
Family 		0	0
Executive Suite 	0	0
Mega Suite 	0	0

DISCOUNT 
Value 			  
Regular 		  
Classique 		  
Premium 		  
Regent 			  
Queen 		  
Gemini 		  
Family 		  
Executive Suite 	  
Mega Suite 		  


=== RESERVATIONS ===

Deposits:


Claimed:



SECURITY DEPOSITS

Deposits:
Claimed:


=== SALES BREAKDOWN ===

Transaction Date	Room No.	Cash	Card

2011-03-17 08:04:11 	302 		395 	0 	
2011-03-17 08:09:26 	219 		190 	0 	
2011-03-17 08:09:57 	319 		535 	0 	
2011-03-17 08:10:18 	319 		20 	0 	
2011-03-17 08:38:21 	203 		210 	0 	
2011-03-17 08:46:30 	303 		705 	0 	
2011-03-17 09:29:26 	305 		275 	0 	
2011-03-17 09:39:07 	304 		395 	0 	
2011-03-17 09:48:12 	215 		260 	0 	
2011-03-17 09:51:07 	301 		395 	0 	
2011-03-17 09:58:13 	220 		140 	0 	
2011-03-17 10:03:09 	307 		395 	0 	
2011-03-17 10:09:10 	324 		160 	0 	
2011-03-17 10:16:44 	316 		345 	0 	
2011-03-17 10:17:12 	317 		395 	0 	
2011-03-17 10:22:31 	302 		10 	0 	
2011-03-17 10:24:57 	210 		345 	0 	
2011-03-17 10:30:10 	422 		210 	0 	
2011-03-17 11:14:48 	206 		345 	0 	
2011-03-17 11:14:55 	308 		395 	0 	
2011-03-17 11:16:09 	313 		395 	0 	
2011-03-17 11:24:05 	311 		275 	0 	
2011-03-17 11:41:57 	312 		395 	0 	
2011-03-17 12:02:44 	315 		316 	0 	
2011-03-17 12:03:56 	309 		395 	0 	
2011-03-17 12:07:41 	310 		275 	0 	
2011-03-17 12:10:44 	321 		395 	0 	
2011-03-17 12:53:53 	203 		345 	0 	
2011-03-17 13:09:15 	422 		395 	0 	
2011-03-17 13:17:26 	204 		345 	0 	
2011-03-17 13:26:18 	406 		395 	0 	
2011-03-17 13:37:09 	401 		395 	0 	
2011-03-17 13:41:05 	205 		345 	0 	
2011-03-17 13:41:13 	402 		395 	0 	
2011-03-17 13:50:04 	312 		190 	0 	
2011-03-17 13:51:39 	206 		345 	0 	
2011-03-17 13:58:18 	215 		345 	0 	
2011-03-17 13:59:57 	208 		275 	0 	
2011-03-17 14:03:29 	408 		395 	0 	
2011-03-17 14:10:39 	209 		275 	0 	
2011-03-17 14:11:26 	421 		395 	0 	
2011-03-17 14:20:36 	202 		345 	0 	
2011-03-17 14:25:37 	412 		395 	0 	
2011-03-17 14:25:44 	415 		395 	0 	
2011-03-17 14:45:39 	213 		345 	0 	
2011-03-17 14:45:52 	407 		395 	0 	
2011-03-17 14:48:46 	312 		316 	0 	
2011-03-17 14:49:52 	407 		15 	0 	
2011-03-17 14:58:49 	207 		345 	0 	
2011-03-17 15:02:48 	419 		395 	0 	
2011-03-17 15:04:45 	409 		995 	0 	
2011-03-17 15:10:05 	317 		280 	0 	
2011-03-17 15:15:42 	206 		345 	0 	
2011-03-17 15:15:52 	413 		395 	0 	
2011-03-17 15:17:55 	414 		345 	0 	
2011-03-17 15:18:54 	418 		345 	0 	
2011-03-17 15:20:15 	406 		395 	0 	
2011-03-17 15:24:10 	420 		345 	0 	
2011-03-17 15:34:39 	403 		516 	0 	
2011-03-17 15:35:02 	401 		395 	0 	
2011-03-17 15:40:12 	404 		395 	0 	
 			Total:		21098 	0		

=== RECHIT LIST ===




V1