MSHOGUN 1: SHIFT END REPORT
Saturday July 09, 2011 7:58:04 AM

SALES TRANSACTION
Room Sales Order			26985
FnB Sales Order			1175
Beer Sales Order			215
Misc Sales Order			35
Room Sales Adjustment			0
GROSS SALES			28410

DISCOUNT
Room				0
FnB				0
Misc				0

DEPOSIT				4400
REFUND				

TOTAL ACCOUNTABILITY			32810

CASH DECLARATION			3401
CARD				0
FUNDS SAFEKEEP			10000
TOTAL CASH DECLARED			13401

TOTAL CASH ON SYSTEM			3416
OVER/SHORTAGES 			-15

ROOM	 # OF CHECK-OUT	AMT
Value 		10	4530
Regular 		17	8865
Classique 		22	13590
Premium 		0	0
Regent 		0	0
Queen 		0	0
Gemini 		0	0
Family 		0	0
Executive Suite 	0	0
Mega Suite 	0	0

DISCOUNT 
Value 			  
Regular 		  
Classique 		  
Premium 		  
Regent 			  
Queen 		  
Gemini 		  
Family 		  
Executive Suite 	  
Mega Suite 		  


=== RESERVATIONS ===

Deposits:


Claimed:



SECURITY DEPOSITS

Deposits:
Claimed:


=== SALES BREAKDOWN ===

Transaction Date	Room No.	Cash	Card

2011-07-09 00:07:56 	323 		50 	0 	
2011-07-09 00:09:21 	408 		695 	0 	
2011-07-09 00:11:08 	409 		395 	0 	
2011-07-09 00:14:48 	301 		395 	0 	
2011-07-09 00:25:22 	209 		10 	0 	
2011-07-09 00:27:14 	414 		585 	0 	
2011-07-09 00:28:00 	220 		45 	0 	
2011-07-09 00:31:25 	202 		120 	0 	
2011-07-09 00:33:27 	210 		345 	0 	
2011-07-09 00:36:47 	405 		55 	0 	
2011-07-09 00:41:57 	401 		395 	0 	
2011-07-09 00:48:09 	202 		705 	0 	
2011-07-09 00:48:24 	217 		575 	0 	
2011-07-09 00:48:31 	216 		275 	0 	
2011-07-09 01:00:42 	412 		55 	0 	
2011-07-09 01:00:52 	313 		90 	0 	
2011-07-09 01:09:56 	210 		15 	0 	
2011-07-09 01:15:05 	424 		275 	0 	
2011-07-09 01:15:37 	403 		345 	0 	
2011-07-09 01:25:45 	210 		345 	0 	
2011-07-09 01:37:15 	216 		475 	0 	
2011-07-09 01:44:35 	424 		275 	0 	
2011-07-09 02:08:15 	408 		275 	0 	
2011-07-09 02:11:37 	301 		50 	0 	
2011-07-09 03:06:24 	209 		110 	0 	
2011-07-09 03:21:51 	309 		395 	0 	
2011-07-09 03:39:36 	403 		115 	0 	
2011-07-09 04:00:21 	207 		585 	0 	
2011-07-09 04:04:52 	403 		345 	0 	
2011-07-09 04:05:05 	207 		50 	0 	
2011-07-09 04:14:06 	401 		815 	0 	
2011-07-09 04:17:24 	322 		395 	0 	
2011-07-09 04:27:52 	207 		50 	0 	
2011-07-09 05:53:13 	409 		395 	0 	
2011-07-09 05:56:17 	420 		25 	0 	
2011-07-09 06:00:33 	210 		345 	0 	
2011-07-09 06:10:07 	406 		240 	0 	
2011-07-09 06:26:07 	301 		420 	0 	
2011-07-09 06:39:03 	412 		395 	0 	
2011-07-09 06:49:14 	218 		395 	0 	
2011-07-09 06:55:38 	406 		395 	0 	
2011-07-09 06:58:54 	414 		396 	0 	
2011-07-09 07:00:20 	306 		280 	0 	
2011-07-09 07:13:35 	403 		50 	0 	
2011-07-09 07:17:27 	406 		235 	0 	
2011-07-09 07:18:01 	414 		20 	0 	
2011-07-09 07:43:20 	211 		120 	0 	
 			Total:		13416 	0		

=== RECHIT LIST ===




V1