MSHOGUN 1: SHIFT END REPORT
Thursday October 27, 2011 3:57:59 PM

SALES TRANSACTION
Room Sales Order			30805
FnB Sales Order			1415
Beer Sales Order			90
Misc Sales Order			55
Room Sales Adjustment			0
GROSS SALES			32365

DISCOUNT
Room				0
FnB				0
Misc				0

DEPOSIT				10550
REFUND				

TOTAL ACCOUNTABILITY			42915

CASH DECLARATION			4026
CARD				0
FUNDS SAFEKEEP			20000
TOTAL CASH DECLARED			24026

TOTAL CASH ON SYSTEM			4026
OVER/SHORTAGES 			0

ROOM	 # OF CHECK-OUT	AMT
Value 		7	2865
Regular 		17	9285
Classique 		37	18655
Premium 		0	0
Regent 		0	0
Queen 		0	0
Gemini 		0	0
Family 		0	0
Executive Suite 	0	0
Mega Suite 	0	0

DISCOUNT 
Value 			  
Regular 		  
Classique 		  
Premium 		  
Regent 			  
Queen 		  
Gemini 		  
Family 		  
Executive Suite 	  
Mega Suite 		  


=== RESERVATIONS ===

Deposits:


Claimed:



SECURITY DEPOSITS

Deposits:
Claimed:


=== SALES BREAKDOWN ===

Transaction Date	Room No.	Cash	Card

2011-10-27 08:39:12 	306 		535 	0 	
2011-10-27 08:47:05 	312 		395 	0 	
2011-10-27 09:10:25 	311 		15 	0 	
2011-10-27 09:39:46 	205 		276 	0 	
2011-10-27 09:39:54 	313 		395 	0 	
2011-10-27 09:53:21 	214 		275 	0 	
2011-10-27 09:55:00 	422 		395 	0 	
2011-10-27 09:55:07 	409 		395 	0 	
2011-10-27 09:55:22 	409 		30 	0 	
2011-10-27 09:59:37 	301 		395 	0 	
2011-10-27 10:26:49 	321 		220 	0 	
2011-10-27 10:32:51 	421 		316 	0 	
2011-10-27 10:34:06 	419 		395 	0 	
2011-10-27 10:58:52 	308 		395 	0 	
2011-10-27 11:02:50 	407 		395 	0 	
2011-10-27 11:08:37 	420 		345 	0 	
2011-10-27 11:12:01 	409 		50 	0 	
2011-10-27 11:13:03 	411 		275 	0 	
2011-10-27 11:20:38 	416 		345 	0 	
2011-10-27 11:20:49 	318 		345 	0 	
2011-10-27 11:23:46 	210 		345 	0 	
2011-10-27 11:31:03 	412 		395 	0 	
2011-10-27 11:34:15 	402 		395 	0 	
2011-10-27 11:38:19 	312 		395 	0 	
2011-10-27 11:49:17 	407 		430 	0 	
2011-10-27 12:14:11 	420 		165 	0 	
2011-10-27 12:21:52 	209 		275 	0 	
2011-10-27 12:21:59 	313 		395 	0 	
2011-10-27 12:31:12 	408 		395 	0 	
2011-10-27 12:36:29 	214 		275 	0 	
2011-10-27 12:47:02 	303 		705 	0 	
2011-10-27 12:49:55 	409 		395 	0 	
2011-10-27 12:51:17 	404 		395 	0 	
2011-10-27 12:54:15 	320 		120 	0 	
2011-10-27 13:00:52 	206 		585 	0 	
2011-10-27 13:07:50 	419 		50 	0 	
2011-10-27 13:26:43 	406 		395 	0 	
2011-10-27 13:27:04 	207 		345 	0 	
2011-10-27 13:27:51 	207 		20 	0 	
2011-10-27 13:28:01 	413 		395 	0 	
2011-10-27 13:32:22 	305 		275 	0 	
2011-10-27 13:46:22 	401 		395 	0 	
2011-10-27 13:53:10 	306 		395 	0 	
2011-10-27 13:53:24 	308 		395 	0 	
2011-10-27 14:14:02 	221 		316 	0 	
2011-10-27 14:17:28 	220 		395 	0 	
2011-10-27 14:17:37 	407 		316 	0 	
2011-10-27 14:41:23 	301 		395 	0 	
2011-10-27 14:43:43 	220 		90 	0 	
2011-10-27 14:45:28 	304 		316 	0 	
2011-10-27 14:45:52 	309 		316 	0 	
2011-10-27 14:46:02 	321 		395 	0 	
2011-10-27 14:52:57 	312 		395 	0 	
2011-10-27 14:55:31 	207 		150 	0 	
2011-10-27 14:58:23 	319 		395 	0 	
2011-10-27 15:02:16 	315 		395 	0 	
2011-10-27 15:02:24 	322 		395 	0 	
2011-10-27 15:04:05 	212 		275 	0 	
2011-10-27 15:09:25 	412 		395 	0 	
2011-10-27 15:16:35 	308 		395 	0 	
2011-10-27 15:17:38 	221 		395 	0 	
2011-10-27 15:19:03 	409 		395 	0 	
2011-10-27 15:19:12 	219 		395 	0 	
2011-10-27 15:23:28 	302 		395 	0 	
2011-10-27 15:23:35 	306 		395 	0 	
2011-10-27 15:33:45 	317 		395 	0 	
2011-10-27 15:36:44 	314 		345 	0 	
2011-10-27 15:40:46 	402 		395 	0 	
2011-10-27 15:47:16 	406 		395 	0 	
2011-10-27 15:48:55 	310 		275 	0 	
2011-10-27 15:51:03 	408 		395 	0 	
 			Total:		24026 	0		

=== RECHIT LIST ===




V1