MSHOGUN 1: SHIFT END REPORT
Friday January 28, 2011 12:00:02 AM

SALES TRANSACTION
Room Sales Order			29625
FnB Sales Order			840
Beer Sales Order			80
Misc Sales Order			30
Room Sales Adjustment			0
GROSS SALES			30575

DISCOUNT
Room				0
FnB				0
Misc				0

DEPOSIT				25528
REFUND				

TOTAL ACCOUNTABILITY			56103

CASH DECLARATION			6471
CARD				0
FUNDS SAFEKEEP			40000
TOTAL CASH DECLARED			46471

TOTAL CASH ON SYSTEM			6471
OVER/SHORTAGES 			0

ROOM	 # OF CHECK-OUT	AMT
Value 		9	2475
Regular 		15	5775
Classique 		53	21375
Premium 		0	0
Regent 		0	0
Queen 		0	0
Gemini 		0	0
Family 		0	0
Executive Suite 	0	0
Mega Suite 	0	0

DISCOUNT 
Value 			  
Regular 		  
Classique 		  
Premium 		  
Regent 			  
Queen 		  
Gemini 		  
Family 		  
Executive Suite 	  
Mega Suite 		  


=== RESERVATIONS ===

Deposits:


Claimed:



SECURITY DEPOSITS

Deposits:
Claimed:


=== SALES BREAKDOWN ===

Transaction Date	Room No.	Cash	Card

2011-01-27 16:18:38 	218 		395 	0 	
2011-01-27 16:21:08 	306 		150 	0 	
2011-01-27 16:29:41 	303 		120 	0 	
2011-01-27 16:33:28 	406 		395 	0 	
2011-01-27 16:33:36 	419 		395 	0 	
2011-01-27 16:48:00 	402 		395 	0 	
2011-01-27 17:08:15 	310 		275 	0 	
2011-01-27 17:41:30 	306 		395 	0 	
2011-01-27 17:42:03 	307 		395 	0 	
2011-01-27 17:45:33 	219 		395 	0 	
2011-01-27 17:47:46 	414 		276 	0 	
2011-01-27 17:49:00 	407 		395 	0 	
2011-01-27 17:52:07 	409 		395 	0 	
2011-01-27 17:53:09 	316 		345 	0 	
2011-01-27 17:58:58 	408 		395 	0 	
2011-01-27 18:03:43 	420 		345 	0 	
2011-01-27 18:05:54 	311 		275 	0 	
2011-01-27 18:10:05 	417 		695 	0 	
2011-01-27 18:11:22 	412 		395 	0 	
2011-01-27 18:12:05 	302 		395 	0 	
2011-01-27 18:18:25 	320 		345 	0 	
2011-01-27 18:27:08 	408 		160 	0 	
2011-01-27 18:27:27 	318 		276 	0 	
2011-01-27 18:36:20 	308 		395 	0 	
2011-01-27 18:36:30 	319 		395 	0 	
2011-01-27 18:38:49 	315 		395 	0 	
2011-01-27 18:38:57 	321 		395 	0 	
2011-01-27 18:41:05 	312 		395 	0 	
2011-01-27 18:43:01 	309 		395 	0 	
2011-01-27 18:44:13 	301 		395 	0 	
2011-01-27 18:49:42 	322 		316 	0 	
2011-01-27 18:50:48 	313 		395 	0 	
2011-01-27 18:54:22 	415 		695 	0 	
2011-01-27 18:54:31 	422 		395 	0 	
2011-01-27 18:57:37 	405 		595 	0 	
2011-01-27 18:57:47 	304 		395 	0 	
2011-01-27 18:58:01 	304 		20 	0 	
2011-01-27 18:58:16 	423 		595 	0 	
2011-01-27 19:02:10 	413 		0 	695 	
2011-01-27 19:02:31 	323 		275 	0 	
2011-01-27 19:17:00 	212 		595 	0 	
2011-01-27 19:17:49 	212 		110 	0 	
2011-01-27 19:18:47 	418 		345 	0 	
2011-01-27 19:18:59 	406 		695 	0 	
2011-01-27 19:19:12 	221 		395 	0 	
2011-01-27 19:21:56 	220 		395 	0 	
2011-01-27 19:27:24 	324 		275 	0 	
2011-01-27 19:29:35 	218 		395 	0 	
2011-01-27 19:40:44 	404 		695 	0 	
2011-01-27 19:43:33 	219 		395 	0 	
2011-01-27 19:46:01 	214 		275 	0 	
2011-01-27 19:46:22 	307 		395 	0 	
2011-01-27 19:54:50 	317 		395 	0 	
2011-01-27 19:55:07 	218 		250 	0 	
2011-01-27 19:57:17 	407 		395 	0 	
2011-01-27 20:02:56 	408 		395 	0 	
2011-01-27 20:04:51 	213 		345 	0 	
2011-01-27 20:05:33 	216 		275 	0 	
2011-01-27 20:09:57 	419 		695 	0 	
2011-01-27 20:10:48 	317 		130 	0 	
2011-01-27 20:11:59 	415 		360 	0 	
2011-01-27 20:12:20 	401 		395 	0 	
2011-01-27 20:17:58 	402 		395 	0 	
2011-01-27 20:25:04 	210 		345 	0 	
2011-01-27 20:30:23 	306 		395 	0 	
2011-01-27 20:33:54 	424 		595 	0 	
2011-01-27 20:36:50 	416 		645 	0 	
2011-01-27 20:38:54 	414 		645 	0 	
2011-01-27 20:42:02 	207 		345 	0 	
2011-01-27 20:42:48 	302 		0 	695 	
2011-01-27 20:43:21 	403 		645 	0 	
2011-01-27 20:46:00 	322 		395 	0 	
2011-01-27 20:53:23 	208 		275 	0 	
2011-01-27 20:53:32 	204 		345 	0 	
2011-01-27 20:56:20 	417 		310 	0 	
2011-01-27 20:58:37 	421 		395 	0 	
2011-01-27 21:04:52 	411 		595 	0 	
2011-01-27 21:07:12 	321 		210 	0 	
2011-01-27 21:11:25 	308 		695 	0 	
2011-01-27 21:13:17 	309 		395 	0 	
2011-01-27 21:15:19 	316 		645 	0 	
2011-01-27 21:16:10 	318 		645 	0 	
2011-01-27 21:16:15 	316 		50 	0 	
2011-01-27 21:21:22 	420 		645 	0 	
2011-01-27 21:23:52 	321 		695 	0 	
2011-01-27 21:25:53 	215 		645 	0 	
2011-01-27 21:42:30 	315 		695 	0 	
2011-01-27 21:52:22 	412 		395 	0 	
2011-01-27 21:55:47 	303 		645 	0 	
2011-01-27 22:03:58 	205 		345 	0 	
2011-01-27 22:04:06 	209 		275 	0 	
2011-01-27 22:06:34 	315 		10 	0 	
2011-01-27 22:13:12 	312 		140 	0 	
2011-01-27 22:15:32 	211 		585 	0 	
2011-01-27 22:20:02 	206 		345 	0 	
2011-01-27 22:25:47 	307 		395 	0 	
2011-01-27 22:26:49 	304 		395 	0 	
2011-01-27 22:28:00 	218 		30 	0 	
2011-01-27 22:30:32 	306 		395 	0 	
2011-01-27 22:35:17 	410 		595 	0 	
2011-01-27 22:38:13 	409 		395 	0 	
2011-01-27 22:43:57 	220 		695 	0 	
2011-01-27 22:50:33 	403 		310 	0 	
2011-01-27 22:51:39 	303 		198 	0 	
2011-01-27 22:51:47 	315 		210 	0 	
2011-01-27 22:54:47 	219 		395 	0 	
2011-01-27 22:57:16 	319 		695 	0 	
2011-01-27 22:57:24 	317 		695 	0 	
2011-01-27 23:22:00 	406 		695 	0 	
2011-01-27 23:25:23 	415 		50 	0 	
2011-01-27 23:25:34 	301 		395 	0 	
2011-01-27 23:33:18 	305 		595 	0 	
2011-01-27 23:35:46 	407 		535 	0 	
2011-01-27 23:37:45 	221 		395 	0 	
2011-01-27 23:48:19 	323 		275 	0 	
2011-01-27 23:51:19 	421 		695 	0 	
 			Total:		46471 	1390		

=== RECHIT LIST ===




V1