MSHOGUN 1: SHIFT END REPORT
Thursday September 23, 2010 4:00:06 PM

SALES TRANSACTION
Room Sales Order			41080
FnB Sales Order			1465
Beer Sales Order			210
Misc Sales Order			30
Room Sales Adjustment			0
GROSS SALES			42785

DISCOUNT
Room				0
FnB				0
Misc				0

DEPOSIT				16770
REFUND				

TOTAL ACCOUNTABILITY			59555

CASH DECLARATION			10444
CARD				5445
FUNDS SAFEKEEP			20000
TOTAL CASH DECLARED			35889

TOTAL CASH ON SYSTEM			10444
OVER/SHORTAGES 			0

ROOM	 # OF CHECK-OUT	AMT
Value 		6	2610
Regular 		14	7770
Classique 		30	14250
Premium 		0	0
Regent 		5	9600
Queen 		2	4450
Gemini 		0	0
Family 		0	0
Executive Suite 	0	0
Mega Suite 	1	2400

DISCOUNT 
Value 			  
Regular 		  
Classique 		  
Premium 		  
Regent 			  
Queen 		  
Gemini 		  
Family 		  
Executive Suite 	  
Mega Suite 		  


=== RESERVATIONS ===

Deposits:


Claimed:



SECURITY DEPOSITS

Deposits:
Claimed:


=== SALES BREAKDOWN ===

Transaction Date	Room No.	Cash	Card

2010-09-23 08:20:39 	319 		395 	0 	
2010-09-23 08:29:13 	215 		240 	0 	
2010-09-23 09:03:08 	323 		105 	0 	
2010-09-23 09:03:22 	309 		395 	0 	
2010-09-23 09:08:35 	504 		235 	0 	
2010-09-23 09:24:44 	313 		130 	0 	
2010-09-23 09:49:47 	502 		800 	0 	
2010-09-23 09:50:01 	304 		395 	0 	
2010-09-23 09:59:21 	301 		395 	0 	
2010-09-23 10:22:27 	401 		395 	0 	
2010-09-23 10:26:23 	404 		395 	0 	
2010-09-23 10:30:54 	301 		110 	0 	
2010-09-23 10:31:07 	406 		395 	0 	
2010-09-23 10:47:37 	407 		395 	0 	
2010-09-23 10:53:55 	409 		395 	0 	
2010-09-23 10:54:08 	408 		395 	0 	
2010-09-23 10:56:38 	205 		516 	0 	
2010-09-23 10:57:32 	207 		585 	0 	
2010-09-23 11:11:35 	302 		395 	0 	
2010-09-23 11:28:40 	202 		345 	0 	
2010-09-23 11:31:30 	421 		395 	0 	
2010-09-23 11:37:01 	203 		390 	0 	
2010-09-23 11:37:13 	221 		395 	0 	
2010-09-23 11:41:11 	501 		800 	0 	
2010-09-23 11:50:20 	211 		276 	0 	
2010-09-23 11:52:03 	308 		395 	0 	
2010-09-23 11:57:32 	307 		395 	0 	
2010-09-23 12:06:45 	418 		585 	0 	
2010-09-23 12:13:10 	309 		395 	0 	
2010-09-23 12:15:19 	420 		585 	0 	
2010-09-23 12:16:58 	416 		345 	0 	
2010-09-23 12:25:32 	218 		395 	0 	
2010-09-23 12:42:48 	315 		395 	0 	
2010-09-23 12:44:47 	208 		275 	0 	
2010-09-23 12:50:03 	209 		575 	0 	
2010-09-23 12:54:22 	212 		275 	0 	
2010-09-23 12:55:50 	612 		40 	0 	
2010-09-23 12:59:37 	506 		800 	0 	
2010-09-23 12:59:52 	322 		395 	0 	
2010-09-23 13:03:01 	417 		395 	0 	
2010-09-23 13:07:18 	402 		395 	0 	
2010-09-23 13:16:55 	312 		395 	0 	
2010-09-23 13:23:01 	206 		345 	0 	
2010-09-23 13:23:39 	219 		395 	0 	
2010-09-23 13:30:03 	214 		275 	0 	
2010-09-23 13:48:14 	317 		535 	0 	
2010-09-23 13:50:05 	402 		45 	0 	
2010-09-23 13:50:20 	415 		395 	0 	
2010-09-23 13:53:22 	313 		0 	596 	
2010-09-23 13:53:40 	304 		395 	0 	
2010-09-23 13:55:41 	203 		345 	0 	
2010-09-23 14:08:17 	301 		395 	0 	
2010-09-23 14:11:42 	323 		275 	0 	
2010-09-23 14:13:59 	306 		395 	0 	
2010-09-23 14:15:53 	319 		395 	0 	
2010-09-23 14:16:51 	302 		535 	0 	
2010-09-23 14:17:17 	301 		30 	0 	
2010-09-23 14:20:08 	413 		395 	0 	
2010-09-23 14:21:39 	210 		276 	0 	
2010-09-23 14:29:08 	321 		395 	0 	
2010-09-23 14:44:19 	406 		535 	0 	
2010-09-23 14:44:30 	215 		345 	0 	
2010-09-23 14:51:58 	616 		15 	0 	
2010-09-23 15:01:30 	324 		275 	0 	
2010-09-23 15:13:47 	502 		230 	0 	
2010-09-23 15:21:17 	404 		395 	0 	
2010-09-23 15:21:35 	307 		535 	0 	
2010-09-23 15:22:35 	308 		395 	0 	
2010-09-23 15:27:28 	405 		375 	0 	
2010-09-23 15:27:53 	613 		2400 	0 	
2010-09-23 15:31:13 	302 		50 	0 	
2010-09-23 15:34:48 	409 		395 	0 	
2010-09-23 15:39:36 	309 		395 	0 	
2010-09-23 15:39:59 	407 		316 	0 	
2010-09-23 15:45:56 	212 		275 	0 	
2010-09-23 15:46:08 	408 		395 	0 	
2010-09-23 15:46:48 	412 		395 	0 	
2010-09-23 15:53:04 	615 		200 	0 	
 			Total:		30444 	596		

=== RECHIT LIST ===

Room No. 601 	 Rechit Date: 2010-09-23 12:03:04







V1