MSHOGUN 1: SHIFT END REPORT
Friday October 14, 2011 7:57:04 AM

SALES TRANSACTION
Room Sales Order			16105
FnB Sales Order			610
Beer Sales Order			240
Misc Sales Order			0
Room Sales Adjustment			0
GROSS SALES			16955

DISCOUNT
Room				0
FnB				0
Misc				0

DEPOSIT				3383
REFUND				

TOTAL ACCOUNTABILITY			20338

CASH DECLARATION			7923
CARD				0
FUNDS SAFEKEEP			0
TOTAL CASH DECLARED			7923

TOTAL CASH ON SYSTEM			7923
OVER/SHORTAGES 			0

ROOM	 # OF CHECK-OUT	AMT
Value 		2	870
Regular 		9	5445
Classique 		18	9790
Premium 		0	0
Regent 		0	0
Queen 		0	0
Gemini 		0	0
Family 		0	0
Executive Suite 	0	0
Mega Suite 	0	0

DISCOUNT 
Value 			  
Regular 		  
Classique 		  
Premium 		  
Regent 			  
Queen 		  
Gemini 		  
Family 		  
Executive Suite 	  
Mega Suite 		  


=== RESERVATIONS ===

Deposits:


Claimed:



SECURITY DEPOSITS

Deposits:
Claimed:


=== SALES BREAKDOWN ===

Transaction Date	Room No.	Cash	Card

2011-10-14 00:33:39 	302 		695 	0 	
2011-10-14 00:34:19 	206 		645 	0 	
2011-10-14 00:35:04 	424 		308 	0 	
2011-10-14 00:43:21 	208 		275 	0 	
2011-10-14 01:12:46 	415 		695 	0 	
2011-10-14 01:24:38 	403 		645 	0 	
2011-10-14 01:38:08 	406 		695 	0 	
2011-10-14 01:42:21 	309 		395 	0 	
2011-10-14 01:48:31 	316 		240 	0 	
2011-10-14 02:26:36 	308 		675 	0 	
2011-10-14 02:45:25 	422 		25 	0 	
2011-10-14 02:47:08 	312 		395 	0 	
2011-10-14 03:08:19 	220 		395 	0 	
2011-10-14 05:08:01 	322 		395 	0 	
2011-10-14 05:20:31 	206 		295 	0 	
2011-10-14 05:48:05 	218 		50 	0 	
2011-10-14 06:05:17 	409 		395 	0 	
2011-10-14 07:42:04 	303 		705 	0 	
 			Total:		7923 	0		

=== RECHIT LIST ===




V1