MSHOGUN 1: SHIFT END REPORT
Friday February 17, 2012 4:00:05 PM

SALES TRANSACTION
Room Sales Order			27655
FnB Sales Order			775
Beer Sales Order			220
Misc Sales Order			0
Room Sales Adjustment			0
GROSS SALES			28650

DISCOUNT
Room				0
FnB				0
Misc				0

DEPOSIT				11425
REFUND				

TOTAL ACCOUNTABILITY			40075

CASH DECLARATION			5619
CARD				375
FUNDS SAFEKEEP			20000
TOTAL CASH DECLARED			25994

TOTAL CASH ON SYSTEM			5519
OVER/SHORTAGES 			100

ROOM	 # OF CHECK-OUT	AMT
Value 		11	4785
Regular 		17	9225
Classique 		27	13645
Premium 		0	0
Regent 		0	0
Queen 		0	0
Gemini 		0	0
Family 		0	0
Executive Suite 	0	0
Mega Suite 	0	0

DISCOUNT 
Value 			  
Regular 		  
Classique 		  
Premium 		  
Regent 			  
Queen 		  
Gemini 		  
Family 		  
Executive Suite 	  
Mega Suite 		  


=== RESERVATIONS ===

Deposits:


Claimed:



SECURITY DEPOSITS

Deposits:
Claimed:


=== SALES BREAKDOWN ===

Transaction Date	Room No.	Cash	Card

2012-02-17 08:41:47 	318 		470 	0 	
2012-02-17 08:43:03 	309 		395 	0 	
2012-02-17 08:58:52 	313 		395 	0 	
2012-02-17 09:14:22 	321 		140 	0 	
2012-02-17 09:24:11 	214 		575 	0 	
2012-02-17 09:27:48 	402 		140 	0 	
2012-02-17 09:32:51 	319 		316 	0 	
2012-02-17 09:37:49 	218 		395 	0 	
2012-02-17 09:40:59 	220 		395 	0 	
2012-02-17 09:54:04 	309 		395 	0 	
2012-02-17 09:59:01 	205 		276 	0 	
2012-02-17 09:59:50 	318 		220 	0 	
2012-02-17 10:02:22 	216 		275 	0 	
2012-02-17 10:04:55 	322 		25 	0 	
2012-02-17 10:09:21 	204 		705 	0 	
2012-02-17 10:52:53 	308 		395 	0 	
2012-02-17 10:53:01 	304 		395 	0 	
2012-02-17 10:53:45 	217 		0 	375 	
2012-02-17 11:00:41 	318 		10 	0 	
2012-02-17 11:00:51 	401 		395 	0 	
2012-02-17 11:05:36 	424 		100 	0 	
2012-02-17 11:06:01 	406 		395 	0 	
2012-02-17 11:10:36 	413 		395 	0 	
2012-02-17 11:11:49 	412 		395 	0 	
2012-02-17 11:16:29 	415 		395 	0 	
2012-02-17 11:27:07 	421 		395 	0 	
2012-02-17 11:37:16 	422 		395 	0 	
2012-02-17 11:42:38 	207 		345 	0 	
2012-02-17 11:44:16 	303 		705 	0 	
2012-02-17 11:53:32 	318 		220 	0 	
2012-02-17 11:57:46 	403 		345 	0 	
2012-02-17 12:02:00 	211 		345 	0 	
2012-02-17 12:09:24 	422 		245 	0 	
2012-02-17 12:10:47 	320 		1425 	0 	
2012-02-17 12:16:36 	311 		275 	0 	
2012-02-17 12:21:26 	210 		345 	0 	
2012-02-17 12:28:18 	420 		585 	0 	
2012-02-17 12:38:04 	201 		345 	0 	
2012-02-17 12:47:16 	306 		395 	0 	
2012-02-17 13:04:37 	215 		345 	0 	
2012-02-17 13:09:41 	301 		395 	0 	
2012-02-17 13:11:50 	420 		50 	0 	
2012-02-17 13:12:01 	313 		395 	0 	
2012-02-17 13:13:15 	320 		500 	0 	
2012-02-17 13:17:04 	321 		395 	0 	
2012-02-17 13:17:57 	220 		395 	0 	
2012-02-17 13:20:46 	219 		395 	0 	
2012-02-17 13:26:02 	212 		275 	0 	
2012-02-17 13:26:07 	318 		10 	0 	
2012-02-17 13:32:07 	308 		395 	0 	
2012-02-17 13:36:37 	216 		275 	0 	
2012-02-17 13:46:30 	208 		275 	0 	
2012-02-17 13:48:17 	305 		275 	0 	
2012-02-17 13:52:19 	213 		705 	0 	
2012-02-17 13:57:48 	308 		240 	0 	
2012-02-17 14:01:17 	323 		275 	0 	
2012-02-17 14:04:55 	319 		316 	0 	
2012-02-17 14:10:05 	324 		375 	0 	
2012-02-17 14:12:37 	315 		395 	0 	
2012-02-17 14:13:27 	205 		345 	0 	
2012-02-17 14:13:53 	319 		75 	0 	
2012-02-17 14:19:02 	303 		440 	0 	
2012-02-17 14:25:31 	309 		395 	0 	
2012-02-17 14:30:43 	218 		395 	0 	
2012-02-17 14:34:08 	221 		395 	0 	
2012-02-17 14:39:09 	318 		165 	0 	
2012-02-17 14:41:12 	312 		50 	0 	
2012-02-17 15:01:28 	304 		316 	0 	
2012-02-17 15:21:17 	212 		275 	0 	
2012-02-17 15:42:42 	220 		395 	0 	
2012-02-17 15:45:50 	302 		395 	0 	
2012-02-17 15:48:34 	302 		50 	0 	
2012-02-17 15:56:43 	306 		395 	0 	
2012-02-17 15:58:48 	307 		395 	0 	
 			Total:		25519 	375		

=== RECHIT LIST ===




V1