MSHOGUN 1: SHIFT END REPORT
Tuesday October 12, 2010 12:00:10 AM

SALES TRANSACTION
Room Sales Order			31700
FnB Sales Order			1875
Beer Sales Order			605
Misc Sales Order			95
Room Sales Adjustment			0
GROSS SALES			34275

DISCOUNT
Room				0
FnB				0
Misc				0

DEPOSIT				27129
REFUND				

TOTAL ACCOUNTABILITY			61404

CASH DECLARATION			1068
CARD				395
FUNDS SAFEKEEP			50000
TOTAL CASH DECLARED			51463

TOTAL CASH ON SYSTEM			1068
OVER/SHORTAGES 			0

ROOM	 # OF CHECK-OUT	AMT
Value 		16	4400
Regular 		27	11475
Classique 		39	15825
Premium 		0	0
Regent 		0	0
Queen 		0	0
Gemini 		0	0
Family 		0	0
Executive Suite 	0	0
Mega Suite 	0	0

DISCOUNT 
Value 			  
Regular 		  
Classique 		  
Premium 		  
Regent 			  
Queen 		  
Gemini 		  
Family 		  
Executive Suite 	  
Mega Suite 		  


=== RESERVATIONS ===

Deposits:


Claimed:



SECURITY DEPOSITS

Deposits:
Claimed:


=== SALES BREAKDOWN ===

Transaction Date	Room No.	Cash	Card

2010-10-11 16:06:17 	208 		275 	0 	
2010-10-11 16:06:24 	318 		345 	0 	
2010-10-11 16:06:38 	315 		395 	0 	
2010-10-11 16:16:00 	321 		395 	0 	
2010-10-11 16:19:56 	209 		275 	0 	
2010-10-11 16:22:45 	420 		585 	0 	
2010-10-11 16:25:55 	316 		280 	0 	
2010-10-11 16:29:43 	309 		395 	0 	
2010-10-11 16:29:52 	319 		395 	0 	
2010-10-11 16:44:47 	206 		345 	0 	
2010-10-11 16:51:25 	220 		395 	0 	
2010-10-11 16:57:30 	219 		395 	0 	
2010-10-11 17:07:12 	218 		395 	0 	
2010-10-11 17:11:05 	221 		395 	0 	
2010-10-11 17:24:00 	412 		316 	0 	
2010-10-11 17:28:20 	221 		80 	0 	
2010-10-11 17:30:18 	207 		345 	0 	
2010-10-11 17:31:29 	207 		45 	0 	
2010-10-11 17:31:57 	214 		275 	0 	
2010-10-11 17:32:47 	312 		395 	0 	
2010-10-11 17:33:00 	304 		395 	0 	
2010-10-11 17:33:57 	216 		275 	0 	
2010-10-11 17:41:46 	217 		275 	0 	
2010-10-11 17:44:08 	211 		345 	0 	
2010-10-11 17:45:52 	302 		395 	0 	
2010-10-11 17:47:34 	307 		395 	0 	
2010-10-11 17:49:07 	311 		275 	0 	
2010-10-11 18:04:18 	403 		120 	0 	
2010-10-11 18:05:44 	301 		395 	0 	
2010-10-11 18:05:53 	313 		395 	0 	
2010-10-11 18:11:25 	308 		0 	395 	
2010-10-11 18:13:06 	204 		276 	0 	
2010-10-11 18:15:32 	205 		345 	0 	
2010-10-11 18:18:00 	317 		695 	0 	
2010-10-11 18:18:53 	210 		345 	0 	
2010-10-11 18:25:25 	322 		395 	0 	
2010-10-11 18:38:18 	209 		275 	0 	
2010-10-11 18:40:36 	406 		395 	0 	
2010-10-11 18:42:38 	304 		160 	0 	
2010-10-11 18:42:50 	204 		295 	0 	
2010-10-11 18:44:03 	424 		595 	0 	
2010-10-11 18:44:13 	404 		695 	0 	
2010-10-11 18:52:07 	310 		275 	0 	
2010-10-11 18:52:20 	407 		395 	0 	
2010-10-11 18:54:18 	314 		345 	0 	
2010-10-11 18:57:55 	304 		10 	0 	
2010-10-11 18:58:07 	209 		135 	0 	
2010-10-11 19:00:41 	212 		275 	0 	
2010-10-11 19:04:26 	418 		120 	0 	
2010-10-11 19:05:20 	308 		695 	0 	
2010-10-11 19:05:28 	315 		395 	0 	
2010-10-11 19:06:14 	216 		275 	0 	
2010-10-11 19:07:12 	402 		395 	0 	
2010-10-11 19:08:43 	405 		595 	0 	
2010-10-11 19:11:59 	408 		695 	0 	
2010-10-11 19:14:35 	219 		395 	0 	
2010-10-11 19:16:35 	415 		695 	0 	
2010-10-11 19:21:45 	409 		316 	0 	
2010-10-11 19:22:26 	320 		645 	0 	
2010-10-11 19:22:37 	412 		395 	0 	
2010-10-11 19:25:38 	419 		695 	0 	
2010-10-11 19:40:28 	322 		65 	0 	
2010-10-11 19:46:07 	324 		275 	0 	
2010-10-11 19:51:46 	Lobby 		250 	0 	
2010-10-11 19:55:38 	410 		275 	0 	
2010-10-11 19:55:59 	321 		395 	0 	
2010-10-11 20:00:50 	318 		345 	0 	
2010-10-11 20:07:18 	216 		140 	0 	
2010-10-11 20:08:52 	214 		275 	0 	
2010-10-11 20:09:20 	411 		595 	0 	
2010-10-11 20:09:29 	403 		645 	0 	
2010-10-11 20:10:00 	218 		395 	0 	
2010-10-11 20:10:35 	418 		645 	0 	
2010-10-11 20:14:08 	323 		595 	0 	
2010-10-11 20:22:37 	322 		130 	0 	
2010-10-11 20:22:47 	410 		180 	0 	
2010-10-11 20:25:59 	214 		20 	0 	
2010-10-11 20:27:48 	417 		695 	0 	
2010-10-11 20:31:18 	422 		395 	0 	
2010-10-11 20:38:48 	305 		595 	0 	
2010-10-11 20:38:55 	421 		695 	0 	
2010-10-11 20:40:32 	316 		345 	0 	
2010-10-11 20:42:50 	206 		345 	0 	
2010-10-11 20:42:59 	312 		395 	0 	
2010-10-11 20:44:06 	416 		645 	0 	
2010-10-11 20:45:17 	208 		275 	0 	
2010-10-11 20:52:19 	323 		15 	0 	
2010-10-11 20:53:55 	303 		705 	0 	
2010-10-11 20:59:22 	205 		40 	0 	
2010-10-11 21:08:17 	313 		695 	0 	
2010-10-11 21:18:16 	319 		695 	0 	
2010-10-11 21:21:58 	304 		140 	0 	
2010-10-11 21:22:37 	302 		140 	0 	
2010-10-11 21:24:24 	315 		695 	0 	
2010-10-11 21:25:30 	406 		695 	0 	
2010-10-11 21:30:40 	301 		395 	0 	
2010-10-11 21:30:48 	220 		395 	0 	
2010-10-11 21:31:45 	209 		275 	0 	
2010-10-11 21:43:04 	203 		345 	0 	
2010-10-11 21:48:20 	221 		695 	0 	
2010-10-11 21:49:00 	307 		395 	0 	
2010-10-11 21:50:35 	216 		275 	0 	
2010-10-11 21:51:13 	212 		275 	0 	
2010-10-11 21:53:55 	215 		645 	0 	
2010-10-11 21:58:53 	407 		695 	0 	
2010-10-11 21:59:02 	322 		395 	0 	
2010-10-11 22:03:28 	317 		267 	0 	
2010-10-11 22:07:44 	321 		695 	0 	
2010-10-11 22:17:25 	302 		695 	0 	
2010-10-11 22:21:10 	204 		345 	0 	
2010-10-11 22:24:43 	304 		695 	0 	
2010-10-11 22:25:00 	415 		90 	0 	
2010-10-11 22:30:10 	409 		395 	0 	
2010-10-11 22:36:24 	412 		695 	0 	
2010-10-11 22:38:24 	203 		255 	0 	
2010-10-11 22:41:14 	422 		695 	0 	
2010-10-11 22:43:49 	420 		645 	0 	
2010-10-11 22:44:46 	420 		15 	0 	
2010-10-11 22:59:29 	219 		695 	0 	
2010-10-11 23:01:19 	420 		135 	0 	
2010-10-11 23:12:02 	401 		395 	0 	
2010-10-11 23:12:11 	309 		395 	0 	
2010-10-11 23:15:41 	307 		210 	0 	
2010-10-11 23:23:15 	309 		240 	0 	
2010-10-11 23:25:29 	412 		330 	0 	
2010-10-11 23:32:51 	303 		305 	0 	
2010-10-11 23:39:50 	314 		345 	0 	
2010-10-11 23:42:18 	307 		695 	0 	
2010-10-11 23:46:27 	306 		695 	0 	
2010-10-11 23:47:08 	406 		207 	0 	
2010-10-11 23:53:59 	318 		516 	0 	
 			Total:		51068 	395		

=== RECHIT LIST ===




V1