MSHOGUN 1: SHIFT END REPORT
Monday February 14, 2011 12:00:41 AM

SALES TRANSACTION
Room Sales Order			49200
FnB Sales Order			3090
Beer Sales Order			225
Misc Sales Order			55
Room Sales Adjustment			0
GROSS SALES			52570

DISCOUNT
Room				0
FnB				0
Misc				0

DEPOSIT				32635
REFUND				

TOTAL ACCOUNTABILITY			85205

CASH DECLARATION			845
CARD				670
FUNDS SAFEKEEP			60000
TOTAL CASH DECLARED			61515

TOTAL CASH ON SYSTEM			3002
OVER/SHORTAGES 			-2157

ROOM	 # OF CHECK-OUT	AMT
Value 		19	6845
Regular 		39	16095
Classique 		64	26260
Premium 		0	0
Regent 		0	0
Queen 		0	0
Gemini 		0	0
Family 		0	0
Executive Suite 	0	0
Mega Suite 	0	0

DISCOUNT 
Value 			  
Regular 		  
Classique 		  
Premium 		  
Regent 			  
Queen 		  
Gemini 		  
Family 		  
Executive Suite 	  
Mega Suite 		  


=== RESERVATIONS ===

Deposits:


Claimed:



SECURITY DEPOSITS

Deposits:
Claimed:


=== SALES BREAKDOWN ===

Transaction Date	Room No.	Cash	Card

2011-02-13 16:05:36 	411 		275 	0 	
2011-02-13 16:06:25 	317 		395 	0 	
2011-02-13 16:07:14 	409 		395 	0 	
2011-02-13 16:08:19 	415 		140 	0 	
2011-02-13 16:10:31 	410 		275 	0 	
2011-02-13 16:14:20 	303 		345 	0 	
2011-02-13 16:14:28 	207 		345 	0 	
2011-02-13 16:18:09 	311 		0 	275 	
2011-02-13 16:18:43 	216 		275 	0 	
2011-02-13 16:22:21 	221 		395 	0 	
2011-02-13 16:24:33 	413 		395 	0 	
2011-02-13 16:25:20 	306 		535 	0 	
2011-02-13 16:27:19 	319 		395 	0 	
2011-02-13 16:30:07 	213 		465 	0 	
2011-02-13 16:30:40 	315 		395 	0 	
2011-02-13 16:31:33 	322 		395 	0 	
2011-02-13 16:33:32 	403 		345 	0 	
2011-02-13 16:33:55 	410 		50 	0 	
2011-02-13 16:35:05 	220 		255 	0 	
2011-02-13 16:35:08 	220 		105 	0 	
2011-02-13 16:38:32 	402 		395 	0 	
2011-02-13 16:41:09 	415 		395 	0 	
2011-02-13 16:41:35 	402 		50 	0 	
2011-02-13 16:45:40 	406 		395 	0 	
2011-02-13 16:46:34 	419 		395 	0 	
2011-02-13 16:54:23 	417 		395 	0 	
2011-02-13 16:56:39 	204 		345 	0 	
2011-02-13 16:57:12 	405 		900 	0 	
2011-02-13 16:59:16 	416 		345 	0 	
2011-02-13 17:07:12 	424 		575 	0 	
2011-02-13 17:08:00 	324 		15 	0 	
2011-02-13 17:11:23 	203 		705 	0 	
2011-02-13 17:11:36 	312 		395 	0 	
2011-02-13 17:16:07 	308 		316 	0 	
2011-02-13 17:19:16 	407 		395 	0 	
2011-02-13 17:21:37 	409 		80 	0 	
2011-02-13 17:37:37 	408 		395 	0 	
2011-02-13 17:41:10 	209 		305 	0 	
2011-02-13 17:43:02 	422 		395 	0 	
2011-02-13 17:44:05 	210 		705 	0 	
2011-02-13 17:46:23 	313 		140 	0 	
2011-02-13 17:49:01 	421 		395 	0 	
2011-02-13 17:50:16 	406 		395 	0 	
2011-02-13 17:50:27 	314 		345 	0 	
2011-02-13 17:51:24 	309 		395 	0 	
2011-02-13 17:52:07 	401 		395 	0 	
2011-02-13 17:53:08 	211 		345 	0 	
2011-02-13 17:57:08 	420 		345 	0 	
2011-02-13 18:19:19 	316 		130 	0 	
2011-02-13 18:20:35 	406 		135 	0 	
2011-02-13 18:20:50 	414 		345 	0 	
2011-02-13 18:21:23 	418 		276 	0 	
2011-02-13 18:38:32 	318 		345 	0 	
2011-02-13 18:41:31 	308 		395 	0 	
2011-02-13 18:52:48 	218 		395 	0 	
2011-02-13 18:54:37 	220 		695 	0 	
2011-02-13 18:55:00 	219 		395 	0 	
2011-02-13 18:56:16 	422 		20 	0 	
2011-02-13 18:57:22 	313 		695 	0 	
2011-02-13 18:57:56 	423 		595 	0 	
2011-02-13 18:59:57 	404 		395 	0 	
2011-02-13 19:02:27 	407 		695 	0 	
2011-02-13 19:03:00 	320 		345 	0 	
2011-02-13 19:05:16 	403 		345 	0 	
2011-02-13 19:10:23 	316 		345 	0 	
2011-02-13 19:10:34 	402 		695 	0 	
2011-02-13 19:17:53 	206 		345 	0 	
2011-02-13 19:18:02 	207 		345 	0 	
2011-02-13 19:19:48 	214 		375 	0 	
2011-02-13 19:26:24 	324 		595 	0 	
2011-02-13 19:26:37 	405 		595 	0 	
2011-02-13 19:33:59 	412 		140 	0 	
2011-02-13 19:35:49 	203 		95 	0 	
2011-02-13 19:35:53 	203 		190 	0 	
2011-02-13 19:36:21 	201 		345 	0 	
2011-02-13 19:38:27 	415 		695 	0 	
2011-02-13 19:39:45 	322 		695 	0 	
2011-02-13 19:41:18 	417 		395 	0 	
2011-02-13 19:42:07 	321 		695 	0 	
2011-02-13 19:43:14 	317 		395 	0 	
2011-02-13 19:50:39 	209 		275 	0 	
2011-02-13 19:54:24 	311 		595 	0 	
2011-02-13 19:54:54 	319 		395 	0 	
2011-02-13 19:57:24 	310 		595 	0 	
2011-02-13 19:59:09 	413 		140 	0 	
2011-02-13 20:05:35 	417 		90 	0 	
2011-02-13 20:09:53 	408 		695 	0 	
2011-02-13 20:11:13 	315 		395 	0 	
2011-02-13 20:16:37 	311 		10 	0 	
2011-02-13 20:20:25 	414 		345 	0 	
2011-02-13 20:24:20 	419 		695 	0 	
2011-02-13 20:28:44 	404 		110 	0 	
2011-02-13 20:31:03 	422 		695 	0 	
2011-02-13 20:32:48 	301 		695 	0 	
2011-02-13 20:34:14 	412 		395 	0 	
2011-02-13 20:36:40 	413 		695 	0 	
2011-02-13 20:38:46 	409 		395 	0 	
2011-02-13 20:43:10 	421 		695 	0 	
2011-02-13 20:43:28 	420 		345 	0 	
2011-02-13 20:48:33 	213 		645 	0 	
2011-02-13 20:50:10 	416 		645 	0 	
2011-02-13 20:51:26 	204 		645 	0 	
2011-02-13 20:52:23 	401 		395 	0 	
2011-02-13 20:52:52 	324 		110 	0 	
2011-02-13 20:53:30 	215 		645 	0 	
2011-02-13 20:57:29 	406 		695 	0 	
2011-02-13 20:57:51 	305 		675 	0 	
2011-02-13 21:00:09 	218 		675 	0 	
2011-02-13 21:00:45 	219 		395 	0 	
2011-02-13 21:05:27 	211 		645 	0 	
2011-02-13 21:06:20 	205 		645 	0 	
2011-02-13 21:08:35 	308 		695 	0 	
2011-02-13 21:15:20 	307 		695 	0 	
2011-02-13 21:18:21 	302 		695 	0 	
2011-02-13 21:19:25 	306 		675 	0 	
2011-02-13 21:22:43 	218 		120 	0 	
2011-02-13 21:25:12 	304 		695 	0 	
2011-02-13 21:26:13 	306 		65 	0 	
2011-02-13 21:29:00 	312 		395 	0 	
2011-02-13 21:31:38 	316 		205 	0 	
2011-02-13 21:34:58 	309 		395 	0 	
2011-02-13 21:35:21 	309 		50 	0 	
2011-02-13 21:36:38 	221 		695 	0 	
2011-02-13 21:36:53 	221 		25 	0 	
2011-02-13 21:38:05 	418 		705 	0 	
2011-02-13 21:39:28 	316 		465 	0 	
2011-02-13 21:40:54 	314 		645 	0 	
2011-02-13 21:43:21 	408 		170 	0 	
2011-02-13 21:55:53 	202 		645 	0 	
2011-02-13 21:57:32 	403 		180 	0 	
2011-02-13 22:00:08 	201 		645 	0 	
2011-02-13 22:02:00 	216 		595 	0 	
2011-02-13 22:02:20 	410 		275 	0 	
2011-02-13 22:14:12 	320 		645 	0 	
2011-02-13 22:19:45 	404 		395 	0 	
2011-02-13 22:26:06 	318 		120 	0 	
2011-02-13 22:27:26 	319 		675 	0 	
2011-02-13 22:27:54 	319 		80 	0 	
2011-02-13 22:29:11 	206 		345 	0 	
2011-02-13 22:29:21 	403 		645 	0 	
2011-02-13 22:34:47 	417 		395 	0 	
2011-02-13 22:36:18 	203 		645 	0 	
2011-02-13 22:47:42 	214 		50 	0 	
2011-02-13 22:59:13 	317 		395 	0 	
2011-02-13 23:06:13 	318 		645 	0 	
2011-02-13 23:08:28 	414 		645 	0 	
2011-02-13 23:12:55 	214 		595 	0 	
2011-02-13 23:13:58 	411 		595 	0 	
2011-02-13 23:21:10 	207 		465 	0 	
2011-02-13 23:29:08 	317 		90 	0 	
2011-02-13 23:29:10 	317 		205 	0 	
2011-02-13 23:34:53 	210 		210 	0 	
2011-02-13 23:54:48 	401 		395 	0 	
 			Total:		63002 	275		

=== RECHIT LIST ===




V1