MSHOGUN 1: SHIFT END REPORT
Sunday July 31, 2011 7:58:39 AM

SALES TRANSACTION
Room Sales Order			26775
FnB Sales Order			1425
Beer Sales Order			270
Misc Sales Order			20
Room Sales Adjustment			0
GROSS SALES			28490

DISCOUNT
Room				0
FnB				0
Misc				0

DEPOSIT				6990
REFUND				

TOTAL ACCOUNTABILITY			35480

CASH DECLARATION			2065
CARD				600
FUNDS SAFEKEEP			10000
TOTAL CASH DECLARED			12665

TOTAL CASH ON SYSTEM			2025
OVER/SHORTAGES 			40

ROOM	 # OF CHECK-OUT	AMT
Value 		11	5785
Regular 		20	10140
Classique 		18	10850
Premium 		0	0
Regent 		0	0
Queen 		0	0
Gemini 		0	0
Family 		0	0
Executive Suite 	0	0
Mega Suite 	0	0

DISCOUNT 
Value 			  
Regular 		  
Classique 		  
Premium 		  
Regent 			  
Queen 		  
Gemini 		  
Family 		  
Executive Suite 	  
Mega Suite 		  


=== RESERVATIONS ===

Deposits:


Claimed:



SECURITY DEPOSITS

Deposits:
Claimed:


=== SALES BREAKDOWN ===

Transaction Date	Room No.	Cash	Card

2011-07-31 00:02:43 	414 		190 	0 	
2011-07-31 00:08:18 	210 		50 	0 	
2011-07-31 00:10:20 	313 		695 	0 	
2011-07-31 00:10:37 	418 		345 	0 	
2011-07-31 00:24:46 	216 		275 	0 	
2011-07-31 00:25:31 	205 		645 	0 	
2011-07-31 00:25:49 	317 		50 	0 	
2011-07-31 00:39:20 	211 		0 	345 	
2011-07-31 00:42:55 	211 		0 	0 	
2011-07-31 00:42:55 	211 		0 	255 	
2011-07-31 00:50:13 	401 		695 	0 	
2011-07-31 01:01:00 	201 		705 	0 	
2011-07-31 01:17:49 	214 		110 	0 	
2011-07-31 01:18:25 	207 		40 	0 	
2011-07-31 01:26:01 	314 		120 	0 	
2011-07-31 01:44:22 	314 		645 	0 	
2011-07-31 01:44:34 	422 		535 	0 	
2011-07-31 01:44:44 	301 		695 	0 	
2011-07-31 01:48:30 	215 		345 	0 	
2011-07-31 02:05:32 	323 		275 	0 	
2011-07-31 02:44:26 	211 		40 	0 	
2011-07-31 02:58:13 	211 		345 	0 	
2011-07-31 03:01:08 	314 		50 	0 	
2011-07-31 03:11:19 	418 		705 	0 	
2011-07-31 03:17:46 	216 		50 	0 	
2011-07-31 03:26:13 	322 		675 	0 	
2011-07-31 04:11:20 	211 		345 	0 	
2011-07-31 04:15:56 	315 		395 	0 	
2011-07-31 05:03:56 	323 		55 	0 	
2011-07-31 05:09:44 	215 		345 	0 	
2011-07-31 05:11:57 	216 		200 	0 	
2011-07-31 05:58:26 	210 		345 	0 	
2011-07-31 06:03:34 	302 		190 	0 	
2011-07-31 06:07:40 	422 		395 	0 	
2011-07-31 06:38:44 	412 		395 	0 	
2011-07-31 06:51:40 	307 		225 	0 	
2011-07-31 07:09:56 	406 		165 	0 	
2011-07-31 07:32:18 	213 		345 	0 	
2011-07-31 07:37:19 	202 		345 	0 	
 			Total:		12025 	600		

=== RECHIT LIST ===




V1