MSHOGUN 1: SHIFT END REPORT
Wednesday September 08, 2010 12:01:13 AM

SALES TRANSACTION
Room Sales Order			36640
FnB Sales Order			3510
Beer Sales Order			390
Misc Sales Order			135
Room Sales Adjustment			0
GROSS SALES			40675

DISCOUNT
Room				0
FnB				0
Misc				0

DEPOSIT				40680
REFUND				

TOTAL ACCOUNTABILITY			81355

CASH DECLARATION			8835
CARD				0
FUNDS SAFEKEEP			60000
TOTAL CASH DECLARED			68835

TOTAL CASH ON SYSTEM			8535
OVER/SHORTAGES 			300

ROOM	 # OF CHECK-OUT	AMT
Value 		16	5100
Regular 		20	8580
Classique 		48	19660
Premium 		0	0
Regent 		2	1600
Queen 		1	1700
Gemini 		0	0
Family 		0	0
Executive Suite 	0	0
Mega Suite 	0	0

DISCOUNT 
Value 			  
Regular 		  
Classique 		  
Premium 		  
Regent 			  
Queen 		  
Gemini 		  
Family 		  
Executive Suite 	  
Mega Suite 		  


=== RESERVATIONS ===

Deposits:


Claimed:



SECURITY DEPOSITS

Deposits:
Claimed:


=== SALES BREAKDOWN ===

Transaction Date	Room No.	Cash	Card

2010-09-07 16:09:26 	206 		345 	0 	
2010-09-07 16:10:05 	204 		305 	0 	
2010-09-07 16:10:17 	220 		535 	0 	
2010-09-07 16:12:50 	208 		275 	0 	
2010-09-07 16:13:54 	219 		395 	0 	
2010-09-07 16:16:07 	214 		275 	0 	
2010-09-07 16:24:06 	218 		395 	0 	
2010-09-07 16:26:16 	221 		395 	0 	
2010-09-07 16:29:41 	215 		335 	0 	
2010-09-07 16:42:11 	206 		235 	0 	
2010-09-07 16:46:10 	310 		275 	0 	
2010-09-07 16:52:06 	312 		316 	0 	
2010-09-07 16:57:01 	304 		395 	0 	
2010-09-07 16:59:20 	306 		395 	0 	
2010-09-07 16:59:32 	209 		275 	0 	
2010-09-07 17:00:03 	304 		45 	0 	
2010-09-07 17:04:32 	319 		395 	0 	
2010-09-07 17:04:42 	315 		395 	0 	
2010-09-07 17:08:25 	601 		40 	0 	
2010-09-07 17:16:07 	308 		395 	0 	
2010-09-07 17:16:17 	321 		395 	0 	
2010-09-07 17:20:28 	319 		180 	0 	
2010-09-07 17:25:22 	402 		316 	0 	
2010-09-07 17:28:04 	303 		705 	0 	
2010-09-07 17:28:20 	406 		395 	0 	
2010-09-07 17:30:30 	409 		395 	0 	
2010-09-07 17:32:34 	203 		276 	0 	
2010-09-07 17:34:58 	408 		395 	0 	
2010-09-07 17:38:33 	203 		40 	0 	
2010-09-07 17:40:25 	213 		705 	0 	
2010-09-07 17:42:49 	413 		395 	0 	
2010-09-07 17:47:44 	Lobby 		110 	0 	
2010-09-07 17:53:04 	205 		465 	0 	
2010-09-07 17:53:14 	407 		395 	0 	
2010-09-07 17:55:00 	211 		240 	0 	
2010-09-07 17:58:16 	208 		275 	0 	
2010-09-07 17:58:22 	401 		395 	0 	
2010-09-07 17:58:36 	404 		695 	0 	
2010-09-07 17:58:46 	419 		695 	0 	
2010-09-07 17:59:06 	315 		210 	0 	
2010-09-07 17:59:25 	407 		20 	0 	
2010-09-07 18:01:15 	207 		345 	0 	
2010-09-07 18:01:39 	415 		395 	0 	
2010-09-07 18:01:46 	421 		695 	0 	
2010-09-07 18:03:32 	202 		345 	0 	
2010-09-07 18:03:42 	412 		395 	0 	
2010-09-07 18:03:51 	301 		395 	0 	
2010-09-07 18:05:01 	417 		395 	0 	
2010-09-07 18:13:49 	415 		100 	0 	
2010-09-07 18:17:39 	221 		395 	0 	
2010-09-07 18:17:59 	307 		395 	0 	
2010-09-07 18:27:16 	313 		395 	0 	
2010-09-07 18:31:02 	217 		275 	0 	
2010-09-07 18:31:11 	204 		345 	0 	
2010-09-07 18:36:28 	421 		240 	0 	
2010-09-07 18:36:35 	401 		400 	0 	
2010-09-07 18:38:32 	409 		395 	0 	
2010-09-07 18:42:55 	502 		1600 	0 	
2010-09-07 18:43:30 	506 		60 	0 	
2010-09-07 18:47:35 	510 		800 	0 	
2010-09-07 18:48:01 	319 		395 	0 	
2010-09-07 18:48:09 	304 		395 	0 	
2010-09-07 18:48:23 	317 		316 	0 	
2010-09-07 18:53:27 	215 		360 	0 	
2010-09-07 18:55:07 	302 		695 	0 	
2010-09-07 18:56:34 	314 		345 	0 	
2010-09-07 18:59:14 	210 		345 	0 	
2010-09-07 19:01:50 	406 		695 	0 	
2010-09-07 19:02:37 	403 		345 	0 	
2010-09-07 19:02:46 	211 		345 	0 	
2010-09-07 19:08:36 	617 		1700 	0 	
2010-09-07 19:08:45 	214 		275 	0 	
2010-09-07 19:14:15 	318 		645 	0 	
2010-09-07 19:17:39 	424 		595 	0 	
2010-09-07 19:20:15 	215 		345 	0 	
2010-09-07 19:24:27 	420 		345 	0 	
2010-09-07 19:25:16 	404 		20 	0 	
2010-09-07 19:34:56 	218 		395 	0 	
2010-09-07 19:41:48 	505 		800 	0 	
2010-09-07 19:42:59 	423 		595 	0 	
2010-09-07 19:43:08 	405 		595 	0 	
2010-09-07 19:47:04 	322 		140 	0 	
2010-09-07 19:48:15 	412 		395 	0 	
2010-09-07 19:56:21 	507 		800 	0 	
2010-09-07 19:56:42 	323 		595 	0 	
2010-09-07 19:57:18 	321 		695 	0 	
2010-09-07 20:00:32 	418 		645 	0 	
2010-09-07 20:05:22 	206 		345 	0 	
2010-09-07 20:06:40 	315 		395 	0 	
2010-09-07 20:08:10 	412 		270 	0 	
2010-09-07 20:08:24 	207 		15 	0 	
2010-09-07 20:09:00 	411 		275 	0 	
2010-09-07 20:09:15 	308 		695 	0 	
2010-09-07 20:14:03 	324 		595 	0 	
2010-09-07 20:14:15 	220 		395 	0 	
2010-09-07 20:14:25 	410 		595 	0 	
2010-09-07 20:16:30 	505 		110 	0 	
2010-09-07 20:18:17 	320 		645 	0 	
2010-09-07 20:18:30 	304 		395 	0 	
2010-09-07 20:21:17 	218 		175 	0 	
2010-09-07 20:26:47 	316 		645 	0 	
2010-09-07 20:26:56 	414 		645 	0 	
2010-09-07 20:31:25 	310 		100 	0 	
2010-09-07 20:37:37 	417 		45 	0 	
2010-09-07 20:43:25 	306 		395 	0 	
2010-09-07 20:48:00 	413 		395 	0 	
2010-09-07 20:48:11 	215 		645 	0 	
2010-09-07 20:50:44 	305 		275 	0 	
2010-09-07 20:52:20 	402 		395 	0 	
2010-09-07 20:54:21 	209 		275 	0 	
2010-09-07 20:56:30 	414 		260 	0 	
2010-09-07 21:00:58 	301 		210 	0 	
2010-09-07 21:02:06 	613 		1200 	0 	
2010-09-07 21:03:38 	511 		800 	0 	
2010-09-07 21:05:11 	512 		800 	0 	
2010-09-07 21:11:38 	415 		695 	0 	
2010-09-07 21:12:41 	319 		55 	0 	
2010-09-07 21:14:20 	322 		695 	0 	
2010-09-07 21:27:31 	513 		800 	0 	
2010-09-07 21:28:20 	402 		80 	0 	
2010-09-07 21:36:45 	408 		695 	0 	
2010-09-07 21:37:02 	417 		695 	0 	
2010-09-07 21:49:48 	407 		695 	0 	
2010-09-07 21:56:45 	311 		275 	0 	
2010-09-07 22:06:07 	514 		800 	0 	
2010-09-07 22:06:17 	310 		275 	0 	
2010-09-07 22:06:30 	217 		595 	0 	
2010-09-07 22:06:45 	213 		345 	0 	
2010-09-07 22:06:55 	416 		345 	0 	
2010-09-07 22:09:31 	513 		10 	0 	
2010-09-07 22:09:56 	601 		850 	0 	
2010-09-07 22:10:51 	319 		695 	0 	
2010-09-07 22:12:38 	304 		695 	0 	
2010-09-07 22:16:39 	310 		65 	0 	
2010-09-07 22:22:59 	214 		595 	0 	
2010-09-07 22:23:10 	420 		645 	0 	
2010-09-07 22:32:13 	314 		645 	0 	
2010-09-07 22:35:03 	602 		1100 	0 	
2010-09-07 22:41:04 	217 		210 	0 	
2010-09-07 22:46:31 	523 		750 	0 	
2010-09-07 22:48:21 	314 		50 	0 	
2010-09-07 22:48:46 	317 		695 	0 	
2010-09-07 22:55:22 	602 		45 	0 	
2010-09-07 22:56:31 	312 		316 	0 	
2010-09-07 23:00:42 	403 		645 	0 	
2010-09-07 23:01:11 	317 		25 	0 	
2010-09-07 23:01:46 	513 		15 	0 	
2010-09-07 23:04:27 	315 		395 	0 	
2010-09-07 23:18:31 	404 		250 	0 	
2010-09-07 23:20:19 	212 		595 	0 	
2010-09-07 23:24:23 	307 		695 	0 	
2010-09-07 23:30:46 	221 		695 	0 	
2010-09-07 23:30:53 	417 		135 	0 	
2010-09-07 23:46:17 	409 		395 	0 	
2010-09-07 23:51:17 	411 		595 	0 	
2010-09-07 23:51:59 	402 		695 	0 	
2010-09-07 23:53:45 	305 		595 	0 	
2010-09-07 23:56:59 	221 		110 	0 	
 			Total:		68535 	0		

=== RECHIT LIST ===

Room No. 504 	 Rechit Date: 2010-09-07 17:11:19







V1