MSHOGUN 1: SHIFT END REPORT
Saturday November 13, 2010 12:00:02 AM

SALES TRANSACTION
Room Sales Order			38960
FnB Sales Order			2828
Beer Sales Order			380
Misc Sales Order			205
Room Sales Adjustment			0
GROSS SALES			42373

DISCOUNT
Room				0
FnB				0
Misc				0

DEPOSIT				34255
REFUND				

TOTAL ACCOUNTABILITY			76628

CASH DECLARATION			9308
CARD				1150
FUNDS SAFEKEEP			50000
TOTAL CASH DECLARED			60458

TOTAL CASH ON SYSTEM			9298
OVER/SHORTAGES 			10

ROOM	 # OF CHECK-OUT	AMT
Value 		20	6000
Regular 		29	11325
Classique 		53	21635
Premium 		0	0
Regent 		0	0
Queen 		0	0
Gemini 		0	0
Family 		0	0
Executive Suite 	0	0
Mega Suite 	0	0

DISCOUNT 
Value 			  
Regular 		  
Classique 		  
Premium 		  
Regent 			  
Queen 		  
Gemini 		  
Family 		  
Executive Suite 	  
Mega Suite 		  


=== RESERVATIONS ===

Deposits:


Claimed:



SECURITY DEPOSITS

Deposits:
Claimed:


=== SALES BREAKDOWN ===

Transaction Date	Room No.	Cash	Card

2010-11-12 16:01:02 	418 		120 	0 	
2010-11-12 16:04:14 	320 		345 	0 	
2010-11-12 16:12:02 	312 		395 	0 	
2010-11-12 16:12:29 	309 		395 	0 	
2010-11-12 16:16:31 	322 		395 	0 	
2010-11-12 16:17:05 	307 		395 	0 	
2010-11-12 16:28:55 	412 		395 	0 	
2010-11-12 16:31:22 	318 		345 	0 	
2010-11-12 16:33:37 	406 		395 	0 	
2010-11-12 16:36:35 	311 		275 	0 	
2010-11-12 16:36:56 	311 		60 	0 	
2010-11-12 16:42:25 	322 		230 	0 	
2010-11-12 16:45:23 	308 		395 	0 	
2010-11-12 16:45:42 	316 		345 	0 	
2010-11-12 16:52:20 	308 		80 	0 	
2010-11-12 16:52:43 	310 		275 	0 	
2010-11-12 17:00:16 	422 		395 	0 	
2010-11-12 17:03:29 	301 		395 	0 	
2010-11-12 17:20:19 	306 		395 	0 	
2010-11-12 17:26:01 	320 		60 	0 	
2010-11-12 17:28:06 	313 		395 	0 	
2010-11-12 17:28:23 	419 		395 	0 	
2010-11-12 17:31:25 	206 		255 	0 	
2010-11-12 17:34:12 	408 		30 	0 	
2010-11-12 17:44:53 	422 		275 	0 	
2010-11-12 17:48:56 	302 		395 	0 	
2010-11-12 17:50:24 	305 		275 	0 	
2010-11-12 17:51:42 	208 		275 	0 	
2010-11-12 17:56:09 	403 		345 	0 	
2010-11-12 17:57:31 	317 		395 	0 	
2010-11-12 17:58:17 	417 		395 	0 	
2010-11-12 18:03:20 	309 		395 	0 	
2010-11-12 18:05:16 	315 		695 	0 	
2010-11-12 18:07:08 	421 		395 	0 	
2010-11-12 18:08:44 	407 		395 	0 	
2010-11-12 18:11:03 	209 		275 	0 	
2010-11-12 18:11:12 	205 		345 	0 	
2010-11-12 18:11:32 	413 		395 	0 	
2010-11-12 18:12:21 	321 		695 	0 	
2010-11-12 18:12:54 	221 		395 	0 	
2010-11-12 18:14:32 	220 		395 	0 	
2010-11-12 18:15:30 	415 		695 	0 	
2010-11-12 18:19:05 	417 		120 	0 	
2010-11-12 18:21:21 	206 		345 	0 	
2010-11-12 18:21:36 	311 		275 	0 	
2010-11-12 18:26:03 	324 		275 	0 	
2010-11-12 18:27:31 	221 		20 	0 	
2010-11-12 18:27:33 	221 		80 	0 	
2010-11-12 18:30:32 	312 		110 	0 	
2010-11-12 18:30:35 	312 		65 	0 	
2010-11-12 18:30:58 	424 		595 	0 	
2010-11-12 18:35:38 	411 		595 	0 	
2010-11-12 18:36:42 	401 		395 	0 	
2010-11-12 18:38:40 	410 		275 	0 	
2010-11-12 18:39:54 	218 		395 	0 	
2010-11-12 18:40:08 	404 		140 	0 	
2010-11-12 18:40:24 	404 		695 	0 	
2010-11-12 18:46:36 	319 		140 	0 	
2010-11-12 18:51:30 	402 		395 	0 	
2010-11-12 18:52:28 	408 		395 	0 	
2010-11-12 18:55:55 	319 		395 	0 	
2010-11-12 18:56:39 	213 		345 	0 	
2010-11-12 19:02:35 	204 		0 	345 	
2010-11-12 19:03:46 	423 		275 	0 	
2010-11-12 19:06:18 	213 		25 	0 	
2010-11-12 19:07:57 	217 		275 	0 	
2010-11-12 19:08:21 	422 		316 	0 	
2010-11-12 19:12:01 	418 		645 	0 	
2010-11-12 19:19:50 	304 		695 	0 	
2010-11-12 19:23:39 	212 		275 	0 	
2010-11-12 19:24:46 	314 		645 	0 	
2010-11-12 19:28:52 	312 		395 	0 	
2010-11-12 19:30:45 	210 		345 	0 	
2010-11-12 19:34:09 	320 		645 	0 	
2010-11-12 19:35:13 	207 		345 	0 	
2010-11-12 19:36:47 	209 		275 	0 	
2010-11-12 19:37:17 	202 		345 	0 	
2010-11-12 19:45:22 	406 		695 	0 	
2010-11-12 19:48:18 	214 		275 	0 	
2010-11-12 19:49:32 	308 		395 	0 	
2010-11-12 19:51:39 	417 		40 	0 	
2010-11-12 19:57:08 	413 		205 	0 	
2010-11-12 19:57:23 	315 		320 	0 	
2010-11-12 20:02:51 	324 		595 	0 	
2010-11-12 20:05:36 	301 		395 	0 	
2010-11-12 20:18:43 	412 		395 	0 	
2010-11-12 20:21:55 	417 		695 	0 	
2010-11-12 20:23:12 	409 		316 	0 	
2010-11-12 20:26:57 	201 		345 	0 	
2010-11-12 20:27:28 	416 		645 	0 	
2010-11-12 20:32:46 	413 		40 	0 	
2010-11-12 20:33:36 	313 		695 	0 	
2010-11-12 20:33:43 	215 		276 	0 	
2010-11-12 20:33:50 	307 		695 	0 	
2010-11-12 20:34:08 	320 		250 	0 	
2010-11-12 20:38:09 	220 		395 	0 	
2010-11-12 20:43:57 	323 		275 	0 	
2010-11-12 20:49:55 	221 		395 	0 	
2010-11-12 20:52:13 	414 		645 	0 	
2010-11-12 20:56:03 	401 		395 	0 	
2010-11-12 20:59:31 	209 		30 	0 	
2010-11-12 20:59:46 	310 		595 	0 	
2010-11-12 21:02:27 	211 		645 	0 	
2010-11-12 21:04:50 	421 		695 	0 	
2010-11-12 21:08:05 	414 		120 	0 	
2010-11-12 21:08:36 	408 		395 	0 	
2010-11-12 21:17:31 	317 		695 	0 	
2010-11-12 21:17:40 	215 		335 	0 	
2010-11-12 21:18:36 	302 		290 	0 	
2010-11-12 21:22:49 	407 		695 	0 	
2010-11-12 21:29:04 	204 		0 	330 	
2010-11-12 21:29:56 	218 		695 	0 	
2010-11-12 21:30:04 	420 		645 	0 	
2010-11-12 21:41:12 	419 		140 	0 	
2010-11-12 21:41:48 	413 		695 	0 	
2010-11-12 21:55:54 	319 		0 	695 	
2010-11-12 22:04:18 	421 		25 	0 	
2010-11-12 22:04:56 	303 		345 	0 	
2010-11-12 22:05:13 	318 		645 	0 	
2010-11-12 22:13:14 	402 		695 	0 	
2010-11-12 22:14:27 	303 		30 	0 	
2010-11-12 22:15:40 	409 		395 	0 	
2010-11-12 22:16:24 	422 		395 	0 	
2010-11-12 22:20:09 	312 		395 	0 	
2010-11-12 22:22:42 	219 		395 	0 	
2010-11-12 22:26:03 	302 		695 	0 	
2010-11-12 22:26:12 	419 		695 	0 	
2010-11-12 22:27:27 	213 		345 	0 	
2010-11-12 22:28:58 	206 		645 	0 	
2010-11-12 22:32:45 	303 		170 	0 	
2010-11-12 22:33:22 	306 		695 	0 	
2010-11-12 22:33:40 	311 		595 	0 	
2010-11-12 22:34:43 	207 		345 	0 	
2010-11-12 22:40:21 	210 		345 	0 	
2010-11-12 22:42:42 	316 		645 	0 	
2010-11-12 22:46:42 	305 		595 	0 	
2010-11-12 22:47:04 	211 		50 	0 	
2010-11-12 22:59:05 	403 		645 	0 	
2010-11-12 23:02:12 	209 		275 	0 	
2010-11-12 23:06:16 	220 		695 	0 	
2010-11-12 23:07:45 	403 		30 	0 	
2010-11-12 23:09:02 	204 		645 	0 	
2010-11-12 23:10:22 	205 		645 	0 	
2010-11-12 23:14:00 	208 		575 	0 	
2010-11-12 23:14:56 	203 		645 	0 	
2010-11-12 23:18:04 	212 		595 	0 	
2010-11-12 23:18:33 	202 		645 	0 	
2010-11-12 23:19:37 	423 		595 	0 	
2010-11-12 23:24:02 	412 		695 	0 	
2010-11-12 23:25:08 	301 		395 	0 	
2010-11-12 23:25:46 	410 		595 	0 	
2010-11-12 23:33:59 	303 		20 	0 	
2010-11-12 23:53:31 	216 		275 	0 	
 			Total:		59298 	1370		

=== RECHIT LIST ===




V1