MSHOGUN 1: SHIFT END REPORT
Tuesday November 08, 2011 3:55:19 PM

SALES TRANSACTION
Room Sales Order			19070
FnB Sales Order			1370
Beer Sales Order			410
Misc Sales Order			0
Room Sales Adjustment			0
GROSS SALES			20850

DISCOUNT
Room				0
FnB				0
Misc				0

DEPOSIT				6045
REFUND				

TOTAL ACCOUNTABILITY			26895

CASH DECLARATION			8507
CARD				0
FUNDS SAFEKEEP			10000
TOTAL CASH DECLARED			18507

TOTAL CASH ON SYSTEM			8507
OVER/SHORTAGES 			0

ROOM	 # OF CHECK-OUT	AMT
Value 		6	2710
Regular 		9	3405
Classique 		25	12955
Premium 		0	0
Regent 		0	0
Queen 		0	0
Gemini 		0	0
Family 		0	0
Executive Suite 	0	0
Mega Suite 	0	0

DISCOUNT 
Value 			  
Regular 		  
Classique 		  
Premium 		  
Regent 			  
Queen 		  
Gemini 		  
Family 		  
Executive Suite 	  
Mega Suite 		  


=== RESERVATIONS ===

Deposits:


Claimed:



SECURITY DEPOSITS

Deposits:
Claimed:


=== SALES BREAKDOWN ===

Transaction Date	Room No.	Cash	Card

2011-11-08 07:58:24 	307 		165 	0 	
2011-11-08 08:00:03 	304 		395 	0 	
2011-11-08 08:57:03 	319 		395 	0 	
2011-11-08 08:57:09 	314 		345 	0 	
2011-11-08 08:58:12 	311 		100 	0 	
2011-11-08 08:58:40 	308 		395 	0 	
2011-11-08 09:14:04 	316 		276 	0 	
2011-11-08 09:25:18 	307 		395 	0 	
2011-11-08 09:29:28 	312 		535 	0 	
2011-11-08 09:53:44 	302 		395 	0 	
2011-11-08 09:57:19 	318 		276 	0 	
2011-11-08 10:04:39 	313 		280 	0 	
2011-11-08 10:14:15 	310 		275 	0 	
2011-11-08 10:30:44 	309 		395 	0 	
2011-11-08 10:33:53 	301 		395 	0 	
2011-11-08 10:56:12 	312 		205 	0 	
2011-11-08 11:28:50 	218 		395 	0 	
2011-11-08 11:32:14 	402 		280 	0 	
2011-11-08 11:37:27 	218 		60 	0 	
2011-11-08 11:51:24 	205 		345 	0 	
2011-11-08 11:56:10 	204 		345 	0 	
2011-11-08 12:11:01 	322 		395 	0 	
2011-11-08 12:29:42 	321 		395 	0 	
2011-11-08 12:49:16 	219 		395 	0 	
2011-11-08 12:54:59 	218 		395 	0 	
2011-11-08 13:07:15 	321 		220 	0 	
2011-11-08 13:08:37 	215 		705 	0 	
2011-11-08 13:09:18 	203 		345 	0 	
2011-11-08 13:13:17 	220 		395 	0 	
2011-11-08 13:13:50 	220 		50 	0 	
2011-11-08 13:18:14 	206 		465 	0 	
2011-11-08 13:36:20 	202 		345 	0 	
2011-11-08 13:37:14 	208 		275 	0 	
2011-11-08 13:39:59 	211 		345 	0 	
2011-11-08 13:43:10 	404 		395 	0 	
2011-11-08 13:44:37 	406 		395 	0 	
2011-11-08 13:50:38 	407 		395 	0 	
2011-11-08 13:56:58 	408 		395 	0 	
2011-11-08 13:59:31 	215 		100 	0 	
2011-11-08 13:59:38 	406 		50 	0 	
2011-11-08 14:00:40 	409 		395 	0 	
2011-11-08 14:01:15 	213 		705 	0 	
2011-11-08 14:04:41 	412 		395 	0 	
2011-11-08 14:15:25 	413 		395 	0 	
2011-11-08 14:19:58 	306 		395 	0 	
2011-11-08 14:20:29 	209 		275 	0 	
2011-11-08 14:23:02 	419 		395 	0 	
2011-11-08 14:37:37 	403 		705 	0 	
2011-11-08 14:41:44 	407 		25 	0 	
2011-11-08 14:41:50 	412 		65 	0 	
2011-11-08 15:13:46 	422 		395 	0 	
2011-11-08 15:23:07 	309 		280 	0 	
2011-11-08 15:23:58 	421 		395 	0 	
2011-11-08 15:51:11 	414 		585 	0 	
 			Total:		18507 	0		

=== RECHIT LIST ===




V1