MSHOGUN 1: SHIFT END REPORT
Thursday February 09, 2012 7:58:32 AM

SALES TRANSACTION
Room Sales Order			28670
FnB Sales Order			1115
Beer Sales Order			135
Misc Sales Order			345
Room Sales Adjustment			-280
GROSS SALES			29985

DISCOUNT
Room				0
FnB				0
Misc				0

DEPOSIT				4200
REFUND				

TOTAL ACCOUNTABILITY			34185

CASH DECLARATION			9390
CARD				695
FUNDS SAFEKEEP			0
TOTAL CASH DECLARED			10085

TOTAL CASH ON SYSTEM			9390
OVER/SHORTAGES 			0

ROOM	 # OF CHECK-OUT	AMT
Value 		9	4595
Regular 		18	11070
Classique 		19	13005
Premium 		0	0
Regent 		0	0
Queen 		0	0
Gemini 		0	0
Family 		0	0
Executive Suite 	0	0
Mega Suite 	0	0

DISCOUNT 
Value 			  
Regular 		  
Classique 		  
Premium 		  
Regent 			  
Queen 		  
Gemini 		  
Family 		  
Executive Suite 	  
Mega Suite 		  


=== RESERVATIONS ===

Deposits:


Claimed:



SECURITY DEPOSITS

Deposits:
Claimed:


=== SALES BREAKDOWN ===

Transaction Date	Room No.	Cash	Card

2012-02-09 00:07:12 	203 		345 	0 	
2012-02-09 00:07:50 	421 		695 	0 	
2012-02-09 00:08:22 	212 		595 	0 	
2012-02-09 00:18:06 	218 		695 	0 	
2012-02-09 00:48:34 	312 		395 	0 	
2012-02-09 00:53:43 	406 		240 	0 	
2012-02-09 00:54:28 	201 		705 	0 	
2012-02-09 00:55:03 	409 		395 	0 	
2012-02-09 01:25:01 	412 		695 	0 	
2012-02-09 02:12:40 	207 		345 	0 	
2012-02-09 02:23:28 	414 		50 	0 	
2012-02-09 02:28:20 	207 		245 	0 	
2012-02-09 02:33:03 	210 		345 	0 	
2012-02-09 02:41:03 	410 		275 	0 	
2012-02-09 02:46:19 	305 		215 	0 	
2012-02-09 02:47:07 	416 		645 	0 	
2012-02-09 03:04:21 	401 		280 	0 	
2012-02-09 03:31:16 	208 		475 	0 	
2012-02-09 04:21:16 	208 		25 	0 	
2012-02-09 04:42:34 	312 		140 	0 	
2012-02-09 04:59:18 	203 		240 	0 	
2012-02-09 06:08:27 	420 		15 	0 	
2012-02-09 06:29:27 	418 		240 	0 	
2012-02-09 07:29:34 	413 		195 	0 	
2012-02-09 07:31:02 	205 		265 	0 	
2012-02-09 07:32:16 	210 		240 	0 	
2012-02-09 07:50:05 	401 		395 	0 	
 			Total:		9390 	0		

=== RECHIT LIST ===




V1