MSHOGUN 1: SHIFT END REPORT
Wednesday September 07, 2011 7:59:50 AM

SALES TRANSACTION
Room Sales Order			24075
FnB Sales Order			595
Beer Sales Order			80
Misc Sales Order			0
Room Sales Adjustment			0
GROSS SALES			24750

DISCOUNT
Room				0
FnB				0
Misc				0

DEPOSIT				1485
REFUND				

TOTAL ACCOUNTABILITY			26235

CASH DECLARATION			7480
CARD				0
FUNDS SAFEKEEP			0
TOTAL CASH DECLARED			7480

TOTAL CASH ON SYSTEM			7480
OVER/SHORTAGES 			0

ROOM	 # OF CHECK-OUT	AMT
Value 		10	5630
Regular 		7	3855
Classique 		26	14590
Premium 		0	0
Regent 		0	0
Queen 		0	0
Gemini 		0	0
Family 		0	0
Executive Suite 	0	0
Mega Suite 	0	0

DISCOUNT 
Value 			  
Regular 		  
Classique 		  
Premium 		  
Regent 			  
Queen 		  
Gemini 		  
Family 		  
Executive Suite 	  
Mega Suite 		  


=== RESERVATIONS ===

Deposits:


Claimed:



SECURITY DEPOSITS

Deposits:
Claimed:


=== SALES BREAKDOWN ===

Transaction Date	Room No.	Cash	Card

2011-09-07 00:19:38 	307 		695 	0 	
2011-09-07 00:26:44 	401 		25 	0 	
2011-09-07 00:27:17 	308 		675 	0 	
2011-09-07 00:31:00 	309 		395 	0 	
2011-09-07 00:36:15 	321 		695 	0 	
2011-09-07 00:53:05 	301 		395 	0 	
2011-09-07 00:56:50 	218 		395 	0 	
2011-09-07 00:57:25 	312 		395 	0 	
2011-09-07 01:09:57 	409 		395 	0 	
2011-09-07 01:25:11 	220 		395 	0 	
2011-09-07 01:35:09 	219 		50 	0 	
2011-09-07 01:40:50 	221 		395 	0 	
2011-09-07 01:51:34 	320 		345 	0 	
2011-09-07 01:56:21 	407 		395 	0 	
2011-09-07 02:15:34 	312 		25 	0 	
2011-09-07 02:44:20 	412 		395 	0 	
2011-09-07 04:34:08 	424 		25 	0 	
2011-09-07 04:51:06 	208 		275 	0 	
2011-09-07 05:10:37 	410 		50 	0 	
2011-09-07 05:21:55 	220 		140 	0 	
2011-09-07 05:48:47 	209 		135 	0 	
2011-09-07 06:49:40 	221 		395 	0 	
2011-09-07 07:06:50 	319 		395 	0 	
 			Total:		7480 	0		

=== RECHIT LIST ===




V1