MSHOGUN 1: SHIFT END REPORT
Wednesday September 22, 2010 4:00:06 PM

SALES TRANSACTION
Room Sales Order			41995
FnB Sales Order			2562
Beer Sales Order			540
Misc Sales Order			30
Room Sales Adjustment			0
GROSS SALES			45127

DISCOUNT
Room				0
FnB				0
Misc				0

DEPOSIT				18425
REFUND				

TOTAL ACCOUNTABILITY			63552

CASH DECLARATION			9756
CARD				3745
FUNDS SAFEKEEP			20000
TOTAL CASH DECLARED			33501

TOTAL CASH ON SYSTEM			9755
OVER/SHORTAGES 			1

ROOM	 # OF CHECK-OUT	AMT
Value 		10	4010
Regular 		12	6060
Classique 		26	13750
Premium 		3	2250
Regent 		8	10125
Queen 		2	3400
Gemini 		0	0
Family 		0	0
Executive Suite 	0	0
Mega Suite 	1	2400

DISCOUNT 
Value 			  
Regular 		  
Classique 		  
Premium 		  
Regent 			  
Queen 		  
Gemini 		  
Family 		  
Executive Suite 	  
Mega Suite 		  


=== RESERVATIONS ===

Deposits:


Claimed:



SECURITY DEPOSITS

Deposits:
Claimed:


=== SALES BREAKDOWN ===

Transaction Date	Room No.	Cash	Card

2010-09-22 08:11:39 	402 		140 	0 	
2010-09-22 08:13:48 	517 		525 	0 	
2010-09-22 08:46:34 	310 		275 	0 	
2010-09-22 08:52:36 	311 		275 	0 	
2010-09-22 09:14:40 	501 		800 	0 	
2010-09-22 09:20:47 	313 		675 	0 	
2010-09-22 09:21:00 	307 		675 	0 	
2010-09-22 09:30:43 	401 		395 	0 	
2010-09-22 09:35:08 	415 		280 	0 	
2010-09-22 10:08:55 	424 		100 	0 	
2010-09-22 10:09:46 	406 		675 	0 	
2010-09-22 10:10:10 	404 		395 	0 	
2010-09-22 10:30:54 	405 		275 	0 	
2010-09-22 10:31:40 	503 		110 	0 	
2010-09-22 10:45:14 	507 		800 	0 	
2010-09-22 10:53:01 	303 		480 	0 	
2010-09-22 10:59:00 	410 		275 	0 	
2010-09-22 11:05:40 	409 		395 	0 	
2010-09-22 11:09:14 	402 		395 	0 	
2010-09-22 11:18:20 	418 		0 	345 	
2010-09-22 11:28:55 	505 		190 	0 	
2010-09-22 11:47:49 	420 		345 	0 	
2010-09-22 12:03:04 	601 		0 	1700 	
2010-09-22 12:06:00 	601 		0 	1700 	
2010-09-22 12:06:25 	414 		345 	0 	
2010-09-22 12:10:18 	415 		395 	0 	
2010-09-22 12:10:42 	403 		345 	0 	
2010-09-22 12:13:02 	416 		345 	0 	
2010-09-22 12:14:53 	421 		395 	0 	
2010-09-22 12:15:00 	422 		395 	0 	
2010-09-22 12:20:21 	407 		395 	0 	
2010-09-22 12:27:33 	314 		345 	0 	
2010-09-22 12:35:59 	424 		275 	0 	
2010-09-22 12:36:22 	517 		800 	0 	
2010-09-22 12:36:42 	408 		395 	0 	
2010-09-22 12:42:39 	421 		30 	0 	
2010-09-22 12:42:55 	416 		270 	0 	
2010-09-22 12:45:50 	312 		395 	0 	
2010-09-22 12:47:24 	306 		395 	0 	
2010-09-22 12:57:53 	304 		395 	0 	
2010-09-22 12:59:18 	303 		345 	0 	
2010-09-22 13:05:49 	315 		395 	0 	
2010-09-22 13:16:38 	419 		395 	0 	
2010-09-22 13:28:25 	309 		395 	0 	
2010-09-22 13:32:25 	302 		395 	0 	
2010-09-22 13:38:34 	316 		345 	0 	
2010-09-22 13:41:54 	608 		850 	0 	
2010-09-22 13:42:55 	419 		225 	0 	
2010-09-22 13:44:09 	321 		535 	0 	
2010-09-22 13:52:54 	322 		395 	0 	
2010-09-22 14:05:53 	310 		275 	0 	
2010-09-22 14:07:01 	404 		395 	0 	
2010-09-22 14:08:39 	312 		255 	0 	
2010-09-22 14:19:06 	308 		395 	0 	
2010-09-22 14:20:14 	417 		675 	0 	
2010-09-22 14:23:14 	320 		345 	0 	
2010-09-22 14:25:12 	305 		275 	0 	
2010-09-22 14:27:24 	412 		395 	0 	
2010-09-22 14:27:31 	413 		395 	0 	
2010-09-22 14:27:39 	318 		345 	0 	
2010-09-22 14:28:56 	307 		395 	0 	
2010-09-22 14:31:52 	402 		395 	0 	
2010-09-22 14:38:53 	318 		135 	0 	
2010-09-22 14:53:52 	219 		535 	0 	
2010-09-22 14:53:59 	520 		800 	0 	
2010-09-22 14:54:06 	218 		395 	0 	
2010-09-22 14:54:18 	305 		40 	0 	
2010-09-22 14:55:13 	221 		395 	0 	
2010-09-22 14:57:47 	315 		395 	0 	
2010-09-22 15:06:24 	313 		395 	0 	
2010-09-22 15:13:39 	205 		345 	0 	
2010-09-22 15:15:14 	206 		585 	0 	
2010-09-22 15:22:18 	317 		395 	0 	
2010-09-22 15:22:57 	504 		50 	0 	
2010-09-22 15:25:30 	315 		230 	0 	
2010-09-22 15:27:32 	409 		395 	0 	
2010-09-22 15:28:52 	208 		275 	0 	
2010-09-22 15:37:12 	304 		395 	0 	
2010-09-22 15:39:00 	319 		395 	0 	
2010-09-22 15:51:28 	312 		395 	0 	
 			Total:		29755 	3745		

=== RECHIT LIST ===

Room No. 612 	 Rechit Date: 2010-09-22 15:25:27







V1