MSHOGUN 1: SHIFT END REPORT
Monday December 19, 2011 8:00:57 AM

SALES TRANSACTION
Room Sales Order			31905
FnB Sales Order			1730
Beer Sales Order			120
Misc Sales Order			10
Room Sales Adjustment			0
GROSS SALES			33765

DISCOUNT
Room				0
FnB				0
Misc				0

DEPOSIT				6570
REFUND				

TOTAL ACCOUNTABILITY			40335

CASH DECLARATION			3265
CARD				0
FUNDS SAFEKEEP			10000
TOTAL CASH DECLARED			13265

TOTAL CASH ON SYSTEM			3265
OVER/SHORTAGES 			0

ROOM	 # OF CHECK-OUT	AMT
Value 		17	7955
Regular 		17	10065
Classique 		23	13885
Premium 		0	0
Regent 		0	0
Queen 		0	0
Gemini 		0	0
Family 		0	0
Executive Suite 	0	0
Mega Suite 	0	0

DISCOUNT 
Value 			  
Regular 		  
Classique 		  
Premium 		  
Regent 			  
Queen 		  
Gemini 		  
Family 		  
Executive Suite 	  
Mega Suite 		  


=== RESERVATIONS ===

Deposits:


Claimed:



SECURITY DEPOSITS

Deposits:
Claimed:


=== SALES BREAKDOWN ===

Transaction Date	Room No.	Cash	Card

2011-12-19 00:20:16 	220 		695 	0 	
2011-12-19 00:20:33 	209 		275 	0 	
2011-12-19 00:37:40 	208 		275 	0 	
2011-12-19 00:42:51 	212 		575 	0 	
2011-12-19 00:50:08 	210 		645 	0 	
2011-12-19 00:59:53 	207 		150 	0 	
2011-12-19 01:07:50 	207 		645 	0 	
2011-12-19 01:10:31 	322 		695 	0 	
2011-12-19 01:10:54 	322 		25 	0 	
2011-12-19 01:13:51 	311 		375 	0 	
2011-12-19 01:16:45 	417 		80 	0 	
2011-12-19 01:38:02 	409 		695 	0 	
2011-12-19 01:55:33 	312 		675 	0 	
2011-12-19 01:57:36 	401 		395 	0 	
2011-12-19 02:04:29 	212 		195 	0 	
2011-12-19 02:13:04 	213 		50 	0 	
2011-12-19 03:34:18 	209 		575 	0 	
2011-12-19 03:56:46 	205 		240 	0 	
2011-12-19 04:33:52 	205 		345 	0 	
2011-12-19 05:08:30 	203 		585 	0 	
2011-12-19 05:11:24 	413 		675 	0 	
2011-12-19 05:18:09 	215 		705 	0 	
2011-12-19 05:57:19 	304 		395 	0 	
2011-12-19 05:58:50 	422 		270 	0 	
2011-12-19 06:04:23 	307 		50 	0 	
2011-12-19 06:05:28 	403 		345 	0 	
2011-12-19 06:08:23 	207 		345 	0 	
2011-12-19 06:14:03 	320 		50 	0 	
2011-12-19 06:50:31 	421 		25 	0 	
2011-12-19 06:59:01 	219 		255 	0 	
2011-12-19 07:12:01 	401 		395 	0 	
2011-12-19 07:12:21 	402 		395 	0 	
2011-12-19 07:26:29 	218 		395 	0 	
2011-12-19 07:28:56 	217 		775 	0 	
 			Total:		13265 	0		

=== RECHIT LIST ===




V1