MSHOGUN 1: SHIFT END REPORT
Sunday October 31, 2010 12:00:11 AM

SALES TRANSACTION
Room Sales Order			43690
FnB Sales Order			2813
Beer Sales Order			630
Misc Sales Order			165
Room Sales Adjustment			0
GROSS SALES			47298

DISCOUNT
Room				0
FnB				0
Misc				0

DEPOSIT				38962
REFUND				

TOTAL ACCOUNTABILITY			86260

CASH DECLARATION			152
CARD				0
FUNDS SAFEKEEP			70000
TOTAL CASH DECLARED			70152

TOTAL CASH ON SYSTEM			332
OVER/SHORTAGES 			-180

ROOM	 # OF CHECK-OUT	AMT
Value 		17	5175
Regular 		38	16230
Classique 		55	22285
Premium 		0	0
Regent 		0	0
Queen 		0	0
Gemini 		0	0
Family 		0	0
Executive Suite 	0	0
Mega Suite 	0	0

DISCOUNT 
Value 			  
Regular 		  
Classique 		  
Premium 		  
Regent 			  
Queen 		  
Gemini 		  
Family 		  
Executive Suite 	  
Mega Suite 		  


=== RESERVATIONS ===

Deposits:


Claimed:



SECURITY DEPOSITS

Deposits:
Claimed:


=== SALES BREAKDOWN ===

Transaction Date	Room No.	Cash	Card

2010-10-30 16:03:17 	213 		190 	0 	
2010-10-30 16:06:37 	304 		395 	0 	
2010-10-30 16:06:45 	306 		395 	0 	
2010-10-30 16:09:53 	406 		395 	0 	
2010-10-30 16:12:44 	302 		105 	0 	
2010-10-30 16:12:53 	409 		290 	0 	
2010-10-30 16:13:03 	321 		345 	0 	
2010-10-30 16:13:13 	323 		80 	0 	
2010-10-30 16:19:55 	309 		395 	0 	
2010-10-30 16:22:01 	310 		275 	0 	
2010-10-30 16:24:19 	312 		395 	0 	
2010-10-30 16:25:01 	312 		50 	0 	
2010-10-30 16:33:06 	408 		395 	0 	
2010-10-30 16:35:22 	218 		395 	0 	
2010-10-30 16:37:38 	213 		120 	0 	
2010-10-30 16:40:42 	304 		235 	0 	
2010-10-30 16:43:27 	417 		395 	0 	
2010-10-30 16:43:41 	412 		395 	0 	
2010-10-30 16:47:34 	415 		395 	0 	
2010-10-30 16:57:12 	312 		198 	0 	
2010-10-30 16:58:05 	316 		345 	0 	
2010-10-30 16:59:14 	319 		355 	0 	
2010-10-30 17:03:03 	414 		345 	0 	
2010-10-30 17:03:12 	220 		395 	0 	
2010-10-30 17:09:11 	324 		475 	0 	
2010-10-30 17:10:56 	219 		395 	0 	
2010-10-30 17:11:06 	221 		395 	0 	
2010-10-30 17:18:34 	207 		345 	0 	
2010-10-30 17:25:47 	402 		395 	0 	
2010-10-30 17:26:44 	413 		395 	0 	
2010-10-30 17:27:35 	206 		345 	0 	
2010-10-30 17:34:14 	418 		345 	0 	
2010-10-30 17:34:30 	416 		585 	0 	
2010-10-30 17:44:30 	213 		345 	0 	
2010-10-30 17:45:42 	219 		200 	0 	
2010-10-30 17:46:50 	204 		345 	0 	
2010-10-30 17:49:15 	416 		10 	0 	
2010-10-30 17:55:09 	406 		395 	0 	
2010-10-30 18:00:24 	302 		395 	0 	
2010-10-30 18:00:33 	202 		705 	0 	
2010-10-30 18:04:57 	421 		395 	0 	
2010-10-30 18:06:40 	216 		375 	0 	
2010-10-30 18:09:54 	419 		316 	0 	
2010-10-30 18:10:04 	217 		275 	0 	
2010-10-30 18:13:46 	315 		695 	0 	
2010-10-30 18:14:39 	317 		395 	0 	
2010-10-30 18:17:13 	321 		695 	0 	
2010-10-30 18:20:09 	309 		395 	0 	
2010-10-30 18:20:22 	409 		395 	0 	
2010-10-30 18:26:38 	202 		395 	0 	
2010-10-30 18:26:54 	404 		395 	0 	
2010-10-30 18:35:41 	218 		395 	0 	
2010-10-30 18:36:43 	307 		695 	0 	
2010-10-30 18:40:16 	401 		395 	0 	
2010-10-30 18:40:25 	301 		395 	0 	
2010-10-30 18:43:05 	318 		645 	0 	
2010-10-30 18:50:16 	315 		170 	0 	
2010-10-30 18:55:53 	322 		395 	0 	
2010-10-30 18:57:28 	420 		645 	0 	
2010-10-30 18:59:37 	209 		275 	0 	
2010-10-30 19:04:25 	205 		120 	0 	
2010-10-30 19:06:45 	214 		595 	0 	
2010-10-30 19:09:08 	422 		395 	0 	
2010-10-30 19:11:26 	208 		275 	0 	
2010-10-30 19:14:23 	420 		20 	0 	
2010-10-30 19:14:55 	308 		395 	0 	
2010-10-30 19:15:05 	311 		275 	0 	
2010-10-30 19:18:00 	411 		275 	0 	
2010-10-30 19:18:37 	410 		275 	0 	
2010-10-30 19:18:57 	216 		240 	0 	
2010-10-30 19:20:40 	201 		465 	0 	
2010-10-30 19:20:48 	211 		345 	0 	
2010-10-30 19:26:20 	408 		695 	0 	
2010-10-30 19:29:49 	422 		10 	0 	
2010-10-30 19:30:27 	321 		325 	0 	
2010-10-30 19:30:37 	407 		695 	0 	
2010-10-30 19:33:22 	405 		595 	0 	
2010-10-30 19:33:30 	423 		275 	0 	
2010-10-30 19:39:02 	303 		276 	0 	
2010-10-30 19:40:05 	212 		595 	0 	
2010-10-30 19:43:51 	203 		345 	0 	
2010-10-30 19:48:28 	215 		345 	0 	
2010-10-30 19:53:31 	320 		465 	0 	
2010-10-30 20:00:59 	305 		595 	0 	
2010-10-30 20:02:29 	402 		695 	0 	
2010-10-30 20:03:02 	409 		395 	0 	
2010-10-30 20:03:45 	323 		200 	0 	
2010-10-30 20:07:26 	205 		345 	0 	
2010-10-30 20:15:35 	414 		645 	0 	
2010-10-30 20:15:43 	313 		695 	0 	
2010-10-30 20:15:50 	207 		345 	0 	
2010-10-30 20:17:40 	413 		695 	0 	
2010-10-30 20:17:49 	312 		395 	0 	
2010-10-30 20:23:44 	306 		395 	0 	
2010-10-30 20:23:53 	417 		395 	0 	
2010-10-30 20:24:01 	319 		695 	0 	
2010-10-30 20:24:10 	415 		695 	0 	
2010-10-30 20:27:20 	204 		345 	0 	
2010-10-30 20:28:49 	304 		695 	0 	
2010-10-30 20:29:54 	205 		30 	0 	
2010-10-30 20:30:02 	320 		80 	0 	
2010-10-30 20:30:10 	202 		10 	0 	
2010-10-30 20:30:12 	202 		85 	0 	
2010-10-30 20:34:55 	219 		695 	0 	
2010-10-30 20:37:09 	319 		60 	0 	
2010-10-30 20:41:05 	418 		345 	0 	
2010-10-30 20:41:41 	412 		140 	0 	
2010-10-30 20:43:13 	220 		395 	0 	
2010-10-30 20:46:45 	221 		395 	0 	
2010-10-30 20:49:35 	307 		100 	0 	
2010-10-30 20:50:37 	322 		395 	0 	
2010-10-30 20:50:46 	206 		345 	0 	
2010-10-30 20:52:06 	421 		695 	0 	
2010-10-30 20:53:21 	419 		695 	0 	
2010-10-30 20:54:54 	303 		705 	0 	
2010-10-30 20:56:15 	412 		695 	0 	
2010-10-30 20:57:02 	406 		695 	0 	
2010-10-30 20:59:10 	424 		595 	0 	
2010-10-30 21:01:13 	316 		645 	0 	
2010-10-30 21:03:08 	309 		395 	0 	
2010-10-30 21:05:26 	403 		255 	0 	
2010-10-30 21:06:18 	213 		345 	0 	
2010-10-30 21:07:40 	302 		695 	0 	
2010-10-30 21:07:53 	317 		695 	0 	
2010-10-30 21:10:11 	408 		10 	0 	
2010-10-30 21:10:20 	408 		84 	0 	
2010-10-30 21:10:32 	413 		30 	0 	
2010-10-30 21:10:45 	415 		170 	0 	
2010-10-30 21:13:58 	323 		595 	0 	
2010-10-30 21:14:56 	314 		645 	0 	
2010-10-30 21:16:43 	403 		345 	0 	
2010-10-30 21:16:53 	217 		595 	0 	
2010-10-30 21:22:34 	410 		275 	0 	
2010-10-30 21:22:51 	410 		25 	0 	
2010-10-30 21:26:00 	319 		105 	0 	
2010-10-30 21:26:08 	221 		50 	0 	
2010-10-30 21:28:11 	215 		345 	0 	
2010-10-30 21:34:41 	203 		645 	0 	
2010-10-30 21:42:49 	416 		645 	0 	
2010-10-30 21:45:20 	218 		695 	0 	
2010-10-30 21:47:02 	210 		345 	0 	
2010-10-30 21:47:26 	317 		198 	0 	
2010-10-30 21:48:01 	402 		65 	0 	
2010-10-30 21:49:06 	208 		475 	0 	
2010-10-30 21:53:38 	220 		30 	0 	
2010-10-30 21:55:24 	306 		695 	0 	
2010-10-30 21:57:36 	401 		535 	0 	
2010-10-30 21:59:50 	220 		695 	0 	
2010-10-30 21:59:58 	324 		275 	0 	
2010-10-30 22:04:54 	411 		595 	0 	
2010-10-30 22:06:31 	215 		152 	0 	
2010-10-30 22:07:41 	404 		695 	0 	
2010-10-30 22:10:53 	308 		695 	0 	
2010-10-30 22:15:15 	311 		275 	0 	
2010-10-30 22:15:23 	301 		395 	0 	
2010-10-30 22:17:05 	421 		198 	0 	
2010-10-30 22:19:14 	205 		645 	0 	
2010-10-30 22:25:09 	423 		575 	0 	
2010-10-30 22:27:11 	316 		80 	0 	
2010-10-30 22:27:44 	422 		70 	0 	
2010-10-30 22:29:50 	221 		695 	0 	
2010-10-30 22:33:10 	209 		100 	0 	
2010-10-30 22:39:47 	422 		695 	0 	
2010-10-30 22:45:30 	209 		575 	0 	
2010-10-30 22:49:02 	312 		395 	0 	
2010-10-30 22:57:57 	417 		395 	0 	
2010-10-30 23:00:21 	410 		275 	0 	
2010-10-30 23:00:32 	409 		695 	0 	
2010-10-30 23:01:15 	409 		50 	0 	
2010-10-30 23:07:24 	211 		120 	0 	
2010-10-30 23:08:21 	207 		345 	0 	
2010-10-30 23:11:20 	201 		345 	0 	
2010-10-30 23:11:28 	403 		345 	0 	
2010-10-30 23:20:47 	221 		210 	0 	
2010-10-30 23:21:10 	217 		385 	0 	
2010-10-30 23:25:54 	213 		645 	0 	
2010-10-30 23:26:16 	322 		395 	0 	
2010-10-30 23:35:45 	204 		645 	0 	
2010-10-30 23:37:15 	324 		595 	0 	
2010-10-30 23:47:54 	206 		345 	0 	
2010-10-30 23:53:33 	211 		345 	0 	
 			Total:		70332 	0		

=== RECHIT LIST ===




V1