MSHOGUN 1: SHIFT END REPORT
Saturday September 04, 2010 12:00:04 AM

SALES TRANSACTION
Room Sales Order			36130
FnB Sales Order			2405
Beer Sales Order			270
Misc Sales Order			215
Room Sales Adjustment			0
GROSS SALES			39020

DISCOUNT
Room				0
FnB				0
Misc				0

DEPOSIT				48343
REFUND				

TOTAL ACCOUNTABILITY			87363

CASH DECLARATION			5404
CARD				790
FUNDS SAFEKEEP			70000
TOTAL CASH DECLARED			76194

TOTAL CASH ON SYSTEM			5414
OVER/SHORTAGES 			-10

ROOM	 # OF CHECK-OUT	AMT
Value 		13	3575
Regular 		23	8535
Classique 		50	20170
Premium 		2	900
Regent 		3	2100
Queen 		1	850
Gemini 		0	0
Family 		0	0
Executive Suite 	0	0
Mega Suite 	0	0

DISCOUNT 
Value 			  
Regular 		  
Classique 		  
Premium 		  
Regent 			  
Queen 		  
Gemini 		  
Family 		  
Executive Suite 	  
Mega Suite 		  


=== RESERVATIONS ===

Deposits:


Claimed:



SECURITY DEPOSITS

Deposits:
Claimed:


=== SALES BREAKDOWN ===

Transaction Date	Room No.	Cash	Card

2010-09-03 16:13:40 	502 		800 	0 	
2010-09-03 16:52:50 	313 		395 	0 	
2010-09-03 16:58:18 	309 		395 	0 	
2010-09-03 17:00:01 	409 		140 	0 	
2010-09-03 17:11:08 	212 		275 	0 	
2010-09-03 17:11:51 	319 		395 	0 	
2010-09-03 17:13:19 	308 		395 	0 	
2010-09-03 17:13:30 	321 		395 	0 	
2010-09-03 17:13:57 	520 		800 	0 	
2010-09-03 17:18:02 	218 		395 	0 	
2010-09-03 17:18:21 	306 		395 	0 	
2010-09-03 17:32:25 	306 		30 	0 	
2010-09-03 17:33:22 	511 		800 	0 	
2010-09-03 17:34:59 	307 		395 	0 	
2010-09-03 17:40:02 	214 		275 	0 	
2010-09-03 17:47:08 	312 		395 	0 	
2010-09-03 17:51:23 	303 		25 	0 	
2010-09-03 17:52:23 	302 		395 	0 	
2010-09-03 17:52:38 	216 		275 	0 	
2010-09-03 17:55:46 	312 		140 	0 	
2010-09-03 17:56:53 	221 		395 	0 	
2010-09-03 17:57:07 	304 		395 	0 	
2010-09-03 18:00:29 	219 		316 	0 	
2010-09-03 18:03:16 	317 		395 	0 	
2010-09-03 18:05:47 	311 		275 	0 	
2010-09-03 18:09:09 	502 		258 	0 	
2010-09-03 18:14:19 	315 		395 	0 	
2010-09-03 18:26:27 	305 		275 	0 	
2010-09-03 18:27:16 	323 		595 	0 	
2010-09-03 18:33:11 	303 		345 	0 	
2010-09-03 18:33:44 	322 		316 	0 	
2010-09-03 18:34:09 	612 		55 	0 	
2010-09-03 18:34:59 	612 		850 	0 	
2010-09-03 18:37:52 	323 		10 	0 	
2010-09-03 18:39:36 	316 		465 	0 	
2010-09-03 18:39:48 	401 		395 	0 	
2010-09-03 18:40:04 	320 		705 	0 	
2010-09-03 18:40:40 	502 		40 	0 	
2010-09-03 18:42:31 	406 		0 	395 	
2010-09-03 18:43:27 	407 		395 	0 	
2010-09-03 18:44:29 	609 		850 	0 	
2010-09-03 18:48:02 	308 		305 	0 	
2010-09-03 18:48:15 	406 		50 	0 	
2010-09-03 18:58:56 	407 		287 	0 	
2010-09-03 19:00:29 	409 		395 	0 	
2010-09-03 19:00:49 	422 		395 	0 	
2010-09-03 19:01:02 	324 		595 	0 	
2010-09-03 19:01:15 	421 		695 	0 	
2010-09-03 19:01:24 	413 		695 	0 	
2010-09-03 19:01:47 	412 		395 	0 	
2010-09-03 19:02:02 	319 		695 	0 	
2010-09-03 19:03:39 	402 		695 	0 	
2010-09-03 19:03:53 	419 		395 	0 	
2010-09-03 19:05:15 	411 		595 	0 	
2010-09-03 19:06:05 	408 		395 	0 	
2010-09-03 19:06:15 	404 		395 	0 	
2010-09-03 19:09:56 	415 		0 	395 	
2010-09-03 19:10:29 	213 		345 	0 	
2010-09-03 19:10:42 	211 		345 	0 	
2010-09-03 19:15:46 	310 		275 	0 	
2010-09-03 19:16:13 	417 		695 	0 	
2010-09-03 19:16:24 	220 		395 	0 	
2010-09-03 19:16:37 	405 		595 	0 	
2010-09-03 19:18:34 	410 		275 	0 	
2010-09-03 19:18:47 	207 		345 	0 	
2010-09-03 19:20:16 	416 		345 	0 	
2010-09-03 19:23:02 	215 		345 	0 	
2010-09-03 19:23:48 	511 		15 	0 	
2010-09-03 19:26:26 	318 		345 	0 	
2010-09-03 19:27:51 	423 		275 	0 	
2010-09-03 19:31:25 	414 		345 	0 	
2010-09-03 19:31:44 	314 		345 	0 	
2010-09-03 19:36:22 	314 		25 	0 	
2010-09-03 19:36:36 	418 		645 	0 	
2010-09-03 19:36:59 	420 		345 	0 	
2010-09-03 19:41:03 	424 		595 	0 	
2010-09-03 19:41:26 	403 		276 	0 	
2010-09-03 19:42:29 	307 		395 	0 	
2010-09-03 19:43:06 	323 		10 	0 	
2010-09-03 19:43:23 	418 		20 	0 	
2010-09-03 19:44:12 	220 		50 	0 	
2010-09-03 19:45:26 	408 		150 	0 	
2010-09-03 19:48:09 	205 		645 	0 	
2010-09-03 19:49:50 	313 		395 	0 	
2010-09-03 19:51:30 	210 		345 	0 	
2010-09-03 19:52:58 	308 		395 	0 	
2010-09-03 19:54:48 	315 		695 	0 	
2010-09-03 19:59:06 	302 		695 	0 	
2010-09-03 19:59:19 	309 		316 	0 	
2010-09-03 20:00:09 	416 		165 	0 	
2010-09-03 20:00:24 	420 		220 	0 	
2010-09-03 20:01:09 	418 		210 	0 	
2010-09-03 20:08:32 	306 		695 	0 	
2010-09-03 20:08:46 	208 		275 	0 	
2010-09-03 20:11:18 	307 		180 	0 	
2010-09-03 20:11:22 	307 		10 	0 	
2010-09-03 20:11:54 	313 		45 	0 	
2010-09-03 20:12:23 	406 		695 	0 	
2010-09-03 20:14:21 	209 		595 	0 	
2010-09-03 20:15:14 	204 		345 	0 	
2010-09-03 20:15:56 	206 		345 	0 	
2010-09-03 20:17:47 	201 		345 	0 	
2010-09-03 20:18:09 	317 		395 	0 	
2010-09-03 20:24:17 	310 		323 	0 	
2010-09-03 20:24:40 	321 		316 	0 	
2010-09-03 20:26:10 	414 		645 	0 	
2010-09-03 20:26:24 	212 		595 	0 	
2010-09-03 20:26:40 	203 		345 	0 	
2010-09-03 20:29:48 	317 		30 	0 	
2010-09-03 20:30:17 	508 		750 	0 	
2010-09-03 20:31:30 	312 		395 	0 	
2010-09-03 20:35:09 	221 		395 	0 	
2010-09-03 20:35:19 	216 		595 	0 	
2010-09-03 20:42:54 	311 		275 	0 	
2010-09-03 20:44:22 	214 		275 	0 	
2010-09-03 20:47:20 	415 		695 	0 	
2010-09-03 20:51:31 	513 		800 	0 	
2010-09-03 20:52:10 	322 		50 	0 	
2010-09-03 20:55:24 	516 		500 	0 	
2010-09-03 20:56:35 	519 		800 	0 	
2010-09-03 20:59:09 	508 		255 	0 	
2010-09-03 20:59:44 	521 		450 	0 	
2010-09-03 21:00:06 	509 		450 	0 	
2010-09-03 21:02:10 	310 		275 	0 	
2010-09-03 21:03:23 	213 		330 	0 	
2010-09-03 21:04:01 	216 		20 	0 	
2010-09-03 21:08:31 	323 		10 	0 	
2010-09-03 21:11:19 	317 		695 	0 	
2010-09-03 21:14:13 	215 		645 	0 	
2010-09-03 21:21:17 	322 		395 	0 	
2010-09-03 21:21:35 	409 		395 	0 	
2010-09-03 21:25:08 	603 		1050 	0 	
2010-09-03 21:26:02 	218 		695 	0 	
2010-09-03 21:29:31 	415 		140 	0 	
2010-09-03 21:33:56 	506 		800 	0 	
2010-09-03 21:39:37 	420 		645 	0 	
2010-09-03 21:39:54 	422 		395 	0 	
2010-09-03 21:45:06 	201 		345 	0 	
2010-09-03 21:47:27 	304 		695 	0 	
2010-09-03 21:53:45 	220 		695 	0 	
2010-09-03 22:01:33 	303 		645 	0 	
2010-09-03 22:01:48 	403 		645 	0 	
2010-09-03 22:02:21 	321 		695 	0 	
2010-09-03 22:02:33 	404 		695 	0 	
2010-09-03 22:02:55 	313 		395 	0 	
2010-09-03 22:03:32 	208 		595 	0 	
2010-09-03 22:04:24 	407 		695 	0 	
2010-09-03 22:04:51 	207 		276 	0 	
2010-09-03 22:06:00 	401 		695 	0 	
2010-09-03 22:06:38 	418 		120 	0 	
2010-09-03 22:10:01 	514 		800 	0 	
2010-09-03 22:10:59 	517 		800 	0 	
2010-09-03 22:14:41 	512 		800 	0 	
2010-09-03 22:15:35 	305 		595 	0 	
2010-09-03 22:24:53 	501 		55 	0 	
2010-09-03 22:25:33 	408 		695 	0 	
2010-09-03 22:25:46 	412 		395 	0 	
2010-09-03 22:35:00 	309 		695 	0 	
2010-09-03 22:38:58 	423 		595 	0 	
2010-09-03 22:43:03 	522 		750 	0 	
2010-09-03 22:43:48 	316 		345 	0 	
2010-09-03 22:45:47 	318 		345 	0 	
2010-09-03 22:48:47 	416 		645 	0 	
2010-09-03 22:54:57 	308 		695 	0 	
2010-09-03 22:55:11 	518 		450 	0 	
2010-09-03 22:57:44 	419 		695 	0 	
2010-09-03 23:00:01 	522 		25 	0 	
2010-09-03 23:00:22 	517 		270 	0 	
2010-09-03 23:00:25 	517 		40 	0 	
2010-09-03 23:03:40 	308 		60 	0 	
2010-09-03 23:06:40 	422 		535 	0 	
2010-09-03 23:22:30 	314 		120 	0 	
2010-09-03 23:23:13 	212 		15 	0 	
2010-09-03 23:23:49 	219 		695 	0 	
2010-09-03 23:26:53 	213 		0 	645 	
2010-09-03 23:27:16 	221 		695 	0 	
2010-09-03 23:32:10 	312 		395 	0 	
2010-09-03 23:32:24 	210 		345 	0 	
2010-09-03 23:39:44 	307 		140 	0 	
2010-09-03 23:41:17 	211 		645 	0 	
2010-09-03 23:42:39 	206 		645 	0 	
2010-09-03 23:54:29 	317 		150 	0 	
2010-09-03 23:55:16 	314 		645 	0 	
 			Total:		75414 	1435		

=== RECHIT LIST ===

Room No. 504 	 Rechit Date: 2010-09-03 17:11:19




Room No. 501 	 Rechit Date: 2010-09-03 17:33:43



Food and Beverage Sales

		
 
Order Code# 1283576766910 	 09-03 22:24
		 Coffee w/ Cream 	 25.00
		 MILO (hot) 	 30.00
				 Sub Total:		 55.00 



Room No. 612 	 Rechit Date: 2010-09-03 21:25:24



Food and Beverage Sales

		
 
Order Code# 1283490234148 	 09-03 18:34
		 Cream of Asparagus 	 55.00
Order Code# 1283519522125 	 09-03 18:34
		 FREE TAPSILOG 	 0.00
				 Sub Total:		 55.00 






V1