MSHOGUN 1: SHIFT END REPORT
Thursday July 07, 2011 12:00:49 AM

SALES TRANSACTION
Room Sales Order			33745
FnB Sales Order			2350
Beer Sales Order			85
Misc Sales Order			45
Room Sales Adjustment			0
GROSS SALES			36225

DISCOUNT
Room				0
FnB				0
Misc				0

DEPOSIT				24980
REFUND				

TOTAL ACCOUNTABILITY			61205

CASH DECLARATION			9372
CARD				740
FUNDS SAFEKEEP			40000
TOTAL CASH DECLARED			50112

TOTAL CASH ON SYSTEM			9367
OVER/SHORTAGES 			5

ROOM	 # OF CHECK-OUT	AMT
Value 		18	5350
Regular 		21	8085
Classique 		50	20310
Premium 		0	0
Regent 		0	0
Queen 		0	0
Gemini 		0	0
Family 		0	0
Executive Suite 	0	0
Mega Suite 	0	0

DISCOUNT 
Value 			  
Regular 		  
Classique 		  
Premium 		  
Regent 			  
Queen 		  
Gemini 		  
Family 		  
Executive Suite 	  
Mega Suite 		  


=== RESERVATIONS ===

Deposits:


Claimed:



SECURITY DEPOSITS

Deposits:
Claimed:


=== SALES BREAKDOWN ===

Transaction Date	Room No.	Cash	Card

2011-07-06 16:12:03 	422 		395 	0 	
2011-07-06 16:12:21 	410 		275 	0 	
2011-07-06 16:12:30 	419 		395 	0 	
2011-07-06 16:12:40 	307 		395 	0 	
2011-07-06 16:13:03 	314 		345 	0 	
2011-07-06 16:13:15 	316 		465 	0 	
2011-07-06 16:13:24 	320 		345 	0 	
2011-07-06 16:14:24 	414 		585 	0 	
2011-07-06 16:14:40 	421 		395 	0 	
2011-07-06 16:18:00 	301 		395 	0 	
2011-07-06 16:30:10 	403 		345 	0 	
2011-07-06 16:45:42 	416 		276 	0 	
2011-07-06 16:48:02 	409 		325 	0 	
2011-07-06 16:53:13 	212 		275 	0 	
2011-07-06 17:13:32 	418 		345 	0 	
2011-07-06 17:20:01 	303 		345 	0 	
2011-07-06 17:26:03 	309 		395 	0 	
2011-07-06 17:30:44 	322 		535 	0 	
2011-07-06 17:30:58 	321 		395 	0 	
2011-07-06 17:34:30 	308 		0 	395 	
2011-07-06 17:35:06 	407 		316 	0 	
2011-07-06 17:41:17 	319 		395 	0 	
2011-07-06 17:52:45 	412 		316 	0 	
2011-07-06 17:54:03 	322 		170 	0 	
2011-07-06 17:54:59 	321 		10 	0 	
2011-07-06 17:55:12 	418 		15 	0 	
2011-07-06 17:57:22 	203 		345 	0 	
2011-07-06 17:57:31 	406 		395 	0 	
2011-07-06 18:01:48 	209 		275 	0 	
2011-07-06 18:03:47 	205 		345 	0 	
2011-07-06 18:04:18 	322 		130 	0 	
2011-07-06 18:17:31 	221 		395 	0 	
2011-07-06 18:17:48 	206 		585 	0 	
2011-07-06 18:17:59 	210 		345 	0 	
2011-07-06 18:18:55 	404 		695 	0 	
2011-07-06 18:19:04 	401 		395 	0 	
2011-07-06 18:19:16 	311 		275 	0 	
2011-07-06 18:19:29 	417 		695 	0 	
2011-07-06 18:20:30 	218 		316 	0 	
2011-07-06 18:23:24 	422 		395 	0 	
2011-07-06 18:35:19 	313 		395 	0 	
2011-07-06 18:36:24 	313 		50 	0 	
2011-07-06 18:40:36 	220 		395 	0 	
2011-07-06 18:40:47 	324 		275 	0 	
2011-07-06 18:51:38 	216 		275 	0 	
2011-07-06 18:51:48 	202 		345 	0 	
2011-07-06 18:51:59 	423 		275 	0 	
2011-07-06 18:52:57 	424 		275 	0 	
2011-07-06 18:53:07 	413 		395 	0 	
2011-07-06 18:53:17 	207 		345 	0 	
2011-07-06 18:53:27 	214 		275 	0 	
2011-07-06 18:53:42 	323 		275 	0 	
2011-07-06 18:55:46 	211 		0 	345 	
2011-07-06 18:56:10 	420 		645 	0 	
2011-07-06 18:59:13 	213 		345 	0 	
2011-07-06 19:00:10 	314 		345 	0 	
2011-07-06 19:04:57 	305 		595 	0 	
2011-07-06 19:06:45 	320 		345 	0 	
2011-07-06 19:11:48 	221 		50 	0 	
2011-07-06 19:11:59 	205 		150 	0 	
2011-07-06 19:12:10 	207 		60 	0 	
2011-07-06 19:12:26 	308 		500 	0 	
2011-07-06 19:14:13 	303 		645 	0 	
2011-07-06 19:21:43 	220 		190 	0 	
2011-07-06 19:21:55 	219 		395 	0 	
2011-07-06 19:26:41 	318 		345 	0 	
2011-07-06 19:29:27 	411 		595 	0 	
2011-07-06 19:29:37 	410 		275 	0 	
2011-07-06 19:29:52 	217 		275 	0 	
2011-07-06 19:47:44 	409 		316 	0 	
2011-07-06 19:50:01 	312 		395 	0 	
2011-07-06 19:52:39 	406 		695 	0 	
2011-07-06 19:55:18 	212 		595 	0 	
2011-07-06 20:06:04 	408 		695 	0 	
2011-07-06 20:09:19 	411 		10 	0 	
2011-07-06 20:16:25 	307 		395 	0 	
2011-07-06 20:34:00 	315 		695 	0 	
2011-07-06 20:39:44 	301 		395 	0 	
2011-07-06 20:42:46 	307 		85 	0 	
2011-07-06 20:43:32 	302 		695 	0 	
2011-07-06 20:44:52 	419 		695 	0 	
2011-07-06 20:46:17 	306 		395 	0 	
2011-07-06 20:48:20 	421 		695 	0 	
2011-07-06 21:01:17 	416 		645 	0 	
2011-07-06 21:01:51 	415 		395 	0 	
2011-07-06 21:06:06 	324 		275 	0 	
2011-07-06 21:06:16 	304 		695 	0 	
2011-07-06 21:06:35 	309 		395 	0 	
2011-07-06 21:06:50 	218 		695 	0 	
2011-07-06 21:09:02 	316 		120 	0 	
2011-07-06 21:17:16 	405 		595 	0 	
2011-07-06 21:26:15 	412 		395 	0 	
2011-07-06 21:27:02 	208 		575 	0 	
2011-07-06 21:30:50 	210 		276 	0 	
2011-07-06 21:37:51 	321 		395 	0 	
2011-07-06 21:38:04 	319 		695 	0 	
2011-07-06 21:38:14 	316 		645 	0 	
2011-07-06 21:38:25 	403 		645 	0 	
2011-07-06 21:43:15 	207 		345 	0 	
2011-07-06 21:43:35 	206 		345 	0 	
2011-07-06 21:51:56 	209 		270 	0 	
2011-07-06 21:58:37 	313 		395 	0 	
2011-07-06 21:59:29 	308 		316 	0 	
2011-07-06 22:03:35 	320 		705 	0 	
2011-07-06 22:04:57 	304 		285 	0 	
2011-07-06 22:06:45 	219 		205 	0 	
2011-07-06 22:15:34 	214 		275 	0 	
2011-07-06 22:17:17 	314 		345 	0 	
2011-07-06 22:17:41 	406 		40 	0 	
2011-07-06 22:20:10 	305 		135 	0 	
2011-07-06 22:21:32 	202 		345 	0 	
2011-07-06 22:23:39 	422 		695 	0 	
2011-07-06 22:34:30 	424 		275 	0 	
2011-07-06 22:43:50 	318 		645 	0 	
2011-07-06 22:52:46 	205 		155 	0 	
2011-07-06 22:52:46 	205 		345 	0 	
2011-07-06 22:55:12 	401 		395 	0 	
2011-07-06 22:56:34 	418 		645 	0 	
2011-07-06 23:04:27 	213 		645 	0 	
2011-07-06 23:22:27 	217 		595 	0 	
2011-07-06 23:23:52 	209 		275 	0 	
2011-07-06 23:30:53 	211 		645 	0 	
2011-07-06 23:34:02 	209 		160 	0 	
2011-07-06 23:35:18 	219 		695 	0 	
2011-07-06 23:46:34 	322 		395 	0 	
2011-07-06 23:46:41 	415 		695 	0 	
2011-07-06 23:50:38 	413 		695 	0 	
 			Total:		49522 	740		

=== RECHIT LIST ===




V1