MSHOGUN 1: SHIFT END REPORT
Friday October 21, 2011 3:58:13 PM

SALES TRANSACTION
Room Sales Order			26060
FnB Sales Order			2593
Beer Sales Order			0
Misc Sales Order			60
Room Sales Adjustment			0
GROSS SALES			28713

DISCOUNT
Room				0
FnB				0
Misc				0

DEPOSIT				10205
REFUND				

TOTAL ACCOUNTABILITY			38918

CASH DECLARATION			2559
CARD				0
FUNDS SAFEKEEP			20000
TOTAL CASH DECLARED			22559

TOTAL CASH ON SYSTEM			2549
OVER/SHORTAGES 			10

ROOM	 # OF CHECK-OUT	AMT
Value 		7	3485
Regular 		11	5355
Classique 		32	17220
Premium 		0	0
Regent 		0	0
Queen 		0	0
Gemini 		0	0
Family 		0	0
Executive Suite 	0	0
Mega Suite 	0	0

DISCOUNT 
Value 			  
Regular 		  
Classique 		  
Premium 		  
Regent 			  
Queen 		  
Gemini 		  
Family 		  
Executive Suite 	  
Mega Suite 		  


=== RESERVATIONS ===

Deposits:


Claimed:



SECURITY DEPOSITS

Deposits:
Claimed:


=== SALES BREAKDOWN ===

Transaction Date	Room No.	Cash	Card

2011-10-21 08:04:37 	208 		638 	0 	
2011-10-21 08:07:29 	309 		395 	0 	
2011-10-21 08:16:40 	307 		25 	0 	
2011-10-21 08:24:37 	411 		190 	0 	
2011-10-21 08:31:46 	312 		395 	0 	
2011-10-21 08:53:03 	320 		345 	0 	
2011-10-21 08:53:18 	319 		395 	0 	
2011-10-21 09:17:30 	317 		395 	0 	
2011-10-21 09:41:39 	416 		120 	0 	
2011-10-21 09:52:12 	419 		675 	0 	
2011-10-21 09:56:16 	219 		395 	0 	
2011-10-21 10:09:11 	321 		260 	0 	
2011-10-21 10:14:55 	218 		395 	0 	
2011-10-21 10:15:29 	218 		20 	0 	
2011-10-21 10:19:25 	301 		395 	0 	
2011-10-21 10:27:46 	206 		345 	0 	
2011-10-21 11:06:52 	310 		275 	0 	
2011-10-21 11:12:06 	422 		395 	0 	
2011-10-21 11:34:56 	401 		395 	0 	
2011-10-21 11:35:17 	401 		25 	0 	
2011-10-21 11:35:19 	401 		25 	0 	
2011-10-21 11:55:16 	304 		395 	0 	
2011-10-21 11:59:13 	302 		395 	0 	
2011-10-21 12:01:03 	307 		395 	0 	
2011-10-21 12:19:30 	305 		275 	0 	
2011-10-21 12:37:45 	417 		395 	0 	
2011-10-21 12:38:30 	303 		345 	0 	
2011-10-21 12:46:24 	320 		345 	0 	
2011-10-21 12:46:37 	207 		345 	0 	
2011-10-21 12:47:22 	207 		50 	0 	
2011-10-21 12:56:33 	317 		495 	0 	
2011-10-21 13:06:30 	321 		395 	0 	
2011-10-21 13:20:59 	320 		205 	0 	
2011-10-21 13:29:11 	203 		705 	0 	
2011-10-21 13:29:19 	315 		395 	0 	
2011-10-21 13:44:02 	205 		345 	0 	
2011-10-21 13:44:09 	319 		395 	0 	
2011-10-21 13:54:55 	301 		395 	0 	
2011-10-21 13:55:02 	221 		395 	0 	
2011-10-21 13:55:08 	415 		395 	0 	
2011-10-21 13:55:16 	419 		395 	0 	
2011-10-21 13:56:30 	417 		235 	0 	
2011-10-21 13:56:36 	221 		25 	0 	
2011-10-21 14:00:47 	203 		460 	0 	
2011-10-21 14:01:20 	212 		275 	0 	
2011-10-21 14:01:26 	413 		395 	0 	
2011-10-21 14:04:00 	216 		275 	0 	
2011-10-21 14:07:54 	201 		345 	0 	
2011-10-21 14:11:16 	412 		395 	0 	
2011-10-21 14:13:33 	218 		140 	0 	
2011-10-21 14:14:26 	322 		135 	0 	
2011-10-21 14:17:48 	409 		316 	0 	
2011-10-21 14:18:50 	407 		395 	0 	
2011-10-21 14:34:15 	201 		160 	0 	
2011-10-21 14:34:17 	201 		30 	0 	
2011-10-21 14:34:51 	311 		275 	0 	
2011-10-21 14:42:51 	307 		395 	0 	
2011-10-21 14:47:13 	318 		345 	0 	
2011-10-21 14:49:46 	306 		395 	0 	
2011-10-21 14:52:41 	319 		170 	0 	
2011-10-21 14:53:58 	308 		395 	0 	
2011-10-21 14:57:15 	302 		395 	0 	
2011-10-21 14:58:58 	304 		395 	0 	
2011-10-21 15:02:17 	409 		245 	0 	
2011-10-21 15:10:59 	322 		395 	0 	
2011-10-21 15:16:31 	422 		140 	0 	
2011-10-21 15:16:43 	323 		275 	0 	
2011-10-21 15:20:54 	309 		395 	0 	
2011-10-21 15:32:18 	203 		10 	0 	
2011-10-21 15:47:36 	312 		395 	0 	
2011-10-21 15:54:20 	307 		395 	0 	
 			Total:		22549 	0		

=== RECHIT LIST ===




V1