MSHOGUN 1: SHIFT END REPORT
Saturday July 17, 2010 12:02:55 AM

SALES TRANSACTION
Room Sales Order			45795
FnB Sales Order			2695
Beer Sales Order			515
Misc Sales Order			710
Room Sales Adjustment			0
GROSS SALES			49715

DISCOUNT
Room				0
FnB				0
Misc				0

DEPOSIT				58314
REFUND				

TOTAL ACCOUNTABILITY			108029

CASH DECLARATION			1329
CARD				0
FUNDS SAFEKEEP			90000
TOTAL CASH DECLARED			91329

TOTAL CASH ON SYSTEM			964
OVER/SHORTAGES 			365

ROOM	 # OF CHECK-OUT	AMT
Value 		8	2200
Regular 		28	10620
Classique 		63	25725
Premium 		1	600
Regent 		3	2400
Queen 		4	4250
Gemini 		0	0
Family 		0	0
Executive Suite 	0	0
Mega Suite 	0	0

DISCOUNT 
Value 			  
Regular 		  
Classique 		  
Premium 		  
Regent 			  
Queen 		  
Gemini 		  
Family 		  
Executive Suite 	  
Mega Suite 		  


=== RESERVATIONS ===

Deposits:


Claimed:



SECURITY DEPOSITS

Deposits:
Claimed:


=== SALES BREAKDOWN ===

Transaction Date	Room No.	Cash	Card

2010-07-16 16:06:42 	317 		395 	0 	
2010-07-16 16:07:17 	503 		800 	0 	
2010-07-16 16:08:16 	220 		395 	0 	
2010-07-16 16:10:26 	302 		395 	0 	
2010-07-16 16:12:57 	322 		395 	0 	
2010-07-16 16:16:59 	611 		2100 	0 	
2010-07-16 16:19:06 	306 		395 	0 	
2010-07-16 16:19:25 	213 		345 	0 	
2010-07-16 16:24:11 	615 		155 	0 	
2010-07-16 16:26:17 	314 		345 	0 	
2010-07-16 16:26:47 	210 		276 	0 	
2010-07-16 16:30:38 	301 		395 	0 	
2010-07-16 16:35:54 	402 		275 	0 	
2010-07-16 16:44:00 	309 		395 	0 	
2010-07-16 16:59:31 	307 		395 	0 	
2010-07-16 17:04:55 	401 		395 	0 	
2010-07-16 17:09:01 	321 		395 	0 	
2010-07-16 17:17:03 	318 		465 	0 	
2010-07-16 17:25:49 	412 		395 	0 	
2010-07-16 17:26:49 	409 		395 	0 	
2010-07-16 17:31:00 	502 		800 	0 	
2010-07-16 17:31:13 	404 		395 	0 	
2010-07-16 17:31:23 	209 		275 	0 	
2010-07-16 17:32:22 	207 		345 	0 	
2010-07-16 17:32:59 	209 		10 	0 	
2010-07-16 17:33:27 	413 		395 	0 	
2010-07-16 17:35:37 	518 		150 	0 	
2010-07-16 17:42:46 	215 		465 	0 	
2010-07-16 17:43:42 	407 		395 	0 	
2010-07-16 17:48:32 	417 		395 	0 	
2010-07-16 17:49:14 	419 		395 	0 	
2010-07-16 17:51:12 	215 		20 	0 	
2010-07-16 17:55:06 	421 		395 	0 	
2010-07-16 18:01:47 	214 		275 	0 	
2010-07-16 18:02:00 	208 		275 	0 	
2010-07-16 18:03:10 	311 		275 	0 	
2010-07-16 18:04:28 	308 		395 	0 	
2010-07-16 18:13:13 	321 		60 	0 	
2010-07-16 18:16:25 	415 		395 	0 	
2010-07-16 18:18:29 	422 		395 	0 	
2010-07-16 18:19:54 	203 		345 	0 	
2010-07-16 18:21:42 	219 		395 	0 	
2010-07-16 18:22:34 	204 		345 	0 	
2010-07-16 18:25:06 	315 		395 	0 	
2010-07-16 18:28:23 	306 		395 	0 	
2010-07-16 18:34:04 	310 		275 	0 	
2010-07-16 18:35:18 	321 		835 	0 	
2010-07-16 18:40:44 	205 		345 	0 	
2010-07-16 18:45:27 	309 		316 	0 	
2010-07-16 18:47:10 	322 		395 	0 	
2010-07-16 18:51:00 	406 		395 	0 	
2010-07-16 18:51:36 	319 		395 	0 	
2010-07-16 18:53:07 	206 		345 	0 	
2010-07-16 18:54:15 	514 		800 	0 	
2010-07-16 18:55:51 	322 		10 	0 	
2010-07-16 18:57:18 	313 		395 	0 	
2010-07-16 18:58:27 	513 		1600 	0 	
2010-07-16 18:59:40 	303 		465 	0 	
2010-07-16 19:00:28 	220 		395 	0 	
2010-07-16 19:01:24 	405 		595 	0 	
2010-07-16 19:04:54 	218 		395 	0 	
2010-07-16 19:08:33 	324 		275 	0 	
2010-07-16 19:08:42 	304 		395 	0 	
2010-07-16 19:09:32 	218 		100 	0 	
2010-07-16 19:10:35 	616 		135 	0 	
2010-07-16 19:11:36 	317 		395 	0 	
2010-07-16 19:14:51 	308 		395 	0 	
2010-07-16 19:16:23 	215 		220 	0 	
2010-07-16 19:17:13 	302 		695 	0 	
2010-07-16 19:23:45 	301 		395 	0 	
2010-07-16 19:24:21 	602 		1100 	0 	
2010-07-16 19:25:09 	405 		10 	0 	
2010-07-16 19:25:55 	202 		345 	0 	
2010-07-16 19:29:22 	211 		345 	0 	
2010-07-16 19:31:35 	218 		445 	0 	
2010-07-16 19:32:43 	412 		395 	0 	
2010-07-16 19:33:35 	213 		345 	0 	
2010-07-16 19:35:50 	201 		345 	0 	
2010-07-16 19:39:42 	414 		345 	0 	
2010-07-16 19:40:06 	302 		205 	0 	
2010-07-16 19:40:40 	505 		1600 	0 	
2010-07-16 19:44:26 	403 		345 	0 	
2010-07-16 19:44:40 	410 		595 	0 	
2010-07-16 19:45:36 	316 		345 	0 	
2010-07-16 19:47:30 	411 		595 	0 	
2010-07-16 19:47:45 	416 		645 	0 	
2010-07-16 19:48:24 	320 		345 	0 	
2010-07-16 19:49:07 	420 		645 	0 	
2010-07-16 19:50:40 	401 		395 	0 	
2010-07-16 19:53:42 	506 		800 	0 	
2010-07-16 19:55:20 	607 		30 	0 	
2010-07-16 19:55:41 	501 		800 	0 	
2010-07-16 19:59:16 	307 		316 	0 	
2010-07-16 20:00:03 	419 		695 	0 	
2010-07-16 20:02:14 	520 		750 	0 	
2010-07-16 20:05:14 	418 		645 	0 	
2010-07-16 20:05:48 	221 		395 	0 	
2010-07-16 20:07:50 	408 		695 	0 	
2010-07-16 20:11:48 	404 		395 	0 	
2010-07-16 20:12:41 	407 		695 	0 	
2010-07-16 20:13:00 	402 		395 	0 	
2010-07-16 20:15:01 	212 		595 	0 	
2010-07-16 20:15:15 	305 		595 	0 	
2010-07-16 20:16:20 	415 		695 	0 	
2010-07-16 20:25:07 	610 		1000 	0 	
2010-07-16 20:27:52 	409 		395 	0 	
2010-07-16 20:28:06 	221 		135 	0 	
2010-07-16 20:29:37 	208 		595 	0 	
2010-07-16 20:30:04 	216 		475 	0 	
2010-07-16 20:31:58 	323 		595 	0 	
2010-07-16 20:34:19 	406 		395 	0 	
2010-07-16 20:34:30 	414 		645 	0 	
2010-07-16 20:34:54 	210 		345 	0 	
2010-07-16 20:36:43 	422 		695 	0 	
2010-07-16 20:39:02 	207 		345 	0 	
2010-07-16 20:39:33 	314 		345 	0 	
2010-07-16 20:40:25 	511 		800 	0 	
2010-07-16 20:40:48 	209 		275 	0 	
2010-07-16 20:45:10 	212 		25 	0 	
2010-07-16 20:46:30 	213 		90 	0 	
2010-07-16 20:46:56 	503 		320 	0 	
2010-07-16 20:47:22 	605 		258 	0 	
2010-07-16 20:48:08 	609 		140 	0 	
2010-07-16 20:52:49 	421 		395 	0 	
2010-07-16 20:53:02 	309 		395 	0 	
2010-07-16 20:53:22 	403 		20 	0 	
2010-07-16 20:57:45 	501 		320 	0 	
2010-07-16 20:57:47 	501 		10 	0 	
2010-07-16 20:57:56 	418 		10 	0 	
2010-07-16 20:58:46 	303 		275 	0 	
2010-07-16 20:59:27 	319 		395 	0 	
2010-07-16 21:01:30 	413 		695 	0 	
2010-07-16 21:03:34 	218 		316 	0 	
2010-07-16 21:04:23 	515 		800 	0 	
2010-07-16 21:04:45 	218 		20 	0 	
2010-07-16 21:05:25 	412 		695 	0 	
2010-07-16 21:06:01 	317 		695 	0 	
2010-07-16 21:08:00 	313 		316 	0 	
2010-07-16 21:08:46 	516 		800 	0 	
2010-07-16 21:11:25 	216 		16 	0 	
2010-07-16 21:11:28 	216 		140 	0 	
2010-07-16 21:11:30 	216 		350 	0 	
2010-07-16 21:11:56 	403 		345 	0 	
2010-07-16 21:15:35 	318 		345 	0 	
2010-07-16 21:19:22 	301 		50 	0 	
2010-07-16 21:21:04 	519 		0 	1600 	
2010-07-16 21:26:52 	518 		750 	0 	
2010-07-16 21:27:03 	204 		345 	0 	
2010-07-16 21:27:17 	322 		395 	0 	
2010-07-16 21:28:26 	308 		395 	0 	
2010-07-16 21:31:46 	311 		275 	0 	
2010-07-16 21:32:00 	424 		275 	0 	
2010-07-16 21:32:21 	417 		695 	0 	
2010-07-16 21:34:07 	423 		595 	0 	
2010-07-16 21:35:21 	206 		645 	0 	
2010-07-16 21:37:26 	306 		695 	0 	
2010-07-16 21:38:19 	315 		695 	0 	
2010-07-16 21:39:06 	321 		10 	0 	
2010-07-16 21:39:16 	421 		20 	0 	
2010-07-16 21:40:09 	523 		750 	0 	
2010-07-16 21:43:22 	203 		345 	0 	
2010-07-16 21:49:08 	312 		695 	0 	
2010-07-16 21:50:42 	608 		850 	0 	
2010-07-16 21:50:57 	219 		695 	0 	
2010-07-16 21:51:45 	201 		345 	0 	
2010-07-16 21:53:24 	205 		345 	0 	
2010-07-16 21:53:42 	304 		695 	0 	
2010-07-16 21:57:21 	321 		25 	0 	
2010-07-16 22:05:07 	508 		750 	0 	
2010-07-16 22:05:48 	310 		275 	0 	
2010-07-16 22:06:11 	402 		695 	0 	
2010-07-16 22:08:46 	221 		0 	695 	
2010-07-16 22:09:53 	522 		750 	0 	
2010-07-16 22:10:04 	320 		345 	0 	
2010-07-16 22:12:15 	409 		150 	0 	
2010-07-16 22:13:32 	301 		385 	0 	
2010-07-16 22:14:55 	214 		275 	0 	
2010-07-16 22:15:11 	315 		80 	0 	
2010-07-16 22:15:13 	315 		140 	0 	
2010-07-16 22:15:27 	404 		15 	0 	
2010-07-16 22:16:05 	502 		25 	0 	
2010-07-16 22:17:32 	509 		750 	0 	
2010-07-16 22:21:29 	324 		210 	0 	
2010-07-16 22:23:09 	213 		345 	0 	
2010-07-16 22:24:23 	202 		645 	0 	
2010-07-16 22:25:44 	521 		750 	0 	
2010-07-16 22:28:19 	615 		850 	0 	
2010-07-16 22:29:26 	402 		210 	0 	
2010-07-16 22:29:28 	402 		40 	0 	
2010-07-16 22:30:11 	616 		850 	0 	
2010-07-16 22:32:24 	406 		395 	0 	
2010-07-16 22:42:35 	409 		80 	0 	
2010-07-16 22:44:14 	324 		595 	0 	
2010-07-16 22:48:09 	504 		110 	0 	
2010-07-16 22:52:31 	215 		120 	0 	
2010-07-16 23:04:17 	404 		395 	0 	
2010-07-16 23:07:52 	409 		695 	0 	
2010-07-16 23:19:43 	522 		140 	0 	
2010-07-16 23:19:54 	423 		270 	0 	
2010-07-16 23:19:58 	423 		8 	0 	
2010-07-16 23:20:57 	617 		850 	0 	
2010-07-16 23:21:07 	307 		395 	0 	
2010-07-16 23:25:33 	Lobby 		40 	0 	
2010-07-16 23:28:47 	423 		30 	0 	
2010-07-16 23:31:46 	303 		645 	0 	
2010-07-16 23:32:00 	319 		695 	0 	
2010-07-16 23:36:29 	401 		695 	0 	
2010-07-16 23:39:12 	318 		645 	0 	
2010-07-16 23:45:13 	211 		120 	0 	
2010-07-16 23:46:35 	316 		645 	0 	
2010-07-16 23:49:33 	218 		695 	0 	
2010-07-16 23:49:48 	220 		395 	0 	
2010-07-16 23:50:58 	210 		345 	0 	
2010-07-16 23:52:40 	307 		67 	0 	
2010-07-16 23:54:02 	207 		345 	0 	
2010-07-16 23:54:41 	309 		395 	0 	
2010-07-16 23:57:19 	203 		30 	0 	
 			Total:		90914 	2295		

=== RECHIT LIST ===

Room No. 513 	 Rechit Date: 2010-07-16 21:25:52







V1