MSHOGUN 1: SHIFT END REPORT
Monday March 28, 2011 12:00:07 AM

SALES TRANSACTION
Room Sales Order			38920
FnB Sales Order			1840
Beer Sales Order			270
Misc Sales Order			0
Room Sales Adjustment			-345
GROSS SALES			40685

DISCOUNT
Room				0
FnB				0
Misc				0

DEPOSIT				27770
REFUND				

TOTAL ACCOUNTABILITY			68455

CASH DECLARATION			8315
CARD				395
FUNDS SAFEKEEP			40000
TOTAL CASH DECLARED			48710

TOTAL CASH ON SYSTEM			12492
OVER/SHORTAGES 			-4177

ROOM	 # OF CHECK-OUT	AMT
Value 		4	1700
Regular 		27	11475
Classique 		63	25745
Premium 		0	0
Regent 		0	0
Queen 		0	0
Gemini 		0	0
Family 		0	0
Executive Suite 	0	0
Mega Suite 	0	0

DISCOUNT 
Value 			  
Regular 		  
Classique 		  
Premium 		  
Regent 			  
Queen 		  
Gemini 		  
Family 		  
Executive Suite 	  
Mega Suite 		  


=== RESERVATIONS ===

Deposits:


Claimed:



SECURITY DEPOSITS

Deposits:
Claimed:


=== SALES BREAKDOWN ===

Transaction Date	Room No.	Cash	Card

2011-03-27 16:09:45 	402 		50 	0 	
2011-03-27 16:10:10 	218 		395 	0 	
2011-03-27 16:11:43 	302 		395 	0 	
2011-03-27 16:14:47 	417 		50 	0 	
2011-03-27 16:15:41 	206 		345 	0 	
2011-03-27 16:22:51 	210 		345 	0 	
2011-03-27 16:22:59 	201 		345 	0 	
2011-03-27 16:25:12 	219 		395 	0 	
2011-03-27 16:26:41 	315 		140 	0 	
2011-03-27 16:27:18 	322 		395 	0 	
2011-03-27 16:27:27 	402 		395 	0 	
2011-03-27 16:33:36 	406 		395 	0 	
2011-03-27 16:39:14 	324 		300 	0 	
2011-03-27 16:56:17 	421 		395 	0 	
2011-03-27 17:04:52 	215 		345 	0 	
2011-03-27 17:05:25 	401 		395 	0 	
2011-03-27 17:06:52 	408 		395 	0 	
2011-03-27 17:09:46 	316 		465 	0 	
2011-03-27 17:10:07 	419 		395 	0 	
2011-03-27 17:13:58 	422 		395 	0 	
2011-03-27 17:16:43 	417 		65 	0 	
2011-03-27 17:16:59 	315 		395 	0 	
2011-03-27 17:24:30 	215 		330 	0 	
2011-03-27 17:28:22 	321 		395 	0 	
2011-03-27 17:32:24 	413 		395 	0 	
2011-03-27 17:34:22 	211 		345 	0 	
2011-03-27 17:43:19 	213 		345 	0 	
2011-03-27 17:45:08 	415 		316 	0 	
2011-03-27 17:58:52 	306 		395 	0 	
2011-03-27 18:00:45 	317 		395 	0 	
2011-03-27 18:11:01 	205 		345 	0 	
2011-03-27 18:16:29 	320 		585 	0 	
2011-03-27 18:16:50 	315 		695 	0 	
2011-03-27 18:16:59 	220 		395 	0 	
2011-03-27 18:20:32 	207 		345 	0 	
2011-03-27 18:22:23 	308 		395 	0 	
2011-03-27 18:31:17 	204 		345 	0 	
2011-03-27 18:32:04 	408 		0 	695 	
2011-03-27 18:34:11 	322 		395 	0 	
2011-03-27 18:34:25 	319 		695 	0 	
2011-03-27 18:37:10 	303 		345 	0 	
2011-03-27 18:38:10 	309 		395 	0 	
2011-03-27 18:41:01 	312 		535 	0 	
2011-03-27 18:42:44 	209 		275 	0 	
2011-03-27 18:45:45 	414 		345 	0 	
2011-03-27 18:48:10 	418 		120 	0 	
2011-03-27 19:02:03 	302 		316 	0 	
2011-03-27 19:09:34 	404 		695 	0 	
2011-03-27 19:10:06 	307 		395 	0 	
2011-03-27 19:11:52 	310 		0 	595 	
2011-03-27 19:13:39 	219 		395 	0 	
2011-03-27 19:17:19 	304 		395 	0 	
2011-03-27 19:17:29 	221 		395 	0 	
2011-03-27 19:19:40 	416 		645 	0 	
2011-03-27 19:21:18 	409 		395 	0 	
2011-03-27 19:22:02 	406 		695 	0 	
2011-03-27 19:26:39 	205 		345 	0 	
2011-03-27 19:26:48 	407 		695 	0 	
2011-03-27 19:27:42 	216 		365 	0 	
2011-03-27 19:35:22 	420 		645 	0 	
2011-03-27 19:37:19 	218 		395 	0 	
2011-03-27 19:48:31 	306 		395 	0 	
2011-03-27 19:48:41 	402 		395 	0 	
2011-03-27 20:05:50 	221 		140 	0 	
2011-03-27 20:08:54 	305 		595 	0 	
2011-03-27 20:12:06 	314 		465 	0 	
2011-03-27 20:12:15 	401 		395 	0 	
2011-03-27 20:15:16 	318 		645 	0 	
2011-03-27 20:16:31 	413 		395 	0 	
2011-03-27 20:29:47 	314 		230 	0 	
2011-03-27 20:29:58 	420 		420 	0 	
2011-03-27 20:37:46 	417 		695 	0 	
2011-03-27 20:39:56 	414 		-345 	0 	
2011-03-27 20:40:16 	418 		645 	0 	
2011-03-27 20:43:02 	414 		645 	0 	
2011-03-27 20:45:31 	403 		645 	0 	
2011-03-27 20:45:38 	421 		695 	0 	
2011-03-27 20:48:00 	419 		695 	0 	
2011-03-27 20:50:27 	321 		395 	0 	
2011-03-27 20:50:50 	317 		395 	0 	
2011-03-27 20:51:16 	318 		10 	0 	
2011-03-27 20:53:30 	217 		595 	0 	
2011-03-27 21:04:32 	413 		160 	0 	
2011-03-27 21:04:44 	410 		595 	0 	
2011-03-27 21:10:51 	419 		25 	0 	
2011-03-27 21:28:36 	402 		695 	0 	
2011-03-27 21:34:14 	303 		645 	0 	
2011-03-27 21:35:32 	321 		25 	0 	
2011-03-27 21:40:55 	205 		705 	0 	
2011-03-27 21:41:03 	220 		695 	0 	
2011-03-27 21:43:51 	415 		695 	0 	
2011-03-27 21:45:04 	309 		395 	0 	
2011-03-27 21:48:22 	303 		145 	0 	
2011-03-27 21:48:57 	301 		395 	0 	
2011-03-27 21:49:52 	206 		465 	0 	
2011-03-27 21:54:31 	422 		395 	0 	
2011-03-27 21:58:13 	306 		395 	0 	
2011-03-27 22:09:00 	308 		695 	0 	
2011-03-27 22:12:17 	207 		345 	0 	
2011-03-27 22:12:30 	307 		695 	0 	
2011-03-27 22:13:48 	219 		695 	0 	
2011-03-27 22:21:32 	219 		45 	0 	
2011-03-27 22:25:27 	218 		695 	0 	
2011-03-27 22:30:49 	312 		395 	0 	
2011-03-27 22:37:41 	203 		585 	0 	
2011-03-27 22:42:00 	215 		645 	0 	
2011-03-27 22:49:08 	402 		90 	0 	
2011-03-27 22:52:33 	302 		695 	0 	
2011-03-27 22:55:08 	314 		645 	0 	
2011-03-27 22:56:16 	221 		695 	0 	
2011-03-27 22:57:38 	304 		695 	0 	
2011-03-27 22:58:02 	215 		210 	0 	
2011-03-27 22:59:52 	316 		705 	0 	
2011-03-27 23:13:27 	401 		395 	0 	
2011-03-27 23:16:56 	213 		645 	0 	
2011-03-27 23:25:25 	211 		585 	0 	
2011-03-27 23:28:13 	214 		595 	0 	
2011-03-27 23:34:31 	302 		180 	0 	
2011-03-27 23:35:10 	418 		205 	0 	
2011-03-27 23:35:32 	317 		695 	0 	
2011-03-27 23:37:53 	320 		585 	0 	
2011-03-27 23:39:56 	207 		40 	0 	
2011-03-27 23:50:57 	312 		395 	0 	
2011-03-27 23:51:05 	208 		275 	0 	
2011-03-27 23:54:06 	202 		705 	0 	
 			Total:		52492 	1290		

=== RECHIT LIST ===




V1