MSHOGUN 1: SHIFT END REPORT
Saturday February 05, 2011 8:00:55 AM

SALES TRANSACTION
Room Sales Order			31610
FnB Sales Order			1528
Beer Sales Order			0
Misc Sales Order			0
Room Sales Adjustment			0
GROSS SALES			33138

DISCOUNT
Room				0
FnB				0
Misc				0

DEPOSIT				4535
REFUND				

TOTAL ACCOUNTABILITY			37673

CASH DECLARATION			3950
CARD				0
FUNDS SAFEKEEP			10000
TOTAL CASH DECLARED			13950

TOTAL CASH ON SYSTEM			3950
OVER/SHORTAGES 			0

ROOM	 # OF CHECK-OUT	AMT
Value 		15	7845
Regular 		12	6360
Classique 		31	17405
Premium 		0	0
Regent 		0	0
Queen 		0	0
Gemini 		0	0
Family 		0	0
Executive Suite 	0	0
Mega Suite 	0	0

DISCOUNT 
Value 			  
Regular 		  
Classique 		  
Premium 		  
Regent 			  
Queen 		  
Gemini 		  
Family 		  
Executive Suite 	  
Mega Suite 		  


=== RESERVATIONS ===

Deposits:


Claimed:



SECURITY DEPOSITS

Deposits:
Claimed:


=== SALES BREAKDOWN ===

Transaction Date	Room No.	Cash	Card

2011-02-05 00:10:58 	204 		20 	0 	
2011-02-05 00:17:20 	401 		675 	0 	
2011-02-05 00:28:33 	306 		50 	0 	
2011-02-05 00:31:53 	207 		345 	0 	
2011-02-05 00:33:13 	414 		645 	0 	
2011-02-05 00:36:44 	201 		345 	0 	
2011-02-05 00:42:25 	202 		345 	0 	
2011-02-05 00:51:28 	215 		465 	0 	
2011-02-05 00:57:06 	314 		0 	645 	
2011-02-05 00:57:32 	311 		275 	0 	
2011-02-05 01:00:47 	316 		180 	0 	
2011-02-05 01:00:57 	407 		110 	0 	
2011-02-05 01:01:06 	205 		210 	0 	
2011-02-05 01:01:48 	309 		140 	0 	
2011-02-05 01:11:52 	309 		395 	0 	
2011-02-05 01:19:18 	215 		190 	0 	
2011-02-05 01:35:10 	220 		175 	0 	
2011-02-05 01:38:42 	210 		465 	0 	
2011-02-05 01:39:09 	219 		535 	0 	
2011-02-05 01:42:01 	322 		395 	0 	
2011-02-05 02:04:41 	Lobby 		40 	0 	
2011-02-05 02:19:54 	312 		675 	0 	
2011-02-05 02:25:45 	301 		395 	0 	
2011-02-05 02:30:19 	221 		395 	0 	
2011-02-05 02:32:10 	412 		25 	0 	
2011-02-05 02:37:40 	306 		815 	0 	
2011-02-05 02:45:26 	409 		395 	0 	
2011-02-05 03:14:54 	419 		395 	0 	
2011-02-05 03:16:35 	311 		275 	0 	
2011-02-05 04:09:15 	423 		275 	0 	
2011-02-05 04:11:04 	201 		345 	0 	
2011-02-05 04:41:25 	309 		395 	0 	
2011-02-05 05:12:23 	310 		275 	0 	
2011-02-05 05:37:12 	322 		140 	0 	
2011-02-05 05:39:44 	202 		345 	0 	
2011-02-05 05:49:00 	215 		120 	0 	
2011-02-05 06:09:58 	207 		360 	0 	
2011-02-05 06:46:33 	301 		395 	0 	
2011-02-05 06:56:43 	412 		675 	0 	
2011-02-05 07:08:53 	209 		100 	0 	
2011-02-05 07:19:47 	203 		345 	0 	
2011-02-05 07:26:55 	420 		465 	0 	
2011-02-05 07:27:46 	210 		345 	0 	
 			Total:		13950 	645		

=== RECHIT LIST ===




V1