MSHOGUN 1: SHIFT END REPORT
Friday February 10, 2012 8:00:03 AM

SALES TRANSACTION
Room Sales Order			17225
FnB Sales Order			255
Beer Sales Order			0
Misc Sales Order			0
Room Sales Adjustment			0
GROSS SALES			17480

DISCOUNT
Room				0
FnB				0
Misc				0

DEPOSIT				1230
REFUND				

TOTAL ACCOUNTABILITY			18710

CASH DECLARATION			4156
CARD				1090
FUNDS SAFEKEEP			0
TOTAL CASH DECLARED			5246

TOTAL CASH ON SYSTEM			5156
OVER/SHORTAGES 			-1000

ROOM	 # OF CHECK-OUT	AMT
Value 		2	870
Regular 		11	6435
Classique 		16	9920
Premium 		0	0
Regent 		0	0
Queen 		0	0
Gemini 		0	0
Family 		0	0
Executive Suite 	0	0
Mega Suite 	0	0

DISCOUNT 
Value 			  
Regular 		  
Classique 		  
Premium 		  
Regent 			  
Queen 		  
Gemini 		  
Family 		  
Executive Suite 	  
Mega Suite 		  


=== RESERVATIONS ===

Deposits:


Claimed:



SECURITY DEPOSITS

Deposits:
Claimed:


=== SALES BREAKDOWN ===

Transaction Date	Room No.	Cash	Card

2012-02-10 00:17:45 	413 		90 	0 	
2012-02-10 00:30:53 	205 		585 	0 	
2012-02-10 00:36:08 	215 		276 	0 	
2012-02-10 00:40:30 	304 		695 	0 	
2012-02-10 00:56:11 	320 		645 	0 	
2012-02-10 01:00:34 	206 		705 	0 	
2012-02-10 01:15:44 	320 		110 	0 	
2012-02-10 02:27:42 	306 		395 	0 	
2012-02-10 03:19:02 	303 		345 	0 	
2012-02-10 04:23:35 	301 		395 	0 	
2012-02-10 04:57:11 	220 		30 	0 	
2012-02-10 05:12:28 	213 		120 	0 	
2012-02-10 05:34:22 	413 		25 	0 	
2012-02-10 07:24:05 	312 		395 	0 	
2012-02-10 07:48:10 	206 		345 	0 	
 			Total:		5156 	0		

=== RECHIT LIST ===




V1