MSHOGUN 1: SHIFT END REPORT
Monday February 27, 2012 4:00:05 PM

SALES TRANSACTION
Room Sales Order			28125
FnB Sales Order			2225
Beer Sales Order			100
Misc Sales Order			45
Room Sales Adjustment			0
GROSS SALES			30495

DISCOUNT
Room				0
FnB				0
Misc				0

DEPOSIT				7250
REFUND				

TOTAL ACCOUNTABILITY			37745

CASH DECLARATION			3773
CARD				0
FUNDS SAFEKEEP			20000
TOTAL CASH DECLARED			23773

TOTAL CASH ON SYSTEM			3768
OVER/SHORTAGES 			5

ROOM	 # OF CHECK-OUT	AMT
Value 		9	3835
Regular 		11	5115
Classique 		37	19175
Premium 		0	0
Regent 		0	0
Queen 		0	0
Gemini 		0	0
Family 		0	0
Executive Suite 	0	0
Mega Suite 	0	0

DISCOUNT 
Value 			  
Regular 		  
Classique 		  
Premium 		  
Regent 			  
Queen 		  
Gemini 		  
Family 		  
Executive Suite 	  
Mega Suite 		  


=== RESERVATIONS ===

Deposits:


Claimed:



SECURITY DEPOSITS

Deposits:
Claimed:


=== SALES BREAKDOWN ===

Transaction Date	Room No.	Cash	Card

2012-02-27 08:04:33 	412 		316 	0 	
2012-02-27 08:10:05 	301 		395 	0 	
2012-02-27 08:20:47 	409 		395 	0 	
2012-02-27 08:51:12 	415 		316 	0 	
2012-02-27 08:52:58 	219 		140 	0 	
2012-02-27 09:11:20 	306 		395 	0 	
2012-02-27 09:19:09 	310 		275 	0 	
2012-02-27 09:53:58 	304 		395 	0 	
2012-02-27 09:55:11 	305 		120 	0 	
2012-02-27 09:55:13 	305 		120 	0 	
2012-02-27 10:23:16 	209 		275 	0 	
2012-02-27 10:25:04 	313 		395 	0 	
2012-02-27 10:45:03 	317 		395 	0 	
2012-02-27 10:49:50 	321 		395 	0 	
2012-02-27 10:54:18 	422 		430 	0 	
2012-02-27 11:12:56 	206 		345 	0 	
2012-02-27 11:20:32 	202 		345 	0 	
2012-02-27 11:20:47 	204 		345 	0 	
2012-02-27 11:22:38 	408 		420 	0 	
2012-02-27 11:26:42 	406 		815 	0 	
2012-02-27 11:26:54 	418 		585 	0 	
2012-02-27 11:33:50 	208 		275 	0 	
2012-02-27 11:47:35 	407 		395 	0 	
2012-02-27 11:48:12 	322 		75 	0 	
2012-02-27 12:23:46 	306 		395 	0 	
2012-02-27 12:27:32 	309 		275 	0 	
2012-02-27 12:28:33 	308 		395 	0 	
2012-02-27 12:29:31 	309 		30 	0 	
2012-02-27 12:29:33 	309 		40 	0 	
2012-02-27 12:31:26 	312 		395 	0 	
2012-02-27 12:31:57 	218 		316 	0 	
2012-02-27 12:33:53 	313 		395 	0 	
2012-02-27 12:34:02 	303 		345 	0 	
2012-02-27 12:44:47 	308 		75 	0 	
2012-02-27 12:51:39 	203 		345 	0 	
2012-02-27 13:01:17 	303 		140 	0 	
2012-02-27 13:02:28 	315 		395 	0 	
2012-02-27 13:02:37 	215 		345 	0 	
2012-02-27 13:08:06 	309 		420 	0 	
2012-02-27 13:09:38 	310 		275 	0 	
2012-02-27 13:14:11 	319 		395 	0 	
2012-02-27 13:17:15 	409 		395 	0 	
2012-02-27 13:17:43 	418 		325 	0 	
2012-02-27 13:17:45 	418 		75 	0 	
2012-02-27 13:18:28 	408 		395 	0 	
2012-02-27 13:20:11 	421 		395 	0 	
2012-02-27 13:33:01 	211 		345 	0 	
2012-02-27 13:40:10 	317 		395 	0 	
2012-02-27 13:48:43 	322 		395 	0 	
2012-02-27 13:50:55 	412 		395 	0 	
2012-02-27 14:04:05 	415 		395 	0 	
2012-02-27 14:08:30 	301 		395 	0 	
2012-02-27 14:08:39 	422 		815 	0 	
2012-02-27 14:12:03 	316 		345 	0 	
2012-02-27 14:18:55 	407 		250 	0 	
2012-02-27 14:23:46 	401 		395 	0 	
2012-02-27 14:25:37 	421 		395 	0 	
2012-02-27 14:33:41 	305 		100 	0 	
2012-02-27 14:47:29 	309 		395 	0 	
2012-02-27 14:51:40 	202 		120 	0 	
2012-02-27 14:54:39 	313 		395 	0 	
2012-02-27 14:55:20 	213 		345 	0 	
2012-02-27 15:01:35 	220 		395 	0 	
2012-02-27 15:04:06 	221 		395 	0 	
2012-02-27 15:05:51 	212 		275 	0 	
2012-02-27 15:10:40 	420 		825 	0 	
2012-02-27 15:15:25 	210 		345 	0 	
2012-02-27 15:41:50 	204 		345 	0 	
2012-02-27 15:56:27 	319 		395 	0 	
 			Total:		23768 	0		

=== RECHIT LIST ===




V1