MSHOGUN 1: SHIFT END REPORT
Sunday July 03, 2011 8:00:13 AM

SALES TRANSACTION
Room Sales Order			25845
FnB Sales Order			1820
Beer Sales Order			380
Misc Sales Order			50
Room Sales Adjustment			0
GROSS SALES			28095

DISCOUNT
Room				0
FnB				0
Misc				0

DEPOSIT				8600
REFUND				

TOTAL ACCOUNTABILITY			36695

CASH DECLARATION			4310
CARD				695
FUNDS SAFEKEEP			10000
TOTAL CASH DECLARED			15005

TOTAL CASH ON SYSTEM			6835
OVER/SHORTAGES 			-2525

ROOM	 # OF CHECK-OUT	AMT
Value 		12	6780
Regular 		18	12810
Classique 		9	6255
Premium 		0	0
Regent 		0	0
Queen 		0	0
Gemini 		0	0
Family 		0	0
Executive Suite 	0	0
Mega Suite 	0	0

DISCOUNT 
Value 			  
Regular 		  
Classique 		  
Premium 		  
Regent 			  
Queen 		  
Gemini 		  
Family 		  
Executive Suite 	  
Mega Suite 		  


=== RESERVATIONS ===

Deposits:


Claimed:



SECURITY DEPOSITS

Deposits:
Claimed:


=== SALES BREAKDOWN ===

Transaction Date	Room No.	Cash	Card

2011-07-03 00:08:30 	302 		695 	0 	
2011-07-03 00:16:16 	415 		30 	0 	
2011-07-03 00:32:22 	420 		65 	0 	
2011-07-03 00:32:25 	420 		90 	0 	
2011-07-03 00:32:34 	420 		255 	0 	
2011-07-03 00:32:36 	420 		90 	0 	
2011-07-03 00:32:57 	420 		100 	0 	
2011-07-03 00:34:01 	323 		675 	0 	
2011-07-03 01:28:40 	211 		120 	0 	
2011-07-03 01:35:48 	211 		645 	0 	
2011-07-03 01:39:44 	420 		2530 	0 	
2011-07-03 01:43:08 	202 		345 	0 	
2011-07-03 02:22:01 	301 		695 	0 	
2011-07-03 02:38:09 	420 		585 	0 	
2011-07-03 02:38:24 	Lobby 		40 	0 	
2011-07-03 02:43:38 	209 		275 	0 	
2011-07-03 02:47:10 	309 		50 	0 	
2011-07-03 03:01:52 	409 		110 	0 	
2011-07-03 03:10:47 	210 		280 	0 	
2011-07-03 03:25:00 	210 		345 	0 	
2011-07-03 03:59:08 	424 		275 	0 	
2011-07-03 04:27:03 	401 		260 	0 	
2011-07-03 04:27:52 	202 		20 	0 	
2011-07-03 04:38:37 	318 		345 	0 	
2011-07-03 04:43:18 	202 		345 	0 	
2011-07-03 05:13:45 	404 		315 	0 	
2011-07-03 05:24:16 	418 		25 	0 	
2011-07-03 05:57:43 	215 		235 	0 	
2011-07-03 05:58:22 	310 		50 	0 	
2011-07-03 06:39:10 	404 		395 	0 	
2011-07-03 06:40:45 	418 		345 	0 	
2011-07-03 06:46:25 	307 		395 	0 	
2011-07-03 06:54:54 	408 		60 	0 	
2011-07-03 06:58:32 	324 		385 	0 	
2011-07-03 07:05:14 	410 		275 	0 	
2011-07-03 07:17:36 	408 		675 	0 	
2011-07-03 07:23:54 	419 		30 	0 	
2011-07-03 07:23:56 	419 		390 	0 	
2011-07-03 07:24:24 	316 		945 	0 	
2011-07-03 07:28:57 	323 		275 	0 	
2011-07-03 07:33:33 	414 		345 	0 	
2011-07-03 07:36:20 	216 		100 	0 	
2011-07-03 07:37:18 	420 		345 	0 	
2011-07-03 07:37:26 	201 		345 	0 	
2011-07-03 07:39:52 	320 		345 	0 	
2011-07-03 07:40:57 	206 		345 	0 	
2011-07-03 07:45:36 	403 		705 	0 	
2011-07-03 07:47:23 	208 		25 	0 	
2011-07-03 07:51:13 	416 		120 	0 	
2011-07-03 07:51:46 	405 		100 	0 	
 			Total:		16835 	0		

=== RECHIT LIST ===




V1