MSHOGUN 1: SHIFT END REPORT
Thursday December 09, 2010 4:00:08 PM

SALES TRANSACTION
Room Sales Order			21780
FnB Sales Order			1155
Beer Sales Order			0
Misc Sales Order			75
Room Sales Adjustment			0
GROSS SALES			23010

DISCOUNT
Room				0
FnB				0
Misc				0

DEPOSIT				10815
REFUND				

TOTAL ACCOUNTABILITY			33825

CASH DECLARATION			2747
CARD				1390
FUNDS SAFEKEEP			20000
TOTAL CASH DECLARED			24137

TOTAL CASH ON SYSTEM			2747
OVER/SHORTAGES 			0

ROOM	 # OF CHECK-OUT	AMT
Value 		10	4450
Regular 		8	3780
Classique 		26	13550
Premium 		0	0
Regent 		0	0
Queen 		0	0
Gemini 		0	0
Family 		0	0
Executive Suite 	0	0
Mega Suite 	0	0

DISCOUNT 
Value 			  
Regular 		  
Classique 		  
Premium 		  
Regent 			  
Queen 		  
Gemini 		  
Family 		  
Executive Suite 	  
Mega Suite 		  


=== RESERVATIONS ===

Deposits:


Claimed:



SECURITY DEPOSITS

Deposits:
Claimed:


=== SALES BREAKDOWN ===

Transaction Date	Room No.	Cash	Card

2010-12-09 08:32:16 	309 		140 	0 	
2010-12-09 08:54:36 	409 		260 	0 	
2010-12-09 08:55:38 	407 		140 	0 	
2010-12-09 09:16:59 	306 		395 	0 	
2010-12-09 09:23:30 	312 		395 	0 	
2010-12-09 09:23:36 	309 		395 	0 	
2010-12-09 10:07:47 	216 		100 	0 	
2010-12-09 10:13:11 	307 		395 	0 	
2010-12-09 10:19:22 	203 		705 	0 	
2010-12-09 10:19:52 	209 		275 	0 	
2010-12-09 10:26:23 	319 		395 	0 	
2010-12-09 10:47:52 	311 		275 	0 	
2010-12-09 11:29:03 	302 		395 	0 	
2010-12-09 11:31:02 	319 		50 	0 	
2010-12-09 11:33:59 	304 		290 	0 	
2010-12-09 11:42:04 	206 		345 	0 	
2010-12-09 11:52:35 	208 		275 	0 	
2010-12-09 11:53:37 	308 		395 	0 	
2010-12-09 11:59:32 	315 		395 	0 	
2010-12-09 12:05:45 	318 		585 	0 	
2010-12-09 12:09:10 	301 		316 	0 	
2010-12-09 12:11:32 	406 		395 	0 	
2010-12-09 12:12:02 	316 		345 	0 	
2010-12-09 12:12:10 	320 		345 	0 	
2010-12-09 12:18:16 	212 		275 	0 	
2010-12-09 12:54:44 	317 		395 	0 	
2010-12-09 13:07:58 	312 		395 	0 	
2010-12-09 13:08:09 	309 		395 	0 	
2010-12-09 13:09:27 	305 		275 	0 	
2010-12-09 13:15:16 	321 		395 	0 	
2010-12-09 13:23:23 	314 		705 	0 	
2010-12-09 13:24:40 	303 		465 	0 	
2010-12-09 13:29:12 	412 		395 	0 	
2010-12-09 13:29:35 	209 		275 	0 	
2010-12-09 13:30:32 	422 		395 	0 	
2010-12-09 13:37:23 	205 		345 	0 	
2010-12-09 13:42:35 	321 		275 	0 	
2010-12-09 13:51:34 	415 		395 	0 	
2010-12-09 14:06:07 	408 		395 	0 	
2010-12-09 14:09:03 	306 		395 	0 	
2010-12-09 14:12:05 	304 		395 	0 	
2010-12-09 14:16:52 	319 		316 	0 	
2010-12-09 14:18:26 	421 		395 	0 	
2010-12-09 14:37:05 	302 		395 	0 	
2010-12-09 14:45:28 	307 		535 	0 	
2010-12-09 14:46:05 	419 		395 	0 	
2010-12-09 15:07:04 	404 		395 	0 	
2010-12-09 15:08:21 	418 		345 	0 	
2010-12-09 15:09:35 	416 		345 	0 	
2010-12-09 15:10:39 	305 		275 	0 	
2010-12-09 15:14:15 	212 		275 	0 	
2010-12-09 15:21:20 	409 		395 	0 	
2010-12-09 15:29:55 	407 		395 	0 	
2010-12-09 15:31:02 	413 		395 	0 	
2010-12-09 15:35:52 	412 		535 	0 	
2010-12-09 15:37:44 	314 		100 	0 	
2010-12-09 15:39:09 	313 		395 	0 	
2010-12-09 15:40:26 	403 		345 	0 	
2010-12-09 15:45:15 	309 		210 	0 	
2010-12-09 15:46:08 	318 		140 	0 	
2010-12-09 15:46:47 	315 		395 	0 	
2010-12-09 15:50:01 	414 		585 	0 	
2010-12-09 15:53:05 	311 		275 	0 	
2010-12-09 15:56:37 	316 		345 	0 	
 			Total:		22747 	0		

=== RECHIT LIST ===




V1