MSHOGUN 1: SHIFT END REPORT
Thursday February 16, 2012 4:00:02 PM

SALES TRANSACTION
Room Sales Order			33855
FnB Sales Order			3650
Beer Sales Order			895
Misc Sales Order			40
Room Sales Adjustment			0
GROSS SALES			38440

DISCOUNT
Room				0
FnB				0
Misc				0

DEPOSIT				10575
REFUND				

TOTAL ACCOUNTABILITY			49015

CASH DECLARATION			6826
CARD				2120
FUNDS SAFEKEEP			20000
TOTAL CASH DECLARED			28946

TOTAL CASH ON SYSTEM			6550
OVER/SHORTAGES 			276

ROOM	 # OF CHECK-OUT	AMT
Value 		10	4350
Regular 		15	9195
Classique 		34	20310
Premium 		0	0
Regent 		0	0
Queen 		0	0
Gemini 		0	0
Family 		0	0
Executive Suite 	0	0
Mega Suite 	0	0

DISCOUNT 
Value 			  
Regular 		  
Classique 		  
Premium 		  
Regent 			  
Queen 		  
Gemini 		  
Family 		  
Executive Suite 	  
Mega Suite 		  


=== RESERVATIONS ===

Deposits:


Claimed:



SECURITY DEPOSITS

Deposits:
Claimed:


=== SALES BREAKDOWN ===

Transaction Date	Room No.	Cash	Card

2012-02-16 08:04:46 	306 		395 	0 	
2012-02-16 08:21:38 	207 		345 	0 	
2012-02-16 08:32:29 	308 		280 	0 	
2012-02-16 08:52:51 	301 		25 	0 	
2012-02-16 08:59:56 	218 		395 	0 	
2012-02-16 09:15:52 	415 		280 	0 	
2012-02-16 09:18:44 	315 		395 	0 	
2012-02-16 09:26:09 	309 		395 	0 	
2012-02-16 09:29:03 	315 		50 	0 	
2012-02-16 09:42:21 	203 		585 	0 	
2012-02-16 09:43:25 	211 		705 	0 	
2012-02-16 09:51:31 	417 		420 	0 	
2012-02-16 09:53:31 	401 		420 	0 	
2012-02-16 09:57:43 	312 		380 	0 	
2012-02-16 10:07:10 	317 		395 	0 	
2012-02-16 10:21:39 	306 		395 	0 	
2012-02-16 10:21:45 	208 		275 	0 	
2012-02-16 10:43:52 	215 		585 	0 	
2012-02-16 10:49:10 	304 		395 	0 	
2012-02-16 11:22:25 	213 		345 	0 	
2012-02-16 11:29:46 	416 		705 	0 	
2012-02-16 11:29:55 	313 		395 	0 	
2012-02-16 11:33:34 	220 		395 	0 	
2012-02-16 11:43:18 	201 		50 	0 	
2012-02-16 11:47:36 	213 		50 	0 	
2012-02-16 11:50:03 	311 		275 	0 	
2012-02-16 11:56:11 	321 		535 	0 	
2012-02-16 12:08:27 	301 		395 	0 	
2012-02-16 12:08:38 	206 		360 	0 	
2012-02-16 12:23:53 	319 		395 	0 	
2012-02-16 12:24:16 	304 		205 	0 	
2012-02-16 12:25:54 	418 		276 	0 	
2012-02-16 12:41:08 	Lobby 		120 	0 	
2012-02-16 12:41:37 	214 		275 	0 	
2012-02-16 12:48:52 	314 		705 	0 	
2012-02-16 12:53:41 	419 		395 	0 	
2012-02-16 12:55:08 	422 		395 	0 	
2012-02-16 13:11:59 	404 		395 	0 	
2012-02-16 13:23:58 	417 		395 	0 	
2012-02-16 13:25:10 	211 		675 	0 	
2012-02-16 13:26:23 	310 		275 	0 	
2012-02-16 13:28:47 	402 		395 	0 	
2012-02-16 13:32:11 	208 		275 	0 	
2012-02-16 13:35:59 	417 		25 	0 	
2012-02-16 13:41:21 	406 		395 	0 	
2012-02-16 13:53:11 	316 		360 	0 	
2012-02-16 13:59:55 	203 		335 	0 	
2012-02-16 14:00:10 	307 		420 	0 	
2012-02-16 14:09:21 	213 		705 	0 	
2012-02-16 14:24:33 	209 		275 	0 	
2012-02-16 14:27:47 	210 		345 	0 	
2012-02-16 14:32:23 	205 		276 	0 	
2012-02-16 14:40:54 	302 		395 	0 	
2012-02-16 14:46:29 	407 		316 	0 	
2012-02-16 14:46:47 	409 		395 	0 	
2012-02-16 14:50:02 	320 		345 	0 	
2012-02-16 14:50:55 	320 		30 	0 	
2012-02-16 14:57:42 	313 		395 	0 	
2012-02-16 14:57:48 	218 		395 	0 	
2012-02-16 14:58:05 	317 		395 	0 	
2012-02-16 15:01:27 	204 		345 	0 	
2012-02-16 15:11:29 	308 		395 	0 	
2012-02-16 15:19:05 	315 		815 	0 	
2012-02-16 15:25:28 	312 		316 	0 	
2012-02-16 15:28:28 	309 		395 	0 	
2012-02-16 15:33:21 	304 		395 	0 	
2012-02-16 15:43:37 	306 		395 	0 	
2012-02-16 15:44:29 	307 		395 	0 	
2012-02-16 15:47:43 	301 		316 	0 	
2012-02-16 15:49:16 	321 		395 	0 	
2012-02-16 15:51:44 	415 		395 	0 	
2012-02-16 15:55:24 	404 		395 	0 	
 			Total:		26550 	0		

=== RECHIT LIST ===




V1