MSHOGUN 1: SHIFT END REPORT
Tuesday December 27, 2011 8:00:04 AM

SALES TRANSACTION
Room Sales Order			30115
FnB Sales Order			1415
Beer Sales Order			585
Misc Sales Order			100
Room Sales Adjustment			0
GROSS SALES			32215

DISCOUNT
Room				0
FnB				0
Misc				0

DEPOSIT				4455
REFUND				

TOTAL ACCOUNTABILITY			36670

CASH DECLARATION			5195
CARD				0
FUNDS SAFEKEEP			10000
TOTAL CASH DECLARED			15195

TOTAL CASH ON SYSTEM			5195
OVER/SHORTAGES 			0

ROOM	 # OF CHECK-OUT	AMT
Value 		15	7425
Regular 		15	8475
Classique 		25	14215
Premium 		0	0
Regent 		0	0
Queen 		0	0
Gemini 		0	0
Family 		0	0
Executive Suite 	0	0
Mega Suite 	0	0

DISCOUNT 
Value 			  
Regular 		  
Classique 		  
Premium 		  
Regent 			  
Queen 		  
Gemini 		  
Family 		  
Executive Suite 	  
Mega Suite 		  


=== RESERVATIONS ===

Deposits:


Claimed:



SECURITY DEPOSITS

Deposits:
Claimed:


=== SALES BREAKDOWN ===

Transaction Date	Room No.	Cash	Card

2011-12-27 00:05:05 	401 		395 	0 	
2011-12-27 00:06:44 	312 		395 	0 	
2011-12-27 00:19:10 	311 		575 	0 	
2011-12-27 00:20:41 	210 		345 	0 	
2011-12-27 00:31:11 	302 		395 	0 	
2011-12-27 00:41:54 	208 		275 	0 	
2011-12-27 00:52:24 	217 		575 	0 	
2011-12-27 00:53:11 	424 		575 	0 	
2011-12-27 00:53:53 	201 		15 	0 	
2011-12-27 00:54:26 	208 		25 	0 	
2011-12-27 00:57:36 	203 		645 	0 	
2011-12-27 01:11:18 	207 		705 	0 	
2011-12-27 01:13:41 	410 		50 	0 	
2011-12-27 01:20:49 	206 		360 	0 	
2011-12-27 01:29:34 	206 		345 	0 	
2011-12-27 01:41:33 	307 		395 	0 	
2011-12-27 01:44:30 	209 		275 	0 	
2011-12-27 01:44:56 	209 		25 	0 	
2011-12-27 02:12:43 	309 		135 	0 	
2011-12-27 02:20:42 	401 		395 	0 	
2011-12-27 02:50:00 	314 		645 	0 	
2011-12-27 03:12:22 	216 		575 	0 	
2011-12-27 03:14:50 	309 		395 	0 	
2011-12-27 03:20:53 	210 		705 	0 	
2011-12-27 03:31:19 	209 		575 	0 	
2011-12-27 04:19:58 	302 		395 	0 	
2011-12-27 04:23:05 	306 		395 	0 	
2011-12-27 05:04:57 	206 		345 	0 	
2011-12-27 05:19:30 	208 		275 	0 	
2011-12-27 05:58:42 	209 		50 	0 	
2011-12-27 06:05:47 	204 		345 	0 	
2011-12-27 06:31:59 	402 		675 	0 	
2011-12-27 06:35:59 	423 		25 	0 	
2011-12-27 07:08:49 	309 		140 	0 	
2011-12-27 07:14:57 	416 		210 	0 	
2011-12-27 07:17:39 	307 		1655 	0 	
2011-12-27 07:29:23 	408 		395 	0 	
2011-12-27 07:46:25 	401 		395 	0 	
2011-12-27 07:51:14 	412 		100 	0 	
 			Total:		15195 	0		

=== RECHIT LIST ===




V1