MSHOGUN 1: SHIFT END REPORT
Thursday September 02, 2010 4:01:15 PM

SALES TRANSACTION
Room Sales Order			21930
FnB Sales Order			1040
Beer Sales Order			0
Misc Sales Order			30
Room Sales Adjustment			0
GROSS SALES			23000

DISCOUNT
Room				0
FnB				0
Misc				0

DEPOSIT				10945
REFUND				

TOTAL ACCOUNTABILITY			33945

CASH DECLARATION			2320
CARD				0
FUNDS SAFEKEEP			20000
TOTAL CASH DECLARED			22320

TOTAL CASH ON SYSTEM			2320
OVER/SHORTAGES 			0

ROOM	 # OF CHECK-OUT	AMT
Value 		6	1970
Regular 		9	3705
Classique 		28	14480
Premium 		0	0
Regent 		2	1775
Queen 		0	0
Gemini 		0	0
Family 		0	0
Executive Suite 	0	0
Mega Suite 	0	0

DISCOUNT 
Value 			  
Regular 		  
Classique 		  
Premium 		  
Regent 			  
Queen 		  
Gemini 		  
Family 		  
Executive Suite 	  
Mega Suite 		  


=== RESERVATIONS ===

Deposits:


Claimed:



SECURITY DEPOSITS

Deposits:
Claimed:


=== SALES BREAKDOWN ===

Transaction Date	Room No.	Cash	Card

2010-09-02 08:04:54 	417 		205 	0 	
2010-09-02 08:09:43 	418 		345 	0 	
2010-09-02 08:26:19 	312 		395 	0 	
2010-09-02 09:19:28 	416 		345 	0 	
2010-09-02 09:27:42 	407 		395 	0 	
2010-09-02 09:27:52 	310 		275 	0 	
2010-09-02 09:29:02 	412 		395 	0 	
2010-09-02 09:56:32 	411 		275 	0 	
2010-09-02 10:03:26 	301 		150 	0 	
2010-09-02 10:09:31 	415 		395 	0 	
2010-09-02 10:45:53 	601 		850 	0 	
2010-09-02 10:46:08 	418 		345 	0 	
2010-09-02 10:47:58 	313 		316 	0 	
2010-09-02 11:05:10 	514 		375 	0 	
2010-09-02 11:19:10 	404 		280 	0 	
2010-09-02 11:26:56 	420 		345 	0 	
2010-09-02 11:39:16 	510 		175 	0 	
2010-09-02 11:47:25 	202 		345 	0 	
2010-09-02 11:57:23 	406 		596 	0 	
2010-09-02 11:59:21 	208 		275 	0 	
2010-09-02 12:02:50 	422 		395 	0 	
2010-09-02 12:28:01 	419 		395 	0 	
2010-09-02 12:37:24 	315 		395 	0 	
2010-09-02 12:37:35 	312 		395 	0 	
2010-09-02 12:42:31 	403 		465 	0 	
2010-09-02 12:43:16 	502 		800 	0 	
2010-09-02 12:44:36 	421 		395 	0 	
2010-09-02 12:46:14 	413 		316 	0 	
2010-09-02 12:52:53 	321 		395 	0 	
2010-09-02 12:57:57 	322 		395 	0 	
2010-09-02 13:01:22 	306 		395 	0 	
2010-09-02 13:03:15 	202 		200 	0 	
2010-09-02 13:10:19 	209 		275 	0 	
2010-09-02 13:11:07 	212 		275 	0 	
2010-09-02 13:13:58 	415 		395 	0 	
2010-09-02 13:22:49 	305 		275 	0 	
2010-09-02 13:23:11 	409 		395 	0 	
2010-09-02 13:39:50 	414 		345 	0 	
2010-09-02 14:08:15 	302 		395 	0 	
2010-09-02 14:21:16 	203 		345 	0 	
2010-09-02 14:21:53 	204 		345 	0 	
2010-09-02 14:27:57 	301 		395 	0 	
2010-09-02 14:28:59 	417 		395 	0 	
2010-09-02 14:38:24 	412 		395 	0 	
2010-09-02 14:43:11 	408 		395 	0 	
2010-09-02 14:46:44 	218 		395 	0 	
2010-09-02 14:57:30 	404 		395 	0 	
2010-09-02 15:05:39 	407 		395 	0 	
2010-09-02 15:06:48 	406 		270 	0 	
2010-09-02 15:08:12 	410 		275 	0 	
2010-09-02 15:08:41 	205 		276 	0 	
2010-09-02 15:13:12 	203 		210 	0 	
2010-09-02 15:16:11 	308 		395 	0 	
2010-09-02 15:18:11 	206 		276 	0 	
2010-09-02 15:18:58 	304 		395 	0 	
2010-09-02 15:20:37 	312 		395 	0 	
2010-09-02 15:25:13 	408 		40 	0 	
2010-09-02 15:26:19 	203 		65 	0 	
2010-09-02 15:30:12 	304 		10 	0 	
2010-09-02 15:33:23 	216 		275 	0 	
2010-09-02 15:38:27 	319 		395 	0 	
2010-09-02 15:41:50 	411 		475 	0 	
2010-09-02 15:44:01 	415 		395 	0 	
2010-09-02 15:59:22 	416 		345 	0 	
 			Total:		22320 	0		

=== RECHIT LIST ===




V1