MSHOGUN 1: SHIFT END REPORT
Friday November 12, 2010 12:01:01 AM

SALES TRANSACTION
Room Sales Order			37445
FnB Sales Order			1926
Beer Sales Order			220
Misc Sales Order			95
Room Sales Adjustment			0
GROSS SALES			39686

DISCOUNT
Room				0
FnB				0
Misc				0

DEPOSIT				22365
REFUND				

TOTAL ACCOUNTABILITY			62051

CASH DECLARATION			1318
CARD				0
FUNDS SAFEKEEP			50000
TOTAL CASH DECLARED			51318

TOTAL CASH ON SYSTEM			1367
OVER/SHORTAGES 			-49

ROOM	 # OF CHECK-OUT	AMT
Value 		12	4000
Regular 		26	10530
Classique 		53	22915
Premium 		0	0
Regent 		0	0
Queen 		0	0
Gemini 		0	0
Family 		0	0
Executive Suite 	0	0
Mega Suite 	0	0

DISCOUNT 
Value 			  
Regular 		  
Classique 		  
Premium 		  
Regent 			  
Queen 		  
Gemini 		  
Family 		  
Executive Suite 	  
Mega Suite 		  


=== RESERVATIONS ===

Deposits:


Claimed:



SECURITY DEPOSITS

Deposits:
Claimed:


=== SALES BREAKDOWN ===

Transaction Date	Room No.	Cash	Card

2010-11-11 16:06:40 	321 		395 	0 	
2010-11-11 16:07:51 	318 		345 	0 	
2010-11-11 16:08:09 	314 		345 	0 	
2010-11-11 16:08:49 	315 		395 	0 	
2010-11-11 16:09:48 	312 		395 	0 	
2010-11-11 16:10:03 	308 		395 	0 	
2010-11-11 16:28:52 	414 		345 	0 	
2010-11-11 16:29:46 	413 		395 	0 	
2010-11-11 16:35:58 	311 		275 	0 	
2010-11-11 16:39:01 	406 		395 	0 	
2010-11-11 16:42:45 	415 		395 	0 	
2010-11-11 16:43:38 	417 		395 	0 	
2010-11-11 16:57:11 	420 		705 	0 	
2010-11-11 17:02:22 	407 		395 	0 	
2010-11-11 17:03:01 	419 		25 	0 	
2010-11-11 17:07:08 	412 		140 	0 	
2010-11-11 17:07:44 	307 		395 	0 	
2010-11-11 17:10:42 	213 		345 	0 	
2010-11-11 17:12:49 	317 		395 	0 	
2010-11-11 17:21:28 	419 		1120 	0 	
2010-11-11 17:25:38 	316 		345 	0 	
2010-11-11 17:25:44 	421 		395 	0 	
2010-11-11 17:54:41 	416 		465 	0 	
2010-11-11 17:56:38 	409 		395 	0 	
2010-11-11 17:56:46 	220 		395 	0 	
2010-11-11 17:57:38 	422 		395 	0 	
2010-11-11 17:58:33 	310 		275 	0 	
2010-11-11 18:00:40 	306 		395 	0 	
2010-11-11 18:01:46 	408 		695 	0 	
2010-11-11 18:10:12 	211 		345 	0 	
2010-11-11 18:15:08 	210 		345 	0 	
2010-11-11 18:18:03 	412 		395 	0 	
2010-11-11 18:23:00 	412 		30 	0 	
2010-11-11 18:29:42 	324 		275 	0 	
2010-11-11 18:33:08 	202 		465 	0 	
2010-11-11 18:34:19 	406 		395 	0 	
2010-11-11 18:35:56 	402 		395 	0 	
2010-11-11 18:37:14 	203 		345 	0 	
2010-11-11 18:38:38 	207 		345 	0 	
2010-11-11 18:40:18 	304 		395 	0 	
2010-11-11 18:47:03 	218 		395 	0 	
2010-11-11 18:48:25 	322 		395 	0 	
2010-11-11 18:52:51 	423 		595 	0 	
2010-11-11 19:02:05 	313 		395 	0 	
2010-11-11 19:04:07 	419 		695 	0 	
2010-11-11 19:05:27 	410 		275 	0 	
2010-11-11 19:07:27 	315 		695 	0 	
2010-11-11 19:13:43 	321 		395 	0 	
2010-11-11 19:14:35 	209 		275 	0 	
2010-11-11 19:17:24 	401 		395 	0 	
2010-11-11 19:19:13 	216 		595 	0 	
2010-11-11 19:20:02 	413 		190 	0 	
2010-11-11 19:23:07 	309 		395 	0 	
2010-11-11 19:25:16 	307 		395 	0 	
2010-11-11 19:27:36 	206 		345 	0 	
2010-11-11 19:28:08 	407 		395 	0 	
2010-11-11 19:29:02 	209 		40 	0 	
2010-11-11 19:29:18 	308 		395 	0 	
2010-11-11 19:33:11 	322 		60 	0 	
2010-11-11 19:33:23 	323 		595 	0 	
2010-11-11 19:35:12 	418 		345 	0 	
2010-11-11 19:37:29 	403 		276 	0 	
2010-11-11 19:38:01 	317 		395 	0 	
2010-11-11 19:41:41 	314 		645 	0 	
2010-11-11 19:42:00 	212 		275 	0 	
2010-11-11 19:42:12 	212 		20 	0 	
2010-11-11 19:52:01 	413 		395 	0 	
2010-11-11 19:59:13 	403 		40 	0 	
2010-11-11 20:00:05 	407 		185 	0 	
2010-11-11 20:00:58 	205 		345 	0 	
2010-11-11 20:01:25 	319 		395 	0 	
2010-11-11 20:02:23 	316 		585 	0 	
2010-11-11 20:02:30 	312 		395 	0 	
2010-11-11 20:02:41 	412 		395 	0 	
2010-11-11 20:14:00 	208 		275 	0 	
2010-11-11 20:17:35 	302 		395 	0 	
2010-11-11 20:20:17 	424 		595 	0 	
2010-11-11 20:26:12 	215 		345 	0 	
2010-11-11 20:28:03 	417 		695 	0 	
2010-11-11 20:32:02 	311 		275 	0 	
2010-11-11 20:36:05 	217 		275 	0 	
2010-11-11 20:37:40 	415 		395 	0 	
2010-11-11 20:48:36 	219 		695 	0 	
2010-11-11 20:51:07 	220 		695 	0 	
2010-11-11 20:55:54 	406 		695 	0 	
2010-11-11 20:58:49 	409 		395 	0 	
2010-11-11 21:00:40 	313 		695 	0 	
2010-11-11 21:01:02 	306 		695 	0 	
2010-11-11 21:01:47 	418 		345 	0 	
2010-11-11 21:03:11 	303 		345 	0 	
2010-11-11 21:03:45 	208 		45 	0 	
2010-11-11 21:03:52 	316 		50 	0 	
2010-11-11 21:04:02 	412 		15 	0 	
2010-11-11 21:04:16 	318 		345 	0 	
2010-11-11 21:09:32 	211 		345 	0 	
2010-11-11 21:21:20 	316 		285 	0 	
2010-11-11 21:27:11 	422 		395 	0 	
2010-11-11 21:30:01 	306 		50 	0 	
2010-11-11 21:41:31 	412 		395 	0 	
2010-11-11 21:58:07 	218 		695 	0 	
2010-11-11 22:05:49 	307 		695 	0 	
2010-11-11 22:11:51 	422 		20 	0 	
2010-11-11 22:18:30 	304 		535 	0 	
2010-11-11 22:19:59 	321 		695 	0 	
2010-11-11 22:21:41 	319 		695 	0 	
2010-11-11 22:28:24 	317 		695 	0 	
2010-11-11 22:31:29 	309 		695 	0 	
2010-11-11 22:43:37 	407 		695 	0 	
2010-11-11 22:51:26 	413 		695 	0 	
2010-11-11 23:02:11 	308 		695 	0 	
2010-11-11 23:03:04 	312 		395 	0 	
2010-11-11 23:04:56 	321 		210 	0 	
2010-11-11 23:05:32 	217 		10 	0 	
2010-11-11 23:11:35 	302 		316 	0 	
2010-11-11 23:13:27 	402 		695 	0 	
2010-11-11 23:15:04 	401 		395 	0 	
2010-11-11 23:22:42 	404 		395 	0 	
2010-11-11 23:29:27 	324 		595 	0 	
2010-11-11 23:30:14 	204 		465 	0 	
2010-11-11 23:31:22 	320 		645 	0 	
2010-11-11 23:37:06 	404 		250 	0 	
2010-11-11 23:37:19 	322 		395 	0 	
2010-11-11 23:55:32 	205 		230 	0 	
2010-11-11 23:56:17 	303 		705 	0 	
2010-11-11 23:57:27 	403 		645 	0 	
2010-11-11 23:58:31 	409 		395 	0 	
 			Total:		51367 	0		

=== RECHIT LIST ===




V1