MSHOGUN 1: SHIFT END REPORT
Friday October 14, 2011 3:57:55 PM

SALES TRANSACTION
Room Sales Order			18965
FnB Sales Order			588
Beer Sales Order			0
Misc Sales Order			15
Room Sales Adjustment			0
GROSS SALES			19568

DISCOUNT
Room				0
FnB				0
Misc				0

DEPOSIT				8285
REFUND				

TOTAL ACCOUNTABILITY			27853

CASH DECLARATION			6709
CARD				0
FUNDS SAFEKEEP			10000
TOTAL CASH DECLARED			16709

TOTAL CASH ON SYSTEM			6709
OVER/SHORTAGES 			0

ROOM	 # OF CHECK-OUT	AMT
Value 		4	2240
Regular 		14	6150
Classique 		17	10575
Premium 		0	0
Regent 		0	0
Queen 		0	0
Gemini 		0	0
Family 		0	0
Executive Suite 	0	0
Mega Suite 	0	0

DISCOUNT 
Value 			  
Regular 		  
Classique 		  
Premium 		  
Regent 			  
Queen 		  
Gemini 		  
Family 		  
Executive Suite 	  
Mega Suite 		  


=== RESERVATIONS ===

Deposits:


Claimed:



SECURITY DEPOSITS

Deposits:
Claimed:


=== SALES BREAKDOWN ===

Transaction Date	Room No.	Cash	Card

2011-10-14 08:08:34 	215 		345 	0 	
2011-10-14 08:31:41 	219 		50 	0 	
2011-10-14 08:40:55 	309 		395 	0 	
2011-10-14 09:00:26 	213 		585 	0 	
2011-10-14 09:40:15 	408 		15 	0 	
2011-10-14 09:41:24 	201 		345 	0 	
2011-10-14 09:44:29 	307 		395 	0 	
2011-10-14 10:17:04 	202 		276 	0 	
2011-10-14 10:23:03 	211 		345 	0 	
2011-10-14 10:24:01 	210 		345 	0 	
2011-10-14 10:25:44 	203 		276 	0 	
2011-10-14 10:27:44 	204 		345 	0 	
2011-10-14 10:58:20 	218 		395 	0 	
2011-10-14 11:05:54 	206 		345 	0 	
2011-10-14 11:12:31 	219 		395 	0 	
2011-10-14 11:14:50 	220 		395 	0 	
2011-10-14 11:26:52 	208 		275 	0 	
2011-10-14 11:58:08 	423 		500 	0 	
2011-10-14 12:00:29 	207 		345 	0 	
2011-10-14 12:10:59 	205 		276 	0 	
2011-10-14 12:13:38 	221 		395 	0 	
2011-10-14 12:31:48 	306 		420 	0 	
2011-10-14 12:44:12 	215 		705 	0 	
2011-10-14 13:01:16 	304 		535 	0 	
2011-10-14 13:08:02 	219 		150 	0 	
2011-10-14 13:34:40 	208 		275 	0 	
2011-10-14 13:34:58 	209 		275 	0 	
2011-10-14 13:43:49 	308 		316 	0 	
2011-10-14 13:47:44 	312 		395 	0 	
2011-10-14 13:48:05 	316 		345 	0 	
2011-10-14 13:53:06 	320 		345 	0 	
2011-10-14 13:53:12 	313 		395 	0 	
2011-10-14 14:02:32 	212 		275 	0 	
2011-10-14 14:18:18 	308 		205 	0 	
2011-10-14 14:20:32 	214 		275 	0 	
2011-10-14 14:40:19 	218 		395 	0 	
2011-10-14 14:54:57 	213 		120 	0 	
2011-10-14 14:59:05 	309 		395 	0 	
2011-10-14 15:02:00 	302 		395 	0 	
2011-10-14 15:10:19 	306 		395 	0 	
2011-10-14 15:20:22 	315 		395 	0 	
2011-10-14 15:30:49 	211 		345 	0 	
2011-10-14 15:42:00 	307 		395 	0 	
2011-10-14 15:42:07 	317 		395 	0 	
2011-10-14 15:46:19 	206 		345 	0 	
2011-10-14 15:46:31 	219 		395 	0 	
2011-10-14 15:47:59 	220 		395 	0 	
2011-10-14 15:54:42 	301 		395 	0 	
 			Total:		16709 	0		

=== RECHIT LIST ===




V1