MSHOGUN 1: SHIFT END REPORT
Wednesday September 14, 2011 4:00:09 PM

SALES TRANSACTION
Room Sales Order			26755
FnB Sales Order			1625
Beer Sales Order			0
Misc Sales Order			40
Room Sales Adjustment			0
GROSS SALES			28420

DISCOUNT
Room				0
FnB				0
Misc				0

DEPOSIT				5120
REFUND				

TOTAL ACCOUNTABILITY			33540

CASH DECLARATION			6115
CARD				1400
FUNDS SAFEKEEP			10000
TOTAL CASH DECLARED			17515

TOTAL CASH ON SYSTEM			6115
OVER/SHORTAGES 			0

ROOM	 # OF CHECK-OUT	AMT
Value 		7	2565
Regular 		18	9570
Classique 		28	14620
Premium 		0	0
Regent 		0	0
Queen 		0	0
Gemini 		0	0
Family 		0	0
Executive Suite 	0	0
Mega Suite 	0	0

DISCOUNT 
Value 			  
Regular 		  
Classique 		  
Premium 		  
Regent 			  
Queen 		  
Gemini 		  
Family 		  
Executive Suite 	  
Mega Suite 		  


=== RESERVATIONS ===

Deposits:


Claimed:



SECURITY DEPOSITS

Deposits:
Claimed:


=== SALES BREAKDOWN ===

Transaction Date	Room No.	Cash	Card

2011-09-14 08:14:11 	324 		50 	0 	
2011-09-14 08:34:20 	306 		395 	0 	
2011-09-14 08:36:21 	302 		160 	0 	
2011-09-14 08:54:42 	212 		275 	0 	
2011-09-14 09:03:59 	309 		395 	0 	
2011-09-14 09:27:54 	210 		345 	0 	
2011-09-14 09:28:09 	404 		395 	0 	
2011-09-14 10:20:54 	322 		395 	0 	
2011-09-14 10:27:00 	214 		275 	0 	
2011-09-14 10:36:33 	315 		395 	0 	
2011-09-14 10:40:27 	407 		220 	0 	
2011-09-14 10:41:10 	424 		275 	0 	
2011-09-14 10:45:19 	415 		60 	0 	
2011-09-14 10:54:34 	419 		285 	0 	
2011-09-14 10:55:23 	319 		395 	0 	
2011-09-14 10:55:47 	316 		345 	0 	
2011-09-14 10:58:29 	320 		585 	0 	
2011-09-14 11:13:03 	408 		395 	0 	
2011-09-14 11:13:20 	307 		395 	0 	
2011-09-14 11:22:33 	318 		345 	0 	
2011-09-14 11:32:30 	402 		395 	0 	
2011-09-14 11:32:43 	423 		575 	0 	
2011-09-14 11:37:43 	413 		140 	0 	
2011-09-14 11:49:17 	324 		275 	0 	
2011-09-14 11:55:46 	409 		395 	0 	
2011-09-14 12:18:21 	417 		395 	0 	
2011-09-14 12:35:36 	315 		395 	0 	
2011-09-14 12:37:19 	321 		395 	0 	
2011-09-14 12:42:31 	312 		395 	0 	
2011-09-14 12:43:22 	423 		90 	0 	
2011-09-14 13:11:10 	416 		585 	0 	
2011-09-14 13:21:22 	409 		50 	0 	
2011-09-14 13:22:09 	323 		275 	0 	
2011-09-14 13:37:55 	316 		210 	0 	
2011-09-14 13:38:58 	412 		395 	0 	
2011-09-14 13:40:46 	317 		395 	0 	
2011-09-14 14:02:07 	419 		395 	0 	
2011-09-14 14:12:08 	314 		345 	0 	
2011-09-14 14:20:36 	304 		395 	0 	
2011-09-14 14:22:16 	306 		395 	0 	
2011-09-14 14:25:59 	302 		395 	0 	
2011-09-14 14:41:16 	420 		585 	0 	
2011-09-14 14:57:36 	319 		395 	0 	
2011-09-14 14:57:48 	410 		275 	0 	
2011-09-14 14:59:39 	303 		465 	0 	
2011-09-14 15:00:20 	419 		20 	0 	
2011-09-14 15:00:24 	419 		135 	0 	
2011-09-14 15:09:22 	319 		20 	0 	
2011-09-14 15:33:03 	423 		180 	0 	
2011-09-14 15:33:06 	423 		50 	0 	
2011-09-14 15:54:01 	310 		275 	0 	
2011-09-14 15:55:10 	317 		50 	0 	
 			Total:		16115 	0		

=== RECHIT LIST ===




V1