MSHOGUN 1: SHIFT END REPORT
Monday January 16, 2012 12:00:03 AM

SALES TRANSACTION
Room Sales Order			48630
FnB Sales Order			2955
Beer Sales Order			305
Misc Sales Order			20
Room Sales Adjustment			0
GROSS SALES			51910

DISCOUNT
Room				0
FnB				0
Misc				0

DEPOSIT				39123
REFUND				

TOTAL ACCOUNTABILITY			91033

CASH DECLARATION			4821
CARD				0
FUNDS SAFEKEEP			60000
TOTAL CASH DECLARED			64821

TOTAL CASH ON SYSTEM			4790
OVER/SHORTAGES 			31

ROOM	 # OF CHECK-OUT	AMT
Value 		27	8325
Regular 		38	15270
Classique 		57	25035
Premium 		0	0
Regent 		0	0
Queen 		0	0
Gemini 		0	0
Family 		0	0
Executive Suite 	0	0
Mega Suite 	0	0

DISCOUNT 
Value 			  
Regular 		  
Classique 		  
Premium 		  
Regent 			  
Queen 		  
Gemini 		  
Family 		  
Executive Suite 	  
Mega Suite 		  


=== RESERVATIONS ===

Deposits:


Claimed:



SECURITY DEPOSITS

Deposits:
Claimed:


=== SALES BREAKDOWN ===

Transaction Date	Room No.	Cash	Card

2012-01-15 16:09:20 	404 		395 	0 	
2012-01-15 16:09:33 	409 		395 	0 	
2012-01-15 16:09:54 	321 		395 	0 	
2012-01-15 16:12:23 	302 		395 	0 	
2012-01-15 16:15:14 	306 		395 	0 	
2012-01-15 16:15:40 	207 		345 	0 	
2012-01-15 16:17:03 	202 		345 	0 	
2012-01-15 16:19:03 	210 		345 	0 	
2012-01-15 16:19:21 	214 		275 	0 	
2012-01-15 16:21:12 	416 		345 	0 	
2012-01-15 16:27:03 	204 		345 	0 	
2012-01-15 16:28:38 	205 		345 	0 	
2012-01-15 16:32:50 	312 		395 	0 	
2012-01-15 16:41:26 	217 		275 	0 	
2012-01-15 16:42:46 	310 		135 	0 	
2012-01-15 16:44:38 	420 		255 	0 	
2012-01-15 16:46:53 	209 		275 	0 	
2012-01-15 16:47:23 	402 		395 	0 	
2012-01-15 16:47:54 	303 		345 	0 	
2012-01-15 16:49:52 	219 		395 	0 	
2012-01-15 17:01:37 	215 		345 	0 	
2012-01-15 17:04:01 	418 		345 	0 	
2012-01-15 17:05:18 	420 		345 	0 	
2012-01-15 17:12:38 	411 		275 	0 	
2012-01-15 17:14:46 	221 		395 	0 	
2012-01-15 17:17:11 	408 		395 	0 	
2012-01-15 17:27:26 	401 		395 	0 	
2012-01-15 17:28:31 	421 		395 	0 	
2012-01-15 17:29:24 	412 		395 	0 	
2012-01-15 17:32:57 	407 		395 	0 	
2012-01-15 17:33:23 	404 		395 	0 	
2012-01-15 17:36:06 	414 		345 	0 	
2012-01-15 17:39:10 	413 		395 	0 	
2012-01-15 17:41:40 	417 		395 	0 	
2012-01-15 17:41:58 	405 		275 	0 	
2012-01-15 17:48:42 	211 		345 	0 	
2012-01-15 17:49:56 	208 		275 	0 	
2012-01-15 17:51:02 	424 		275 	0 	
2012-01-15 17:55:02 	422 		140 	0 	
2012-01-15 17:56:41 	304 		695 	0 	
2012-01-15 17:57:04 	218 		695 	0 	
2012-01-15 17:57:44 	418 		645 	0 	
2012-01-15 18:00:54 	313 		695 	0 	
2012-01-15 18:02:01 	406 		395 	0 	
2012-01-15 18:04:06 	204 		345 	0 	
2012-01-15 18:08:47 	419 		140 	0 	
2012-01-15 18:10:14 	415 		395 	0 	
2012-01-15 18:14:09 	423 		595 	0 	
2012-01-15 18:15:41 	214 		595 	0 	
2012-01-15 18:16:11 	216 		595 	0 	
2012-01-15 18:17:29 	410 		595 	0 	
2012-01-15 18:24:06 	307 		395 	0 	
2012-01-15 18:24:39 	314 		345 	0 	
2012-01-15 18:25:16 	213 		345 	0 	
2012-01-15 18:27:27 	419 		0 	695 	
2012-01-15 18:27:55 	324 		595 	0 	
2012-01-15 18:32:10 	216 		50 	0 	
2012-01-15 18:34:05 	219 		695 	0 	
2012-01-15 18:34:36 	221 		395 	0 	
2012-01-15 18:34:54 	317 		695 	0 	
2012-01-15 18:38:27 	301 		395 	0 	
2012-01-15 18:43:34 	310 		275 	0 	
2012-01-15 18:45:24 	308 		695 	0 	
2012-01-15 18:48:43 	312 		395 	0 	
2012-01-15 18:57:58 	319 		695 	0 	
2012-01-15 19:06:28 	302 		395 	0 	
2012-01-15 19:06:38 	322 		695 	0 	
2012-01-15 19:07:32 	403 		120 	0 	
2012-01-15 19:07:51 	405 		210 	0 	
2012-01-15 19:10:14 	401 		280 	0 	
2012-01-15 19:10:49 	219 		65 	0 	
2012-01-15 19:13:00 	207 		645 	0 	
2012-01-15 19:13:14 	315 		395 	0 	
2012-01-15 19:13:52 	420 		390 	0 	
2012-01-15 19:14:26 	304 		245 	0 	
2012-01-15 19:17:21 	203 		645 	0 	
2012-01-15 19:22:18 	316 		645 	0 	
2012-01-15 19:25:01 	215 		645 	0 	
2012-01-15 19:26:28 	207 		345 	0 	
2012-01-15 19:27:23 	210 		345 	0 	
2012-01-15 19:31:08 	413 		50 	0 	
2012-01-15 19:33:19 	409 		395 	0 	
2012-01-15 19:34:09 	405 		595 	0 	
2012-01-15 19:35:00 	408 		695 	0 	
2012-01-15 19:37:13 	413 		695 	0 	
2012-01-15 19:39:41 	306 		695 	0 	
2012-01-15 19:41:47 	208 		275 	0 	
2012-01-15 19:41:59 	402 		395 	0 	
2012-01-15 19:43:00 	202 		345 	0 	
2012-01-15 19:44:32 	416 		645 	0 	
2012-01-15 19:46:09 	209 		165 	0 	
2012-01-15 19:50:55 	411 		595 	0 	
2012-01-15 19:54:17 	321 		140 	0 	
2012-01-15 19:56:26 	420 		645 	0 	
2012-01-15 20:01:02 	310 		150 	0 	
2012-01-15 20:06:19 	321 		695 	0 	
2012-01-15 20:09:38 	311 		275 	0 	
2012-01-15 20:11:10 	217 		275 	0 	
2012-01-15 20:15:20 	417 		695 	0 	
2012-01-15 20:16:51 	412 		395 	0 	
2012-01-15 20:22:25 	421 		695 	0 	
2012-01-15 20:22:41 	211 		645 	0 	
2012-01-15 20:24:48 	209 		275 	0 	
2012-01-15 20:26:15 	220 		695 	0 	
2012-01-15 20:28:07 	424 		275 	0 	
2012-01-15 20:29:52 	404 		395 	0 	
2012-01-15 20:33:41 	210 		276 	0 	
2012-01-15 20:36:18 	320 		230 	0 	
2012-01-15 20:46:17 	422 		420 	0 	
2012-01-15 20:47:26 	205 		345 	0 	
2012-01-15 20:48:45 	306 		348 	0 	
2012-01-15 20:49:22 	416 		300 	0 	
2012-01-15 20:53:17 	406 		695 	0 	
2012-01-15 21:02:33 	422 		395 	0 	
2012-01-15 21:03:42 	401 		695 	0 	
2012-01-15 21:06:33 	305 		595 	0 	
2012-01-15 21:08:25 	402 		695 	0 	
2012-01-15 21:10:08 	415 		695 	0 	
2012-01-15 21:10:46 	307 		695 	0 	
2012-01-15 21:11:24 	320 		645 	0 	
2012-01-15 21:16:27 	309 		395 	0 	
2012-01-15 21:18:24 	403 		645 	0 	
2012-01-15 21:20:19 	409 		395 	0 	
2012-01-15 21:30:15 	314 		645 	0 	
2012-01-15 21:32:40 	407 		140 	0 	
2012-01-15 21:33:38 	221 		695 	0 	
2012-01-15 21:35:45 	204 		345 	0 	
2012-01-15 21:36:01 	320 		25 	0 	
2012-01-15 21:36:46 	424 		595 	0 	
2012-01-15 21:39:00 	301 		695 	0 	
2012-01-15 21:47:59 	213 		345 	0 	
2012-01-15 21:59:00 	315 		695 	0 	
2012-01-15 21:59:40 	407 		695 	0 	
2012-01-15 22:04:22 	323 		595 	0 	
2012-01-15 22:08:21 	212 		595 	0 	
2012-01-15 22:10:36 	310 		595 	0 	
2012-01-15 22:18:12 	302 		695 	0 	
2012-01-15 22:30:04 	318 		260 	0 	
2012-01-15 22:31:14 	312 		140 	0 	
2012-01-15 22:35:33 	202 		276 	0 	
2012-01-15 22:38:13 	412 		215 	0 	
2012-01-15 22:44:12 	208 		275 	0 	
2012-01-15 22:44:23 	318 		645 	0 	
2012-01-15 22:51:43 	205 		645 	0 	
2012-01-15 23:09:57 	404 		695 	0 	
2012-01-15 23:10:43 	311 		475 	0 	
2012-01-15 23:11:48 	209 		275 	0 	
2012-01-15 23:14:29 	210 		345 	0 	
2012-01-15 23:18:03 	217 		595 	0 	
2012-01-15 23:18:25 	323 		160 	0 	
2012-01-15 23:23:31 	311 		50 	0 	
2012-01-15 23:48:40 	309 		395 	0 	
 			Total:		64790 	695		

=== RECHIT LIST ===




V1