MSHOGUN 1: SHIFT END REPORT
Wednesday October 06, 2010 4:00:58 PM

SALES TRANSACTION
Room Sales Order			38050
FnB Sales Order			2481
Beer Sales Order			350
Misc Sales Order			20
Room Sales Adjustment			0
GROSS SALES			40901

DISCOUNT
Room				0
FnB				0
Misc				0

DEPOSIT				17200
REFUND				

TOTAL ACCOUNTABILITY			58101

CASH DECLARATION			2522
CARD				0
FUNDS SAFEKEEP			30000
TOTAL CASH DECLARED			32522

TOTAL CASH ON SYSTEM			2522
OVER/SHORTAGES 			0

ROOM	 # OF CHECK-OUT	AMT
Value 		6	2290
Regular 		12	5940
Classique 		38	18870
Premium 		0	0
Regent 		0	0
Queen 		1	4650
Gemini 		0	0
Family 		1	6300
Executive Suite 	0	0
Mega Suite 	0	0

DISCOUNT 
Value 			  
Regular 		  
Classique 		  
Premium 		  
Regent 			  
Queen 		  
Gemini 		  
Family 		  
Executive Suite 	  
Mega Suite 		  


=== RESERVATIONS ===

Deposits:


Claimed:



SECURITY DEPOSITS

Deposits:
Claimed:


=== SALES BREAKDOWN ===

Transaction Date	Room No.	Cash	Card

2010-10-06 08:09:43 	404 		395 	0 	
2010-10-06 08:09:52 	313 		395 	0 	
2010-10-06 08:25:07 	314 		345 	0 	
2010-10-06 08:42:00 	403 		345 	0 	
2010-10-06 08:50:02 	411 		275 	0 	
2010-10-06 08:59:15 	406 		395 	0 	
2010-10-06 09:15:31 	407 		395 	0 	
2010-10-06 09:17:58 	421 		140 	0 	
2010-10-06 09:40:34 	414 		345 	0 	
2010-10-06 09:46:15 	418 		585 	0 	
2010-10-06 10:03:27 	310 		275 	0 	
2010-10-06 10:18:35 	407 		40 	0 	
2010-10-06 10:22:51 	308 		316 	0 	
2010-10-06 10:23:26 	402 		395 	0 	
2010-10-06 10:25:17 	628 		40 	0 	
2010-10-06 10:52:21 	625 		498 	0 	
2010-10-06 11:01:14 	312 		395 	0 	
2010-10-06 11:05:18 	Lobby 		200 	0 	
2010-10-06 11:06:09 	211 		90 	0 	
2010-10-06 11:07:29 	420 		276 	0 	
2010-10-06 11:16:53 	307 		316 	0 	
2010-10-06 11:28:49 	304 		395 	0 	
2010-10-06 11:47:03 	324 		275 	0 	
2010-10-06 11:53:43 	319 		140 	0 	
2010-10-06 12:10:55 	416 		705 	0 	
2010-10-06 12:11:04 	309 		395 	0 	
2010-10-06 12:33:58 	208 		275 	0 	
2010-10-06 12:34:10 	318 		705 	0 	
2010-10-06 12:38:19 	422 		240 	0 	
2010-10-06 12:47:06 	313 		395 	0 	
2010-10-06 12:47:18 	317 		395 	0 	
2010-10-06 12:49:40 	636 		1700 	0 	
2010-10-06 12:51:11 	208 		90 	0 	
2010-10-06 13:14:36 	320 		585 	0 	
2010-10-06 13:14:47 	406 		395 	0 	
2010-10-06 13:15:30 	414 		705 	0 	
2010-10-06 13:16:50 	408 		395 	0 	
2010-10-06 13:16:59 	413 		395 	0 	
2010-10-06 13:18:00 	419 		395 	0 	
2010-10-06 13:19:06 	407 		395 	0 	
2010-10-06 13:19:16 	404 		395 	0 	
2010-10-06 13:21:16 	421 		395 	0 	
2010-10-06 13:21:28 	306 		395 	0 	
2010-10-06 13:35:59 	307 		395 	0 	
2010-10-06 13:42:56 	302 		210 	0 	
2010-10-06 13:43:30 	305 		275 	0 	
2010-10-06 13:50:46 	319 		395 	0 	
2010-10-06 13:59:02 	409 		395 	0 	
2010-10-06 13:59:12 	403 		345 	0 	
2010-10-06 14:03:20 	402 		395 	0 	
2010-10-06 14:10:42 	302 		395 	0 	
2010-10-06 14:12:15 	303 		345 	0 	
2010-10-06 14:18:24 	314 		345 	0 	
2010-10-06 14:18:40 	215 		345 	0 	
2010-10-06 14:20:40 	408 		165 	0 	
2010-10-06 14:24:28 	206 		585 	0 	
2010-10-06 14:25:00 	312 		316 	0 	
2010-10-06 14:28:11 	301 		395 	0 	
2010-10-06 14:29:38 	418 		240 	0 	
2010-10-06 14:36:58 	416 		620 	0 	
2010-10-06 14:43:42 	313 		395 	0 	
2010-10-06 14:43:57 	322 		395 	0 	
2010-10-06 14:48:10 	420 		345 	0 	
2010-10-06 14:48:16 	205 		345 	0 	
2010-10-06 14:48:25 	317 		395 	0 	
2010-10-06 14:49:15 	317 		20 	0 	
2010-10-06 14:52:04 	204 		345 	0 	
2010-10-06 14:52:15 	412 		395 	0 	
2010-10-06 14:53:35 	304 		395 	0 	
2010-10-06 14:59:14 	304 		25 	0 	
2010-10-06 15:00:40 	202 		345 	0 	
2010-10-06 15:07:16 	636 		40 	0 	
2010-10-06 15:08:30 	308 		395 	0 	
2010-10-06 15:11:24 	203 		345 	0 	
2010-10-06 15:14:36 	406 		395 	0 	
2010-10-06 15:14:58 	417 		395 	0 	
2010-10-06 15:16:23 	306 		170 	0 	
2010-10-06 15:19:51 	211 		345 	0 	
2010-10-06 15:19:57 	310 		275 	0 	
2010-10-06 15:27:18 	415 		395 	0 	
2010-10-06 15:27:27 	210 		345 	0 	
2010-10-06 15:33:00 	404 		395 	0 	
2010-10-06 15:33:16 	309 		395 	0 	
2010-10-06 15:33:37 	311 		275 	0 	
2010-10-06 15:45:05 	219 		395 	0 	
2010-10-06 15:50:14 	221 		395 	0 	
2010-10-06 15:50:39 	218 		395 	0 	
2010-10-06 15:53:46 	410 		275 	0 	
2010-10-06 15:54:18 	411 		375 	0 	
2010-10-06 15:54:33 	215 		345 	0 	
 			Total:		32522 	0		

=== RECHIT LIST ===

Room No. 636 	 Rechit Date: 2010-10-06 11:59:09



Food and Beverage Sales

		
 
Order Code# 1286371586739 	 10-06 11:31
		 FREE DASILOG 	 0.00
		 FREE LONGSILOG 	 0.00
Order Code# 1286402406706 	 10-06 15:07
		 Sprite in Can 	 40.00
				 Sub Total:		 40.00 






V1