MSHOGUN 1: SHIFT END REPORT
Tuesday December 28, 2010 12:00:42 AM

SALES TRANSACTION
Room Sales Order			48585
FnB Sales Order			3733
Beer Sales Order			710
Misc Sales Order			275
Room Sales Adjustment			0
GROSS SALES			53303

DISCOUNT
Room				0
FnB				0
Misc				0

DEPOSIT				29400
REFUND				

TOTAL ACCOUNTABILITY			82703

CASH DECLARATION			8561
CARD				0
FUNDS SAFEKEEP			50000
TOTAL CASH DECLARED			58561

TOTAL CASH ON SYSTEM			8561
OVER/SHORTAGES 			0

ROOM	 # OF CHECK-OUT	AMT
Value 		25	8075
Regular 		38	15030
Classique 		56	25480
Premium 		0	0
Regent 		0	0
Queen 		0	0
Gemini 		0	0
Family 		0	0
Executive Suite 	0	0
Mega Suite 	0	0

DISCOUNT 
Value 			  
Regular 		  
Classique 		  
Premium 		  
Regent 			  
Queen 		  
Gemini 		  
Family 		  
Executive Suite 	  
Mega Suite 		  


=== RESERVATIONS ===

Deposits:


Claimed:



SECURITY DEPOSITS

Deposits:
Claimed:


=== SALES BREAKDOWN ===

Transaction Date	Room No.	Cash	Card

2010-12-27 16:11:47 	207 		345 	0 	
2010-12-27 16:12:04 	205 		345 	0 	
2010-12-27 16:14:24 	216 		320 	0 	
2010-12-27 16:17:16 	206 		345 	0 	
2010-12-27 16:26:06 	213 		465 	0 	
2010-12-27 16:31:32 	406 		395 	0 	
2010-12-27 16:31:52 	401 		135 	0 	
2010-12-27 16:33:56 	215 		345 	0 	
2010-12-27 16:37:05 	202 		345 	0 	
2010-12-27 16:38:14 	312 		165 	0 	
2010-12-27 16:39:31 	407 		395 	0 	
2010-12-27 16:43:31 	201 		345 	0 	
2010-12-27 16:45:40 	320 		210 	0 	
2010-12-27 16:50:07 	310 		275 	0 	
2010-12-27 16:56:42 	219 		395 	0 	
2010-12-27 16:57:54 	203 		120 	0 	
2010-12-27 16:59:45 	420 		190 	0 	
2010-12-27 17:00:43 	212 		275 	0 	
2010-12-27 17:01:33 	316 		345 	0 	
2010-12-27 17:02:40 	202 		190 	0 	
2010-12-27 17:02:49 	320 		30 	0 	
2010-12-27 17:02:56 	204 		170 	0 	
2010-12-27 17:04:58 	414 		140 	0 	
2010-12-27 17:06:02 	218 		395 	0 	
2010-12-27 17:08:50 	312 		395 	0 	
2010-12-27 17:09:10 	309 		395 	0 	
2010-12-27 17:10:09 	402 		395 	0 	
2010-12-27 17:19:09 	203 		345 	0 	
2010-12-27 17:22:30 	301 		395 	0 	
2010-12-27 17:28:35 	404 		395 	0 	
2010-12-27 17:31:26 	421 		395 	0 	
2010-12-27 17:37:29 	322 		316 	0 	
2010-12-27 17:39:04 	303 		160 	0 	
2010-12-27 17:51:31 	411 		275 	0 	
2010-12-27 17:52:35 	413 		395 	0 	
2010-12-27 17:54:44 	414 		585 	0 	
2010-12-27 17:55:40 	211 		345 	0 	
2010-12-27 18:01:57 	321 		395 	0 	
2010-12-27 18:09:49 	421 		95 	0 	
2010-12-27 18:10:11 	306 		10 	0 	
2010-12-27 18:10:21 	218 		180 	0 	
2010-12-27 18:10:28 	312 		50 	0 	
2010-12-27 18:10:40 	303 		585 	0 	
2010-12-27 18:10:51 	304 		395 	0 	
2010-12-27 18:13:57 	213 		463 	0 	
2010-12-27 18:18:16 	314 		345 	0 	
2010-12-27 18:19:37 	416 		276 	0 	
2010-12-27 18:28:07 	319 		395 	0 	
2010-12-27 18:29:07 	417 		40 	0 	
2010-12-27 18:32:44 	311 		275 	0 	
2010-12-27 18:33:25 	317 		85 	0 	
2010-12-27 18:34:00 	322 		80 	0 	
2010-12-27 18:39:28 	406 		695 	0 	
2010-12-27 18:46:06 	212 		275 	0 	
2010-12-27 18:47:19 	302 		395 	0 	
2010-12-27 18:53:14 	307 		395 	0 	
2010-12-27 18:54:53 	210 		345 	0 	
2010-12-27 18:56:53 	405 		595 	0 	
2010-12-27 19:00:45 	204 		345 	0 	
2010-12-27 19:01:15 	306 		25 	0 	
2010-12-27 19:06:45 	412 		395 	0 	
2010-12-27 19:08:51 	305 		275 	0 	
2010-12-27 19:11:24 	315 		316 	0 	
2010-12-27 19:11:55 	315 		25 	0 	
2010-12-27 19:13:41 	420 		645 	0 	
2010-12-27 19:17:14 	221 		395 	0 	
2010-12-27 19:19:07 	220 		395 	0 	
2010-12-27 19:19:14 	216 		275 	0 	
2010-12-27 19:20:00 	216 		15 	0 	
2010-12-27 19:23:00 	408 		695 	0 	
2010-12-27 19:23:07 	317 		395 	0 	
2010-12-27 19:27:10 	415 		165 	0 	
2010-12-27 19:29:17 	422 		395 	0 	
2010-12-27 19:31:21 	407 		695 	0 	
2010-12-27 19:33:04 	202 		345 	0 	
2010-12-27 19:34:40 	206 		345 	0 	
2010-12-27 19:39:55 	424 		595 	0 	
2010-12-27 19:42:58 	418 		645 	0 	
2010-12-27 19:43:07 	218 		395 	0 	
2010-12-27 19:47:12 	323 		275 	0 	
2010-12-27 19:50:19 	306 		30 	0 	
2010-12-27 19:52:35 	215 		465 	0 	
2010-12-27 19:57:39 	309 		395 	0 	
2010-12-27 19:58:08 	401 		150 	0 	
2010-12-27 19:58:17 	207 		345 	0 	
2010-12-27 20:01:27 	324 		275 	0 	
2010-12-27 20:05:33 	320 		645 	0 	
2010-12-27 20:05:41 	417 		695 	0 	
2010-12-27 20:07:14 	403 		645 	0 	
2010-12-27 20:20:55 	423 		275 	0 	
2010-12-27 20:21:13 	217 		595 	0 	
2010-12-27 20:21:34 	205 		345 	0 	
2010-12-27 20:25:40 	318 		645 	0 	
2010-12-27 20:26:14 	205 		180 	0 	
2010-12-27 20:27:33 	313 		695 	0 	
2010-12-27 20:27:59 	214 		100 	0 	
2010-12-27 20:30:25 	316 		645 	0 	
2010-12-27 20:36:36 	322 		395 	0 	
2010-12-27 20:40:00 	321 		395 	0 	
2010-12-27 20:40:22 	211 		345 	0 	
2010-12-27 20:47:50 	319 		695 	0 	
2010-12-27 20:50:17 	203 		645 	0 	
2010-12-27 20:58:09 	214 		595 	0 	
2010-12-27 21:01:44 	411 		270 	0 	
2010-12-27 21:01:53 	309 		140 	0 	
2010-12-27 21:02:04 	405 		140 	0 	
2010-12-27 21:02:14 	320 		160 	0 	
2010-12-27 21:04:08 	212 		275 	0 	
2010-12-27 21:09:18 	315 		695 	0 	
2010-12-27 21:10:28 	306 		395 	0 	
2010-12-27 21:16:19 	409 		700 	0 	
2010-12-27 21:19:20 	317 		695 	0 	
2010-12-27 21:20:33 	216 		595 	0 	
2010-12-27 21:21:26 	314 		345 	0 	
2010-12-27 21:25:08 	419 		695 	0 	
2010-12-27 21:32:03 	319 		485 	0 	
2010-12-27 21:32:28 	212 		150 	0 	
2010-12-27 21:32:43 	204 		130 	0 	
2010-12-27 21:38:41 	202 		365 	0 	
2010-12-27 21:39:50 	In-house 		160 	0 	
2010-12-27 21:43:29 	404 		695 	0 	
2010-12-27 21:51:52 	324 		275 	0 	
2010-12-27 21:56:01 	421 		695 	0 	
2010-12-27 22:00:03 	408 		25 	0 	
2010-12-27 22:00:57 	402 		695 	0 	
2010-12-27 22:01:16 	413 		695 	0 	
2010-12-27 22:07:07 	208 		275 	0 	
2010-12-27 22:08:07 	302 		395 	0 	
2010-12-27 22:12:35 	419 		80 	0 	
2010-12-27 22:14:17 	416 		645 	0 	
2010-12-27 22:17:54 	304 		140 	0 	
2010-12-27 22:18:44 	301 		395 	0 	
2010-12-27 22:25:07 	402 		180 	0 	
2010-12-27 22:28:40 	411 		200 	0 	
2010-12-27 22:29:14 	205 		345 	0 	
2010-12-27 22:34:19 	415 		695 	0 	
2010-12-27 22:40:40 	209 		275 	0 	
2010-12-27 22:41:37 	321 		695 	0 	
2010-12-27 22:42:16 	409 		395 	0 	
2010-12-27 22:44:12 	312 		395 	0 	
2010-12-27 22:48:33 	221 		695 	0 	
2010-12-27 22:50:16 	220 		695 	0 	
2010-12-27 22:52:19 	218 		695 	0 	
2010-12-27 22:57:43 	206 		345 	0 	
2010-12-27 22:59:11 	409 		195 	0 	
2010-12-27 22:59:34 	418 		25 	0 	
2010-12-27 23:01:38 	410 		595 	0 	
2010-12-27 23:15:46 	213 		645 	0 	
2010-12-27 23:16:52 	204 		585 	0 	
2010-12-27 23:18:07 	207 		465 	0 	
2010-12-27 23:32:17 	422 		695 	0 	
2010-12-27 23:33:29 	309 		395 	0 	
2010-12-27 23:35:04 	414 		645 	0 	
2010-12-27 23:39:32 	212 		275 	0 	
2010-12-27 23:48:45 	410 		285 	0 	
2010-12-27 23:48:52 	218 		10 	0 	
2010-12-27 23:49:08 	303 		645 	0 	
 			Total:		58561 	0		

=== RECHIT LIST ===




V1