MSHOGUN 1: SHIFT END REPORT
Wednesday February 01, 2012 12:00:03 AM

SALES TRANSACTION
Room Sales Order			34485
FnB Sales Order			1165
Beer Sales Order			0
Misc Sales Order			65
Room Sales Adjustment			0
GROSS SALES			35715

DISCOUNT
Room				0
FnB				0
Misc				0

DEPOSIT				33100
REFUND				

TOTAL ACCOUNTABILITY			68815

CASH DECLARATION			6029
CARD				0
FUNDS SAFEKEEP			50000
TOTAL CASH DECLARED			56029

TOTAL CASH ON SYSTEM			5999
OVER/SHORTAGES 			30

ROOM	 # OF CHECK-OUT	AMT
Value 		8	2200
Regular 		30	12510
Classique 		49	19775
Premium 		0	0
Regent 		0	0
Queen 		0	0
Gemini 		0	0
Family 		0	0
Executive Suite 	0	0
Mega Suite 	0	0

DISCOUNT 
Value 			  
Regular 		  
Classique 		  
Premium 		  
Regent 			  
Queen 		  
Gemini 		  
Family 		  
Executive Suite 	  
Mega Suite 		  


=== RESERVATIONS ===

Deposits:


Claimed:



SECURITY DEPOSITS

Deposits:
Claimed:


=== SALES BREAKDOWN ===

Transaction Date	Room No.	Cash	Card

2012-01-31 16:11:30 	206 		345 	0 	
2012-01-31 16:14:05 	203 		585 	0 	
2012-01-31 16:17:51 	217 		275 	0 	
2012-01-31 16:22:27 	308 		395 	0 	
2012-01-31 16:32:55 	420 		35 	0 	
2012-01-31 16:33:59 	303 		345 	0 	
2012-01-31 16:34:08 	304 		395 	0 	
2012-01-31 16:39:43 	206 		90 	0 	
2012-01-31 16:51:07 	316 		345 	0 	
2012-01-31 16:56:32 	306 		316 	0 	
2012-01-31 16:58:09 	219 		80 	0 	
2012-01-31 17:04:41 	313 		395 	0 	
2012-01-31 17:18:13 	315 		395 	0 	
2012-01-31 17:23:01 	318 		110 	0 	
2012-01-31 17:25:50 	312 		395 	0 	
2012-01-31 17:26:16 	317 		395 	0 	
2012-01-31 17:28:39 	301 		395 	0 	
2012-01-31 17:33:58 	309 		395 	0 	
2012-01-31 17:38:08 	319 		395 	0 	
2012-01-31 17:39:52 	214 		275 	0 	
2012-01-31 17:44:47 	211 		345 	0 	
2012-01-31 17:46:20 	401 		395 	0 	
2012-01-31 17:52:29 	322 		395 	0 	
2012-01-31 18:12:32 	402 		395 	0 	
2012-01-31 18:18:27 	221 		210 	0 	
2012-01-31 18:19:18 	302 		695 	0 	
2012-01-31 18:19:30 	307 		316 	0 	
2012-01-31 18:21:32 	220 		695 	0 	
2012-01-31 18:21:45 	218 		395 	0 	
2012-01-31 18:22:58 	219 		395 	0 	
2012-01-31 18:27:59 	321 		316 	0 	
2012-01-31 18:30:21 	404 		695 	0 	
2012-01-31 18:37:28 	407 		395 	0 	
2012-01-31 18:37:56 	408 		395 	0 	
2012-01-31 18:41:08 	304 		395 	0 	
2012-01-31 18:41:23 	421 		695 	0 	
2012-01-31 18:44:19 	406 		395 	0 	
2012-01-31 18:53:17 	320 		645 	0 	
2012-01-31 18:55:33 	209 		275 	0 	
2012-01-31 18:55:59 	421 		20 	0 	
2012-01-31 18:57:35 	207 		345 	0 	
2012-01-31 18:59:47 	305 		595 	0 	
2012-01-31 19:00:58 	422 		395 	0 	
2012-01-31 19:03:21 	413 		695 	0 	
2012-01-31 19:03:43 	409 		395 	0 	
2012-01-31 19:17:33 	308 		395 	0 	
2012-01-31 19:23:10 	420 		360 	0 	
2012-01-31 19:25:15 	323 		595 	0 	
2012-01-31 19:25:33 	414 		645 	0 	
2012-01-31 19:25:44 	415 		395 	0 	
2012-01-31 19:25:55 	210 		345 	0 	
2012-01-31 19:26:09 	324 		275 	0 	
2012-01-31 19:27:10 	217 		275 	0 	
2012-01-31 19:31:26 	403 		645 	0 	
2012-01-31 19:34:39 	213 		345 	0 	
2012-01-31 19:35:24 	303 		345 	0 	
2012-01-31 19:36:17 	303 		30 	0 	
2012-01-31 19:36:29 	314 		345 	0 	
2012-01-31 19:40:36 	309 		395 	0 	
2012-01-31 19:41:46 	319 		395 	0 	
2012-01-31 19:47:25 	316 		345 	0 	
2012-01-31 19:50:20 	408 		395 	0 	
2012-01-31 19:50:33 	402 		395 	0 	
2012-01-31 19:53:53 	318 		345 	0 	
2012-01-31 19:56:40 	416 		345 	0 	
2012-01-31 20:02:21 	406 		595 	0 	
2012-01-31 20:03:08 	417 		395 	0 	
2012-01-31 20:03:27 	419 		395 	0 	
2012-01-31 20:06:13 	321 		185 	0 	
2012-01-31 20:06:42 	412 		395 	0 	
2012-01-31 20:07:41 	405 		595 	0 	
2012-01-31 20:29:42 	406 		100 	0 	
2012-01-31 20:32:10 	412 		210 	0 	
2012-01-31 20:32:49 	206 		645 	0 	
2012-01-31 20:35:24 	420 		645 	0 	
2012-01-31 20:37:15 	307 		395 	0 	
2012-01-31 20:41:31 	406 		270 	0 	
2012-01-31 20:41:46 	315 		395 	0 	
2012-01-31 20:44:15 	214 		595 	0 	
2012-01-31 20:44:32 	204 		345 	0 	
2012-01-31 20:45:20 	418 		645 	0 	
2012-01-31 20:48:29 	424 		595 	0 	
2012-01-31 20:50:38 	313 		140 	0 	
2012-01-31 20:51:38 	312 		395 	0 	
2012-01-31 20:56:45 	205 		276 	0 	
2012-01-31 21:01:05 	407 		695 	0 	
2012-01-31 21:01:20 	309 		395 	0 	
2012-01-31 21:01:58 	322 		695 	0 	
2012-01-31 21:03:06 	423 		595 	0 	
2012-01-31 21:09:09 	316 		645 	0 	
2012-01-31 21:17:12 	406 		140 	0 	
2012-01-31 21:24:36 	215 		645 	0 	
2012-01-31 21:32:29 	313 		695 	0 	
2012-01-31 21:35:41 	312 		135 	0 	
2012-01-31 21:42:06 	317 		140 	0 	
2012-01-31 21:44:24 	306 		695 	0 	
2012-01-31 21:51:46 	219 		395 	0 	
2012-01-31 21:52:47 	301 		695 	0 	
2012-01-31 21:55:13 	206 		275 	0 	
2012-01-31 21:55:16 	206 		30 	0 	
2012-01-31 21:55:19 	206 		30 	0 	
2012-01-31 21:56:14 	314 		25 	0 	
2012-01-31 22:17:16 	401 		395 	0 	
2012-01-31 22:18:48 	324 		595 	0 	
2012-01-31 22:19:02 	209 		275 	0 	
2012-01-31 22:24:24 	315 		695 	0 	
2012-01-31 22:27:13 	202 		345 	0 	
2012-01-31 22:27:28 	317 		695 	0 	
2012-01-31 22:27:38 	221 		395 	0 	
2012-01-31 22:30:29 	304 		395 	0 	
2012-01-31 22:32:52 	208 		275 	0 	
2012-01-31 22:33:18 	308 		395 	0 	
2012-01-31 22:33:55 	220 		25 	0 	
2012-01-31 22:34:56 	203 		345 	0 	
2012-01-31 22:37:51 	218 		395 	0 	
2012-01-31 22:41:45 	211 		645 	0 	
2012-01-31 22:46:20 	402 		695 	0 	
2012-01-31 22:46:20 	402 		305 	0 	
2012-01-31 22:48:29 	409 		695 	0 	
2012-01-31 22:49:12 	409 		130 	0 	
2012-01-31 22:54:26 	408 		695 	0 	
2012-01-31 22:59:39 	407 		345 	0 	
2012-01-31 23:01:17 	415 		695 	0 	
2012-01-31 23:02:01 	210 		345 	0 	
2012-01-31 23:04:14 	207 		345 	0 	
2012-01-31 23:07:09 	321 		695 	0 	
2012-01-31 23:11:33 	417 		695 	0 	
2012-01-31 23:18:57 	309 		395 	0 	
2012-01-31 23:22:22 	212 		595 	0 	
2012-01-31 23:22:39 	422 		695 	0 	
2012-01-31 23:23:55 	213 		345 	0 	
2012-01-31 23:25:46 	406 		50 	0 	
2012-01-31 23:27:55 	416 		345 	0 	
2012-01-31 23:33:41 	314 		645 	0 	
2012-01-31 23:46:52 	307 		395 	0 	
2012-01-31 23:49:29 	319 		695 	0 	
2012-01-31 23:50:12 	318 		645 	0 	
 			Total:		56304 	0		

=== RECHIT LIST ===




V1