MSHOGUN 1: SHIFT END REPORT
Tuesday October 18, 2011 7:56:58 AM

SALES TRANSACTION
Room Sales Order			16705
FnB Sales Order			755
Beer Sales Order			0
Misc Sales Order			30
Room Sales Adjustment			0
GROSS SALES			17490

DISCOUNT
Room				0
FnB				0
Misc				0

DEPOSIT				6030
REFUND				

TOTAL ACCOUNTABILITY			23520

CASH DECLARATION			9815
CARD				1040
FUNDS SAFEKEEP			0
TOTAL CASH DECLARED			10855

TOTAL CASH ON SYSTEM			9920
OVER/SHORTAGES 			-105

ROOM	 # OF CHECK-OUT	AMT
Value 		7	3205
Regular 		10	5730
Classique 		14	7770
Premium 		0	0
Regent 		0	0
Queen 		0	0
Gemini 		0	0
Family 		0	0
Executive Suite 	0	0
Mega Suite 	0	0

DISCOUNT 
Value 			  
Regular 		  
Classique 		  
Premium 		  
Regent 			  
Queen 		  
Gemini 		  
Family 		  
Executive Suite 	  
Mega Suite 		  


=== RESERVATIONS ===

Deposits:


Claimed:



SECURITY DEPOSITS

Deposits:
Claimed:


=== SALES BREAKDOWN ===

Transaction Date	Room No.	Cash	Card

2011-10-18 00:06:08 	319 		50 	0 	
2011-10-18 00:11:20 	209 		275 	0 	
2011-10-18 00:11:31 	312 		395 	0 	
2011-10-18 00:12:05 	321 		695 	0 	
2011-10-18 00:26:50 	310 		275 	0 	
2011-10-18 00:26:57 	322 		695 	0 	
2011-10-18 00:27:12 	315 		695 	0 	
2011-10-18 00:33:07 	402 		395 	0 	
2011-10-18 00:34:03 	220 		0 	695 	
2011-10-18 00:43:10 	401 		395 	0 	
2011-10-18 00:54:22 	315 		25 	0 	
2011-10-18 02:15:32 	219 		695 	0 	
2011-10-18 02:29:59 	422 		395 	0 	
2011-10-18 02:34:59 	404 		695 	0 	
2011-10-18 02:53:12 	309 		395 	0 	
2011-10-18 03:05:12 	316 		645 	0 	
2011-10-18 03:05:29 	314 		645 	0 	
2011-10-18 03:14:36 	206 		465 	0 	
2011-10-18 03:35:40 	204 		585 	0 	
2011-10-18 03:36:51 	303 		0 	345 	
2011-10-18 04:06:57 	209 		275 	0 	
2011-10-18 04:08:57 	312 		140 	0 	
2011-10-18 04:32:35 	213 		705 	0 	
2011-10-18 06:25:44 	303 		155 	0 	
2011-10-18 06:39:36 	414 		10 	0 	
2011-10-18 07:24:44 	324 		100 	0 	
2011-10-18 07:43:57 	416 		120 	0 	
 			Total:		9920 	1040		

=== RECHIT LIST ===




V1