MSHOGUN 1: SHIFT END REPORT
Monday October 18, 2010 8:00:30 AM

SALES TRANSACTION
Room Sales Order			25210
FnB Sales Order			1461
Beer Sales Order			360
Misc Sales Order			60
Room Sales Adjustment			0
GROSS SALES			27091

DISCOUNT
Room				0
FnB				0
Misc				0

DEPOSIT				3965
REFUND				

TOTAL ACCOUNTABILITY			31056

CASH DECLARATION			9456
CARD				0
FUNDS SAFEKEEP			0
TOTAL CASH DECLARED			9456

TOTAL CASH ON SYSTEM			9456
OVER/SHORTAGES 			0

ROOM	 # OF CHECK-OUT	AMT
Value 		11	5505
Regular 		15	6075
Classique 		22	13630
Premium 		0	0
Regent 		0	0
Queen 		0	0
Gemini 		0	0
Family 		0	0
Executive Suite 	0	0
Mega Suite 	0	0

DISCOUNT 
Value 			  
Regular 		  
Classique 		  
Premium 		  
Regent 			  
Queen 		  
Gemini 		  
Family 		  
Executive Suite 	  
Mega Suite 		  


=== RESERVATIONS ===

Deposits:


Claimed:



SECURITY DEPOSITS

Deposits:
Claimed:


=== SALES BREAKDOWN ===

Transaction Date	Room No.	Cash	Card

2010-10-18 00:09:23 	205 		645 	0 	
2010-10-18 00:09:35 	416 		645 	0 	
2010-10-18 00:22:55 	422 		0 	695 	
2010-10-18 00:23:12 	322 		695 	0 	
2010-10-18 00:26:42 	409 		695 	0 	
2010-10-18 00:33:08 	309 		316 	0 	
2010-10-18 00:37:06 	401 		395 	0 	
2010-10-18 00:42:14 	405 		150 	0 	
2010-10-18 00:47:53 	210 		345 	0 	
2010-10-18 00:50:01 	209 		275 	0 	
2010-10-18 01:06:32 	207 		345 	0 	
2010-10-18 01:16:15 	422 		25 	0 	
2010-10-18 01:17:34 	318 		345 	0 	
2010-10-18 01:34:17 	211 		345 	0 	
2010-10-18 01:34:31 	320 		345 	0 	
2010-10-18 01:43:19 	206 		345 	0 	
2010-10-18 01:48:57 	411 		30 	0 	
2010-10-18 02:06:03 	314 		345 	0 	
2010-10-18 02:37:13 	415 		220 	0 	
2010-10-18 03:14:48 	320 		100 	0 	
2010-10-18 03:36:08 	301 		535 	0 	
2010-10-18 03:41:16 	211 		180 	0 	
2010-10-18 03:55:36 	215 		705 	0 	
2010-10-18 04:09:32 	324 		275 	0 	
2010-10-18 04:46:39 	209 		100 	0 	
2010-10-18 05:29:16 	304 		50 	0 	
2010-10-18 05:47:49 	206 		345 	0 	
2010-10-18 06:17:53 	417 		40 	0 	
2010-10-18 07:31:48 	301 		50 	0 	
2010-10-18 07:39:19 	213 		345 	0 	
2010-10-18 07:48:58 	205 		225 	0 	
 			Total:		9456 	695		

=== RECHIT LIST ===




V1