MSHOGUN 1: SHIFT END REPORT
Friday July 15, 2011 4:00:29 PM

SALES TRANSACTION
Room Sales Order			29995
FnB Sales Order			2003
Beer Sales Order			80
Misc Sales Order			0
Room Sales Adjustment			100
GROSS SALES			32178

DISCOUNT
Room				0
FnB				0
Misc				0

DEPOSIT				9170
REFUND				

TOTAL ACCOUNTABILITY			41348

CASH DECLARATION			4655
CARD				0
FUNDS SAFEKEEP			20000
TOTAL CASH DECLARED			24655

TOTAL CASH ON SYSTEM			4655
OVER/SHORTAGES 			0

ROOM	 # OF CHECK-OUT	AMT
Value 		7	2765
Regular 		20	9300
Classique 		34	18030
Premium 		0	0
Regent 		0	0
Queen 		0	0
Gemini 		0	0
Family 		0	0
Executive Suite 	0	0
Mega Suite 	0	0

DISCOUNT 
Value 			  
Regular 		  
Classique 		  
Premium 		  
Regent 			  
Queen 		  
Gemini 		  
Family 		  
Executive Suite 	  
Mega Suite 		  


=== RESERVATIONS ===

Deposits:


Claimed:



SECURITY DEPOSITS

Deposits:
Claimed:


=== SALES BREAKDOWN ===

Transaction Date	Room No.	Cash	Card

2011-07-15 08:22:15 	401 		395 	0 	
2011-07-15 09:11:14 	406 		130 	0 	
2011-07-15 09:18:54 	402 		395 	0 	
2011-07-15 09:19:07 	207 		345 	0 	
2011-07-15 09:24:49 	317 		395 	0 	
2011-07-15 09:25:09 	208 		275 	0 	
2011-07-15 09:27:09 	209 		275 	0 	
2011-07-15 09:44:57 	302 		395 	0 	
2011-07-15 09:50:47 	314 		198 	0 	
2011-07-15 09:52:03 	209 		210 	0 	
2011-07-15 09:55:00 	211 		345 	0 	
2011-07-15 09:55:10 	210 		345 	0 	
2011-07-15 09:56:36 	211 		50 	0 	
2011-07-15 09:59:19 	306 		395 	0 	
2011-07-15 10:19:34 	322 		395 	0 	
2011-07-15 10:25:50 	318 		345 	0 	
2011-07-15 10:52:11 	304 		395 	0 	
2011-07-15 10:52:21 	320 		345 	0 	
2011-07-15 10:59:53 	306 		40 	0 	
2011-07-15 11:00:10 	213 		465 	0 	
2011-07-15 11:00:20 	301 		395 	0 	
2011-07-15 11:06:12 	302 		305 	0 	
2011-07-15 11:11:42 	310 		275 	0 	
2011-07-15 11:18:19 	309 		395 	0 	
2011-07-15 11:19:29 	305 		210 	0 	
2011-07-15 11:23:56 	306 		150 	0 	
2011-07-15 11:36:37 	316 		345 	0 	
2011-07-15 11:38:23 	313 		395 	0 	
2011-07-15 11:43:09 	307 		395 	0 	
2011-07-15 11:44:15 	206 		345 	0 	
2011-07-15 11:46:51 	312 		395 	0 	
2011-07-15 11:50:09 	306 		165 	0 	
2011-07-15 11:52:47 	321 		395 	0 	
2011-07-15 12:03:01 	406 		395 	0 	
2011-07-15 12:17:43 	203 		585 	0 	
2011-07-15 12:20:25 	303 		345 	0 	
2011-07-15 12:25:22 	412 		395 	0 	
2011-07-15 12:36:23 	415 		395 	0 	
2011-07-15 12:52:12 	311 		275 	0 	
2011-07-15 12:55:32 	401 		316 	0 	
2011-07-15 12:58:14 	315 		395 	0 	
2011-07-15 12:58:25 	319 		395 	0 	
2011-07-15 13:16:41 	314 		345 	0 	
2011-07-15 13:21:04 	404 		395 	0 	
2011-07-15 13:22:32 	321 		40 	0 	
2011-07-15 13:22:35 	321 		165 	0 	
2011-07-15 13:23:23 	404 		170 	0 	
2011-07-15 13:23:38 	403 		585 	0 	
2011-07-15 13:35:45 	418 		345 	0 	
2011-07-15 13:37:51 	418 		20 	0 	
2011-07-15 13:39:44 	316 		50 	0 	
2011-07-15 13:41:05 	312 		240 	0 	
2011-07-15 13:51:13 	414 		345 	0 	
2011-07-15 13:52:43 	402 		535 	0 	
2011-07-15 14:02:36 	408 		395 	0 	
2011-07-15 14:14:43 	407 		395 	0 	
2011-07-15 14:15:11 	405 		275 	0 	
2011-07-15 14:22:40 	410 		275 	0 	
2011-07-15 14:32:17 	411 		275 	0 	
2011-07-15 14:34:08 	210 		345 	0 	
2011-07-15 14:34:17 	204 		345 	0 	
2011-07-15 14:37:01 	318 		345 	0 	
2011-07-15 14:39:30 	320 		345 	0 	
2011-07-15 14:57:21 	417 		395 	0 	
2011-07-15 14:57:29 	419 		395 	0 	
2011-07-15 14:57:40 	316 		345 	0 	
2011-07-15 15:05:30 	211 		276 	0 	
2011-07-15 15:07:45 	208 		275 	0 	
2011-07-15 15:11:50 	209 		275 	0 	
2011-07-15 15:12:17 	421 		395 	0 	
2011-07-15 15:15:19 	310 		100 	0 	
2011-07-15 15:20:33 	413 		395 	0 	
2011-07-15 15:23:31 	317 		395 	0 	
2011-07-15 15:37:11 	302 		420 	0 	
2011-07-15 15:46:08 	213 		345 	0 	
2011-07-15 15:47:27 	420 		345 	0 	
2011-07-15 15:51:58 	324 		275 	0 	
 			Total:		24655 	0		

=== RECHIT LIST ===




V1