MSHOGUN 1: SHIFT END REPORT
Saturday October 29, 2011 3:56:55 PM

SALES TRANSACTION
Room Sales Order			42970
FnB Sales Order			3485
Beer Sales Order			270
Misc Sales Order			40
Room Sales Adjustment			0
GROSS SALES			46765

DISCOUNT
Room				0
FnB				0
Misc				0

DEPOSIT				19100
REFUND				

TOTAL ACCOUNTABILITY			65865

CASH DECLARATION			2255
CARD				695
FUNDS SAFEKEEP			40000
TOTAL CASH DECLARED			42950

TOTAL CASH ON SYSTEM			2335
OVER/SHORTAGES 			-80

ROOM	 # OF CHECK-OUT	AMT
Value 		12	5880
Regular 		24	13140
Classique 		46	23950
Premium 		0	0
Regent 		0	0
Queen 		0	0
Gemini 		0	0
Family 		0	0
Executive Suite 	0	0
Mega Suite 	0	0

DISCOUNT 
Value 			  
Regular 		  
Classique 		  
Premium 		  
Regent 			  
Queen 		  
Gemini 		  
Family 		  
Executive Suite 	  
Mega Suite 		  


=== RESERVATIONS ===

Deposits:


Claimed:



SECURITY DEPOSITS

Deposits:
Claimed:


=== SALES BREAKDOWN ===

Transaction Date	Room No.	Cash	Card

2011-10-29 07:59:53 	215 		265 	0 	
2011-10-29 08:00:07 	301 		395 	0 	
2011-10-29 08:21:02 	415 		535 	0 	
2011-10-29 08:37:52 	419 		395 	0 	
2011-10-29 08:42:07 	413 		395 	0 	
2011-10-29 08:52:03 	218 		395 	0 	
2011-10-29 09:03:10 	213 		705 	0 	
2011-10-29 09:03:41 	407 		675 	0 	
2011-10-29 09:19:15 	406 		675 	0 	
2011-10-29 09:20:35 	316 		345 	0 	
2011-10-29 09:21:55 	208 		275 	0 	
2011-10-29 09:29:30 	402 		395 	0 	
2011-10-29 09:55:21 	303 		465 	0 	
2011-10-29 10:05:49 	410 		200 	0 	
2011-10-29 10:06:36 	318 		345 	0 	
2011-10-29 10:07:47 	221 		395 	0 	
2011-10-29 10:10:22 	216 		100 	0 	
2011-10-29 10:13:40 	206 		335 	0 	
2011-10-29 10:14:34 	204 		585 	0 	
2011-10-29 10:17:12 	308 		395 	0 	
2011-10-29 10:17:31 	422 		395 	0 	
2011-10-29 10:17:42 	312 		395 	0 	
2011-10-29 10:24:07 	419 		395 	0 	
2011-10-29 10:44:30 	401 		395 	0 	
2011-10-29 10:47:04 	202 		585 	0 	
2011-10-29 10:49:39 	211 		345 	0 	
2011-10-29 10:58:15 	320 		345 	0 	
2011-10-29 10:59:51 	417 		395 	0 	
2011-10-29 11:06:10 	324 		575 	0 	
2011-10-29 11:07:24 	323 		1175 	0 	
2011-10-29 11:32:30 	219 		395 	0 	
2011-10-29 11:39:26 	220 		316 	0 	
2011-10-29 11:40:18 	419 		250 	0 	
2011-10-29 11:40:31 	306 		395 	0 	
2011-10-29 11:41:43 	212 		275 	0 	
2011-10-29 11:42:07 	214 		275 	0 	
2011-10-29 11:47:13 	304 		395 	0 	
2011-10-29 11:51:52 	307 		395 	0 	
2011-10-29 11:54:05 	411 		400 	0 	
2011-10-29 12:01:39 	206 		465 	0 	
2011-10-29 12:03:05 	412 		395 	0 	
2011-10-29 12:06:59 	413 		395 	0 	
2011-10-29 12:13:08 	302 		395 	0 	
2011-10-29 12:16:56 	420 		345 	0 	
2011-10-29 12:27:35 	406 		260 	0 	
2011-10-29 12:31:10 	210 		345 	0 	
2011-10-29 12:33:42 	313 		395 	0 	
2011-10-29 12:38:39 	409 		395 	0 	
2011-10-29 12:41:27 	404 		395 	0 	
2011-10-29 12:46:40 	216 		275 	0 	
2011-10-29 12:53:57 	217 		275 	0 	
2011-10-29 12:55:13 	308 		316 	0 	
2011-10-29 13:10:20 	210 		25 	0 	
2011-10-29 13:14:01 	315 		395 	0 	
2011-10-29 13:16:56 	422 		135 	0 	
2011-10-29 13:19:59 	403 		345 	0 	
2011-10-29 13:23:30 	312 		316 	0 	
2011-10-29 13:31:44 	301 		395 	0 	
2011-10-29 13:38:53 	208 		275 	0 	
2011-10-29 13:39:07 	207 		345 	0 	
2011-10-29 13:41:54 	410 		275 	0 	
2011-10-29 13:42:29 	316 		345 	0 	
2011-10-29 13:43:23 	419 		395 	0 	
2011-10-29 13:43:37 	415 		395 	0 	
2011-10-29 13:45:28 	411 		575 	0 	
2011-10-29 13:45:41 	314 		345 	0 	
2011-10-29 13:46:39 	416 		705 	0 	
2011-10-29 13:47:13 	405 		275 	0 	
2011-10-29 13:47:34 	203 		345 	0 	
2011-10-29 13:51:06 	318 		345 	0 	
2011-10-29 13:59:38 	211 		465 	0 	
2011-10-29 14:03:09 	201 		345 	0 	
2011-10-29 14:04:15 	215 		345 	0 	
2011-10-29 14:13:55 	402 		395 	0 	
2011-10-29 14:15:17 	314 		530 	0 	
2011-10-29 14:18:44 	221 		140 	0 	
2011-10-29 14:20:18 	319 		395 	0 	
2011-10-29 14:20:27 	321 		395 	0 	
2011-10-29 14:21:17 	420 		705 	0 	
2011-10-29 14:21:42 	301 		150 	0 	
2011-10-29 14:22:04 	305 		275 	0 	
2011-10-29 14:29:12 	322 		395 	0 	
2011-10-29 14:30:14 	422 		395 	0 	
2011-10-29 14:34:50 	302 		175 	0 	
2011-10-29 14:38:54 	219 		395 	0 	
2011-10-29 14:40:15 	314 		40 	0 	
2011-10-29 14:41:52 	401 		395 	0 	
2011-10-29 14:42:01 	412 		395 	0 	
2011-10-29 14:46:30 	421 		395 	0 	
2011-10-29 14:46:42 	306 		316 	0 	
2011-10-29 14:47:28 	218 		395 	0 	
2011-10-29 14:58:23 	310 		275 	0 	
2011-10-29 14:58:37 	307 		395 	0 	
2011-10-29 14:59:01 	424 		575 	0 	
2011-10-29 15:00:19 	220 		395 	0 	
2011-10-29 15:00:53 	407 		140 	0 	
2011-10-29 15:02:29 	402 		80 	0 	
2011-10-29 15:04:42 	221 		395 	0 	
2011-10-29 15:04:57 	210 		345 	0 	
2011-10-29 15:05:11 	311 		275 	0 	
2011-10-29 15:05:49 	406 		395 	0 	
2011-10-29 15:06:24 	303 		345 	0 	
2011-10-29 15:09:38 	212 		275 	0 	
2011-10-29 15:10:07 	320 		345 	0 	
2011-10-29 15:11:08 	322 		275 	0 	
2011-10-29 15:11:31 	302 		395 	0 	
2011-10-29 15:20:18 	214 		375 	0 	
2011-10-29 15:23:03 	408 		395 	0 	
2011-10-29 15:23:50 	407 		395 	0 	
2011-10-29 15:27:37 	303 		50 	0 	
2011-10-29 15:29:50 	413 		395 	0 	
2011-10-29 15:31:35 	202 		345 	0 	
2011-10-29 15:34:45 	204 		276 	0 	
2011-10-29 15:53:42 	206 		515 	0 	
 			Total:		42335 	0		

=== RECHIT LIST ===




V1