MSHOGUN 1: SHIFT END REPORT
Monday April 04, 2011 12:00:30 AM

SALES TRANSACTION
Room Sales Order			47440
FnB Sales Order			1338
Beer Sales Order			295
Misc Sales Order			45
Room Sales Adjustment			0
GROSS SALES			49118

DISCOUNT
Room				0
FnB				0
Misc				0

DEPOSIT				29073
REFUND				-155

TOTAL ACCOUNTABILITY			78036

CASH DECLARATION			5662
CARD				0
FUNDS SAFEKEEP			50000
TOTAL CASH DECLARED			55662

TOTAL CASH ON SYSTEM			5487
OVER/SHORTAGES 			175

ROOM	 # OF CHECK-OUT	AMT
Value 		14	3950
Regular 		45	17205
Classique 		63	26285
Premium 		0	0
Regent 		0	0
Queen 		0	0
Gemini 		0	0
Family 		0	0
Executive Suite 	0	0
Mega Suite 	0	0

DISCOUNT 
Value 			  
Regular 		  
Classique 		  
Premium 		  
Regent 			  
Queen 		  
Gemini 		  
Family 		  
Executive Suite 	  
Mega Suite 		  


=== RESERVATIONS ===

Deposits:


Claimed:



SECURITY DEPOSITS

Deposits:
Claimed:


=== SALES BREAKDOWN ===

Transaction Date	Room No.	Cash	Card

2011-04-03 16:13:03 	207 		345 	0 	
2011-04-03 16:14:40 	202 		345 	0 	
2011-04-03 16:15:38 	201 		345 	0 	
2011-04-03 16:15:49 	414 		345 	0 	
2011-04-03 16:19:52 	315 		395 	0 	
2011-04-03 16:20:49 	416 		345 	0 	
2011-04-03 16:24:12 	303 		345 	0 	
2011-04-03 16:31:07 	221 		395 	0 	
2011-04-03 16:34:50 	412 		198 	0 	
2011-04-03 16:36:18 	318 		345 	0 	
2011-04-03 16:38:29 	319 		395 	0 	
2011-04-03 16:44:11 	208 		275 	0 	
2011-04-03 16:46:54 	204 		345 	0 	
2011-04-03 16:54:14 	309 		395 	0 	
2011-04-03 16:54:26 	322 		395 	0 	
2011-04-03 17:02:20 	409 		395 	0 	
2011-04-03 17:05:36 	321 		395 	0 	
2011-04-03 17:06:21 	307 		80 	0 	
2011-04-03 17:09:24 	220 		395 	0 	
2011-04-03 17:17:23 	407 		395 	0 	
2011-04-03 17:19:13 	218 		395 	0 	
2011-04-03 17:30:19 	420 		160 	0 	
2011-04-03 17:39:14 	306 		395 	0 	
2011-04-03 17:39:47 	212 		275 	0 	
2011-04-03 17:42:55 	408 		395 	0 	
2011-04-03 17:43:07 	313 		395 	0 	
2011-04-03 17:45:18 	212 		25 	0 	
2011-04-03 17:49:18 	404 		395 	0 	
2011-04-03 17:53:04 	216 		275 	0 	
2011-04-03 17:57:18 	403 		240 	0 	
2011-04-03 18:04:11 	417 		395 	0 	
2011-04-03 18:06:38 	301 		395 	0 	
2011-04-03 18:07:07 	405 		275 	0 	
2011-04-03 18:08:49 	205 		345 	0 	
2011-04-03 18:09:20 	316 		345 	0 	
2011-04-03 18:11:37 	309 		60 	0 	
2011-04-03 18:13:38 	420 		645 	0 	
2011-04-03 18:13:59 	210 		345 	0 	
2011-04-03 18:20:48 	418 		345 	0 	
2011-04-03 18:25:08 	211 		345 	0 	
2011-04-03 18:28:47 	204 		345 	0 	
2011-04-03 18:28:47 	204 		155 	0 	
2011-04-03 18:33:35 	303 		345 	0 	
2011-04-03 18:35:16 	421 		395 	0 	
2011-04-03 18:39:48 	207 		345 	0 	
2011-04-03 18:46:31 	206 		345 	0 	
2011-04-03 18:46:42 	403 		345 	0 	
2011-04-03 18:47:32 	203 		345 	0 	
2011-04-03 18:52:24 	304 		395 	0 	
2011-04-03 18:56:59 	412 		140 	0 	
2011-04-03 18:57:56 	323 		595 	0 	
2011-04-03 18:58:09 	217 		275 	0 	
2011-04-03 18:58:31 	315 		695 	0 	
2011-04-03 19:02:07 	201 		345 	0 	
2011-04-03 19:03:13 	401 		395 	0 	
2011-04-03 19:06:03 	402 		395 	0 	
2011-04-03 19:06:12 	202 		345 	0 	
2011-04-03 19:09:47 	406 		395 	0 	
2011-04-03 19:14:10 	407 		395 	0 	
2011-04-03 19:17:53 	415 		140 	0 	
2011-04-03 19:18:16 	413 		395 	0 	
2011-04-03 19:19:09 	320 		345 	0 	
2011-04-03 19:38:40 	419 		695 	0 	
2011-04-03 19:40:17 	214 		595 	0 	
2011-04-03 19:40:40 	416 		345 	0 	
2011-04-03 19:40:54 	322 		395 	0 	
2011-04-03 19:41:35 	209 		415 	0 	
2011-04-03 19:42:17 	414 		645 	0 	
2011-04-03 19:43:01 	219 		395 	0 	
2011-04-03 19:45:33 	321 		695 	0 	
2011-04-03 19:46:30 	412 		695 	0 	
2011-04-03 19:57:01 	221 		695 	0 	
2011-04-03 19:59:55 	306 		395 	0 	
2011-04-03 20:01:34 	213 		345 	0 	
2011-04-03 20:05:26 	415 		395 	0 	
2011-04-03 20:07:27 	318 		345 	0 	
2011-04-03 20:09:14 	205 		140 	0 	
2011-04-03 20:09:52 	221 		80 	0 	
2011-04-03 20:10:36 	306 		50 	0 	
2011-04-03 20:11:32 	302 		280 	0 	
2011-04-03 20:12:31 	314 		645 	0 	
2011-04-03 20:12:47 	408 		695 	0 	
2011-04-03 20:15:05 	304 		395 	0 	
2011-04-03 20:15:29 	208 		275 	0 	
2011-04-03 20:15:46 	211 		345 	0 	
2011-04-03 20:20:14 	302 		695 	0 	
2011-04-03 20:20:34 	303 		276 	0 	
2011-04-03 20:25:28 	212 		0 	595 	
2011-04-03 20:25:47 	309 		395 	0 	
2011-04-03 20:31:47 	218 		395 	0 	
2011-04-03 20:33:44 	204 		-155 	0 	
2011-04-03 20:40:43 	402 		695 	0 	
2011-04-03 20:42:01 	417 		695 	0 	
2011-04-03 20:42:47 	305 		595 	0 	
2011-04-03 20:44:30 	209 		595 	0 	
2011-04-03 20:49:51 	206 		645 	0 	
2011-04-03 20:50:04 	313 		695 	0 	
2011-04-03 20:50:41 	402 		10 	0 	
2011-04-03 20:54:07 	204 		345 	0 	
2011-04-03 20:54:24 	217 		595 	0 	
2011-04-03 20:54:34 	216 		595 	0 	
2011-04-03 20:57:51 	316 		345 	0 	
2011-04-03 21:05:58 	402 		185 	0 	
2011-04-03 21:06:38 	308 		395 	0 	
2011-04-03 21:07:46 	313 		198 	0 	
2011-04-03 21:19:55 	312 		395 	0 	
2011-04-03 21:27:55 	220 		695 	0 	
2011-04-03 21:30:02 	417 		260 	0 	
2011-04-03 21:40:56 	310 		595 	0 	
2011-04-03 21:42:54 	319 		695 	0 	
2011-04-03 21:43:18 	320 		705 	0 	
2011-04-03 21:47:46 	301 		395 	0 	
2011-04-03 21:49:16 	307 		695 	0 	
2011-04-03 21:52:09 	312 		45 	0 	
2011-04-03 21:52:32 	406 		695 	0 	
2011-04-03 21:54:59 	421 		695 	0 	
2011-04-03 21:56:54 	322 		395 	0 	
2011-04-03 21:59:01 	219 		695 	0 	
2011-04-03 22:00:26 	409 		395 	0 	
2011-04-03 22:04:24 	418 		345 	0 	
2011-04-03 22:04:24 	418 		155 	0 	
2011-04-03 22:04:38 	418 		-155 	0 	
2011-04-03 22:09:16 	407 		395 	0 	
2011-04-03 22:09:36 	219 		10 	0 	
2011-04-03 22:10:08 	311 		275 	0 	
2011-04-03 22:10:20 	221 		50 	0 	
2011-04-03 22:20:57 	403 		0 	645 	
2011-04-03 22:23:07 	415 		695 	0 	
2011-04-03 22:40:01 	401 		395 	0 	
2011-04-03 22:45:20 	304 		695 	0 	
2011-04-03 22:47:58 	218 		395 	0 	
2011-04-03 22:55:53 	306 		395 	0 	
2011-04-03 22:56:19 	416 		345 	0 	
2011-04-03 22:57:59 	313 		10 	0 	
2011-04-03 23:01:13 	215 		645 	0 	
2011-04-03 23:02:28 	213 		345 	0 	
2011-04-03 23:02:49 	221 		100 	0 	
2011-04-03 23:07:46 	210 		345 	0 	
2011-04-03 23:10:02 	407 		695 	0 	
2011-04-03 23:14:35 	318 		645 	0 	
2011-04-03 23:15:01 	207 		345 	0 	
2011-04-03 23:16:44 	210 		20 	0 	
2011-04-03 23:21:30 	211 		645 	0 	
2011-04-03 23:37:41 	309 		395 	0 	
2011-04-03 23:45:50 	308 		695 	0 	
2011-04-03 23:50:10 	402 		75 	0 	
 			Total:		55642 	1240		

=== RECHIT LIST ===




V1