MSHOGUN 1: SHIFT END REPORT
Saturday August 13, 2011 3:59:23 PM

SALES TRANSACTION
Room Sales Order			30890
FnB Sales Order			2665
Beer Sales Order			160
Misc Sales Order			20
Room Sales Adjustment			0
GROSS SALES			33735

DISCOUNT
Room				0
FnB				0
Misc				0

DEPOSIT				15795
REFUND				

TOTAL ACCOUNTABILITY			49530

CASH DECLARATION			2469
CARD				0
FUNDS SAFEKEEP			30000
TOTAL CASH DECLARED			32469

TOTAL CASH ON SYSTEM			2470
OVER/SHORTAGES 			-1

ROOM	 # OF CHECK-OUT	AMT
Value 		10	4450
Regular 		13	7005
Classique 		37	19435
Premium 		0	0
Regent 		0	0
Queen 		0	0
Gemini 		0	0
Family 		0	0
Executive Suite 	0	0
Mega Suite 	0	0

DISCOUNT 
Value 			  
Regular 		  
Classique 		  
Premium 		  
Regent 			  
Queen 		  
Gemini 		  
Family 		  
Executive Suite 	  
Mega Suite 		  


=== RESERVATIONS ===

Deposits:


Claimed:



SECURITY DEPOSITS

Deposits:
Claimed:


=== SALES BREAKDOWN ===

Transaction Date	Room No.	Cash	Card

2011-08-13 08:11:02 	312 		395 	0 	
2011-08-13 08:12:01 	301 		320 	0 	
2011-08-13 08:26:43 	401 		395 	0 	
2011-08-13 08:53:22 	413 		230 	0 	
2011-08-13 08:54:21 	323 		375 	0 	
2011-08-13 09:10:43 	302 		130 	0 	
2011-08-13 09:13:56 	304 		395 	0 	
2011-08-13 09:36:48 	306 		395 	0 	
2011-08-13 09:37:48 	415 		395 	0 	
2011-08-13 09:40:41 	324 		275 	0 	
2011-08-13 09:44:57 	409 		140 	0 	
2011-08-13 09:48:22 	401 		25 	0 	
2011-08-13 09:54:29 	210 		345 	0 	
2011-08-13 09:58:53 	213 		345 	0 	
2011-08-13 10:30:29 	417 		316 	0 	
2011-08-13 10:41:01 	208 		250 	0 	
2011-08-13 10:42:23 	408 		316 	0 	
2011-08-13 10:57:29 	322 		395 	0 	
2011-08-13 11:01:34 	209 		275 	0 	
2011-08-13 11:07:46 	307 		395 	0 	
2011-08-13 11:21:08 	407 		395 	0 	
2011-08-13 11:26:25 	409 		395 	0 	
2011-08-13 11:27:25 	402 		316 	0 	
2011-08-13 11:45:51 	404 		395 	0 	
2011-08-13 11:48:38 	305 		275 	0 	
2011-08-13 12:00:59 	412 		395 	0 	
2011-08-13 12:03:03 	313 		1010 	0 	
2011-08-13 12:12:15 	413 		395 	0 	
2011-08-13 12:21:28 	419 		395 	0 	
2011-08-13 12:23:47 	202 		120 	0 	
2011-08-13 12:26:58 	203 		465 	0 	
2011-08-13 12:38:15 	421 		395 	0 	
2011-08-13 12:42:30 	304 		395 	0 	
2011-08-13 12:46:10 	211 		345 	0 	
2011-08-13 12:50:56 	306 		395 	0 	
2011-08-13 12:57:46 	406 		250 	0 	
2011-08-13 13:04:21 	208 		275 	0 	
2011-08-13 13:09:53 	408 		305 	0 	
2011-08-13 13:14:23 	212 		275 	0 	
2011-08-13 13:18:47 	214 		275 	0 	
2011-08-13 13:24:06 	215 		276 	0 	
2011-08-13 13:30:19 	312 		395 	0 	
2011-08-13 13:31:16 	308 		395 	0 	
2011-08-13 13:33:47 	219 		395 	0 	
2011-08-13 13:33:59 	312 		120 	0 	
2011-08-13 13:43:50 	313 		395 	0 	
2011-08-13 13:45:27 	210 		345 	0 	
2011-08-13 13:49:36 	206 		585 	0 	
2011-08-13 13:49:57 	322 		395 	0 	
2011-08-13 13:55:48 	207 		345 	0 	
2011-08-13 14:00:34 	213 		705 	0 	
2011-08-13 14:02:39 	302 		395 	0 	
2011-08-13 14:04:05 	302 		50 	0 	
2011-08-13 14:04:46 	315 		395 	0 	
2011-08-13 14:05:28 	321 		395 	0 	
2011-08-13 14:07:19 	220 		395 	0 	
2011-08-13 14:08:34 	406 		700 	0 	
2011-08-13 14:09:46 	401 		395 	0 	
2011-08-13 14:11:13 	422 		395 	0 	
2011-08-13 14:25:16 	403 		705 	0 	
2011-08-13 14:27:49 	202 		345 	0 	
2011-08-13 14:28:16 	407 		395 	0 	
2011-08-13 14:31:35 	221 		395 	0 	
2011-08-13 14:36:28 	407 		30 	0 	
2011-08-13 14:47:43 	319 		395 	0 	
2011-08-13 14:49:17 	408 		395 	0 	
2011-08-13 14:50:17 	406 		395 	0 	
2011-08-13 14:52:44 	321 		270 	0 	
2011-08-13 14:54:45 	213 		50 	0 	
2011-08-13 14:54:54 	317 		395 	0 	
2011-08-13 14:56:43 	417 		140 	0 	
2011-08-13 15:02:35 	419 		395 	0 	
2011-08-13 15:05:33 	307 		395 	0 	
2011-08-13 15:07:59 	301 		395 	0 	
2011-08-13 15:08:07 	209 		275 	0 	
2011-08-13 15:09:18 	415 		395 	0 	
2011-08-13 15:09:41 	204 		345 	0 	
2011-08-13 15:10:44 	404 		395 	0 	
2011-08-13 15:11:26 	414 		345 	0 	
2011-08-13 15:18:34 	303 		705 	0 	
2011-08-13 15:19:03 	314 		345 	0 	
2011-08-13 15:23:35 	316 		345 	0 	
2011-08-13 15:25:50 	318 		345 	0 	
2011-08-13 15:26:20 	320 		345 	0 	
2011-08-13 15:27:08 	301 		65 	0 	
2011-08-13 15:29:40 	216 		275 	0 	
2011-08-13 15:34:45 	211 		345 	0 	
2011-08-13 15:35:32 	416 		276 	0 	
2011-08-13 15:42:20 	302 		395 	0 	
2011-08-13 15:44:28 	418 		345 	0 	
2011-08-13 15:51:43 	306 		395 	0 	
2011-08-13 15:52:58 	309 		395 	0 	
 			Total:		32470 	0		

=== RECHIT LIST ===




V1