MSHOGUN 1: SHIFT END REPORT
Wednesday October 12, 2011 7:56:56 AM

SALES TRANSACTION
Room Sales Order			25355
FnB Sales Order			1070
Beer Sales Order			315
Misc Sales Order			0
Room Sales Adjustment			0
GROSS SALES			26740

DISCOUNT
Room				0
FnB				0
Misc				0

DEPOSIT				4455
REFUND				

TOTAL ACCOUNTABILITY			31195

CASH DECLARATION			8241
CARD				695
FUNDS SAFEKEEP			0
TOTAL CASH DECLARED			8936

TOTAL CASH ON SYSTEM			8241
OVER/SHORTAGES 			0

ROOM	 # OF CHECK-OUT	AMT
Value 		10	5130
Regular 		10	5550
Classique 		25	14675
Premium 		0	0
Regent 		0	0
Queen 		0	0
Gemini 		0	0
Family 		0	0
Executive Suite 	0	0
Mega Suite 	0	0

DISCOUNT 
Value 			  
Regular 		  
Classique 		  
Premium 		  
Regent 			  
Queen 		  
Gemini 		  
Family 		  
Executive Suite 	  
Mega Suite 		  


=== RESERVATIONS ===

Deposits:


Claimed:



SECURITY DEPOSITS

Deposits:
Claimed:


=== SALES BREAKDOWN ===

Transaction Date	Room No.	Cash	Card

2011-10-12 00:17:34 	304 		150 	0 	
2011-10-12 00:19:50 	202 		645 	0 	
2011-10-12 00:28:38 	409 		695 	0 	
2011-10-12 00:28:47 	201 		645 	0 	
2011-10-12 00:39:32 	214 		275 	0 	
2011-10-12 00:44:20 	202 		80 	0 	
2011-10-12 01:25:53 	210 		645 	0 	
2011-10-12 01:32:51 	207 		345 	0 	
2011-10-12 01:41:01 	404 		695 	0 	
2011-10-12 01:50:11 	301 		395 	0 	
2011-10-12 02:33:29 	422 		695 	0 	
2011-10-12 02:43:44 	318 		210 	0 	
2011-10-12 03:01:15 	401 		395 	0 	
2011-10-12 03:27:32 	212 		575 	0 	
2011-10-12 03:29:58 	309 		395 	0 	
2011-10-12 04:58:21 	220 		10 	0 	
2011-10-12 05:07:49 	207 		276 	0 	
2011-10-12 06:29:11 	310 		100 	0 	
2011-10-12 06:58:21 	209 		275 	0 	
2011-10-12 07:23:03 	312 		395 	0 	
2011-10-12 07:43:31 	318 		345 	0 	
2011-10-12 07:52:22 	301 		0 	395 	
 			Total:		8241 	395		

=== RECHIT LIST ===




V1