MSHOGUN 1: SHIFT END REPORT
Wednesday August 11, 2010 12:00:02 AM

SALES TRANSACTION
Room Sales Order			32220
FnB Sales Order			1541
Beer Sales Order			225
Misc Sales Order			135
Room Sales Adjustment			-225
GROSS SALES			33896

DISCOUNT
Room				0
FnB				0
Misc				0

DEPOSIT				29905
REFUND				

TOTAL ACCOUNTABILITY			63801

CASH DECLARATION			1551
CARD				0
FUNDS SAFEKEEP			50000
TOTAL CASH DECLARED			51551

TOTAL CASH ON SYSTEM			1551
OVER/SHORTAGES 			0

ROOM	 # OF CHECK-OUT	AMT
Value 		11	3425
Regular 		10	3690
Classique 		59	24005
Premium 		1	450
Regent 		0	0
Queen 		0	0
Gemini 		0	0
Family 		1	650
Executive Suite 	0	0
Mega Suite 	0	0

DISCOUNT 
Value 			  
Regular 		  
Classique 		  
Premium 		  
Regent 			  
Queen 		  
Gemini 		  
Family 		  
Executive Suite 	  
Mega Suite 		  


=== RESERVATIONS ===

Deposits:


Claimed:



SECURITY DEPOSITS

Deposits:
Claimed:


=== SALES BREAKDOWN ===

Transaction Date	Room No.	Cash	Card

2010-08-10 16:06:20 	417 		395 	0 	
2010-08-10 16:06:43 	406 		395 	0 	
2010-08-10 16:17:59 	605 		1050 	0 	
2010-08-10 16:27:57 	411 		275 	0 	
2010-08-10 16:29:56 	314 		345 	0 	
2010-08-10 16:47:43 	301 		395 	0 	
2010-08-10 16:53:42 	419 		316 	0 	
2010-08-10 17:04:06 	511 		800 	0 	
2010-08-10 17:09:01 	408 		45 	0 	
2010-08-10 17:12:02 	322 		395 	0 	
2010-08-10 17:21:58 	405 		275 	0 	
2010-08-10 17:22:46 	403 		276 	0 	
2010-08-10 17:25:08 	321 		535 	0 	
2010-08-10 17:37:12 	418 		345 	0 	
2010-08-10 17:38:23 	413 		395 	0 	
2010-08-10 17:38:35 	322 		50 	0 	
2010-08-10 17:39:14 	422 		395 	0 	
2010-08-10 17:41:20 	413 		20 	0 	
2010-08-10 17:44:03 	410 		275 	0 	
2010-08-10 17:55:26 	407 		675 	0 	
2010-08-10 17:55:37 	412 		395 	0 	
2010-08-10 17:56:22 	407 		20 	0 	
2010-08-10 17:56:56 	421 		395 	0 	
2010-08-10 17:57:09 	302 		395 	0 	
2010-08-10 17:59:44 	401 		535 	0 	
2010-08-10 18:05:54 	409 		395 	0 	
2010-08-10 18:07:04 	421 		50 	0 	
2010-08-10 18:09:34 	510 		800 	0 	
2010-08-10 18:13:31 	408 		316 	0 	
2010-08-10 18:14:18 	408 		20 	0 	
2010-08-10 18:15:13 	404 		395 	0 	
2010-08-10 18:19:31 	415 		395 	0 	
2010-08-10 18:20:43 	309 		395 	0 	
2010-08-10 18:25:28 	505 		800 	0 	
2010-08-10 18:27:01 	423 		275 	0 	
2010-08-10 18:27:38 	422 		210 	0 	
2010-08-10 18:28:06 	308 		395 	0 	
2010-08-10 18:30:56 	306 		395 	0 	
2010-08-10 18:36:13 	312 		395 	0 	
2010-08-10 18:41:19 	420 		345 	0 	
2010-08-10 18:48:50 	416 		345 	0 	
2010-08-10 18:48:59 	319 		395 	0 	
2010-08-10 18:50:30 	313 		395 	0 	
2010-08-10 18:55:31 	311 		275 	0 	
2010-08-10 19:03:03 	414 		645 	0 	
2010-08-10 19:06:28 	323 		595 	0 	
2010-08-10 19:16:55 	301 		395 	0 	
2010-08-10 19:20:00 	510 		20 	0 	
2010-08-10 19:22:20 	315 		395 	0 	
2010-08-10 19:23:37 	318 		645 	0 	
2010-08-10 19:25:05 	402 		395 	0 	
2010-08-10 19:28:52 	307 		395 	0 	
2010-08-10 19:34:20 	324 		275 	0 	
2010-08-10 19:36:49 	321 		395 	0 	
2010-08-10 19:37:55 	320 		645 	0 	
2010-08-10 19:40:26 	322 		395 	0 	
2010-08-10 19:42:57 	304 		395 	0 	
2010-08-10 19:52:07 	305 		595 	0 	
2010-08-10 19:57:38 	409 		395 	0 	
2010-08-10 20:04:40 	415 		210 	0 	
2010-08-10 20:09:38 	306 		395 	0 	
2010-08-10 20:19:18 	406 		695 	0 	
2010-08-10 20:19:58 	303 		276 	0 	
2010-08-10 20:20:43 	417 		395 	0 	
2010-08-10 20:21:13 	511 		80 	0 	
2010-08-10 20:21:15 	511 		10 	0 	
2010-08-10 20:21:35 	320 		10 	0 	
2010-08-10 20:21:48 	421 		395 	0 	
2010-08-10 20:22:20 	504 		800 	0 	
2010-08-10 20:26:42 	411 		100 	0 	
2010-08-10 20:28:50 	412 		395 	0 	
2010-08-10 20:29:46 	319 		395 	0 	
2010-08-10 20:33:32 	413 		395 	0 	
2010-08-10 20:37:08 	407 		208 	0 	
2010-08-10 20:37:45 	413 		50 	0 	
2010-08-10 20:38:02 	419 		695 	0 	
2010-08-10 20:42:58 	306 		120 	0 	
2010-08-10 20:43:13 	601 		850 	0 	
2010-08-10 20:43:21 	422 		535 	0 	
2010-08-10 20:49:20 	609 		695 	0 	
2010-08-10 20:51:09 	302 		298 	0 	
2010-08-10 20:55:45 	313 		695 	0 	
2010-08-10 21:03:35 	508 		750 	0 	
2010-08-10 21:09:33 	506 		800 	0 	
2010-08-10 21:13:04 	419 		135 	0 	
2010-08-10 21:13:06 	419 		40 	0 	
2010-08-10 21:13:16 	303 		210 	0 	
2010-08-10 21:13:32 	507 		800 	0 	
2010-08-10 21:32:39 	302 		395 	0 	
2010-08-10 21:37:50 	518 		450 	0 	
2010-08-10 21:40:28 	402 		695 	0 	
2010-08-10 21:43:30 	320 		10 	0 	
2010-08-10 21:53:41 	312 		395 	0 	
2010-08-10 21:55:06 	308 		695 	0 	
2010-08-10 21:55:29 	319 		395 	0 	
2010-08-10 22:00:37 	410 		595 	0 	
2010-08-10 22:01:02 	411 		275 	0 	
2010-08-10 22:01:17 	301 		395 	0 	
2010-08-10 22:02:05 	423 		595 	0 	
2010-08-10 22:06:26 	503 		800 	0 	
2010-08-10 22:06:46 	221 		316 	0 	
2010-08-10 22:07:27 	502 		800 	0 	
2010-08-10 22:11:08 	419 		100 	0 	
2010-08-10 22:13:58 	311 		275 	0 	
2010-08-10 22:14:05 	515 		800 	0 	
2010-08-10 22:14:12 	514 		800 	0 	
2010-08-10 22:15:03 	310 		275 	0 	
2010-08-10 22:18:28 	413 		695 	0 	
2010-08-10 22:19:26 	315 		695 	0 	
2010-08-10 22:23:05 	404 		695 	0 	
2010-08-10 22:26:00 	310 		20 	0 	
2010-08-10 22:28:13 	421 		975 	0 	
2010-08-10 22:38:46 	405 		25 	0 	
2010-08-10 22:49:10 	306 		695 	0 	
2010-08-10 22:53:06 	220 		695 	0 	
2010-08-10 22:58:45 	304 		535 	0 	
2010-08-10 23:05:09 	309 		395 	0 	
2010-08-10 23:07:56 	218 		395 	0 	
2010-08-10 23:09:58 	415 		395 	0 	
2010-08-10 23:15:14 	316 		645 	0 	
2010-08-10 23:32:14 	419 		45 	0 	
2010-08-10 23:44:48 	418 		0 	645 	
2010-08-10 23:50:11 	405 		300 	0 	
2010-08-10 23:51:09 	416 		645 	0 	
2010-08-10 23:52:44 	609 		155 	0 	
2010-08-10 23:53:10 	503 		90 	0 	
 			Total:		51551 	645		

=== RECHIT LIST ===

Room No. 504 	 Rechit Date: 2010-08-10 21:06:52




Room No. 512 	 Rechit Date: 2010-08-10 16:46:04







V1