MSHOGUN 1: SHIFT END REPORT
Monday May 09, 2011 4:00:11 PM

SALES TRANSACTION
Room Sales Order			22455
FnB Sales Order			2171
Beer Sales Order			0
Misc Sales Order			30
Room Sales Adjustment			0
GROSS SALES			24656

DISCOUNT
Room				0
FnB				0
Misc				0

DEPOSIT				6445
REFUND				

TOTAL ACCOUNTABILITY			31101

CASH DECLARATION			2546
CARD				0
FUNDS SAFEKEEP			10000
TOTAL CASH DECLARED			12546

TOTAL CASH ON SYSTEM			6336
OVER/SHORTAGES 			-3790

ROOM	 # OF CHECK-OUT	AMT
Value 		2	1190
Regular 		11	6555
Classique 		26	14710
Premium 		0	0
Regent 		0	0
Queen 		0	0
Gemini 		0	0
Family 		0	0
Executive Suite 	0	0
Mega Suite 	0	0

DISCOUNT 
Value 			  
Regular 		  
Classique 		  
Premium 		  
Regent 			  
Queen 		  
Gemini 		  
Family 		  
Executive Suite 	  
Mega Suite 		  


=== RESERVATIONS ===

Deposits:


Claimed:



SECURITY DEPOSITS

Deposits:
Claimed:


=== SALES BREAKDOWN ===

Transaction Date	Room No.	Cash	Card

2011-05-09 08:03:08 	407 		450 	0 	
2011-05-09 08:33:59 	419 		240 	0 	
2011-05-09 08:41:47 	304 		280 	0 	
2011-05-09 09:25:58 	320 		170 	0 	
2011-05-09 10:00:58 	306 		395 	0 	
2011-05-09 10:21:46 	417 		180 	0 	
2011-05-09 10:23:21 	218 		395 	0 	
2011-05-09 10:31:18 	213 		345 	0 	
2011-05-09 10:31:37 	316 		465 	0 	
2011-05-09 10:44:43 	315 		395 	0 	
2011-05-09 10:44:59 	309 		316 	0 	
2011-05-09 10:57:53 	322 		280 	0 	
2011-05-09 11:20:25 	301 		395 	0 	
2011-05-09 11:20:49 	314 		345 	0 	
2011-05-09 11:25:39 	406 		395 	0 	
2011-05-09 11:48:40 	321 		50 	0 	
2011-05-09 11:55:50 	406 		198 	0 	
2011-05-09 12:00:36 	409 		395 	0 	
2011-05-09 12:04:36 	215 		345 	0 	
2011-05-09 12:39:54 	203 		345 	0 	
2011-05-09 12:56:32 	302 		395 	0 	
2011-05-09 13:08:00 	407 		395 	0 	
2011-05-09 13:15:01 	219 		395 	0 	
2011-05-09 13:32:17 	220 		395 	0 	
2011-05-09 13:32:48 	306 		395 	0 	
2011-05-09 13:35:10 	402 		316 	0 	
2011-05-09 13:40:43 	310 		275 	0 	
2011-05-09 13:44:32 	309 		455 	0 	
2011-05-09 13:46:26 	304 		395 	0 	
2011-05-09 13:47:22 	322 		395 	0 	
2011-05-09 14:02:56 	319 		395 	0 	
2011-05-09 14:18:43 	320 		600 	0 	
2011-05-09 14:20:07 	420 		345 	0 	
2011-05-09 14:21:28 	315 		395 	0 	
2011-05-09 14:21:41 	307 		395 	0 	
2011-05-09 14:39:12 	204 		276 	0 	
2011-05-09 14:46:39 	402 		395 	0 	
2011-05-09 15:09:57 	301 		395 	0 	
2011-05-09 15:13:29 	404 		395 	0 	
2011-05-09 15:13:40 	306 		395 	0 	
2011-05-09 15:15:07 	314 		120 	0 	
2011-05-09 15:15:58 	309 		395 	0 	
2011-05-09 15:29:18 	218 		395 	0 	
2011-05-09 15:38:21 	221 		395 	0 	
2011-05-09 15:42:43 	313 		395 	0 	
2011-05-09 15:55:13 	306 		65 	0 	
2011-05-09 15:56:33 	312 		395 	0 	
 			Total:		16336 	0		

=== RECHIT LIST ===




V1