MSHOGUN 1: SHIFT END REPORT
Thursday December 16, 2010 8:00:02 AM

SALES TRANSACTION
Room Sales Order			41175
FnB Sales Order			3768
Beer Sales Order			1555
Misc Sales Order			400
Room Sales Adjustment			0
GROSS SALES			46898

DISCOUNT
Room				0
FnB				0
Misc				0

DEPOSIT				3035
REFUND				

TOTAL ACCOUNTABILITY			49933

CASH DECLARATION			1565
CARD				0
FUNDS SAFEKEEP			20000
TOTAL CASH DECLARED			21565

TOTAL CASH ON SYSTEM			1565
OVER/SHORTAGES 			0

ROOM	 # OF CHECK-OUT	AMT
Value 		16	8960
Regular 		22	10470
Classique 		39	21745
Premium 		0	0
Regent 		0	0
Queen 		0	0
Gemini 		0	0
Family 		0	0
Executive Suite 	0	0
Mega Suite 	0	0

DISCOUNT 
Value 			  
Regular 		  
Classique 		  
Premium 		  
Regent 			  
Queen 		  
Gemini 		  
Family 		  
Executive Suite 	  
Mega Suite 		  


=== RESERVATIONS ===

Deposits:


Claimed:



SECURITY DEPOSITS

Deposits:
Claimed:


=== SALES BREAKDOWN ===

Transaction Date	Room No.	Cash	Card

2010-12-16 00:02:36 	207 		120 	0 	
2010-12-16 00:05:32 	401 		395 	0 	
2010-12-16 00:11:08 	416 		345 	0 	
2010-12-16 00:11:44 	214 		675 	0 	
2010-12-16 00:12:16 	403 		110 	0 	
2010-12-16 00:14:19 	216 		575 	0 	
2010-12-16 00:34:03 	422 		395 	0 	
2010-12-16 00:35:47 	311 		275 	0 	
2010-12-16 00:36:47 	416 		165 	0 	
2010-12-16 00:41:57 	207 		345 	0 	
2010-12-16 00:48:09 	206 		345 	0 	
2010-12-16 00:48:39 	217 		260 	0 	
2010-12-16 00:49:01 	312 		395 	0 	
2010-12-16 00:49:49 	215 		345 	0 	
2010-12-16 00:55:27 	412 		815 	0 	
2010-12-16 00:56:46 	209 		210 	0 	
2010-12-16 01:07:07 	310 		100 	0 	
2010-12-16 01:09:37 	301 		395 	0 	
2010-12-16 01:24:35 	310 		575 	0 	
2010-12-16 01:26:13 	322 		395 	0 	
2010-12-16 01:26:22 	202 		345 	0 	
2010-12-16 01:32:48 	418 		360 	0 	
2010-12-16 01:40:32 	201 		345 	0 	
2010-12-16 01:44:46 	202 		20 	0 	
2010-12-16 01:45:17 	416 		705 	0 	
2010-12-16 02:04:08 	416 		25 	0 	
2010-12-16 02:06:24 	210 		300 	0 	
2010-12-16 02:13:36 	412 		340 	0 	
2010-12-16 02:19:25 	401 		395 	0 	
2010-12-16 02:22:22 	207 		705 	0 	
2010-12-16 02:32:24 	409 		395 	0 	
2010-12-16 02:32:30 	422 		395 	0 	
2010-12-16 02:34:47 	210 		465 	0 	
2010-12-16 02:43:47 	202 		25 	0 	
2010-12-16 02:57:44 	205 		345 	0 	
2010-12-16 03:13:05 	306 		395 	0 	
2010-12-16 03:13:26 	Lobby 		25 	0 	
2010-12-16 03:37:12 	312 		395 	0 	
2010-12-16 03:43:04 	322 		515 	0 	
2010-12-16 03:45:04 	206 		585 	0 	
2010-12-16 03:58:34 	311 		275 	0 	
2010-12-16 04:02:08 	301 		395 	0 	
2010-12-16 04:04:15 	314 		345 	0 	
2010-12-16 04:09:11 	319 		45 	0 	
2010-12-16 04:18:20 	319 		395 	0 	
2010-12-16 04:27:17 	404 		395 	0 	
2010-12-16 04:35:07 	215 		120 	0 	
2010-12-16 04:43:08 	404 		50 	0 	
2010-12-16 05:11:44 	201 		120 	0 	
2010-12-16 05:23:15 	213 		45 	0 	
2010-12-16 05:47:30 	205 		705 	0 	
2010-12-16 05:50:12 	409 		395 	0 	
2010-12-16 05:52:18 	408 		395 	0 	
2010-12-16 05:59:23 	322 		395 	0 	
2010-12-16 06:23:57 	302 		220 	0 	
2010-12-16 06:24:21 	208 		400 	0 	
2010-12-16 06:47:03 	309 		980 	0 	
2010-12-16 06:48:39 	402 		50 	0 	
2010-12-16 07:15:08 	306 		140 	0 	
2010-12-16 07:16:02 	304 		35 	0 	
2010-12-16 07:19:14 	422 		395 	0 	
2010-12-16 07:20:49 	220 		210 	0 	
2010-12-16 07:21:28 	220 		250 	0 	
2010-12-16 07:21:53 	216 		100 	0 	
2010-12-16 07:54:06 	406 		395 	0 	
 			Total:		21565 	0		

=== RECHIT LIST ===




V1