MSHOGUN 1: SHIFT END REPORT
Sunday November 13, 2011 8:00:47 AM

SALES TRANSACTION
Room Sales Order			25410
FnB Sales Order			2105
Beer Sales Order			135
Misc Sales Order			30
Room Sales Adjustment			0
GROSS SALES			27680

DISCOUNT
Room				0
FnB				0
Misc				0

DEPOSIT				3625
REFUND				

TOTAL ACCOUNTABILITY			31305

CASH DECLARATION			10145
CARD				790
FUNDS SAFEKEEP			0
TOTAL CASH DECLARED			10935

TOTAL CASH ON SYSTEM			10305
OVER/SHORTAGES 			-160

ROOM	 # OF CHECK-OUT	AMT
Value 		11	6005
Regular 		11	6735
Classique 		22	12670
Premium 		0	0
Regent 		0	0
Queen 		0	0
Gemini 		0	0
Family 		0	0
Executive Suite 	0	0
Mega Suite 	0	0

DISCOUNT 
Value 			  
Regular 		  
Classique 		  
Premium 		  
Regent 			  
Queen 		  
Gemini 		  
Family 		  
Executive Suite 	  
Mega Suite 		  


=== RESERVATIONS ===

Deposits:


Claimed:



SECURITY DEPOSITS

Deposits:
Claimed:


=== SALES BREAKDOWN ===

Transaction Date	Room No.	Cash	Card

2011-11-13 00:13:16 	210 		85 	0 	
2011-11-13 00:15:45 	207 		585 	0 	
2011-11-13 00:22:10 	207 		50 	0 	
2011-11-13 00:25:56 	404 		70 	0 	
2011-11-13 00:28:47 	401 		0 	395 	
2011-11-13 00:33:26 	404 		695 	0 	
2011-11-13 00:33:51 	412 		395 	0 	
2011-11-13 00:34:07 	409 		695 	0 	
2011-11-13 00:37:30 	312 		395 	0 	
2011-11-13 00:48:05 	410 		375 	0 	
2011-11-13 00:54:18 	301 		395 	0 	
2011-11-13 00:59:55 	208 		275 	0 	
2011-11-13 01:00:37 	322 		725 	0 	
2011-11-13 01:11:56 	322 		0 	395 	
2011-11-13 01:25:00 	322 		160 	0 	
2011-11-13 01:25:55 	208 		25 	0 	
2011-11-13 02:05:05 	211 		345 	0 	
2011-11-13 02:21:29 	220 		395 	0 	
2011-11-13 02:53:33 	412 		210 	0 	
2011-11-13 03:00:21 	412 		675 	0 	
2011-11-13 03:08:12 	207 		110 	0 	
2011-11-13 03:15:27 	208 		475 	0 	
2011-11-13 03:19:01 	401 		395 	0 	
2011-11-13 04:07:02 	312 		395 	0 	
2011-11-13 04:20:59 	417 		55 	0 	
2011-11-13 04:32:16 	220 		395 	0 	
2011-11-13 04:38:35 	410 		90 	0 	
2011-11-13 05:37:36 	301 		395 	0 	
2011-11-13 06:05:03 	309 		50 	0 	
2011-11-13 06:24:18 	211 		705 	0 	
2011-11-13 06:26:30 	207 		345 	0 	
2011-11-13 07:41:07 	203 		345 	0 	
 			Total:		10305 	790		

=== RECHIT LIST ===




V1