MSHOGUN 1: SHIFT END REPORT
Tuesday February 28, 2012 4:01:25 PM

SALES TRANSACTION
Room Sales Order			29495
FnB Sales Order			1480
Beer Sales Order			570
Misc Sales Order			30
Room Sales Adjustment			0
GROSS SALES			31575

DISCOUNT
Room				0
FnB				0
Misc				0

DEPOSIT				9765
REFUND				

TOTAL ACCOUNTABILITY			41340

CASH DECLARATION			3643
CARD				0
FUNDS SAFEKEEP			20000
TOTAL CASH DECLARED			23643

TOTAL CASH ON SYSTEM			3643
OVER/SHORTAGES 			0

ROOM	 # OF CHECK-OUT	AMT
Value 		8	2840
Regular 		19	10155
Classique 		32	16500
Premium 		0	0
Regent 		0	0
Queen 		0	0
Gemini 		0	0
Family 		0	0
Executive Suite 	0	0
Mega Suite 	0	0

DISCOUNT 
Value 			  
Regular 		  
Classique 		  
Premium 		  
Regent 			  
Queen 		  
Gemini 		  
Family 		  
Executive Suite 	  
Mega Suite 		  


=== RESERVATIONS ===

Deposits:


Claimed:



SECURITY DEPOSITS

Deposits:
Claimed:


=== SALES BREAKDOWN ===

Transaction Date	Room No.	Cash	Card

2012-02-28 08:14:49 	202 		345 	0 	
2012-02-28 08:17:15 	321 		395 	0 	
2012-02-28 08:33:23 	207 		345 	0 	
2012-02-28 08:49:59 	208 		275 	0 	
2012-02-28 08:56:46 	408 		395 	0 	
2012-02-28 09:19:22 	209 		275 	0 	
2012-02-28 09:24:15 	210 		345 	0 	
2012-02-28 09:24:35 	320 		345 	0 	
2012-02-28 09:43:40 	302 		140 	0 	
2012-02-28 09:52:27 	206 		240 	0 	
2012-02-28 10:07:17 	406 		50 	0 	
2012-02-28 10:07:19 	406 		25 	0 	
2012-02-28 10:07:21 	406 		240 	0 	
2012-02-28 10:07:24 	406 		20 	0 	
2012-02-28 10:09:31 	212 		275 	0 	
2012-02-28 10:28:19 	309 		140 	0 	
2012-02-28 10:32:20 	407 		395 	0 	
2012-02-28 10:34:57 	204 		345 	0 	
2012-02-28 10:41:50 	301 		395 	0 	
2012-02-28 11:13:52 	215 		345 	0 	
2012-02-28 11:27:10 	409 		395 	0 	
2012-02-28 11:27:28 	409 		50 	0 	
2012-02-28 11:44:31 	218 		395 	0 	
2012-02-28 11:46:39 	402 		675 	0 	
2012-02-28 11:56:31 	413 		395 	0 	
2012-02-28 11:59:22 	206 		240 	0 	
2012-02-28 12:05:20 	412 		316 	0 	
2012-02-28 12:16:02 	213 		585 	0 	
2012-02-28 12:24:09 	307 		280 	0 	
2012-02-28 12:34:43 	322 		395 	0 	
2012-02-28 12:41:01 	306 		456 	0 	
2012-02-28 12:42:28 	408 		395 	0 	
2012-02-28 12:47:37 	317 		395 	0 	
2012-02-28 12:51:11 	315 		316 	0 	
2012-02-28 13:11:57 	307 		395 	0 	
2012-02-28 13:14:37 	308 		395 	0 	
2012-02-28 13:17:06 	308 		25 	0 	
2012-02-28 13:19:19 	407 		395 	0 	
2012-02-28 13:20:23 	310 		275 	0 	
2012-02-28 13:22:08 	303 		705 	0 	
2012-02-28 13:25:35 	421 		395 	0 	
2012-02-28 13:28:05 	313 		395 	0 	
2012-02-28 13:46:36 	422 		395 	0 	
2012-02-28 13:46:42 	314 		345 	0 	
2012-02-28 13:46:55 	311 		275 	0 	
2012-02-28 13:53:56 	419 		395 	0 	
2012-02-28 13:54:03 	415 		395 	0 	
2012-02-28 14:00:31 	318 		345 	0 	
2012-02-28 14:05:14 	406 		395 	0 	
2012-02-28 14:14:02 	408 		395 	0 	
2012-02-28 14:16:09 	311 		280 	0 	
2012-02-28 14:17:51 	323 		275 	0 	
2012-02-28 14:22:03 	321 		395 	0 	
2012-02-28 14:23:40 	316 		345 	0 	
2012-02-28 14:23:46 	320 		345 	0 	
2012-02-28 14:29:53 	302 		395 	0 	
2012-02-28 14:40:35 	319 		395 	0 	
2012-02-28 14:47:20 	409 		395 	0 	
2012-02-28 14:49:26 	324 		275 	0 	
2012-02-28 14:52:35 	404 		395 	0 	
2012-02-28 14:58:52 	401 		395 	0 	
2012-02-28 15:02:00 	407 		395 	0 	
2012-02-28 15:03:49 	312 		395 	0 	
2012-02-28 15:06:13 	220 		395 	0 	
2012-02-28 15:11:23 	212 		275 	0 	
2012-02-28 15:21:20 	412 		395 	0 	
2012-02-28 15:36:21 	214 		275 	0 	
2012-02-28 15:36:39 	314 		345 	0 	
2012-02-28 15:37:35 	221 		395 	0 	
2012-02-28 15:53:32 	211 		345 	0 	
 			Total:		23643 	0		

=== RECHIT LIST ===




V1