MSHOGUN 1: SHIFT END REPORT
Saturday January 29, 2011 12:00:10 AM

SALES TRANSACTION
Room Sales Order			32145
FnB Sales Order			1390
Beer Sales Order			180
Misc Sales Order			75
Room Sales Adjustment			0
GROSS SALES			33790

DISCOUNT
Room				0
FnB				0
Misc				0

DEPOSIT				35920
REFUND				

TOTAL ACCOUNTABILITY			69710

CASH DECLARATION			7391
CARD				0
FUNDS SAFEKEEP			40000
TOTAL CASH DECLARED			47391

TOTAL CASH ON SYSTEM			16857
OVER/SHORTAGES 			-9466

ROOM	 # OF CHECK-OUT	AMT
Value 		14	3850
Regular 		14	5430
Classique 		55	22865
Premium 		0	0
Regent 		0	0
Queen 		0	0
Gemini 		0	0
Family 		0	0
Executive Suite 	0	0
Mega Suite 	0	0

DISCOUNT 
Value 			  
Regular 		  
Classique 		  
Premium 		  
Regent 			  
Queen 		  
Gemini 		  
Family 		  
Executive Suite 	  
Mega Suite 		  


=== RESERVATIONS ===

Deposits:


Claimed:



SECURITY DEPOSITS

Deposits:
Claimed:


=== SALES BREAKDOWN ===

Transaction Date	Room No.	Cash	Card

2011-01-28 16:08:57 	408 		395 	0 	
2011-01-28 16:09:03 	409 		395 	0 	
2011-01-28 16:10:27 	402 		305 	0 	
2011-01-28 16:25:50 	414 		345 	0 	
2011-01-28 16:25:57 	412 		395 	0 	
2011-01-28 16:27:59 	220 		10 	0 	
2011-01-28 16:30:02 	208 		275 	0 	
2011-01-28 16:44:27 	422 		395 	0 	
2011-01-28 16:50:01 	413 		316 	0 	
2011-01-28 17:01:17 	416 		120 	0 	
2011-01-28 17:08:03 	422 		45 	0 	
2011-01-28 17:09:51 	421 		395 	0 	
2011-01-28 17:13:15 	209 		275 	0 	
2011-01-28 17:16:31 	301 		395 	0 	
2011-01-28 17:22:11 	321 		395 	0 	
2011-01-28 17:22:49 	315 		395 	0 	
2011-01-28 17:22:56 	306 		395 	0 	
2011-01-28 17:31:01 	301 		80 	0 	
2011-01-28 17:34:21 	415 		395 	0 	
2011-01-28 17:34:54 	415 		10 	0 	
2011-01-28 17:36:36 	417 		395 	0 	
2011-01-28 17:43:28 	220 		395 	0 	
2011-01-28 17:48:17 	308 		395 	0 	
2011-01-28 17:55:59 	308 		25 	0 	
2011-01-28 18:01:33 	221 		300 	0 	
2011-01-28 18:02:45 	318 		345 	0 	
2011-01-28 18:06:31 	219 		395 	0 	
2011-01-28 18:11:08 	212 		275 	0 	
2011-01-28 18:13:10 	409 		395 	0 	
2011-01-28 18:13:19 	216 		275 	0 	
2011-01-28 18:14:09 	402 		395 	0 	
2011-01-28 18:17:15 	404 		395 	0 	
2011-01-28 18:18:42 	406 		395 	0 	
2011-01-28 18:32:53 	315 		300 	0 	
2011-01-28 18:36:01 	321 		395 	0 	
2011-01-28 18:43:14 	310 		275 	0 	
2011-01-28 18:48:05 	319 		395 	0 	
2011-01-28 18:52:35 	408 		395 	0 	
2011-01-28 18:53:31 	407 		395 	0 	
2011-01-28 18:54:25 	413 		395 	0 	
2011-01-28 19:02:31 	208 		275 	0 	
2011-01-28 19:03:02 	302 		395 	0 	
2011-01-28 19:09:25 	304 		280 	0 	
2011-01-28 19:12:13 	312 		395 	0 	
2011-01-28 19:14:52 	317 		395 	0 	
2011-01-28 19:22:39 	311 		275 	0 	
2011-01-28 19:28:00 	419 		695 	0 	
2011-01-28 19:33:32 	312 		40 	0 	
2011-01-28 19:33:41 	321 		210 	0 	
2011-01-28 19:35:01 	313 		695 	0 	
2011-01-28 19:37:08 	316 		345 	0 	
2011-01-28 19:40:37 	307 		695 	0 	
2011-01-28 19:43:29 	220 		395 	0 	
2011-01-28 19:47:36 	207 		345 	0 	
2011-01-28 19:50:21 	321 		30 	0 	
2011-01-28 19:50:29 	418 		645 	0 	
2011-01-28 19:56:34 	407 		695 	0 	
2011-01-28 20:03:38 	218 		395 	0 	
2011-01-28 20:03:59 	306 		695 	0 	
2011-01-28 20:04:19 	401 		395 	0 	
2011-01-28 20:06:47 	412 		0 	695 	
2011-01-28 20:07:22 	301 		395 	0 	
2011-01-28 20:09:29 	422 		395 	0 	
2011-01-28 20:10:07 	209 		275 	0 	
2011-01-28 20:10:14 	409 		395 	0 	
2011-01-28 20:11:27 	221 		395 	0 	
2011-01-28 20:17:11 	307 		210 	0 	
2011-01-28 20:24:29 	405 		275 	0 	
2011-01-28 20:31:38 	417 		695 	0 	
2011-01-28 20:32:43 	420 		645 	0 	
2011-01-28 20:33:50 	416 		645 	0 	
2011-01-28 20:34:34 	322 		395 	0 	
2011-01-28 20:36:04 	410 		275 	0 	
2011-01-28 20:37:06 	219 		695 	0 	
2011-01-28 20:42:45 	307 		30 	0 	
2011-01-28 20:43:03 	407 		10 	0 	
2011-01-28 20:43:20 	215 		345 	0 	
2011-01-28 20:46:35 	303 		345 	0 	
2011-01-28 20:47:09 	310 		275 	0 	
2011-01-28 20:48:18 	424 		595 	0 	
2011-01-28 20:57:31 	213 		345 	0 	
2011-01-28 21:04:05 	324 		275 	0 	
2011-01-28 21:08:56 	414 		645 	0 	
2011-01-28 21:10:27 	211 		0 	705 	
2011-01-28 21:11:14 	319 		695 	0 	
2011-01-28 21:19:42 	424 		25 	0 	
2011-01-28 21:23:28 	304 		395 	0 	
2011-01-28 21:25:22 	308 		395 	0 	
2011-01-28 21:27:40 	315 		140 	0 	
2011-01-28 21:27:50 	404 		695 	0 	
2011-01-28 21:29:06 	402 		695 	0 	
2011-01-28 21:36:29 	324 		190 	0 	
2011-01-28 21:36:37 	211 		360 	0 	
2011-01-28 21:44:08 	414 		30 	0 	
2011-01-28 21:44:49 	206 		645 	0 	
2011-01-28 21:46:08 	406 		695 	0 	
2011-01-28 21:47:27 	Lobby 		100 	0 	
2011-01-28 21:50:54 	403 		645 	0 	
2011-01-28 21:52:22 	315 		695 	0 	
2011-01-28 21:52:31 	323 		275 	0 	
2011-01-28 21:55:22 	408 		695 	0 	
2011-01-28 21:57:54 	409 		395 	0 	
2011-01-28 22:06:08 	423 		275 	0 	
2011-01-28 22:07:32 	205 		645 	0 	
2011-01-28 22:08:31 	302 		695 	0 	
2011-01-28 22:24:44 	321 		695 	0 	
2011-01-28 22:25:52 	310 		40 	0 	
2011-01-28 22:25:57 	404 		345 	0 	
2011-01-28 22:28:57 	305 		595 	0 	
2011-01-28 22:32:00 	403 		10 	0 	
2011-01-28 22:35:26 	216 		595 	0 	
2011-01-28 22:38:02 	210 		345 	0 	
2011-01-28 22:44:09 	312 		395 	0 	
2011-01-28 22:44:23 	413 		695 	0 	
2011-01-28 22:46:44 	207 		345 	0 	
2011-01-28 22:47:52 	422 		395 	0 	
2011-01-28 22:49:10 	317 		695 	0 	
2011-01-28 22:51:34 	316 		645 	0 	
2011-01-28 22:51:42 	213 		645 	0 	
2011-01-28 22:52:02 	212 		595 	0 	
2011-01-28 22:55:20 	215 		645 	0 	
2011-01-28 22:55:29 	209 		275 	0 	
2011-01-28 23:00:57 	216 		30 	0 	
2011-01-28 23:01:05 	408 		140 	0 	
2011-01-28 23:01:12 	312 		120 	0 	
2011-01-28 23:02:13 	220 		695 	0 	
2011-01-28 23:09:29 	304 		695 	0 	
2011-01-28 23:10:07 	218 		695 	0 	
2011-01-28 23:13:39 	402 		60 	0 	
2011-01-28 23:19:15 	221 		395 	0 	
2011-01-28 23:19:23 	301 		395 	0 	
2011-01-28 23:20:37 	320 		645 	0 	
2011-01-28 23:22:29 	204 		645 	0 	
2011-01-28 23:23:45 	201 		345 	0 	
2011-01-28 23:26:40 	203 		645 	0 	
2011-01-28 23:27:18 	202 		345 	0 	
2011-01-28 23:31:09 	402 		110 	0 	
2011-01-28 23:31:11 	402 		25 	0 	
2011-01-28 23:35:05 	324 		595 	0 	
2011-01-28 23:35:13 	323 		595 	0 	
2011-01-28 23:39:03 	311 		595 	0 	
2011-01-28 23:40:43 	204 		25 	0 	
2011-01-28 23:40:50 	302 		275 	0 	
2011-01-28 23:46:33 	322 		815 	0 	
2011-01-28 23:48:57 	204 		50 	0 	
2011-01-28 23:50:15 	309 		695 	0 	
2011-01-28 23:55:56 	401 		316 	0 	
2011-01-28 23:56:55 	401 		70 	0 	
 			Total:		56857 	1400		

=== RECHIT LIST ===




V1