MSHOGUN 1: SHIFT END REPORT
Thursday July 29, 2010 4:11:55 PM

SALES TRANSACTION
Room Sales Order			20530
FnB Sales Order			1315
Beer Sales Order			85
Misc Sales Order			20
Room Sales Adjustment			0
GROSS SALES			21950

DISCOUNT
Room				0
FnB				0
Misc				0

DEPOSIT				11505
REFUND				

TOTAL ACCOUNTABILITY			33455

CASH DECLARATION			6219
CARD				695
FUNDS SAFEKEEP			20000
TOTAL CASH DECLARED			26914

TOTAL CASH ON SYSTEM			6838
OVER/SHORTAGES 			-619

ROOM	 # OF CHECK-OUT	AMT
Value 		3	925
Regular 		5	2265
Classique 		25	12415
Premium 		2	1500
Regent 		3	2575
Queen 		1	850
Gemini 		0	0
Family 		0	0
Executive Suite 	0	0
Mega Suite 	0	0

DISCOUNT 
Value 			  
Regular 		  
Classique 		  
Premium 		  
Regent 			  
Queen 		  
Gemini 		  
Family 		  
Executive Suite 	  
Mega Suite 		  


=== RESERVATIONS ===

Deposits:


Claimed:



SECURITY DEPOSITS

Deposits:
Claimed:


=== SALES BREAKDOWN ===

Transaction Date	Room No.	Cash	Card

2010-07-29 08:09:20 	315 		395 	0 	
2010-07-29 08:11:36 	515 		800 	0 	
2010-07-29 08:36:28 	305 		275 	0 	
2010-07-29 08:48:36 	315 		390 	0 	
2010-07-29 08:56:56 	604 		2350 	0 	
2010-07-29 08:59:05 	515 		140 	0 	
2010-07-29 09:11:25 	314 		105 	0 	
2010-07-29 09:20:38 	322 		395 	0 	
2010-07-29 09:23:11 	312 		395 	0 	
2010-07-29 09:51:23 	316 		345 	0 	
2010-07-29 09:58:44 	403 		585 	0 	
2010-07-29 10:09:29 	309 		395 	0 	
2010-07-29 10:41:11 	318 		276 	0 	
2010-07-29 10:59:42 	309 		450 	0 	
2010-07-29 11:14:57 	313 		395 	0 	
2010-07-29 11:19:32 	310 		275 	0 	
2010-07-29 11:22:21 	308 		395 	0 	
2010-07-29 11:51:27 	404 		30 	0 	
2010-07-29 12:02:18 	307 		395 	0 	
2010-07-29 12:10:02 	311 		275 	0 	
2010-07-29 12:11:45 	310 		85 	0 	
2010-07-29 12:19:55 	304 		395 	0 	
2010-07-29 12:25:00 	305 		100 	0 	
2010-07-29 12:29:52 	306 		395 	0 	
2010-07-29 12:31:59 	317 		395 	0 	
2010-07-29 12:40:54 	319 		395 	0 	
2010-07-29 12:49:17 	322 		395 	0 	
2010-07-29 12:51:15 	302 		395 	0 	
2010-07-29 12:51:54 	301 		395 	0 	
2010-07-29 12:54:42 	514 		175 	0 	
2010-07-29 13:07:23 	303 		345 	0 	
2010-07-29 13:14:14 	316 		705 	0 	
2010-07-29 13:19:35 	315 		395 	0 	
2010-07-29 13:21:44 	314 		345 	0 	
2010-07-29 13:24:55 	220 		316 	0 	
2010-07-29 13:29:36 	218 		395 	0 	
2010-07-29 13:40:06 	220 		25 	0 	
2010-07-29 13:41:20 	402 		210 	0 	
2010-07-29 13:46:32 	321 		395 	0 	
2010-07-29 13:47:39 	219 		675 	0 	
2010-07-29 13:49:12 	221 		395 	0 	
2010-07-29 13:50:32 	306 		395 	0 	
2010-07-29 13:56:36 	312 		395 	0 	
2010-07-29 13:58:16 	320 		345 	0 	
2010-07-29 14:02:30 	309 		140 	0 	
2010-07-29 14:10:31 	217 		275 	0 	
2010-07-29 14:17:04 	609 		1600 	0 	
2010-07-29 14:17:54 	211 		345 	0 	
2010-07-29 14:22:43 	404 		395 	0 	
2010-07-29 14:35:47 	315 		50 	0 	
2010-07-29 14:36:18 	413 		395 	0 	
2010-07-29 14:38:49 	409 		395 	0 	
2010-07-29 14:46:15 	415 		395 	0 	
2010-07-29 14:52:04 	215 		345 	0 	
2010-07-29 14:52:13 	313 		395 	0 	
2010-07-29 14:59:34 	214 		375 	0 	
2010-07-29 15:00:22 	308 		395 	0 	
2010-07-29 15:02:17 	318 		345 	0 	
2010-07-29 15:07:28 	609 		100 	0 	
2010-07-29 15:11:47 	309 		535 	0 	
2010-07-29 15:12:58 	322 		395 	0 	
2010-07-29 15:23:27 	315 		395 	0 	
2010-07-29 15:23:41 	216 		275 	0 	
2010-07-29 15:24:43 	302 		395 	0 	
2010-07-29 15:27:12 	317 		395 	0 	
2010-07-29 15:32:48 	213 		276 	0 	
2010-07-29 15:36:32 	210 		705 	0 	
 			Total:		26838 	0		

=== RECHIT LIST ===




V1