MSHOGUN 1: SHIFT END REPORT
Wednesday September 01, 2010 12:00:01 AM

SALES TRANSACTION
Room Sales Order			38570
FnB Sales Order			1475
Beer Sales Order			925
Misc Sales Order			40
Room Sales Adjustment			-395
GROSS SALES			40615

DISCOUNT
Room				0
FnB				0
Misc				0

DEPOSIT				30205
REFUND				

TOTAL ACCOUNTABILITY			70820

CASH DECLARATION			5012
CARD				675
FUNDS SAFEKEEP			50000
TOTAL CASH DECLARED			55687

TOTAL CASH ON SYSTEM			4317
OVER/SHORTAGES 			695

ROOM	 # OF CHECK-OUT	AMT
Value 		17	4675
Regular 		20	7020
Classique 		59	24725
Premium 		0	0
Regent 		1	1600
Queen 		1	550
Gemini 		0	0
Family 		0	0
Executive Suite 	0	0
Mega Suite 	0	0

DISCOUNT 
Value 			  
Regular 		  
Classique 		  
Premium 		  
Regent 			  
Queen 		  
Gemini 		  
Family 		  
Executive Suite 	  
Mega Suite 		  


=== RESERVATIONS ===

Deposits:


Claimed:



SECURITY DEPOSITS

Deposits:
Claimed:


=== SALES BREAKDOWN ===

Transaction Date	Room No.	Cash	Card

2010-08-31 16:08:20 	304 		395 	0 	
2010-08-31 16:08:26 	302 		395 	0 	
2010-08-31 16:16:46 	324 		275 	0 	
2010-08-31 16:19:23 	301 		395 	0 	
2010-08-31 16:23:20 	314 		120 	0 	
2010-08-31 16:23:29 	322 		395 	0 	
2010-08-31 16:23:58 	303 		345 	0 	
2010-08-31 16:24:04 	308 		395 	0 	
2010-08-31 16:32:15 	320 		345 	0 	
2010-08-31 16:34:03 	320 		40 	0 	
2010-08-31 16:36:31 	318 		345 	0 	
2010-08-31 16:46:32 	422 		50 	0 	
2010-08-31 16:51:18 	207 		345 	0 	
2010-08-31 16:52:38 	218 		230 	0 	
2010-08-31 16:54:20 	210 		345 	0 	
2010-08-31 16:55:52 	307 		280 	0 	
2010-08-31 16:57:10 	315 		395 	0 	
2010-08-31 17:00:57 	516 		1600 	0 	
2010-08-31 17:01:11 	413 		395 	0 	
2010-08-31 17:02:48 	515 		800 	0 	
2010-08-31 17:03:41 	407 		395 	0 	
2010-08-31 17:05:43 	205 		345 	0 	
2010-08-31 17:09:53 	206 		345 	0 	
2010-08-31 17:22:09 	323 		275 	0 	
2010-08-31 17:22:16 	313 		395 	0 	
2010-08-31 17:26:04 	406 		395 	0 	
2010-08-31 17:26:10 	409 		395 	0 	
2010-08-31 17:26:16 	422 		395 	0 	
2010-08-31 17:36:31 	601 		125 	0 	
2010-08-31 17:37:10 	201 		345 	0 	
2010-08-31 17:49:53 	412 		395 	0 	
2010-08-31 17:50:17 	305 		275 	0 	
2010-08-31 18:01:19 	514 		800 	0 	
2010-08-31 18:05:33 	312 		395 	0 	
2010-08-31 18:12:14 	214 		275 	0 	
2010-08-31 18:13:28 	419 		140 	0 	
2010-08-31 18:18:54 	301 		395 	0 	
2010-08-31 18:28:45 	513 		3200 	0 	
2010-08-31 18:38:14 	311 		275 	0 	
2010-08-31 18:40:27 	408 		695 	0 	
2010-08-31 18:47:15 	209 		275 	0 	
2010-08-31 18:57:15 	203 		276 	0 	
2010-08-31 18:57:22 	202 		276 	0 	
2010-08-31 18:58:13 	409 		395 	0 	
2010-08-31 18:58:42 	309 		395 	0 	
2010-08-31 19:05:42 	421 		695 	0 	
2010-08-31 19:06:05 	421 		10 	0 	
2010-08-31 19:06:28 	401 		395 	0 	
2010-08-31 19:07:53 	307 		395 	0 	
2010-08-31 19:09:41 	310 		275 	0 	
2010-08-31 19:12:50 	208 		595 	0 	
2010-08-31 19:13:34 	321 		695 	0 	
2010-08-31 19:16:21 	306 		395 	0 	
2010-08-31 19:19:26 	417 		395 	0 	
2010-08-31 19:22:08 	202 		50 	0 	
2010-08-31 19:22:21 	515 		415 	0 	
2010-08-31 19:25:23 	319 		395 	0 	
2010-08-31 19:29:15 	409 		160 	0 	
2010-08-31 19:36:43 	304 		395 	0 	
2010-08-31 19:36:59 	216 		275 	0 	
2010-08-31 19:38:56 	404 		695 	0 	
2010-08-31 19:41:02 	215 		585 	0 	
2010-08-31 19:46:53 	212 		275 	0 	
2010-08-31 19:47:19 	322 		395 	0 	
2010-08-31 19:53:35 	312 		395 	0 	
2010-08-31 19:53:42 	204 		645 	0 	
2010-08-31 19:59:07 	210 		345 	0 	
2010-08-31 20:03:13 	321 		210 	0 	
2010-08-31 20:03:21 	311 		400 	0 	
2010-08-31 20:04:24 	308 		140 	0 	
2010-08-31 20:06:00 	207 		345 	0 	
2010-08-31 20:06:11 	302 		695 	0 	
2010-08-31 20:06:26 	213 		345 	0 	
2010-08-31 20:13:03 	214 		275 	0 	
2010-08-31 20:17:28 	218 		395 	0 	
2010-08-31 20:17:34 	219 		395 	0 	
2010-08-31 20:20:10 	202 		345 	0 	
2010-08-31 20:21:54 	221 		695 	0 	
2010-08-31 20:22:02 	308 		695 	0 	
2010-08-31 20:24:52 	301 		395 	0 	
2010-08-31 20:37:52 	412 		695 	0 	
2010-08-31 20:38:50 	417 		695 	0 	
2010-08-31 20:43:23 	317 		395 	0 	
2010-08-31 20:46:17 	205 		345 	0 	
2010-08-31 20:51:30 	313 		395 	0 	
2010-08-31 20:51:45 	314 		645 	0 	
2010-08-31 20:52:41 	419 		695 	0 	
2010-08-31 20:53:12 	306 		110 	0 	
2010-08-31 20:56:17 	407 		695 	0 	
2010-08-31 20:56:24 	409 		80 	0 	
2010-08-31 21:00:31 	406 		695 	0 	
2010-08-31 21:04:10 	318 		705 	0 	
2010-08-31 21:11:06 	315 		695 	0 	
2010-08-31 21:20:24 	309 		395 	0 	
2010-08-31 21:26:06 	309 		20 	0 	
2010-08-31 21:29:57 	309 		-395 	0 	
2010-08-31 21:30:30 	309 		395 	0 	
2010-08-31 21:37:02 	323 		595 	0 	
2010-08-31 21:37:11 	415 		695 	0 	
2010-08-31 21:37:17 	324 		275 	0 	
2010-08-31 21:38:22 	203 		345 	0 	
2010-08-31 21:42:54 	301 		100 	0 	
2010-08-31 21:43:19 	307 		695 	0 	
2010-08-31 21:49:04 	217 		595 	0 	
2010-08-31 21:59:53 	219 		695 	0 	
2010-08-31 22:02:50 	209 		275 	0 	
2010-08-31 22:06:06 	306 		695 	0 	
2010-08-31 22:06:12 	322 		395 	0 	
2010-08-31 22:09:57 	216 		595 	0 	
2010-08-31 22:15:46 	304 		200 	0 	
2010-08-31 22:16:20 	306 		105 	0 	
2010-08-31 22:18:33 	220 		395 	0 	
2010-08-31 22:23:30 	413 		695 	0 	
2010-08-31 22:24:29 	319 		695 	0 	
2010-08-31 22:37:39 	320 		345 	0 	
2010-08-31 22:55:50 	Lobby 		285 	0 	
2010-08-31 22:56:09 	313 		695 	0 	
2010-08-31 22:56:15 	212 		595 	0 	
2010-08-31 23:01:41 	304 		695 	0 	
2010-08-31 23:07:48 	317 		695 	0 	
2010-08-31 23:09:47 	320 		80 	0 	
2010-08-31 23:33:40 	324 		595 	0 	
2010-08-31 23:39:47 	310 		275 	0 	
2010-08-31 23:53:41 	301 		395 	0 	
2010-08-31 23:53:48 	312 		395 	0 	
 			Total:		54317 	0		

=== RECHIT LIST ===




V1