MSHOGUN 1: SHIFT END REPORT
Monday February 27, 2012 12:00:05 AM

SALES TRANSACTION
Room Sales Order			47655
FnB Sales Order			2515
Beer Sales Order			55
Misc Sales Order			35
Room Sales Adjustment			0
GROSS SALES			50260

DISCOUNT
Room				0
FnB				0
Misc				0

DEPOSIT				31655
REFUND				

TOTAL ACCOUNTABILITY			81915

CASH DECLARATION			9615
CARD				395
FUNDS SAFEKEEP			40000
TOTAL CASH DECLARED			50010

TOTAL CASH ON SYSTEM			16468
OVER/SHORTAGES 			-6853

ROOM	 # OF CHECK-OUT	AMT
Value 		18	6150
Regular 		32	14760
Classique 		67	26745
Premium 		0	0
Regent 		0	0
Queen 		0	0
Gemini 		0	0
Family 		0	0
Executive Suite 	0	0
Mega Suite 	0	0

DISCOUNT 
Value 			  
Regular 		  
Classique 		  
Premium 		  
Regent 			  
Queen 		  
Gemini 		  
Family 		  
Executive Suite 	  
Mega Suite 		  


=== RESERVATIONS ===

Deposits:


Claimed:



SECURITY DEPOSITS

Deposits:
Claimed:


=== SALES BREAKDOWN ===

Transaction Date	Room No.	Cash	Card

2012-02-26 16:06:32 	307 		395 	0 	
2012-02-26 16:06:39 	312 		395 	0 	
2012-02-26 16:18:03 	422 		270 	0 	
2012-02-26 16:19:03 	302 		395 	0 	
2012-02-26 16:22:13 	412 		316 	0 	
2012-02-26 16:26:19 	208 		275 	0 	
2012-02-26 16:26:25 	424 		275 	0 	
2012-02-26 16:27:49 	310 		275 	0 	
2012-02-26 16:28:00 	423 		275 	0 	
2012-02-26 16:37:20 	407 		395 	0 	
2012-02-26 16:39:39 	401 		395 	0 	
2012-02-26 16:40:53 	413 		395 	0 	
2012-02-26 16:41:49 	409 		395 	0 	
2012-02-26 16:42:38 	206 		345 	0 	
2012-02-26 16:44:37 	213 		120 	0 	
2012-02-26 16:50:59 	408 		395 	0 	
2012-02-26 16:53:19 	422 		395 	0 	
2012-02-26 17:02:57 	313 		395 	0 	
2012-02-26 17:04:01 	314 		345 	0 	
2012-02-26 17:06:38 	319 		395 	0 	
2012-02-26 17:07:31 	316 		585 	0 	
2012-02-26 17:21:56 	418 		345 	0 	
2012-02-26 17:22:01 	414 		345 	0 	
2012-02-26 17:30:28 	309 		395 	0 	
2012-02-26 17:30:35 	306 		395 	0 	
2012-02-26 17:30:41 	402 		395 	0 	
2012-02-26 17:31:34 	317 		395 	0 	
2012-02-26 17:42:34 	320 		705 	0 	
2012-02-26 17:42:45 	209 		275 	0 	
2012-02-26 17:52:30 	404 		395 	0 	
2012-02-26 17:56:01 	219 		395 	0 	
2012-02-26 17:58:32 	322 		316 	0 	
2012-02-26 18:08:05 	315 		395 	0 	
2012-02-26 18:08:46 	302 		395 	0 	
2012-02-26 18:12:32 	323 		800 	0 	
2012-02-26 18:17:42 	406 		395 	0 	
2012-02-26 18:20:18 	210 		345 	0 	
2012-02-26 18:21:33 	415 		395 	0 	
2012-02-26 18:22:24 	321 		395 	0 	
2012-02-26 18:27:55 	324 		100 	0 	
2012-02-26 18:29:36 	213 		345 	0 	
2012-02-26 18:31:58 	418 		645 	0 	
2012-02-26 18:32:42 	419 		695 	0 	
2012-02-26 18:33:48 	416 		130 	0 	
2012-02-26 18:49:39 	401 		395 	0 	
2012-02-26 19:02:40 	407 		395 	0 	
2012-02-26 19:04:33 	417 		395 	0 	
2012-02-26 19:09:02 	421 		695 	0 	
2012-02-26 19:15:51 	304 		395 	0 	
2012-02-26 19:17:22 	307 		695 	0 	
2012-02-26 19:19:16 	412 		395 	0 	
2012-02-26 19:20:00 	303 		645 	0 	
2012-02-26 19:26:00 	206 		645 	0 	
2012-02-26 19:29:27 	418 		10 	0 	
2012-02-26 19:30:13 	215 		345 	0 	
2012-02-26 19:30:43 	212 		595 	0 	
2012-02-26 19:33:05 	205 		345 	0 	
2012-02-26 19:37:02 	409 		395 	0 	
2012-02-26 19:41:04 	305 		100 	0 	
2012-02-26 19:43:46 	319 		0 	395 	
2012-02-26 19:44:05 	413 		695 	0 	
2012-02-26 19:45:36 	319 		20 	0 	
2012-02-26 19:46:09 	404 		695 	0 	
2012-02-26 19:47:03 	301 		395 	0 	
2012-02-26 19:50:38 	218 		695 	0 	
2012-02-26 19:58:19 	402 		695 	0 	
2012-02-26 19:59:03 	309 		395 	0 	
2012-02-26 20:03:49 	406 		240 	0 	
2012-02-26 20:06:24 	221 		395 	0 	
2012-02-26 20:08:24 	219 		695 	0 	
2012-02-26 20:10:14 	408 		695 	0 	
2012-02-26 20:11:31 	312 		395 	0 	
2012-02-26 20:12:26 	204 		276 	0 	
2012-02-26 20:13:11 	208 		275 	0 	
2012-02-26 20:13:45 	211 		645 	0 	
2012-02-26 20:15:29 	209 		275 	0 	
2012-02-26 20:17:11 	406 		395 	0 	
2012-02-26 20:18:42 	202 		345 	0 	
2012-02-26 20:19:23 	203 		345 	0 	
2012-02-26 20:24:10 	420 		645 	0 	
2012-02-26 20:32:14 	317 		240 	0 	
2012-02-26 20:35:37 	414 		645 	0 	
2012-02-26 20:40:26 	403 		645 	0 	
2012-02-26 20:44:12 	423 		595 	0 	
2012-02-26 20:44:22 	424 		595 	0 	
2012-02-26 20:44:31 	306 		695 	0 	
2012-02-26 20:45:56 	422 		395 	0 	
2012-02-26 20:48:13 	311 		275 	0 	
2012-02-26 20:49:55 	205 		645 	0 	
2012-02-26 20:51:00 	201 		345 	0 	
2012-02-26 20:52:40 	313 		695 	0 	
2012-02-26 20:56:48 	304 		50 	0 	
2012-02-26 20:57:04 	317 		695 	0 	
2012-02-26 21:03:26 	407 		695 	0 	
2012-02-26 21:08:52 	319 		695 	0 	
2012-02-26 21:10:24 	321 		695 	0 	
2012-02-26 21:11:44 	323 		595 	0 	
2012-02-26 21:23:02 	324 		595 	0 	
2012-02-26 21:25:19 	405 		595 	0 	
2012-02-26 21:27:53 	310 		200 	0 	
2012-02-26 21:29:22 	213 		200 	0 	
2012-02-26 21:31:38 	214 		595 	0 	
2012-02-26 21:33:58 	410 		275 	0 	
2012-02-26 21:49:23 	309 		395 	0 	
2012-02-26 21:55:04 	417 		695 	0 	
2012-02-26 22:07:41 	412 		395 	0 	
2012-02-26 22:13:34 	304 		695 	0 	
2012-02-26 22:29:13 	415 		695 	0 	
2012-02-26 22:29:20 	316 		645 	0 	
2012-02-26 22:32:08 	401 		395 	0 	
2012-02-26 22:32:21 	213 		825 	0 	
2012-02-26 22:37:36 	417 		690 	0 	
2012-02-26 22:41:21 	322 		395 	0 	
2012-02-26 22:43:01 	301 		395 	0 	
2012-02-26 22:45:43 	405 		230 	0 	
2012-02-26 22:47:50 	315 		395 	0 	
2012-02-26 22:56:46 	416 		645 	0 	
2012-02-26 23:09:24 	406 		695 	0 	
2012-02-26 23:10:42 	422 		695 	0 	
2012-02-26 23:17:11 	305 		275 	0 	
2012-02-26 23:19:24 	324 		250 	0 	
2012-02-26 23:20:41 	302 		695 	0 	
2012-02-26 23:27:27 	314 		645 	0 	
2012-02-26 23:36:41 	215 		645 	0 	
2012-02-26 23:41:13 	416 		315 	0 	
2012-02-26 23:41:20 	219 		50 	0 	
2012-02-26 23:54:26 	320 		585 	0 	
 			Total:		56468 	395		

=== RECHIT LIST ===




V1