MSHOGUN 1: SHIFT END REPORT
Sunday January 15, 2012 3:59:13 PM

SALES TRANSACTION
Room Sales Order			48675
FnB Sales Order			2473
Beer Sales Order			315
Misc Sales Order			105
Room Sales Adjustment			0
GROSS SALES			51568

DISCOUNT
Room				0
FnB				0
Misc				0

DEPOSIT				21130
REFUND				

TOTAL ACCOUNTABILITY			72698

CASH DECLARATION			7904
CARD				1390
FUNDS SAFEKEEP			40000
TOTAL CASH DECLARED			49294

TOTAL CASH ON SYSTEM			7859
OVER/SHORTAGES 			45

ROOM	 # OF CHECK-OUT	AMT
Value 		14	6170
Regular 		21	11085
Classique 		56	31420
Premium 		0	0
Regent 		0	0
Queen 		0	0
Gemini 		0	0
Family 		0	0
Executive Suite 	0	0
Mega Suite 	0	0

DISCOUNT 
Value 			  
Regular 		  
Classique 		  
Premium 		  
Regent 			  
Queen 		  
Gemini 		  
Family 		  
Executive Suite 	  
Mega Suite 		  


=== RESERVATIONS ===

Deposits:


Claimed:



SECURITY DEPOSITS

Deposits:
Claimed:


=== SALES BREAKDOWN ===

Transaction Date	Room No.	Cash	Card

2012-01-15 08:22:32 	306 		395 	0 	
2012-01-15 08:33:15 	213 		465 	0 	
2012-01-15 08:42:42 	321 		395 	0 	
2012-01-15 08:51:51 	213 		20 	0 	
2012-01-15 08:57:37 	408 		395 	0 	
2012-01-15 09:05:19 	201 		120 	0 	
2012-01-15 09:09:11 	312 		1095 	0 	
2012-01-15 09:17:29 	307 		10 	0 	
2012-01-15 09:18:25 	302 		395 	0 	
2012-01-15 09:22:25 	315 		675 	0 	
2012-01-15 09:22:36 	319 		535 	0 	
2012-01-15 09:25:49 	317 		316 	0 	
2012-01-15 09:30:39 	301 		395 	0 	
2012-01-15 09:34:45 	416 		240 	0 	
2012-01-15 09:35:51 	209 		80 	0 	
2012-01-15 09:40:07 	318 		345 	0 	
2012-01-15 09:44:05 	421 		140 	0 	
2012-01-15 09:49:10 	417 		470 	0 	
2012-01-15 09:54:02 	318 		10 	0 	
2012-01-15 09:58:51 	313 		395 	0 	
2012-01-15 10:05:35 	318 		75 	0 	
2012-01-15 10:07:31 	219 		395 	0 	
2012-01-15 10:08:43 	409 		395 	0 	
2012-01-15 10:11:07 	306 		815 	0 	
2012-01-15 10:11:14 	405 		275 	0 	
2012-01-15 10:19:06 	305 		475 	0 	
2012-01-15 10:20:17 	320 		120 	0 	
2012-01-15 10:26:02 	418 		290 	0 	
2012-01-15 10:50:07 	412 		280 	0 	
2012-01-15 10:56:41 	301 		25 	0 	
2012-01-15 11:03:46 	422 		535 	0 	
2012-01-15 11:11:17 	324 		275 	0 	
2012-01-15 11:20:43 	402 		395 	0 	
2012-01-15 11:28:07 	422 		275 	0 	
2012-01-15 11:28:21 	307 		395 	0 	
2012-01-15 11:35:58 	211 		705 	0 	
2012-01-15 11:36:04 	323 		275 	0 	
2012-01-15 11:37:28 	420 		325 	0 	
2012-01-15 11:40:34 	417 		395 	0 	
2012-01-15 11:47:21 	401 		395 	0 	
2012-01-15 11:47:52 	415 		395 	0 	
2012-01-15 11:53:37 	220 		395 	0 	
2012-01-15 11:55:13 	421 		395 	0 	
2012-01-15 12:16:15 	221 		395 	0 	
2012-01-15 12:18:35 	407 		395 	0 	
2012-01-15 12:18:44 	218 		395 	0 	
2012-01-15 12:19:30 	408 		675 	0 	
2012-01-15 12:27:37 	308 		395 	0 	
2012-01-15 12:27:45 	317 		395 	0 	
2012-01-15 12:33:45 	204 		345 	0 	
2012-01-15 12:45:29 	416 		705 	0 	
2012-01-15 12:46:33 	412 		395 	0 	
2012-01-15 12:47:25 	210 		345 	0 	
2012-01-15 12:50:09 	419 		140 	0 	
2012-01-15 13:04:52 	409 		395 	0 	
2012-01-15 13:04:57 	321 		395 	0 	
2012-01-15 13:06:42 	319 		815 	0 	
2012-01-15 13:07:19 	319 		50 	0 	
2012-01-15 13:07:48 	313 		395 	0 	
2012-01-15 13:10:21 	301 		395 	0 	
2012-01-15 13:12:08 	413 		395 	0 	
2012-01-15 13:16:24 	304 		330 	0 	
2012-01-15 13:18:41 	314 		705 	0 	
2012-01-15 13:18:54 	202 		345 	0 	
2012-01-15 13:20:43 	406 		265 	0 	
2012-01-15 13:22:10 	302 		395 	0 	
2012-01-15 13:22:44 	217 		275 	0 	
2012-01-15 13:34:57 	203 		345 	0 	
2012-01-15 13:35:04 	205 		345 	0 	
2012-01-15 13:36:58 	418 		345 	0 	
2012-01-15 13:41:38 	402 		316 	0 	
2012-01-15 13:44:13 	209 		275 	0 	
2012-01-15 13:45:43 	304 		395 	0 	
2012-01-15 13:48:44 	207 		345 	0 	
2012-01-15 13:48:54 	219 		395 	0 	
2012-01-15 13:54:45 	406 		535 	0 	
2012-01-15 13:57:12 	215 		345 	0 	
2012-01-15 14:00:10 	419 		316 	0 	
2012-01-15 14:00:17 	414 		345 	0 	
2012-01-15 14:03:58 	404 		395 	0 	
2012-01-15 14:07:13 	315 		395 	0 	
2012-01-15 14:08:11 	221 		395 	0 	
2012-01-15 14:08:19 	315 		25 	0 	
2012-01-15 14:13:54 	403 		480 	0 	
2012-01-15 14:14:28 	320 		705 	0 	
2012-01-15 14:16:07 	213 		345 	0 	
2012-01-15 14:17:46 	420 		345 	0 	
2012-01-15 14:22:34 	303 		345 	0 	
2012-01-15 14:22:41 	311 		275 	0 	
2012-01-15 14:26:11 	201 		345 	0 	
2012-01-15 14:31:45 	421 		210 	0 	
2012-01-15 14:33:21 	204 		345 	0 	
2012-01-15 14:34:37 	414 		110 	0 	
2012-01-15 14:37:31 	407 		395 	0 	
2012-01-15 14:40:50 	403 		345 	0 	
2012-01-15 14:43:35 	402 		335 	0 	
2012-01-15 14:43:59 	323 		575 	0 	
2012-01-15 14:53:08 	318 		945 	0 	
2012-01-15 14:53:13 	401 		395 	0 	
2012-01-15 14:53:23 	413 		395 	0 	
2012-01-15 14:53:29 	410 		275 	0 	
2012-01-15 14:53:35 	422 		395 	0 	
2012-01-15 14:54:53 	421 		316 	0 	
2012-01-15 14:55:22 	424 		275 	0 	
2012-01-15 14:57:40 	423 		275 	0 	
2012-01-15 14:57:46 	405 		275 	0 	
2012-01-15 14:58:21 	323 		140 	0 	
2012-01-15 14:58:43 	411 		275 	0 	
2012-01-15 15:03:01 	307 		140 	0 	
2012-01-15 15:06:04 	422 		65 	0 	
2012-01-15 15:06:21 	208 		475 	0 	
2012-01-15 15:14:11 	218 		395 	0 	
2012-01-15 15:14:47 	317 		395 	0 	
2012-01-15 15:15:59 	317 		50 	0 	
2012-01-15 15:16:15 	415 		395 	0 	
2012-01-15 15:19:03 	313 		395 	0 	
2012-01-15 15:24:04 	216 		375 	0 	
2012-01-15 15:28:15 	324 		275 	0 	
2012-01-15 15:28:24 	417 		395 	0 	
2012-01-15 15:30:37 	322 		990 	0 	
2012-01-15 15:31:28 	310 		275 	0 	
2012-01-15 15:35:12 	412 		395 	0 	
2012-01-15 15:40:10 	220 		395 	0 	
2012-01-15 15:43:23 	301 		395 	0 	
2012-01-15 15:45:19 	308 		395 	0 	
2012-01-15 15:47:34 	203 		345 	0 	
2012-01-15 15:47:41 	315 		395 	0 	
2012-01-15 15:48:51 	307 		395 	0 	
2012-01-15 15:49:38 	212 		575 	0 	
2012-01-15 15:57:16 	322 		395 	0 	
 			Total:		47859 	0		

=== RECHIT LIST ===




V1