MSHOGUN 1: SHIFT END REPORT
Sunday October 02, 2011 4:04:42 PM

SALES TRANSACTION
Room Sales Order			38195
FnB Sales Order			2143
Beer Sales Order			180
Misc Sales Order			30
Room Sales Adjustment			0
GROSS SALES			40548

DISCOUNT
Room				0
FnB				0
Misc				0

DEPOSIT				21775
REFUND				

TOTAL ACCOUNTABILITY			62323

CASH DECLARATION			3226
CARD				645
FUNDS SAFEKEEP			40000
TOTAL CASH DECLARED			43871

TOTAL CASH ON SYSTEM			3221
OVER/SHORTAGES 			5

ROOM	 # OF CHECK-OUT	AMT
Value 		11	5085
Regular 		24	13260
Classique 		38	19850
Premium 		0	0
Regent 		0	0
Queen 		0	0
Gemini 		0	0
Family 		0	0
Executive Suite 	0	0
Mega Suite 	0	0

DISCOUNT 
Value 			  
Regular 		  
Classique 		  
Premium 		  
Regent 			  
Queen 		  
Gemini 		  
Family 		  
Executive Suite 	  
Mega Suite 		  


=== RESERVATIONS ===

Deposits:


Claimed:



SECURITY DEPOSITS

Deposits:
Claimed:


=== SALES BREAKDOWN ===

Transaction Date	Room No.	Cash	Card

2011-10-02 08:13:03 	313 		280 	0 	
2011-10-02 08:13:36 	212 		308 	0 	
2011-10-02 08:21:14 	304 		395 	0 	
2011-10-02 08:25:07 	402 		395 	0 	
2011-10-02 08:41:23 	201 		240 	0 	
2011-10-02 08:57:41 	206 		585 	0 	
2011-10-02 09:03:58 	220 		260 	0 	
2011-10-02 09:10:08 	422 		280 	0 	
2011-10-02 09:14:22 	216 		200 	0 	
2011-10-02 09:21:17 	312 		250 	0 	
2011-10-02 09:27:45 	313 		395 	0 	
2011-10-02 09:27:55 	205 		345 	0 	
2011-10-02 09:45:58 	318 		120 	0 	
2011-10-02 09:48:15 	210 		585 	0 	
2011-10-02 09:52:11 	313 		25 	0 	
2011-10-02 09:53:27 	315 		395 	0 	
2011-10-02 09:54:13 	414 		705 	0 	
2011-10-02 10:01:41 	420 		705 	0 	
2011-10-02 10:02:11 	424 		775 	0 	
2011-10-02 10:06:29 	408 		280 	0 	
2011-10-02 10:17:39 	308 		395 	0 	
2011-10-02 10:56:18 	419 		395 	0 	
2011-10-02 10:59:50 	214 		50 	0 	
2011-10-02 10:59:52 	214 		50 	0 	
2011-10-02 11:12:44 	409 		395 	0 	
2011-10-02 11:14:49 	218 		395 	0 	
2011-10-02 11:16:55 	415 		395 	0 	
2011-10-02 11:21:39 	211 		465 	0 	
2011-10-02 11:22:46 	416 		345 	0 	
2011-10-02 11:29:13 	405 		50 	0 	
2011-10-02 11:39:41 	418 		345 	0 	
2011-10-02 11:41:43 	215 		345 	0 	
2011-10-02 11:49:26 	413 		395 	0 	
2011-10-02 11:59:56 	421 		280 	0 	
2011-10-02 12:01:09 	208 		275 	0 	
2011-10-02 12:07:11 	407 		395 	0 	
2011-10-02 12:09:01 	318 		705 	0 	
2011-10-02 12:13:37 	408 		395 	0 	
2011-10-02 12:23:59 	316 		585 	0 	
2011-10-02 12:25:55 	314 		345 	0 	
2011-10-02 12:26:22 	203 		705 	0 	
2011-10-02 12:27:55 	319 		395 	0 	
2011-10-02 12:30:40 	204 		240 	0 	
2011-10-02 12:32:33 	307 		815 	0 	
2011-10-02 12:38:37 	302 		395 	0 	
2011-10-02 12:44:02 	304 		395 	0 	
2011-10-02 12:52:40 	306 		395 	0 	
2011-10-02 13:14:52 	209 		275 	0 	
2011-10-02 13:22:57 	315 		395 	0 	
2011-10-02 13:27:06 	214 		300 	0 	
2011-10-02 13:33:27 	320 		705 	0 	
2011-10-02 13:40:25 	313 		140 	0 	
2011-10-02 13:41:09 	321 		395 	0 	
2011-10-02 13:41:17 	219 		395 	0 	
2011-10-02 13:41:46 	422 		395 	0 	
2011-10-02 13:44:44 	303 		345 	0 	
2011-10-02 13:56:06 	212 		575 	0 	
2011-10-02 13:56:16 	324 		575 	0 	
2011-10-02 14:01:36 	322 		395 	0 	
2011-10-02 14:01:44 	323 		275 	0 	
2011-10-02 14:01:56 	417 		395 	0 	
2011-10-02 14:02:04 	207 		345 	0 	
2011-10-02 14:05:33 	306 		150 	0 	
2011-10-02 14:06:39 	215 		276 	0 	
2011-10-02 14:06:50 	221 		395 	0 	
2011-10-02 14:06:57 	201 		345 	0 	
2011-10-02 14:07:06 	206 		465 	0 	
2011-10-02 14:10:09 	202 		705 	0 	
2011-10-02 14:12:53 	415 		275 	0 	
2011-10-02 14:13:47 	305 		275 	0 	
2011-10-02 14:17:24 	401 		395 	0 	
2011-10-02 14:17:34 	423 		375 	0 	
2011-10-02 14:27:14 	302 		395 	0 	
2011-10-02 14:27:20 	421 		395 	0 	
2011-10-02 14:27:28 	405 		275 	0 	
2011-10-02 14:33:18 	204 		345 	0 	
2011-10-02 14:33:28 	211 		345 	0 	
2011-10-02 14:33:36 	205 		345 	0 	
2011-10-02 14:33:46 	403 		585 	0 	
2011-10-02 14:34:30 	214 		275 	0 	
2011-10-02 14:39:04 	402 		395 	0 	
2011-10-02 14:39:12 	406 		395 	0 	
2011-10-02 14:39:20 	404 		395 	0 	
2011-10-02 14:39:31 	304 		395 	0 	
2011-10-02 14:39:46 	216 		275 	0 	
2011-10-02 14:40:24 	308 		395 	0 	
2011-10-02 14:44:01 	412 		395 	0 	
2011-10-02 14:47:22 	313 		395 	0 	
2011-10-02 14:49:57 	309 		395 	0 	
2011-10-02 14:50:05 	317 		395 	0 	
2011-10-02 14:50:18 	213 		345 	0 	
2011-10-02 14:51:25 	208 		575 	0 	
2011-10-02 14:54:37 	420 		345 	0 	
2011-10-02 14:54:48 	220 		395 	0 	
2011-10-02 15:04:13 	218 		395 	0 	
2011-10-02 15:05:12 	420 		50 	0 	
2011-10-02 15:05:22 	315 		395 	0 	
2011-10-02 15:08:07 	419 		395 	0 	
2011-10-02 15:08:18 	418 		345 	0 	
2011-10-02 15:11:40 	217 		275 	0 	
2011-10-02 15:16:04 	408 		395 	0 	
2011-10-02 15:16:43 	407 		395 	0 	
2011-10-02 15:17:25 	416 		276 	0 	
2011-10-02 15:21:04 	409 		395 	0 	
2011-10-02 15:21:30 	415 		395 	0 	
2011-10-02 15:24:25 	413 		395 	0 	
2011-10-02 15:27:04 	410 		275 	0 	
2011-10-02 15:33:45 	411 		275 	0 	
2011-10-02 15:34:00 	311 		275 	0 	
2011-10-02 15:36:26 	314 		345 	0 	
2011-10-02 15:36:42 	405 		275 	0 	
2011-10-02 15:39:34 	310 		275 	0 	
2011-10-02 15:39:55 	213 		110 	0 	
2011-10-02 15:42:03 	302 		395 	0 	
2011-10-02 15:45:48 	414 		276 	0 	
2011-10-02 15:52:02 	215 		345 	0 	
2011-10-02 15:55:24 	219 		0 	395 	
2011-10-02 15:55:44 	422 		395 	0 	
 			Total:		43221 	395		

=== RECHIT LIST ===




V1