MSHOGUN 1: SHIFT END REPORT
Saturday September 04, 2010 8:00:02 AM

SALES TRANSACTION
Room Sales Order			38305
FnB Sales Order			2061
Beer Sales Order			270
Misc Sales Order			365
Room Sales Adjustment			0
GROSS SALES			41001

DISCOUNT
Room				0
FnB				0
Misc				0

DEPOSIT				9380
REFUND				

TOTAL ACCOUNTABILITY			50381

CASH DECLARATION			381
CARD				0
FUNDS SAFEKEEP			20000
TOTAL CASH DECLARED			20381

TOTAL CASH ON SYSTEM			381
OVER/SHORTAGES 			0

ROOM	 # OF CHECK-OUT	AMT
Value 		10	4670
Regular 		18	8790
Classique 		23	13245
Premium 		3	1950
Regent 		6	8800
Queen 		1	850
Gemini 		0	0
Family 		0	0
Executive Suite 	0	0
Mega Suite 	0	0

DISCOUNT 
Value 			  
Regular 		  
Classique 		  
Premium 		  
Regent 			  
Queen 		  
Gemini 		  
Family 		  
Executive Suite 	  
Mega Suite 		  


=== RESERVATIONS ===

Deposits:


Claimed:



SECURITY DEPOSITS

Deposits:
Claimed:


=== SALES BREAKDOWN ===

Transaction Date	Room No.	Cash	Card

2010-09-04 00:10:00 	516 		800 	0 	
2010-09-04 00:42:09 	307 		695 	0 	
2010-09-04 00:47:47 	307 		25 	0 	
2010-09-04 00:48:19 	415 		10 	0 	
2010-09-04 00:52:22 	203 		516 	0 	
2010-09-04 00:55:01 	521 		750 	0 	
2010-09-04 01:05:55 	523 		750 	0 	
2010-09-04 01:25:35 	409 		395 	0 	
2010-09-04 01:51:55 	313 		535 	0 	
2010-09-04 02:01:11 	221 		110 	0 	
2010-09-04 02:03:35 	509 		750 	0 	
2010-09-04 02:03:52 	312 		395 	0 	
2010-09-04 02:08:53 	204 		585 	0 	
2010-09-04 02:15:45 	311 		275 	0 	
2010-09-04 02:15:53 	301 		535 	0 	
2010-09-04 02:16:06 	301 		20 	0 	
2010-09-04 02:16:20 	412 		395 	0 	
2010-09-04 02:19:13 	602 		110 	0 	
2010-09-04 02:19:25 	316 		585 	0 	
2010-09-04 02:32:10 	318 		345 	0 	
2010-09-04 02:37:23 	320 		345 	0 	
2010-09-04 02:37:30 	310 		275 	0 	
2010-09-04 02:44:36 	207 		585 	0 	
2010-09-04 02:54:34 	318 		50 	0 	
2010-09-04 02:54:37 	318 		395 	0 	
2010-09-04 02:55:25 	201 		465 	0 	
2010-09-04 03:14:44 	215 		345 	0 	
2010-09-04 03:43:23 	422 		395 	0 	
2010-09-04 03:48:05 	214 		0 	575 	
2010-09-04 03:48:17 	311 		275 	0 	
2010-09-04 03:48:27 	311 		20 	0 	
2010-09-04 04:16:11 	505 		800 	0 	
2010-09-04 04:25:39 	214 		10 	0 	
2010-09-04 05:05:30 	410 		275 	0 	
2010-09-04 05:18:41 	320 		705 	0 	
2010-09-04 05:21:16 	520 		800 	0 	
2010-09-04 05:50:27 	302 		675 	0 	
2010-09-04 05:51:13 	320 		205 	0 	
2010-09-04 05:54:24 	213 		240 	0 	
2010-09-04 05:54:28 	213 		100 	0 	
2010-09-04 06:03:14 	310 		575 	0 	
2010-09-04 06:05:03 	501 		250 	0 	
2010-09-04 06:14:12 	406 		50 	0 	
2010-09-04 06:18:27 	210 		705 	0 	
2010-09-04 06:38:56 	507 		1600 	0 	
2010-09-04 07:03:19 	601 		850 	0 	
2010-09-04 07:17:01 	313 		140 	0 	
2010-09-04 07:38:24 	311 		275 	0 	
2010-09-04 07:47:21 	409 		395 	0 	
 			Total:		20381 	575		

=== RECHIT LIST ===

Room No. 520 	 Rechit Date: 2010-09-04 05:13:57




Room No. 609 	 Rechit Date: 2010-09-04 05:15:04







V1