MSHOGUN 1: SHIFT END REPORT
Sunday September 25, 2011 8:01:44 AM

SALES TRANSACTION
Room Sales Order			29465
FnB Sales Order			1530
Beer Sales Order			0
Misc Sales Order			30
Room Sales Adjustment			0
GROSS SALES			31025

DISCOUNT
Room				0
FnB				0
Misc				0

DEPOSIT				4123
REFUND				

TOTAL ACCOUNTABILITY			35148

CASH DECLARATION			11444
CARD				595
FUNDS SAFEKEEP			0
TOTAL CASH DECLARED			12039

TOTAL CASH ON SYSTEM			11444
OVER/SHORTAGES 			0

ROOM	 # OF CHECK-OUT	AMT
Value 		14	7130
Regular 		13	7125
Classique 		26	15210
Premium 		0	0
Regent 		0	0
Queen 		0	0
Gemini 		0	0
Family 		0	0
Executive Suite 	0	0
Mega Suite 	0	0

DISCOUNT 
Value 			  
Regular 		  
Classique 		  
Premium 		  
Regent 			  
Queen 		  
Gemini 		  
Family 		  
Executive Suite 	  
Mega Suite 		  


=== RESERVATIONS ===

Deposits:


Claimed:



SECURITY DEPOSITS

Deposits:
Claimed:


=== SALES BREAKDOWN ===

Transaction Date	Room No.	Cash	Card

2011-09-25 00:13:19 	322 		395 	0 	
2011-09-25 00:13:31 	301 		395 	0 	
2011-09-25 00:42:27 	313 		695 	0 	
2011-09-25 00:45:46 	413 		75 	0 	
2011-09-25 01:11:12 	207 		585 	0 	
2011-09-25 01:15:20 	403 		705 	0 	
2011-09-25 01:15:34 	301 		15 	0 	
2011-09-25 02:23:00 	309 		395 	0 	
2011-09-25 02:33:21 	208 		275 	0 	
2011-09-25 02:48:39 	201 		705 	0 	
2011-09-25 03:39:15 	301 		395 	0 	
2011-09-25 03:53:32 	322 		140 	0 	
2011-09-25 04:00:39 	308 		395 	0 	
2011-09-25 04:01:12 	314 		110 	0 	
2011-09-25 04:09:56 	403 		310 	0 	
2011-09-25 04:13:23 	309 		395 	0 	
2011-09-25 04:41:08 	322 		395 	0 	
2011-09-25 04:52:39 	209 		275 	0 	
2011-09-25 05:08:31 	324 		275 	0 	
2011-09-25 05:09:04 	404 		395 	0 	
2011-09-25 05:09:40 	210 		345 	0 	
2011-09-25 05:49:33 	304 		395 	0 	
2011-09-25 05:50:24 	312 		110 	0 	
2011-09-25 05:54:25 	204 		276 	0 	
2011-09-25 06:08:23 	319 		395 	0 	
2011-09-25 06:31:09 	308 		675 	0 	
2011-09-25 06:41:36 	216 		275 	0 	
2011-09-25 06:45:29 	208 		160 	0 	
2011-09-25 06:52:43 	419 		15 	0 	
2011-09-25 06:55:00 	207 		345 	0 	
2011-09-25 07:02:29 	Lobby 		130 	0 	
2011-09-25 07:05:22 	405 		50 	0 	
2011-09-25 07:11:38 	214 		275 	0 	
2011-09-25 07:29:16 	421 		198 	0 	
2011-09-25 07:41:57 	405 		475 	0 	
 			Total:		11444 	0		

=== RECHIT LIST ===




V1