MSHOGUN 1: SHIFT END REPORT
Wednesday February 22, 2012 12:00:49 AM

SALES TRANSACTION
Room Sales Order			33865
FnB Sales Order			2635
Beer Sales Order			55
Misc Sales Order			30
Room Sales Adjustment			0
GROSS SALES			36585

DISCOUNT
Room				0
FnB				0
Misc				0

DEPOSIT				31575
REFUND				

TOTAL ACCOUNTABILITY			68160

CASH DECLARATION			8028
CARD				2550
FUNDS SAFEKEEP			40000
TOTAL CASH DECLARED			50578

TOTAL CASH ON SYSTEM			8028
OVER/SHORTAGES 			0

ROOM	 # OF CHECK-OUT	AMT
Value 		10	2750
Regular 		23	11175
Classique 		48	19940
Premium 		0	0
Regent 		0	0
Queen 		0	0
Gemini 		0	0
Family 		0	0
Executive Suite 	0	0
Mega Suite 	0	0

DISCOUNT 
Value 			  
Regular 		  
Classique 		  
Premium 		  
Regent 			  
Queen 		  
Gemini 		  
Family 		  
Executive Suite 	  
Mega Suite 		  


=== RESERVATIONS ===

Deposits:


Claimed:



SECURITY DEPOSITS

Deposits:
Claimed:


=== SALES BREAKDOWN ===

Transaction Date	Room No.	Cash	Card

2012-02-21 16:02:57 	216 		275 	0 	
2012-02-21 16:05:05 	217 		275 	0 	
2012-02-21 16:17:47 	311 		200 	0 	
2012-02-21 16:19:09 	207 		276 	0 	
2012-02-21 16:21:36 	313 		395 	0 	
2012-02-21 16:23:48 	308 		316 	0 	
2012-02-21 16:23:55 	319 		395 	0 	
2012-02-21 16:55:15 	301 		395 	0 	
2012-02-21 17:09:38 	219 		190 	0 	
2012-02-21 17:18:03 	204 		276 	0 	
2012-02-21 17:18:50 	422 		316 	0 	
2012-02-21 17:22:11 	321 		395 	0 	
2012-02-21 17:29:35 	206 		345 	0 	
2012-02-21 17:32:17 	219 		395 	0 	
2012-02-21 17:35:48 	210 		345 	0 	
2012-02-21 17:37:47 	322 		395 	0 	
2012-02-21 17:46:03 	218 		395 	0 	
2012-02-21 17:49:41 	309 		316 	0 	
2012-02-21 17:53:19 	412 		395 	0 	
2012-02-21 17:58:17 	220 		395 	0 	
2012-02-21 18:02:36 	208 		275 	0 	
2012-02-21 18:05:12 	304 		316 	0 	
2012-02-21 18:09:11 	311 		275 	0 	
2012-02-21 18:09:55 	309 		395 	0 	
2012-02-21 18:14:45 	202 		345 	0 	
2012-02-21 18:18:04 	406 		695 	0 	
2012-02-21 18:18:10 	324 		595 	0 	
2012-02-21 18:18:47 	409 		395 	0 	
2012-02-21 18:25:15 	306 		395 	0 	
2012-02-21 18:27:07 	421 		695 	0 	
2012-02-21 18:27:54 	302 		395 	0 	
2012-02-21 18:37:28 	209 		275 	0 	
2012-02-21 18:38:25 	302 		50 	0 	
2012-02-21 18:39:51 	203 		345 	0 	
2012-02-21 18:49:12 	301 		395 	0 	
2012-02-21 18:52:48 	401 		395 	0 	
2012-02-21 18:56:05 	323 		595 	0 	
2012-02-21 18:58:15 	423 		595 	0 	
2012-02-21 19:00:33 	214 		595 	0 	
2012-02-21 19:07:54 	404 		695 	0 	
2012-02-21 19:09:28 	420 		345 	0 	
2012-02-21 19:11:45 	204 		235 	0 	
2012-02-21 19:13:36 	313 		395 	0 	
2012-02-21 19:14:09 	307 		395 	0 	
2012-02-21 19:14:40 	402 		695 	0 	
2012-02-21 19:26:19 	419 		695 	0 	
2012-02-21 19:29:16 	413 		695 	0 	
2012-02-21 19:30:55 	403 		645 	0 	
2012-02-21 19:44:08 	408 		695 	0 	
2012-02-21 19:45:52 	317 		695 	0 	
2012-02-21 19:49:10 	322 		395 	0 	
2012-02-21 19:50:11 	416 		0 	645 	
2012-02-21 19:51:22 	205 		345 	0 	
2012-02-21 19:52:06 	320 		345 	0 	
2012-02-21 20:00:53 	319 		695 	0 	
2012-02-21 20:05:07 	309 		0 	395 	
2012-02-21 20:06:13 	206 		645 	0 	
2012-02-21 20:08:26 	407 		0 	395 	
2012-02-21 20:16:35 	415 		695 	0 	
2012-02-21 20:18:14 	219 		395 	0 	
2012-02-21 20:18:34 	217 		595 	0 	
2012-02-21 20:19:49 	215 		645 	0 	
2012-02-21 20:20:26 	424 		595 	0 	
2012-02-21 20:24:08 	220 		316 	0 	
2012-02-21 20:36:43 	208 		275 	0 	
2012-02-21 20:36:54 	414 		645 	0 	
2012-02-21 20:44:26 	218 		695 	0 	
2012-02-21 20:56:01 	210 		345 	0 	
2012-02-21 20:57:30 	406 		435 	0 	
2012-02-21 20:57:40 	415 		240 	0 	
2012-02-21 20:58:45 	301 		395 	0 	
2012-02-21 21:04:18 	302 		395 	0 	
2012-02-21 21:10:18 	314 		345 	0 	
2012-02-21 21:13:46 	318 		645 	0 	
2012-02-21 21:13:57 	303 		645 	0 	
2012-02-21 21:26:34 	419 		100 	0 	
2012-02-21 21:27:02 	203 		260 	0 	
2012-02-21 21:27:56 	220 		465 	0 	
2012-02-21 21:28:57 	320 		240 	0 	
2012-02-21 21:29:07 	417 		695 	0 	
2012-02-21 21:29:31 	204 		276 	0 	
2012-02-21 21:29:51 	307 		695 	0 	
2012-02-21 21:31:27 	304 		695 	0 	
2012-02-21 21:42:37 	320 		25 	0 	
2012-02-21 21:42:57 	213 		645 	0 	
2012-02-21 21:44:54 	318 		25 	0 	
2012-02-21 21:45:06 	407 		695 	0 	
2012-02-21 21:46:30 	306 		695 	0 	
2012-02-21 21:47:10 	207 		345 	0 	
2012-02-21 21:51:43 	313 		395 	0 	
2012-02-21 22:00:59 	315 		695 	0 	
2012-02-21 22:21:23 	211 		645 	0 	
2012-02-21 22:22:41 	322 		695 	0 	
2012-02-21 22:28:04 	314 		50 	0 	
2012-02-21 22:28:12 	317 		280 	0 	
2012-02-21 22:28:26 	321 		695 	0 	
2012-02-21 22:32:39 	401 		395 	0 	
2012-02-21 22:36:07 	209 		275 	0 	
2012-02-21 22:37:08 	220 		395 	0 	
2012-02-21 22:42:29 	320 		645 	0 	
2012-02-21 22:43:00 	306 		180 	0 	
2012-02-21 22:54:00 	422 		695 	0 	
2012-02-21 23:00:18 	212 		475 	0 	
2012-02-21 23:03:02 	219 		695 	0 	
2012-02-21 23:10:23 	420 		465 	0 	
2012-02-21 23:18:15 	221 		695 	0 	
2012-02-21 23:25:35 	219 		50 	0 	
2012-02-21 23:25:45 	321 		205 	0 	
2012-02-21 23:25:54 	217 		100 	0 	
2012-02-21 23:26:03 	412 		395 	0 	
2012-02-21 23:26:25 	418 		645 	0 	
2012-02-21 23:27:08 	312 		395 	0 	
2012-02-21 23:48:59 	316 		345 	0 	
2012-02-21 23:49:35 	316 		50 	0 	
 			Total:		48028 	1435		

=== RECHIT LIST ===




V1