MSHOGUN 1: SHIFT END REPORT
Tuesday November 16, 2010 8:00:21 AM

SALES TRANSACTION
Room Sales Order			32325
FnB Sales Order			2326
Beer Sales Order			825
Misc Sales Order			170
Room Sales Adjustment			0
GROSS SALES			35646

DISCOUNT
Room				0
FnB				0
Misc				0

DEPOSIT				3685
REFUND				

TOTAL ACCOUNTABILITY			39331

CASH DECLARATION			4455
CARD				1090
FUNDS SAFEKEEP			10000
TOTAL CASH DECLARED			15545

TOTAL CASH ON SYSTEM			4465
OVER/SHORTAGES 			-10

ROOM	 # OF CHECK-OUT	AMT
Value 		13	6295
Regular 		21	11385
Classique 		27	14645
Premium 		0	0
Regent 		0	0
Queen 		0	0
Gemini 		0	0
Family 		0	0
Executive Suite 	0	0
Mega Suite 	0	0

DISCOUNT 
Value 			  
Regular 		  
Classique 		  
Premium 		  
Regent 			  
Queen 		  
Gemini 		  
Family 		  
Executive Suite 	  
Mega Suite 		  


=== RESERVATIONS ===

Deposits:


Claimed:



SECURITY DEPOSITS

Deposits:
Claimed:


=== SALES BREAKDOWN ===

Transaction Date	Room No.	Cash	Card

2010-11-16 00:17:25 	412 		395 	0 	
2010-11-16 00:23:17 	422 		395 	0 	
2010-11-16 00:49:40 	322 		395 	0 	
2010-11-16 01:00:16 	208 		80 	0 	
2010-11-16 01:00:22 	209 		10 	0 	
2010-11-16 01:01:18 	307 		395 	0 	
2010-11-16 01:01:30 	305 		375 	0 	
2010-11-16 01:01:54 	210 		345 	0 	
2010-11-16 01:08:11 	312 		395 	0 	
2010-11-16 01:08:58 	202 		585 	0 	
2010-11-16 01:12:43 	202 		120 	0 	
2010-11-16 01:15:26 	320 		585 	0 	
2010-11-16 01:26:33 	309 		395 	0 	
2010-11-16 01:37:57 	409 		395 	0 	
2010-11-16 01:49:41 	301 		135 	0 	
2010-11-16 01:52:04 	207 		345 	0 	
2010-11-16 02:02:26 	301 		395 	0 	
2010-11-16 02:05:43 	216 		275 	0 	
2010-11-16 02:19:45 	208 		275 	0 	
2010-11-16 02:32:32 	312 		100 	0 	
2010-11-16 02:57:12 	217 		475 	0 	
2010-11-16 03:08:33 	213 		120 	0 	
2010-11-16 03:13:57 	206 		120 	0 	
2010-11-16 03:24:14 	201 		120 	0 	
2010-11-16 03:29:10 	213 		345 	0 	
2010-11-16 03:31:43 	206 		705 	0 	
2010-11-16 03:44:45 	405 		110 	0 	
2010-11-16 03:51:48 	322 		675 	0 	
2010-11-16 04:02:14 	204 		345 	0 	
2010-11-16 04:10:33 	322 		270 	0 	
2010-11-16 04:11:05 	401 		395 	0 	
2010-11-16 04:20:32 	412 		140 	0 	
2010-11-16 05:05:35 	210 		120 	0 	
2010-11-16 05:10:40 	312 		140 	0 	
2010-11-16 05:19:26 	309 		140 	0 	
2010-11-16 05:32:33 	202 		180 	0 	
2010-11-16 05:40:38 	412 		395 	0 	
2010-11-16 06:06:31 	216 		100 	0 	
2010-11-16 06:14:06 	422 		420 	0 	
2010-11-16 06:32:53 	307 		775 	0 	
2010-11-16 06:36:27 	316 		150 	0 	
2010-11-16 06:43:35 	209 		100 	0 	
2010-11-16 06:44:06 	419 		260 	0 	
2010-11-16 06:44:47 	419 		140 	0 	
2010-11-16 06:48:56 	305 		275 	0 	
2010-11-16 07:26:44 	320 		120 	0 	
2010-11-16 07:34:38 	215 		295 	0 	
2010-11-16 07:44:33 	207 		345 	0 	
2010-11-16 07:56:19 	403 		300 	0 	
 			Total:		14465 	0		

=== RECHIT LIST ===




V1