MSHOGUN 1: SHIFT END REPORT
Sunday August 01, 2010 12:00:37 AM

SALES TRANSACTION
Room Sales Order			58960
FnB Sales Order			3466
Beer Sales Order			1190
Misc Sales Order			188
Room Sales Adjustment			0
GROSS SALES			63804

DISCOUNT
Room				0
FnB				0
Misc				0

DEPOSIT				75038
REFUND				

TOTAL ACCOUNTABILITY			138842

CASH DECLARATION			4295
CARD				395
FUNDS SAFEKEEP			110000
TOTAL CASH DECLARED			114690

TOTAL CASH ON SYSTEM			4290
OVER/SHORTAGES 			5

ROOM	 # OF CHECK-OUT	AMT
Value 		17	4975
Regular 		40	16080
Classique 		69	28655
Premium 		1	450
Regent 		9	7100
Queen 		2	1700
Gemini 		0	0
Family 		0	0
Executive Suite 	0	0
Mega Suite 	0	0

DISCOUNT 
Value 			  
Regular 		  
Classique 		  
Premium 		  
Regent 			  
Queen 		  
Gemini 		  
Family 		  
Executive Suite 	  
Mega Suite 		  


=== RESERVATIONS ===

Deposits:


Claimed:



SECURITY DEPOSITS

Deposits:
Claimed:


=== SALES BREAKDOWN ===

Transaction Date	Room No.	Cash	Card

2010-07-31 16:11:05 	416 		190 	0 	
2010-07-31 16:12:03 	304 		395 	0 	
2010-07-31 16:17:34 	212 		275 	0 	
2010-07-31 16:24:46 	504 		325 	0 	
2010-07-31 16:25:38 	404 		395 	0 	
2010-07-31 16:26:03 	315 		395 	0 	
2010-07-31 16:27:33 	414 		345 	0 	
2010-07-31 16:27:44 	205 		345 	0 	
2010-07-31 16:28:00 	203 		585 	0 	
2010-07-31 16:28:58 	201 		345 	0 	
2010-07-31 16:29:20 	402 		395 	0 	
2010-07-31 16:29:31 	204 		345 	0 	
2010-07-31 16:31:22 	303 		345 	0 	
2010-07-31 16:32:18 	317 		140 	0 	
2010-07-31 16:36:14 	309 		395 	0 	
2010-07-31 16:36:41 	209 		275 	0 	
2010-07-31 16:37:59 	507 		1600 	0 	
2010-07-31 16:42:43 	612 		1700 	0 	
2010-07-31 16:42:55 	503 		800 	0 	
2010-07-31 16:46:02 	408 		395 	0 	
2010-07-31 16:50:32 	422 		50 	0 	
2010-07-31 16:51:01 	516 		1600 	0 	
2010-07-31 17:04:16 	417 		395 	0 	
2010-07-31 17:05:08 	312 		395 	0 	
2010-07-31 17:09:32 	208 		275 	0 	
2010-07-31 17:11:24 	306 		395 	0 	
2010-07-31 17:14:20 	503 		543 	0 	
2010-07-31 17:15:15 	316 		345 	0 	
2010-07-31 17:17:24 	415 		395 	0 	
2010-07-31 17:20:36 	219 		395 	0 	
2010-07-31 17:22:31 	406 		140 	0 	
2010-07-31 17:23:29 	214 		328 	0 	
2010-07-31 17:24:47 	218 		395 	0 	
2010-07-31 17:30:52 	519 		1600 	0 	
2010-07-31 17:32:08 	407 		395 	0 	
2010-07-31 17:32:51 	510 		800 	0 	
2010-07-31 17:33:51 	314 		345 	0 	
2010-07-31 17:34:56 	311 		275 	0 	
2010-07-31 17:40:48 	503 		430 	0 	
2010-07-31 17:45:12 	608 		850 	0 	
2010-07-31 17:46:33 	411 		275 	0 	
2010-07-31 17:47:24 	404 		355 	0 	
2010-07-31 17:53:13 	416 		100 	0 	
2010-07-31 17:53:30 	219 		255 	0 	
2010-07-31 17:53:54 	304 		395 	0 	
2010-07-31 17:54:31 	412 		395 	0 	
2010-07-31 17:54:44 	217 		275 	0 	
2010-07-31 17:56:43 	418 		276 	0 	
2010-07-31 18:02:02 	510 		210 	0 	
2010-07-31 18:02:30 	221 		395 	0 	
2010-07-31 18:02:41 	301 		395 	0 	
2010-07-31 18:03:49 	523 		750 	0 	
2010-07-31 18:04:50 	522 		750 	0 	
2010-07-31 18:07:41 	307 		395 	0 	
2010-07-31 18:08:02 	206 		465 	0 	
2010-07-31 18:08:57 	410 		275 	0 	
2010-07-31 18:10:59 	318 		345 	0 	
2010-07-31 18:14:28 	401 		395 	0 	
2010-07-31 18:15:29 	421 		395 	0 	
2010-07-31 18:17:19 	319 		395 	0 	
2010-07-31 18:20:54 	413 		535 	0 	
2010-07-31 18:29:16 	519 		65 	0 	
2010-07-31 18:29:41 	308 		130 	0 	
2010-07-31 18:29:57 	522 		20 	0 	
2010-07-31 18:30:11 	301 		90 	0 	
2010-07-31 18:32:28 	409 		395 	0 	
2010-07-31 18:38:05 	422 		395 	0 	
2010-07-31 18:39:44 	410 		210 	0 	
2010-07-31 18:39:47 	410 		85 	0 	
2010-07-31 18:45:04 	508 		750 	0 	
2010-07-31 18:46:31 	402 		695 	0 	
2010-07-31 18:47:29 	304 		25 	0 	
2010-07-31 18:48:06 	320 		345 	0 	
2010-07-31 18:48:40 	306 		140 	0 	
2010-07-31 18:49:04 	210 		345 	0 	
2010-07-31 18:50:48 	320 		8 	0 	
2010-07-31 18:51:07 	414 		345 	0 	
2010-07-31 18:52:01 	420 		645 	0 	
2010-07-31 18:59:08 	501 		800 	0 	
2010-07-31 19:00:40 	216 		275 	0 	
2010-07-31 19:01:30 	310 		100 	0 	
2010-07-31 19:03:02 	214 		595 	0 	
2010-07-31 19:03:12 	309 		395 	0 	
2010-07-31 19:03:51 	504 		800 	0 	
2010-07-31 19:04:31 	406 		695 	0 	
2010-07-31 19:04:56 	322 		395 	0 	
2010-07-31 19:05:20 	302 		395 	0 	
2010-07-31 19:06:35 	202 		585 	0 	
2010-07-31 19:10:05 	207 		345 	0 	
2010-07-31 19:10:18 	321 		695 	0 	
2010-07-31 19:10:30 	304 		395 	0 	
2010-07-31 19:11:05 	308 		140 	0 	
2010-07-31 19:15:05 	521 		750 	0 	
2010-07-31 19:16:29 	509 		450 	0 	
2010-07-31 19:17:49 	201 		345 	0 	
2010-07-31 19:21:26 	406 		20 	0 	
2010-07-31 19:22:00 	518 		750 	0 	
2010-07-31 19:23:28 	315 		395 	0 	
2010-07-31 19:24:35 	308 		695 	0 	
2010-07-31 19:29:04 	408 		395 	0 	
2010-07-31 19:31:12 	506 		500 	0 	
2010-07-31 19:35:15 	505 		500 	0 	
2010-07-31 19:39:59 	215 		345 	0 	
2010-07-31 19:42:11 	512 		500 	0 	
2010-07-31 19:43:12 	307 		695 	0 	
2010-07-31 19:45:52 	404 		695 	0 	
2010-07-31 19:46:55 	313 		695 	0 	
2010-07-31 19:51:41 	507 		210 	0 	
2010-07-31 19:51:55 	322 		160 	0 	
2010-07-31 19:51:59 	322 		40 	0 	
2010-07-31 19:52:10 	301 		185 	0 	
2010-07-31 19:54:21 	419 		695 	0 	
2010-07-31 19:55:11 	422 		695 	0 	
2010-07-31 19:56:17 	218 		395 	0 	
2010-07-31 19:57:01 	317 		395 	0 	
2010-07-31 19:58:18 	303 		645 	0 	
2010-07-31 19:59:40 	205 		585 	0 	
2010-07-31 20:00:36 	204 		345 	0 	
2010-07-31 20:01:36 	316 		645 	0 	
2010-07-31 20:03:08 	403 		465 	0 	
2010-07-31 20:04:29 	211 		345 	0 	
2010-07-31 20:06:01 	220 		695 	0 	
2010-07-31 20:07:37 	312 		395 	0 	
2010-07-31 20:09:57 	617 		850 	0 	
2010-07-31 20:11:19 	314 		345 	0 	
2010-07-31 20:12:06 	601 		850 	0 	
2010-07-31 20:13:35 	318 		345 	0 	
2010-07-31 20:15:39 	609 		850 	0 	
2010-07-31 20:18:50 	212 		275 	0 	
2010-07-31 20:19:02 	615 		850 	0 	
2010-07-31 20:27:13 	311 		10 	0 	
2010-07-31 20:28:11 	310 		275 	0 	
2010-07-31 20:32:30 	302 		695 	0 	
2010-07-31 20:33:54 	301 		695 	0 	
2010-07-31 20:39:22 	319 		695 	0 	
2010-07-31 20:39:34 	306 		395 	0 	
2010-07-31 20:40:09 	417 		695 	0 	
2010-07-31 20:40:59 	414 		645 	0 	
2010-07-31 20:43:26 	221 		695 	0 	
2010-07-31 20:44:35 	311 		595 	0 	
2010-07-31 20:49:39 	407 		0 	395 	
2010-07-31 20:50:31 	606 		950 	0 	
2010-07-31 20:56:39 	421 		695 	0 	
2010-07-31 20:56:49 	401 		395 	0 	
2010-07-31 20:57:58 	415 		695 	0 	
2010-07-31 20:59:04 	207 		645 	0 	
2010-07-31 20:59:43 	418 		645 	0 	
2010-07-31 21:02:57 	217 		240 	0 	
2010-07-31 21:05:40 	219 		140 	0 	
2010-07-31 21:09:14 	213 		120 	0 	
2010-07-31 21:11:49 	407 		80 	0 	
2010-07-31 21:12:29 	414 		10 	0 	
2010-07-31 21:12:48 	207 		10 	0 	
2010-07-31 21:13:04 	617 		210 	0 	
2010-07-31 21:13:44 	522 		230 	0 	
2010-07-31 21:15:02 	203 		345 	0 	
2010-07-31 21:16:17 	204 		345 	0 	
2010-07-31 21:18:13 	512 		25 	0 	
2010-07-31 21:18:54 	519 		800 	0 	
2010-07-31 21:24:40 	505 		800 	0 	
2010-07-31 21:24:57 	517 		800 	0 	
2010-07-31 21:25:08 	201 		345 	0 	
2010-07-31 21:26:25 	307 		360 	0 	
2010-07-31 21:26:52 	213 		345 	0 	
2010-07-31 21:27:04 	320 		645 	0 	
2010-07-31 21:27:17 	512 		800 	0 	
2010-07-31 21:31:36 	515 		800 	0 	
2010-07-31 21:31:52 	209 		275 	0 	
2010-07-31 21:35:33 	219 		695 	0 	
2010-07-31 21:35:54 	208 		575 	0 	
2010-07-31 21:38:43 	604 		950 	0 	
2010-07-31 21:41:55 	607 		950 	0 	
2010-07-31 21:47:40 	409 		395 	0 	
2010-07-31 21:48:12 	616 		1700 	0 	
2010-07-31 21:49:59 	322 		695 	0 	
2010-07-31 21:51:34 	210 		345 	0 	
2010-07-31 21:52:14 	603 		1050 	0 	
2010-07-31 21:54:10 	408 		395 	0 	
2010-07-31 21:56:07 	602 		1100 	0 	
2010-07-31 21:57:33 	217 		275 	0 	
2010-07-31 21:58:00 	405 		275 	0 	
2010-07-31 22:01:25 	610 		1050 	0 	
2010-07-31 22:02:50 	611 		1050 	0 	
2010-07-31 22:04:49 	416 		120 	0 	
2010-07-31 22:05:29 	219 		10 	0 	
2010-07-31 22:06:46 	406 		190 	0 	
2010-07-31 22:06:58 	505 		210 	0 	
2010-07-31 22:07:13 	605 		1050 	0 	
2010-07-31 22:07:25 	318 		345 	0 	
2010-07-31 22:09:21 	306 		955 	0 	
2010-07-31 22:11:37 	412 		140 	0 	
2010-07-31 22:15:25 	509 		750 	0 	
2010-07-31 22:19:05 	506 		800 	0 	
2010-07-31 22:22:02 	413 		695 	0 	
2010-07-31 22:23:34 	503 		210 	0 	
2010-07-31 22:23:59 	405 		85 	0 	
2010-07-31 22:24:36 	515 		175 	0 	
2010-07-31 22:26:49 	304 		695 	0 	
2010-07-31 22:28:46 	407 		695 	0 	
2010-07-31 22:29:28 	416 		585 	0 	
2010-07-31 22:30:44 	412 		695 	0 	
2010-07-31 22:33:08 	317 		695 	0 	
2010-07-31 22:34:11 	504 		10 	0 	
2010-07-31 22:34:20 	306 		200 	0 	
2010-07-31 22:34:47 	206 		585 	0 	
2010-07-31 22:36:07 	314 		645 	0 	
2010-07-31 22:37:52 	305 		675 	0 	
2010-07-31 22:38:52 	309 		140 	0 	
2010-07-31 22:47:07 	315 		395 	0 	
2010-07-31 22:50:18 	411 		200 	0 	
2010-07-31 22:51:11 	309 		695 	0 	
2010-07-31 22:57:44 	218 		395 	0 	
2010-07-31 22:57:57 	215 		345 	0 	
2010-07-31 22:58:09 	614 		1100 	0 	
2010-07-31 23:00:46 	201 		705 	0 	
2010-07-31 23:03:02 	509 		380 	0 	
2010-07-31 23:03:23 	418 		220 	0 	
2010-07-31 23:03:37 	311 		515 	0 	
2010-07-31 23:05:53 	318 		705 	0 	
2010-07-31 23:06:25 	312 		695 	0 	
2010-07-31 23:06:40 	211 		645 	0 	
2010-07-31 23:07:33 	512 		50 	0 	
2010-07-31 23:08:00 	409 		695 	0 	
2010-07-31 23:10:21 	613 		1200 	0 	
2010-07-31 23:14:22 	410 		375 	0 	
2010-07-31 23:14:34 	411 		375 	0 	
2010-07-31 23:15:39 	310 		275 	0 	
2010-07-31 23:15:49 	324 		275 	0 	
2010-07-31 23:17:15 	401 		395 	0 	
2010-07-31 23:20:01 	407 		55 	0 	
2010-07-31 23:20:32 	423 		275 	0 	
2010-07-31 23:20:42 	424 		275 	0 	
2010-07-31 23:24:12 	202 		645 	0 	
2010-07-31 23:24:45 	323 		275 	0 	
2010-07-31 23:30:23 	318 		275 	0 	
2010-07-31 23:34:06 	408 		395 	0 	
2010-07-31 23:36:58 	204 		645 	0 	
2010-07-31 23:38:11 	217 		575 	0 	
2010-07-31 23:39:46 	212 		275 	0 	
2010-07-31 23:39:57 	217 		30 	0 	
2010-07-31 23:40:18 	212 		20 	0 	
2010-07-31 23:49:02 	209 		575 	0 	
2010-07-31 23:54:38 	218 		695 	0 	
 			Total:		114290 	395		

=== RECHIT LIST ===

Room No. 507 	 Rechit Date: 2010-07-31 16:44:19



Food and Beverage Sales

		
 
Order Code# 1280629157872 	 07-31 19:51
		 Package Meal #3 (Sinigang na Sugpo, 1 Fried Tilapia, 2 Plain rice, 2 Ice Tea) 	 210.00
				 Sub Total:		 210.00 






V1