MSHOGUN 1: SHIFT END REPORT
Thursday March 08, 2012 12:01:17 AM

SALES TRANSACTION
Room Sales Order			34250
FnB Sales Order			2320
Beer Sales Order			420
Misc Sales Order			20
Room Sales Adjustment			0
GROSS SALES			37010

DISCOUNT
Room				0
FnB				0
Misc				0

DEPOSIT				27765
REFUND				

TOTAL ACCOUNTABILITY			64775

CASH DECLARATION			
CARD				0
FUNDS SAFEKEEP			40000
TOTAL CASH DECLARED			40000

TOTAL CASH ON SYSTEM			10567
OVER/SHORTAGES 			-10567

ROOM	 # OF CHECK-OUT	AMT
Value 		11	3125
Regular 		23	10095
Classique 		50	21030
Premium 		0	0
Regent 		0	0
Queen 		0	0
Gemini 		0	0
Family 		0	0
Executive Suite 	0	0
Mega Suite 	0	0

DISCOUNT 
Value 			  
Regular 		  
Classique 		  
Premium 		  
Regent 			  
Queen 		  
Gemini 		  
Family 		  
Executive Suite 	  
Mega Suite 		  


=== RESERVATIONS ===

Deposits:


Claimed:



SECURITY DEPOSITS

Deposits:
Claimed:


=== SALES BREAKDOWN ===

Transaction Date	Room No.	Cash	Card

2012-03-07 16:12:14 	208 		275 	0 	
2012-03-07 16:12:22 	219 		395 	0 	
2012-03-07 16:12:29 	209 		275 	0 	
2012-03-07 16:12:37 	212 		275 	0 	
2012-03-07 16:12:54 	314 		276 	0 	
2012-03-07 16:12:59 	220 		395 	0 	
2012-03-07 16:16:51 	221 		395 	0 	
2012-03-07 16:22:03 	220 		25 	0 	
2012-03-07 16:27:15 	320 		585 	0 	
2012-03-07 16:30:32 	315 		50 	0 	
2012-03-07 16:31:02 	219 		200 	0 	
2012-03-07 16:31:12 	218 		395 	0 	
2012-03-07 16:33:13 	301 		395 	0 	
2012-03-07 16:33:58 	304 		395 	0 	
2012-03-07 16:35:47 	307 		395 	0 	
2012-03-07 16:37:05 	303 		345 	0 	
2012-03-07 16:38:08 	213 		345 	0 	
2012-03-07 16:41:05 	207 		345 	0 	
2012-03-07 16:42:08 	203 		345 	0 	
2012-03-07 16:45:33 	215 		345 	0 	
2012-03-07 16:52:47 	318 		345 	0 	
2012-03-07 16:53:40 	206 		345 	0 	
2012-03-07 16:55:54 	322 		395 	0 	
2012-03-07 16:57:24 	204 		345 	0 	
2012-03-07 17:05:31 	202 		345 	0 	
2012-03-07 17:09:09 	402 		395 	0 	
2012-03-07 17:22:22 	409 		395 	0 	
2012-03-07 17:26:47 	321 		395 	0 	
2012-03-07 17:33:18 	308 		190 	0 	
2012-03-07 17:34:58 	214 		275 	0 	
2012-03-07 17:57:04 	315 		395 	0 	
2012-03-07 17:58:23 	202 		240 	0 	
2012-03-07 18:01:36 	403 		645 	0 	
2012-03-07 18:04:24 	407 		695 	0 	
2012-03-07 18:10:50 	205 		345 	0 	
2012-03-07 18:12:33 	406 		695 	0 	
2012-03-07 18:15:51 	302 		395 	0 	
2012-03-07 18:17:04 	308 		695 	0 	
2012-03-07 18:17:55 	208 		275 	0 	
2012-03-07 18:22:04 	315 		140 	0 	
2012-03-07 18:22:36 	321 		395 	0 	
2012-03-07 18:24:02 	218 		395 	0 	
2012-03-07 18:24:08 	319 		395 	0 	
2012-03-07 18:28:46 	313 		316 	0 	
2012-03-07 18:39:14 	210 		345 	0 	
2012-03-07 18:42:23 	212 		275 	0 	
2012-03-07 18:42:30 	314 		645 	0 	
2012-03-07 18:45:49 	215 		345 	0 	
2012-03-07 18:48:14 	209 		275 	0 	
2012-03-07 18:49:32 	318 		345 	0 	
2012-03-07 18:50:57 	419 		280 	0 	
2012-03-07 18:53:20 	423 		595 	0 	
2012-03-07 19:00:17 	221 		395 	0 	
2012-03-07 19:00:32 	402 		395 	0 	
2012-03-07 19:01:20 	401 		395 	0 	
2012-03-07 19:03:39 	404 		695 	0 	
2012-03-07 19:04:24 	413 		695 	0 	
2012-03-07 19:04:33 	324 		595 	0 	
2012-03-07 19:06:22 	412 		395 	0 	
2012-03-07 19:10:01 	414 		720 	0 	
2012-03-07 19:18:22 	404 		20 	0 	
2012-03-07 19:27:13 	422 		395 	0 	
2012-03-07 19:29:45 	310 		275 	0 	
2012-03-07 19:35:49 	417 		695 	0 	
2012-03-07 19:37:18 	421 		395 	0 	
2012-03-07 19:39:26 	213 		645 	0 	
2012-03-07 19:40:34 	307 		395 	0 	
2012-03-07 19:42:59 	210 		380 	0 	
2012-03-07 19:43:12 	211 		345 	0 	
2012-03-07 19:49:24 	207 		345 	0 	
2012-03-07 19:55:26 	319 		695 	0 	
2012-03-07 19:55:31 	304 		695 	0 	
2012-03-07 19:56:15 	217 		275 	0 	
2012-03-07 19:56:53 	301 		395 	0 	
2012-03-07 20:00:43 	414 		645 	0 	
2012-03-07 20:00:52 	415 		695 	0 	
2012-03-07 20:08:22 	211 		120 	0 	
2012-03-07 20:10:26 	322 		395 	0 	
2012-03-07 20:12:38 	416 		645 	0 	
2012-03-07 20:15:09 	419 		695 	0 	
2012-03-07 20:16:00 	317 		695 	0 	
2012-03-07 20:17:43 	315 		695 	0 	
2012-03-07 20:17:52 	408 		695 	0 	
2012-03-07 20:21:14 	204 		645 	0 	
2012-03-07 20:40:25 	409 		395 	0 	
2012-03-07 20:41:03 	409 		20 	0 	
2012-03-07 20:45:13 	412 		395 	0 	
2012-03-07 20:56:52 	305 		275 	0 	
2012-03-07 20:59:52 	303 		345 	0 	
2012-03-07 21:00:08 	208 		275 	0 	
2012-03-07 21:09:30 	212 		270 	0 	
2012-03-07 21:09:42 	203 		645 	0 	
2012-03-07 21:19:22 	220 		695 	0 	
2012-03-07 21:25:23 	306 		280 	0 	
2012-03-07 21:27:35 	422 		395 	0 	
2012-03-07 21:30:31 	218 		695 	0 	
2012-03-07 21:33:27 	323 		595 	0 	
2012-03-07 21:35:47 	402 		695 	0 	
2012-03-07 21:49:12 	302 		695 	0 	
2012-03-07 21:55:57 	216 		275 	0 	
2012-03-07 22:08:48 	306 		0 	695 	
2012-03-07 22:09:34 	313 		0 	695 	
2012-03-07 22:13:50 	219 		695 	0 	
2012-03-07 22:19:18 	312 		395 	0 	
2012-03-07 22:25:50 	221 		695 	0 	
2012-03-07 22:27:29 	321 		695 	0 	
2012-03-07 22:29:43 	421 		695 	0 	
2012-03-07 22:34:46 	214 		275 	0 	
2012-03-07 22:34:55 	409 		395 	0 	
2012-03-07 22:35:09 	422 		695 	0 	
2012-03-07 22:36:49 	212 		100 	0 	
2012-03-07 22:41:53 	304 		15 	0 	
2012-03-07 22:45:02 	420 		345 	0 	
2012-03-07 22:51:04 	309 		395 	0 	
2012-03-07 22:58:47 	307 		695 	0 	
2012-03-07 23:03:45 	405 		595 	0 	
2012-03-07 23:04:01 	217 		595 	0 	
2012-03-07 23:11:51 	401 		395 	0 	
2012-03-07 23:21:23 	415 		180 	0 	
2012-03-07 23:27:27 	217 		275 	0 	
2012-03-07 23:55:40 	314 		330 	0 	
2012-03-08 00:00:25 	308 		0 	695 	
 			Total:		50567 	2085		

=== RECHIT LIST ===




V1