MSHOGUN 1: SHIFT END REPORT
Wednesday December 22, 2010 4:00:26 PM

SALES TRANSACTION
Room Sales Order			33020
FnB Sales Order			2425
Beer Sales Order			80
Misc Sales Order			90
Room Sales Adjustment			0
GROSS SALES			35615

DISCOUNT
Room				0
FnB				0
Misc				0

DEPOSIT				12495
REFUND				

TOTAL ACCOUNTABILITY			48110

CASH DECLARATION			1565
CARD				0
FUNDS SAFEKEEP			30000
TOTAL CASH DECLARED			31565

TOTAL CASH ON SYSTEM			1565
OVER/SHORTAGES 			0

ROOM	 # OF CHECK-OUT	AMT
Value 		8	3660
Regular 		22	10710
Classique 		38	18650
Premium 		0	0
Regent 		0	0
Queen 		0	0
Gemini 		0	0
Family 		0	0
Executive Suite 	0	0
Mega Suite 	0	0

DISCOUNT 
Value 			  
Regular 		  
Classique 		  
Premium 		  
Regent 			  
Queen 		  
Gemini 		  
Family 		  
Executive Suite 	  
Mega Suite 		  


=== RESERVATIONS ===

Deposits:


Claimed:



SECURITY DEPOSITS

Deposits:
Claimed:


=== SALES BREAKDOWN ===

Transaction Date	Room No.	Cash	Card

2010-12-22 08:35:52 	409 		280 	0 	
2010-12-22 08:41:36 	403 		585 	0 	
2010-12-22 08:44:21 	201 		200 	0 	
2010-12-22 09:36:44 	321 		30 	0 	
2010-12-22 09:37:32 	408 		395 	0 	
2010-12-22 09:54:45 	409 		395 	0 	
2010-12-22 09:55:46 	407 		395 	0 	
2010-12-22 09:56:48 	319 		280 	0 	
2010-12-22 10:01:19 	406 		395 	0 	
2010-12-22 10:01:29 	421 		395 	0 	
2010-12-22 10:01:38 	404 		395 	0 	
2010-12-22 10:02:20 	415 		535 	0 	
2010-12-22 10:05:00 	302 		395 	0 	
2010-12-22 10:07:37 	407 		20 	0 	
2010-12-22 10:25:24 	423 		200 	0 	
2010-12-22 10:35:01 	204 		345 	0 	
2010-12-22 10:38:44 	401 		395 	0 	
2010-12-22 10:40:41 	205 		345 	0 	
2010-12-22 10:45:36 	417 		280 	0 	
2010-12-22 10:50:24 	412 		316 	0 	
2010-12-22 11:03:21 	412 		20 	0 	
2010-12-22 11:07:51 	413 		535 	0 	
2010-12-22 11:13:09 	422 		395 	0 	
2010-12-22 11:20:41 	317 		395 	0 	
2010-12-22 11:27:52 	206 		345 	0 	
2010-12-22 11:28:44 	315 		395 	0 	
2010-12-22 11:48:14 	313 		395 	0 	
2010-12-22 11:58:06 	Lobby 		210 	0 	
2010-12-22 11:58:17 	312 		316 	0 	
2010-12-22 12:03:26 	314 		120 	0 	
2010-12-22 12:09:09 	301 		395 	0 	
2010-12-22 12:18:17 	303 		345 	0 	
2010-12-22 12:29:24 	210 		345 	0 	
2010-12-22 12:29:38 	207 		345 	0 	
2010-12-22 12:31:34 	213 		345 	0 	
2010-12-22 12:32:38 	420 		345 	0 	
2010-12-22 12:33:57 	417 		395 	0 	
2010-12-22 12:34:48 	306 		395 	0 	
2010-12-22 12:36:17 	410 		275 	0 	
2010-12-22 12:36:47 	219 		395 	0 	
2010-12-22 12:42:18 	314 		276 	0 	
2010-12-22 12:46:57 	418 		345 	0 	
2010-12-22 12:53:36 	215 		276 	0 	
2010-12-22 12:56:23 	409 		395 	0 	
2010-12-22 13:01:12 	212 		275 	0 	
2010-12-22 13:13:44 	309 		395 	0 	
2010-12-22 13:20:44 	203 		345 	0 	
2010-12-22 13:35:54 	407 		395 	0 	
2010-12-22 13:36:08 	315 		395 	0 	
2010-12-22 13:38:47 	406 		395 	0 	
2010-12-22 13:46:43 	305 		275 	0 	
2010-12-22 13:51:04 	321 		395 	0 	
2010-12-22 13:57:20 	307 		395 	0 	
2010-12-22 13:58:04 	308 		395 	0 	
2010-12-22 14:02:36 	319 		395 	0 	
2010-12-22 14:05:31 	312 		395 	0 	
2010-12-22 14:06:35 	408 		395 	0 	
2010-12-22 14:09:28 	304 		395 	0 	
2010-12-22 14:10:41 	409 		370 	0 	
2010-12-22 14:12:02 	211 		345 	0 	
2010-12-22 14:12:10 	318 		345 	0 	
2010-12-22 14:14:46 	313 		395 	0 	
2010-12-22 14:23:54 	310 		275 	0 	
2010-12-22 14:36:55 	308 		100 	0 	
2010-12-22 14:37:02 	408 		400 	0 	
2010-12-22 14:38:54 	303 		300 	0 	
2010-12-22 14:42:10 	317 		395 	0 	
2010-12-22 14:44:17 	415 		330 	0 	
2010-12-22 14:45:11 	401 		395 	0 	
2010-12-22 14:46:21 	412 		395 	0 	
2010-12-22 14:48:20 	214 		575 	0 	
2010-12-22 14:49:35 	316 		345 	0 	
2010-12-22 14:56:14 	314 		365 	0 	
2010-12-22 15:02:24 	422 		395 	0 	
2010-12-22 15:04:43 	205 		345 	0 	
2010-12-22 15:05:25 	421 		395 	0 	
2010-12-22 15:11:12 	420 		345 	0 	
2010-12-22 15:11:33 	322 		395 	0 	
2010-12-22 15:12:42 	418 		276 	0 	
2010-12-22 15:16:03 	419 		395 	0 	
2010-12-22 15:19:46 	303 		345 	0 	
2010-12-22 15:23:24 	403 		345 	0 	
2010-12-22 15:28:24 	410 		470 	0 	
2010-12-22 15:31:50 	415 		395 	0 	
2010-12-22 15:32:35 	414 		345 	0 	
2010-12-22 15:37:05 	302 		395 	0 	
2010-12-22 15:39:08 	301 		395 	0 	
2010-12-22 15:49:47 	406 		395 	0 	
2010-12-22 15:51:29 	407 		395 	0 	
2010-12-22 15:55:12 	404 		395 	0 	
 			Total:		31565 	0		

=== RECHIT LIST ===




V1