MSHOGUN 1: SHIFT END REPORT
Thursday January 20, 2011 12:01:09 AM

SALES TRANSACTION
Room Sales Order			31000
FnB Sales Order			2108
Beer Sales Order			510
Misc Sales Order			50
Room Sales Adjustment			0
GROSS SALES			33668

DISCOUNT
Room				0
FnB				0
Misc				0

DEPOSIT				23973
REFUND				

TOTAL ACCOUNTABILITY			57641

CASH DECLARATION			5998
CARD				0
FUNDS SAFEKEEP			40000
TOTAL CASH DECLARED			45998

TOTAL CASH ON SYSTEM			6088
OVER/SHORTAGES 			-90

ROOM	 # OF CHECK-OUT	AMT
Value 		8	2200
Regular 		23	10095
Classique 		47	18705
Premium 		0	0
Regent 		0	0
Queen 		0	0
Gemini 		0	0
Family 		0	0
Executive Suite 	0	0
Mega Suite 	0	0

DISCOUNT 
Value 			  
Regular 		  
Classique 		  
Premium 		  
Regent 			  
Queen 		  
Gemini 		  
Family 		  
Executive Suite 	  
Mega Suite 		  


=== RESERVATIONS ===

Deposits:


Claimed:



SECURITY DEPOSITS

Deposits:
Claimed:


=== SALES BREAKDOWN ===

Transaction Date	Room No.	Cash	Card

2011-01-19 16:06:56 	206 		345 	0 	
2011-01-19 16:13:22 	307 		395 	0 	
2011-01-19 16:20:22 	301 		395 	0 	
2011-01-19 16:25:04 	210 		345 	0 	
2011-01-19 16:26:20 	321 		395 	0 	
2011-01-19 16:28:42 	319 		395 	0 	
2011-01-19 16:31:35 	221 		395 	0 	
2011-01-19 16:38:58 	322 		395 	0 	
2011-01-19 16:46:46 	319 		30 	0 	
2011-01-19 16:46:56 	213 		300 	0 	
2011-01-19 16:48:05 	401 		395 	0 	
2011-01-19 16:54:28 	312 		395 	0 	
2011-01-19 17:05:18 	412 		395 	0 	
2011-01-19 17:14:06 	402 		395 	0 	
2011-01-19 17:14:25 	404 		395 	0 	
2011-01-19 17:18:09 	407 		395 	0 	
2011-01-19 17:25:10 	412 		305 	0 	
2011-01-19 17:25:32 	318 		345 	0 	
2011-01-19 17:25:43 	303 		345 	0 	
2011-01-19 17:29:33 	320 		345 	0 	
2011-01-19 17:42:19 	315 		20 	0 	
2011-01-19 17:42:52 	209 		275 	0 	
2011-01-19 17:46:06 	409 		395 	0 	
2011-01-19 17:47:23 	218 		395 	0 	
2011-01-19 17:56:16 	320 		285 	0 	
2011-01-19 17:59:51 	316 		345 	0 	
2011-01-19 18:07:06 	219 		395 	0 	
2011-01-19 18:13:19 	316 		40 	0 	
2011-01-19 18:14:18 	313 		395 	0 	
2011-01-19 18:21:15 	420 		120 	0 	
2011-01-19 18:23:08 	317 		395 	0 	
2011-01-19 18:23:44 	406 		535 	0 	
2011-01-19 18:30:06 	413 		695 	0 	
2011-01-19 18:30:39 	205 		645 	0 	
2011-01-19 18:38:30 	416 		360 	0 	
2011-01-19 18:40:19 	214 		275 	0 	
2011-01-19 18:44:05 	407 		395 	0 	
2011-01-19 18:47:44 	311 		275 	0 	
2011-01-19 18:50:14 	212 		275 	0 	
2011-01-19 18:54:26 	310 		275 	0 	
2011-01-19 18:57:47 	309 		395 	0 	
2011-01-19 19:05:17 	301 		395 	0 	
2011-01-19 19:08:32 	220 		395 	0 	
2011-01-19 19:10:17 	210 		276 	0 	
2011-01-19 19:11:32 	407 		340 	0 	
2011-01-19 19:12:47 	315 		316 	0 	
2011-01-19 19:14:21 	319 		395 	0 	
2011-01-19 19:15:43 	408 		695 	0 	
2011-01-19 19:18:25 	307 		695 	0 	
2011-01-19 19:18:41 	422 		395 	0 	
2011-01-19 19:19:06 	419 		395 	0 	
2011-01-19 19:28:21 	206 		80 	0 	
2011-01-19 19:31:44 	306 		695 	0 	
2011-01-19 19:37:03 	216 		275 	0 	
2011-01-19 19:37:15 	216 		45 	0 	
2011-01-19 19:37:28 	Lobby 		45 	0 	
2011-01-19 19:39:41 	312 		395 	0 	
2011-01-19 19:40:27 	213 		645 	0 	
2011-01-19 19:45:54 	405 		595 	0 	
2011-01-19 19:46:06 	410 		595 	0 	
2011-01-19 19:48:07 	301 		30 	0 	
2011-01-19 19:56:15 	411 		595 	0 	
2011-01-19 19:58:21 	302 		395 	0 	
2011-01-19 19:59:10 	304 		395 	0 	
2011-01-19 20:05:22 	210 		198 	0 	
2011-01-19 20:05:44 	215 		645 	0 	
2011-01-19 20:06:12 	308 		695 	0 	
2011-01-19 20:08:12 	202 		345 	0 	
2011-01-19 20:10:22 	415 		695 	0 	
2011-01-19 20:19:56 	417 		695 	0 	
2011-01-19 20:20:12 	421 		395 	0 	
2011-01-19 20:21:08 	305 		595 	0 	
2011-01-19 20:22:08 	420 		645 	0 	
2011-01-19 20:24:22 	204 		585 	0 	
2011-01-19 20:30:28 	207 		345 	0 	
2011-01-19 20:34:49 	320 		345 	0 	
2011-01-19 20:35:56 	403 		645 	0 	
2011-01-19 20:40:05 	206 		645 	0 	
2011-01-19 20:40:19 	321 		395 	0 	
2011-01-19 20:46:50 	322 		395 	0 	
2011-01-19 20:47:33 	203 		345 	0 	
2011-01-19 20:47:56 	219 		695 	0 	
2011-01-19 20:52:36 	220 		695 	0 	
2011-01-19 20:54:26 	418 		645 	0 	
2011-01-19 20:56:24 	301 		395 	0 	
2011-01-19 21:04:27 	418 		10 	0 	
2011-01-19 21:13:17 	416 		645 	0 	
2011-01-19 21:15:29 	414 		645 	0 	
2011-01-19 21:18:35 	412 		695 	0 	
2011-01-19 21:20:48 	313 		695 	0 	
2011-01-19 21:21:12 	411 		50 	0 	
2011-01-19 21:26:01 	404 		695 	0 	
2011-01-19 21:33:18 	422 		395 	0 	
2011-01-19 21:34:57 	409 		395 	0 	
2011-01-19 21:47:12 	312 		695 	0 	
2011-01-19 21:53:23 	210 		345 	0 	
2011-01-19 21:59:55 	324 		595 	0 	
2011-01-19 22:01:07 	317 		695 	0 	
2011-01-19 22:09:23 	306 		198 	0 	
2011-01-19 22:10:14 	402 		695 	0 	
2011-01-19 22:18:23 	317 		30 	0 	
2011-01-19 22:35:12 	316 		645 	0 	
2011-01-19 22:37:36 	314 		645 	0 	
2011-01-19 22:43:35 	410 		25 	0 	
2011-01-19 22:57:20 	303 		345 	0 	
2011-01-19 23:12:20 	308 		235 	0 	
2011-01-19 23:14:01 	319 		395 	0 	
2011-01-19 23:27:33 	319 		160 	0 	
2011-01-19 23:33:49 	409 		695 	0 	
2011-01-19 23:42:31 	311 		595 	0 	
2011-01-19 23:57:26 	318 		465 	0 	
 			Total:		46088 	0		

=== RECHIT LIST ===




V1