MSHOGUN 1: SHIFT END REPORT
Tuesday May 10, 2011 8:00:28 AM

SALES TRANSACTION
Room Sales Order			18780
FnB Sales Order			935
Beer Sales Order			90
Misc Sales Order			10
Room Sales Adjustment			0
GROSS SALES			19815

DISCOUNT
Room				0
FnB				0
Misc				0

DEPOSIT				4405
REFUND				

TOTAL ACCOUNTABILITY			24220

CASH DECLARATION			8520
CARD				695
FUNDS SAFEKEEP			0
TOTAL CASH DECLARED			9215

TOTAL CASH ON SYSTEM			8495
OVER/SHORTAGES 			25

ROOM	 # OF CHECK-OUT	AMT
Value 		6	2710
Regular 		9	4545
Classique 		19	11525
Premium 		0	0
Regent 		0	0
Queen 		0	0
Gemini 		0	0
Family 		0	0
Executive Suite 	0	0
Mega Suite 	0	0

DISCOUNT 
Value 			  
Regular 		  
Classique 		  
Premium 		  
Regent 			  
Queen 		  
Gemini 		  
Family 		  
Executive Suite 	  
Mega Suite 		  


=== RESERVATIONS ===

Deposits:


Claimed:



SECURITY DEPOSITS

Deposits:
Claimed:


=== SALES BREAKDOWN ===

Transaction Date	Room No.	Cash	Card

2011-05-10 00:12:23 	209 		275 	0 	
2011-05-10 00:38:30 	313 		140 	0 	
2011-05-10 00:52:27 	304 		695 	0 	
2011-05-10 00:52:52 	412 		695 	0 	
2011-05-10 01:41:32 	215 		585 	0 	
2011-05-10 01:53:37 	302 		695 	0 	
2011-05-10 02:44:59 	317 		695 	0 	
2011-05-10 03:00:50 	209 		115 	0 	
2011-05-10 03:39:47 	301 		395 	0 	
2011-05-10 04:00:02 	220 		395 	0 	
2011-05-10 04:25:47 	213 		345 	0 	
2011-05-10 04:32:52 	316 		585 	0 	
2011-05-10 04:42:25 	205 		705 	0 	
2011-05-10 05:48:52 	306 		395 	0 	
2011-05-10 06:24:19 	309 		395 	0 	
2011-05-10 06:46:42 	219 		100 	0 	
2011-05-10 06:49:24 	218 		140 	0 	
2011-05-10 06:50:18 	315 		25 	0 	
2011-05-10 06:50:39 	306 		50 	0 	
2011-05-10 07:14:20 	312 		395 	0 	
2011-05-10 07:24:25 	404 		140 	0 	
2011-05-10 07:30:05 	301 		140 	0 	
2011-05-10 07:40:16 	313 		395 	0 	
 			Total:		8495 	0		

=== RECHIT LIST ===




V1