MSHOGUN 1: SHIFT END REPORT
Wednesday December 29, 2010 8:00:07 AM

SALES TRANSACTION
Room Sales Order			34325
FnB Sales Order			3150
Beer Sales Order			400
Misc Sales Order			55
Room Sales Adjustment			0
GROSS SALES			37930

DISCOUNT
Room				0
FnB				0
Misc				0

DEPOSIT				4010
REFUND				

TOTAL ACCOUNTABILITY			41940

CASH DECLARATION			7980
CARD				395
FUNDS SAFEKEEP			10000
TOTAL CASH DECLARED			18375

TOTAL CASH ON SYSTEM			7980
OVER/SHORTAGES 			0

ROOM	 # OF CHECK-OUT	AMT
Value 		12	6340
Regular 		22	11190
Classique 		29	16795
Premium 		0	0
Regent 		0	0
Queen 		0	0
Gemini 		0	0
Family 		0	0
Executive Suite 	0	0
Mega Suite 	0	0

DISCOUNT 
Value 			  
Regular 		  
Classique 		  
Premium 		  
Regent 			  
Queen 		  
Gemini 		  
Family 		  
Executive Suite 	  
Mega Suite 		  


=== RESERVATIONS ===

Deposits:


Claimed:



SECURITY DEPOSITS

Deposits:
Claimed:


=== SALES BREAKDOWN ===

Transaction Date	Room No.	Cash	Card

2010-12-29 00:05:43 	401 		395 	0 	
2010-12-29 00:06:14 	310 		458 	0 	
2010-12-29 00:07:29 	204 		585 	0 	
2010-12-29 00:10:36 	207 		345 	0 	
2010-12-29 00:10:50 	418 		585 	0 	
2010-12-29 00:23:31 	309 		395 	0 	
2010-12-29 00:33:18 	219 		275 	0 	
2010-12-29 00:45:18 	205 		345 	0 	
2010-12-29 00:46:16 	219 		30 	0 	
2010-12-29 00:50:27 	209 		275 	0 	
2010-12-29 00:51:12 	209 		20 	0 	
2010-12-29 01:00:48 	301 		395 	0 	
2010-12-29 01:25:21 	203 		585 	0 	
2010-12-29 01:26:30 	209 		358 	0 	
2010-12-29 01:27:22 	322 		267 	0 	
2010-12-29 01:52:18 	209 		30 	0 	
2010-12-29 02:03:16 	308 		675 	0 	
2010-12-29 02:08:53 	320 		345 	0 	
2010-12-29 02:11:17 	202 		705 	0 	
2010-12-29 02:17:10 	409 		535 	0 	
2010-12-29 02:20:15 	414 		585 	0 	
2010-12-29 02:26:50 	308 		50 	0 	
2010-12-29 02:30:52 	201 		345 	0 	
2010-12-29 02:32:30 	207 		345 	0 	
2010-12-29 02:40:23 	322 		535 	0 	
2010-12-29 02:55:52 	202 		380 	0 	
2010-12-29 03:02:26 	319 		177 	0 	
2010-12-29 03:25:41 	305 		300 	0 	
2010-12-29 03:39:09 	312 		395 	0 	
2010-12-29 03:49:57 	309 		395 	0 	
2010-12-29 04:36:19 	211 		705 	0 	
2010-12-29 04:46:53 	410 		575 	0 	
2010-12-29 04:59:26 	219 		675 	0 	
2010-12-29 05:01:29 	204 		705 	0 	
2010-12-29 05:03:09 	209 		100 	0 	
2010-12-29 05:08:13 	320 		345 	0 	
2010-12-29 05:20:04 	219 		50 	0 	
2010-12-29 05:20:06 	219 		45 	0 	
2010-12-29 05:20:20 	314 		705 	0 	
2010-12-29 06:20:03 	210 		480 	0 	
2010-12-29 06:24:48 	422 		395 	0 	
2010-12-29 06:33:47 	417 		205 	0 	
2010-12-29 06:36:53 	316 		100 	0 	
2010-12-29 06:51:38 	218 		395 	0 	
2010-12-29 06:53:56 	307 		140 	0 	
2010-12-29 07:04:22 	312 		395 	0 	
2010-12-29 07:21:11 	215 		130 	0 	
2010-12-29 07:25:52 	203 		120 	0 	
2010-12-29 07:46:49 	419 		140 	0 	
2010-12-29 07:52:09 	319 		395 	0 	
2010-12-29 07:55:54 	422 		70 	0 	
 			Total:		17980 	0		

=== RECHIT LIST ===




V1