MSHOGUN 1: SHIFT END REPORT
Saturday April 30, 2011 4:00:00 PM

SALES TRANSACTION
Room Sales Order			31990
FnB Sales Order			1613
Beer Sales Order			90
Misc Sales Order			50
Room Sales Adjustment			0
GROSS SALES			33743

DISCOUNT
Room				0
FnB				0
Misc				0

DEPOSIT				12300
REFUND				

TOTAL ACCOUNTABILITY			46043

CASH DECLARATION			2426
CARD				395
FUNDS SAFEKEEP			30000
TOTAL CASH DECLARED			32821

TOTAL CASH ON SYSTEM			2426
OVER/SHORTAGES 			0

ROOM	 # OF CHECK-OUT	AMT
Value 		6	3450
Regular 		15	8775
Classique 		39	19765
Premium 		0	0
Regent 		0	0
Queen 		0	0
Gemini 		0	0
Family 		0	0
Executive Suite 	0	0
Mega Suite 	0	0

DISCOUNT 
Value 			  
Regular 		  
Classique 		  
Premium 		  
Regent 			  
Queen 		  
Gemini 		  
Family 		  
Executive Suite 	  
Mega Suite 		  


=== RESERVATIONS ===

Deposits:


Claimed:



SECURITY DEPOSITS

Deposits:
Claimed:


=== SALES BREAKDOWN ===

Transaction Date	Room No.	Cash	Card

2011-04-30 08:06:35 	213 		210 	0 	
2011-04-30 08:07:29 	206 		290 	0 	
2011-04-30 08:16:00 	415 		395 	0 	
2011-04-30 08:23:40 	417 		395 	0 	
2011-04-30 08:43:56 	302 		220 	0 	
2011-04-30 08:53:47 	212 		200 	0 	
2011-04-30 08:55:55 	316 		945 	0 	
2011-04-30 09:04:41 	403 		360 	0 	
2011-04-30 09:08:33 	312 		25 	0 	
2011-04-30 09:20:07 	321 		535 	0 	
2011-04-30 09:24:12 	303 		250 	0 	
2011-04-30 09:48:21 	307 		395 	0 	
2011-04-30 09:53:16 	306 		535 	0 	
2011-04-30 10:07:39 	401 		220 	0 	
2011-04-30 10:09:54 	305 		275 	0 	
2011-04-30 10:12:42 	318 		410 	0 	
2011-04-30 10:14:17 	302 		395 	0 	
2011-04-30 10:18:10 	319 		395 	0 	
2011-04-30 10:18:22 	309 		395 	0 	
2011-04-30 10:21:40 	302 		50 	0 	
2011-04-30 10:24:04 	313 		675 	0 	
2011-04-30 10:26:16 	207 		345 	0 	
2011-04-30 10:31:53 	413 		675 	0 	
2011-04-30 10:47:01 	205 		585 	0 	
2011-04-30 11:16:57 	412 		395 	0 	
2011-04-30 11:17:49 	312 		395 	0 	
2011-04-30 11:32:41 	417 		395 	0 	
2011-04-30 11:37:30 	421 		395 	0 	
2011-04-30 11:55:58 	218 		395 	0 	
2011-04-30 12:01:32 	404 		736 	0 	
2011-04-30 12:02:51 	418 		705 	0 	
2011-04-30 12:14:27 	206 		465 	0 	
2011-04-30 12:19:30 	220 		395 	0 	
2011-04-30 12:21:36 	202 		345 	0 	
2011-04-30 12:22:53 	213 		705 	0 	
2011-04-30 12:24:07 	415 		140 	0 	
2011-04-30 12:36:40 	308 		395 	0 	
2011-04-30 12:41:46 	421 		400 	0 	
2011-04-30 12:59:45 	317 		395 	0 	
2011-04-30 13:02:33 	301 		395 	0 	
2011-04-30 13:05:30 	406 		316 	0 	
2011-04-30 13:16:03 	407 		395 	0 	
2011-04-30 13:20:50 	402 		395 	0 	
2011-04-30 13:31:16 	320 		585 	0 	
2011-04-30 13:31:27 	419 		395 	0 	
2011-04-30 13:36:44 	410 		275 	0 	
2011-04-30 13:42:40 	221 		395 	0 	
2011-04-30 13:52:23 	304 		1095 	0 	
2011-04-30 14:01:45 	304 		10 	0 	
2011-04-30 14:02:02 	321 		395 	0 	
2011-04-30 14:03:33 	303 		276 	0 	
2011-04-30 14:06:05 	319 		395 	0 	
2011-04-30 14:08:01 	308 		20 	0 	
2011-04-30 14:16:44 	309 		395 	0 	
2011-04-30 14:17:12 	322 		395 	0 	
2011-04-30 14:17:25 	306 		395 	0 	
2011-04-30 14:17:40 	307 		316 	0 	
2011-04-30 14:19:50 	305 		275 	0 	
2011-04-30 14:22:53 	412 		395 	0 	
2011-04-30 14:28:45 	404 		285 	0 	
2011-04-30 14:33:09 	308 		395 	0 	
2011-04-30 14:46:13 	416 		705 	0 	
2011-04-30 14:48:13 	210 		345 	0 	
2011-04-30 14:56:38 	420 		705 	0 	
2011-04-30 14:59:40 	422 		395 	0 	
2011-04-30 15:02:12 	204 		345 	0 	
2011-04-30 15:02:41 	409 		395 	0 	
2011-04-30 15:05:16 	302 		280 	0 	
2011-04-30 15:08:20 	401 		395 	0 	
2011-04-30 15:13:46 	421 		316 	0 	
2011-04-30 15:20:06 	302 		395 	0 	
2011-04-30 15:30:07 	413 		300 	0 	
2011-04-30 15:31:56 	313 		395 	0 	
2011-04-30 15:33:41 	406 		395 	0 	
2011-04-30 15:37:58 	417 		395 	0 	
2011-04-30 15:38:18 	218 		395 	0 	
2011-04-30 15:39:43 	213 		100 	0 	
2011-04-30 15:39:45 	213 		210 	0 	
2011-04-30 15:39:58 	220 		395 	0 	
2011-04-30 15:40:09 	402 		316 	0 	
2011-04-30 15:44:59 	312 		395 	0 	
2011-04-30 15:48:53 	219 		395 	0 	
2011-04-30 15:50:55 	213 		30 	0 	
2011-04-30 15:51:05 	220 		10 	0 	
2011-04-30 15:53:11 	308 		395 	0 	
 			Total:		32426 	0		

=== RECHIT LIST ===




V1