MSHOGUN 1: SHIFT END REPORT
Wednesday November 23, 2011 8:00:14 AM

SALES TRANSACTION
Room Sales Order			21820
FnB Sales Order			698
Beer Sales Order			790
Misc Sales Order			300
Room Sales Adjustment			0
GROSS SALES			23608

DISCOUNT
Room				0
FnB				0
Misc				0

DEPOSIT				2270
REFUND				

TOTAL ACCOUNTABILITY			25878

CASH DECLARATION			7495
CARD				0
FUNDS SAFEKEEP			0
TOTAL CASH DECLARED			7495

TOTAL CASH ON SYSTEM			7365
OVER/SHORTAGES 			130

ROOM	 # OF CHECK-OUT	AMT
Value 		10	4770
Regular 		10	5850
Classique 		20	11200
Premium 		0	0
Regent 		0	0
Queen 		0	0
Gemini 		0	0
Family 		0	0
Executive Suite 	0	0
Mega Suite 	0	0

DISCOUNT 
Value 			  
Regular 		  
Classique 		  
Premium 		  
Regent 			  
Queen 		  
Gemini 		  
Family 		  
Executive Suite 	  
Mega Suite 		  


=== RESERVATIONS ===

Deposits:


Claimed:



SECURITY DEPOSITS

Deposits:
Claimed:


=== SALES BREAKDOWN ===

Transaction Date	Room No.	Cash	Card

2011-11-23 00:02:00 	411 		100 	0 	
2011-11-23 00:07:13 	210 		345 	0 	
2011-11-23 00:10:45 	424 		135 	0 	
2011-11-23 00:22:13 	218 		695 	0 	
2011-11-23 00:50:35 	404 		695 	0 	
2011-11-23 01:10:23 	404 		110 	0 	
2011-11-23 02:03:56 	221 		395 	0 	
2011-11-23 02:18:57 	213 		345 	0 	
2011-11-23 02:24:46 	416 		360 	0 	
2011-11-23 02:51:13 	301 		395 	0 	
2011-11-23 03:09:44 	307 		395 	0 	
2011-11-23 04:02:21 	306 		395 	0 	
2011-11-23 04:17:32 	306 		110 	0 	
2011-11-23 04:17:41 	306 		160 	0 	
2011-11-23 04:58:04 	221 		200 	0 	
2011-11-23 04:59:46 	311 		275 	0 	
2011-11-23 05:09:42 	307 		395 	0 	
2011-11-23 05:51:01 	309 		395 	0 	
2011-11-23 06:01:20 	319 		395 	0 	
2011-11-23 06:39:14 	317 		395 	0 	
2011-11-23 07:24:39 	302 		395 	0 	
2011-11-23 07:33:04 	417 		125 	0 	
2011-11-23 07:51:46 	319 		155 	0 	
 			Total:		7365 	0		

=== RECHIT LIST ===




V1