MSHOGUN 1: SHIFT END REPORT
Monday May 02, 2011 4:00:08 PM

SALES TRANSACTION
Room Sales Order			31655
FnB Sales Order			2373
Beer Sales Order			660
Misc Sales Order			130
Room Sales Adjustment			150
GROSS SALES			34968

DISCOUNT
Room				0
FnB				0
Misc				0

DEPOSIT				10755
REFUND				

TOTAL ACCOUNTABILITY			45723

CASH DECLARATION			5927
CARD				0
FUNDS SAFEKEEP			20000
TOTAL CASH DECLARED			25927

TOTAL CASH ON SYSTEM			6047
OVER/SHORTAGES 			-120

ROOM	 # OF CHECK-OUT	AMT
Value 		11	4775
Regular 		17	9165
Classique 		31	17865
Premium 		0	0
Regent 		0	0
Queen 		0	0
Gemini 		0	0
Family 		0	0
Executive Suite 	0	0
Mega Suite 	0	0

DISCOUNT 
Value 			  
Regular 		  
Classique 		  
Premium 		  
Regent 			  
Queen 		  
Gemini 		  
Family 		  
Executive Suite 	  
Mega Suite 		  


=== RESERVATIONS ===

Deposits:


Claimed:



SECURITY DEPOSITS

Deposits:
Claimed:


=== SALES BREAKDOWN ===

Transaction Date	Room No.	Cash	Card

2011-05-02 08:01:08 	313 		100 	0 	
2011-05-02 08:09:03 	314 		10 	0 	
2011-05-02 08:22:42 	219 		395 	0 	
2011-05-02 08:28:52 	409 		395 	0 	
2011-05-02 08:51:57 	205 		636 	0 	
2011-05-02 09:00:48 	309 		25 	0 	
2011-05-02 09:12:17 	307 		316 	0 	
2011-05-02 09:50:05 	221 		395 	0 	
2011-05-02 10:00:34 	322 		280 	0 	
2011-05-02 10:07:16 	415 		555 	0 	
2011-05-02 10:08:01 	205 		10 	0 	
2011-05-02 10:09:05 	407 		198 	0 	
2011-05-02 10:10:14 	218 		395 	0 	
2011-05-02 10:13:38 	419 		395 	0 	
2011-05-02 10:21:46 	210 		345 	0 	
2011-05-02 10:22:00 	211 		345 	0 	
2011-05-02 10:23:32 	406 		395 	0 	
2011-05-02 10:38:01 	208 		150 	0 	
2011-05-02 11:06:45 	420 		345 	0 	
2011-05-02 11:14:41 	221 		200 	0 	
2011-05-02 11:16:55 	409 		395 	0 	
2011-05-02 11:28:05 	302 		420 	0 	
2011-05-02 11:40:24 	417 		395 	0 	
2011-05-02 11:43:16 	213 		276 	0 	
2011-05-02 11:46:08 	416 		345 	0 	
2011-05-02 11:47:43 	414 		345 	0 	
2011-05-02 11:50:57 	212 		275 	0 	
2011-05-02 11:58:27 	203 		480 	0 	
2011-05-02 12:04:13 	403 		345 	0 	
2011-05-02 12:11:25 	214 		475 	0 	
2011-05-02 12:11:40 	415 		395 	0 	
2011-05-02 12:22:36 	422 		395 	0 	
2011-05-02 12:28:37 	216 		575 	0 	
2011-05-02 12:29:19 	209 		575 	0 	
2011-05-02 12:32:34 	405 		275 	0 	
2011-05-02 12:33:29 	423 		275 	0 	
2011-05-02 12:34:28 	424 		575 	0 	
2011-05-02 12:37:14 	411 		275 	0 	
2011-05-02 12:45:58 	207 		585 	0 	
2011-05-02 13:05:44 	212 		40 	0 	
2011-05-02 13:37:39 	307 		140 	0 	
2011-05-02 13:39:18 	312 		395 	0 	
2011-05-02 13:40:45 	304 		395 	0 	
2011-05-02 13:43:11 	221 		395 	0 	
2011-05-02 13:44:20 	313 		675 	0 	
2011-05-02 13:46:40 	219 		395 	0 	
2011-05-02 13:47:51 	306 		395 	0 	
2011-05-02 13:53:01 	317 		395 	0 	
2011-05-02 13:58:19 	308 		395 	0 	
2011-05-02 14:00:56 	319 		395 	0 	
2011-05-02 14:07:37 	406 		395 	0 	
2011-05-02 14:08:07 	218 		395 	0 	
2011-05-02 14:08:17 	307 		395 	0 	
2011-05-02 14:23:27 	407 		395 	0 	
2011-05-02 14:29:13 	205 		415 	0 	
2011-05-02 14:31:52 	203 		345 	0 	
2011-05-02 14:33:14 	201 		345 	0 	
2011-05-02 15:03:52 	211 		345 	0 	
2011-05-02 15:04:14 	417 		535 	0 	
2011-05-02 15:06:52 	424 		-250 	0 	
2011-05-02 15:08:26 	405 		155 	0 	
2011-05-02 15:11:48 	321 		675 	0 	
2011-05-02 15:14:08 	302 		395 	0 	
2011-05-02 15:15:22 	421 		395 	0 	
2011-05-02 15:17:31 	413 		395 	0 	
2011-05-02 15:18:16 	403 		345 	0 	
2011-05-02 15:22:24 	204 		276 	0 	
2011-05-02 15:23:06 	317 		245 	0 	
2011-05-02 15:23:26 	301 		395 	0 	
2011-05-02 15:37:59 	218 		395 	0 	
2011-05-02 15:39:05 	218 		180 	0 	
2011-05-02 15:41:05 	414 		120 	0 	
2011-05-02 15:42:09 	212 		275 	0 	
2011-05-02 15:45:36 	402 		395 	0 	
2011-05-02 15:49:31 	415 		395 	0 	
2011-05-02 15:50:43 	205 		120 	0 	
 			Total:		26047 	0		

=== RECHIT LIST ===




V1