MSHOGUN 1: SHIFT END REPORT
Saturday September 25, 2010 12:00:25 AM

SALES TRANSACTION
Room Sales Order			41575
FnB Sales Order			2125
Beer Sales Order			400
Misc Sales Order			110
Room Sales Adjustment			-695
GROSS SALES			43515

DISCOUNT
Room				0
FnB				0
Misc				0

DEPOSIT				47790
REFUND				

TOTAL ACCOUNTABILITY			91305

CASH DECLARATION			4000
CARD				1600
FUNDS SAFEKEEP			70000
TOTAL CASH DECLARED			75600

TOTAL CASH ON SYSTEM			3995
OVER/SHORTAGES 			5

ROOM	 # OF CHECK-OUT	AMT
Value 		12	3300
Regular 		28	11460
Classique 		55	22165
Premium 		2	900
Regent 		3	2900
Queen 		1	850
Gemini 		0	0
Family 		0	0
Executive Suite 	0	0
Mega Suite 	0	0

DISCOUNT 
Value 			  
Regular 		  
Classique 		  
Premium 		  
Regent 			  
Queen 		  
Gemini 		  
Family 		  
Executive Suite 	  
Mega Suite 		  


=== RESERVATIONS ===

Deposits:


Claimed:



SECURITY DEPOSITS

Deposits:
Claimed:


=== SALES BREAKDOWN ===

Transaction Date	Room No.	Cash	Card

2010-09-24 16:08:48 	312 		395 	0 	
2010-09-24 16:08:57 	313 		395 	0 	
2010-09-24 16:18:04 	517 		15 	0 	
2010-09-24 16:21:23 	523 		750 	0 	
2010-09-24 16:28:20 	310 		275 	0 	
2010-09-24 16:34:02 	315 		395 	0 	
2010-09-24 16:34:09 	304 		395 	0 	
2010-09-24 16:39:39 	319 		395 	0 	
2010-09-24 16:39:48 	403 		345 	0 	
2010-09-24 16:48:38 	408 		395 	0 	
2010-09-24 16:51:35 	406 		316 	0 	
2010-09-24 16:52:44 	320 		345 	0 	
2010-09-24 16:54:58 	307 		40 	0 	
2010-09-24 16:59:30 	407 		395 	0 	
2010-09-24 17:04:33 	410 		275 	0 	
2010-09-24 17:04:48 	404 		395 	0 	
2010-09-24 17:07:22 	317 		395 	0 	
2010-09-24 17:13:06 	516 		800 	0 	
2010-09-24 17:16:05 	318 		345 	0 	
2010-09-24 17:16:16 	409 		395 	0 	
2010-09-24 17:20:57 	414 		345 	0 	
2010-09-24 17:26:49 	302 		395 	0 	
2010-09-24 17:30:53 	422 		395 	0 	
2010-09-24 17:31:04 	412 		316 	0 	
2010-09-24 17:40:14 	417 		395 	0 	
2010-09-24 17:42:42 	422 		45 	0 	
2010-09-24 17:42:53 	302 		190 	0 	
2010-09-24 17:45:02 	418 		345 	0 	
2010-09-24 17:46:59 	421 		395 	0 	
2010-09-24 17:51:11 	419 		395 	0 	
2010-09-24 17:56:42 	403 		705 	0 	
2010-09-24 17:57:12 	321 		395 	0 	
2010-09-24 17:58:26 	415 		395 	0 	
2010-09-24 17:58:35 	311 		275 	0 	
2010-09-24 18:00:31 	307 		395 	0 	
2010-09-24 18:00:44 	402 		395 	0 	
2010-09-24 18:00:54 	413 		395 	0 	
2010-09-24 18:01:08 	306 		395 	0 	
2010-09-24 18:01:56 	421 		15 	0 	
2010-09-24 18:04:30 	322 		395 	0 	
2010-09-24 18:11:42 	301 		316 	0 	
2010-09-24 18:17:38 	309 		395 	0 	
2010-09-24 18:17:48 	314 		345 	0 	
2010-09-24 18:20:11 	220 		695 	0 	
2010-09-24 18:24:15 	516 		260 	0 	
2010-09-24 18:24:24 	417 		80 	0 	
2010-09-24 18:24:31 	317 		325 	0 	
2010-09-24 18:26:35 	616 		40 	0 	
2010-09-24 18:32:50 	312 		395 	0 	
2010-09-24 18:34:12 	211 		465 	0 	
2010-09-24 18:34:37 	203 		345 	0 	
2010-09-24 18:35:56 	313 		695 	0 	
2010-09-24 18:36:06 	202 		345 	0 	
2010-09-24 18:38:05 	316 		345 	0 	
2010-09-24 18:41:02 	204 		276 	0 	
2010-09-24 18:41:11 	207 		345 	0 	
2010-09-24 18:43:07 	416 		360 	0 	
2010-09-24 18:44:10 	210 		345 	0 	
2010-09-24 18:48:29 	213 		345 	0 	
2010-09-24 18:50:29 	420 		345 	0 	
2010-09-24 18:55:19 	323 		595 	0 	
2010-09-24 18:55:27 	221 		695 	0 	
2010-09-24 18:56:37 	416 		645 	0 	
2010-09-24 19:00:23 	319 		395 	0 	
2010-09-24 19:04:30 	324 		595 	0 	
2010-09-24 19:04:39 	404 		395 	0 	
2010-09-24 19:12:32 	422 		395 	0 	
2010-09-24 19:13:12 	402 		395 	0 	
2010-09-24 19:14:03 	407 		395 	0 	
2010-09-24 19:17:46 	522 		750 	0 	
2010-09-24 19:19:41 	415 		300 	0 	
2010-09-24 19:20:41 	615 		145 	0 	
2010-09-24 19:20:47 	204 		150 	0 	
2010-09-24 19:21:06 	523 		165 	0 	
2010-09-24 19:26:15 	315 		695 	0 	
2010-09-24 19:33:04 	321 		395 	0 	
2010-09-24 19:33:20 	303 		345 	0 	
2010-09-24 19:33:30 	408 		695 	0 	
2010-09-24 19:33:52 	414 		276 	0 	
2010-09-24 19:34:38 	213 		240 	0 	
2010-09-24 19:34:58 	312 		290 	0 	
2010-09-24 19:35:57 	411 		275 	0 	
2010-09-24 19:41:10 	310 		275 	0 	
2010-09-24 19:47:00 	318 		345 	0 	
2010-09-24 19:47:07 	417 		695 	0 	
2010-09-24 19:48:58 	218 		585 	0 	
2010-09-24 19:52:39 	508 		450 	0 	
2010-09-24 19:52:48 	305 		595 	0 	
2010-09-24 19:57:18 	518 		750 	0 	
2010-09-24 19:57:55 	401 		395 	0 	
2010-09-24 20:00:22 	317 		695 	0 	
2010-09-24 20:00:36 	509 		750 	0 	
2010-09-24 20:06:22 	521 		450 	0 	
2010-09-24 20:08:08 	409 		220 	0 	
2010-09-24 20:10:53 	513 		0 	1600 	
2010-09-24 20:12:00 	317 		10 	0 	
2010-09-24 20:13:42 	209 		275 	0 	
2010-09-24 20:13:48 	322 		695 	0 	
2010-09-24 20:14:01 	209 		20 	0 	
2010-09-24 20:15:48 	304 		395 	0 	
2010-09-24 20:19:06 	219 		695 	0 	
2010-09-24 20:19:18 	208 		275 	0 	
2010-09-24 20:19:26 	206 		345 	0 	
2010-09-24 20:30:35 	406 		695 	0 	
2010-09-24 20:31:09 	521 		210 	0 	
2010-09-24 20:35:09 	320 		645 	0 	
2010-09-24 20:35:20 	218 		695 	0 	
2010-09-24 20:37:57 	409 		395 	0 	
2010-09-24 20:38:13 	314 		345 	0 	
2010-09-24 20:41:07 	311 		275 	0 	
2010-09-24 20:42:28 	416 		55 	0 	
2010-09-24 20:42:41 	308 		695 	0 	
2010-09-24 20:46:00 	418 		645 	0 	
2010-09-24 20:48:43 	203 		645 	0 	
2010-09-24 20:51:35 	423 		595 	0 	
2010-09-24 20:53:27 	308 		25 	0 	
2010-09-24 20:54:22 	409 		25 	0 	
2010-09-24 20:54:26 	409 		110 	0 	
2010-09-24 20:56:58 	514 		800 	0 	
2010-09-24 20:58:05 	424 		275 	0 	
2010-09-24 21:02:15 	608 		850 	0 	
2010-09-24 21:03:38 	412 		395 	0 	
2010-09-24 21:08:53 	312 		395 	0 	
2010-09-24 21:13:26 	617 		160 	0 	
2010-09-24 21:14:03 	512 		800 	0 	
2010-09-24 21:14:11 	511 		800 	0 	
2010-09-24 21:17:33 	510 		800 	0 	
2010-09-24 21:25:13 	421 		695 	0 	
2010-09-24 21:28:25 	413 		695 	0 	
2010-09-24 21:28:33 	404 		695 	0 	
2010-09-24 21:29:38 	406 		280 	0 	
2010-09-24 21:30:25 	307 		695 	0 	
2010-09-24 21:30:33 	420 		645 	0 	
2010-09-24 21:31:48 	410 		275 	0 	
2010-09-24 21:36:33 	302 		695 	0 	
2010-09-24 21:40:34 	512 		220 	0 	
2010-09-24 21:47:05 	507 		800 	0 	
2010-09-24 21:47:25 	316 		645 	0 	
2010-09-24 21:51:29 	405 		595 	0 	
2010-09-24 21:55:06 	306 		695 	0 	
2010-09-24 21:55:59 	204 		645 	0 	
2010-09-24 22:01:58 	407 		695 	0 	
2010-09-24 22:03:16 	306 		10 	0 	
2010-09-24 22:07:43 	506 		800 	0 	
2010-09-24 22:07:54 	212 		595 	0 	
2010-09-24 22:16:25 	422 		695 	0 	
2010-09-24 22:16:39 	304 		695 	0 	
2010-09-24 22:17:05 	301 		395 	0 	
2010-09-24 22:21:46 	309 		395 	0 	
2010-09-24 22:30:16 	414 		645 	0 	
2010-09-24 22:35:47 	210 		120 	0 	
2010-09-24 22:42:35 	411 		275 	0 	
2010-09-24 22:42:43 	202 		345 	0 	
2010-09-24 22:48:34 	505 		800 	0 	
2010-09-24 22:51:16 	504 		800 	0 	
2010-09-24 22:52:27 	207 		345 	0 	
2010-09-24 23:07:54 	402 		395 	0 	
2010-09-24 23:08:44 	319 		0 	695 	
2010-09-24 23:12:39 	503 		800 	0 	
2010-09-24 23:13:02 	401 		395 	0 	
2010-09-24 23:13:13 	212 		15 	0 	
2010-09-24 23:13:22 	307 		55 	0 	
2010-09-24 23:13:29 	510 		280 	0 	
2010-09-24 23:13:38 	219 		110 	0 	
2010-09-24 23:13:47 	515 		90 	0 	
2010-09-24 23:14:02 	516 		50 	0 	
2010-09-24 23:20:37 	508 		750 	0 	
2010-09-24 23:20:50 	419 		695 	0 	
2010-09-24 23:22:45 	415 		695 	0 	
2010-09-24 23:26:33 	415 		-695 	0 	
2010-09-24 23:26:50 	415 		395 	0 	
2010-09-24 23:27:38 	303 		645 	0 	
2010-09-24 23:27:47 	312 		395 	0 	
2010-09-24 23:28:22 	220 		30 	0 	
2010-09-24 23:49:06 	521 		750 	0 	
2010-09-24 23:49:22 	206 		345 	0 	
2010-09-24 23:53:38 	520 		150 	0 	
2010-09-24 23:59:40 	502 		800 	0 	
 			Total:		73995 	2295		

=== RECHIT LIST ===

Room No. 608 	 Rechit Date: 2010-09-24 20:50:42







V1