MSHOGUN 1: SHIFT END REPORT
Tuesday August 10, 2010 12:00:01 AM

SALES TRANSACTION
Room Sales Order			27655
FnB Sales Order			500
Beer Sales Order			130
Misc Sales Order			40
Room Sales Adjustment			0
GROSS SALES			28325

DISCOUNT
Room				0
FnB				0
Misc				0

DEPOSIT				27312
REFUND				

TOTAL ACCOUNTABILITY			55637

CASH DECLARATION			3669
CARD				0
FUNDS SAFEKEEP			40000
TOTAL CASH DECLARED			43669

TOTAL CASH ON SYSTEM			3669
OVER/SHORTAGES 			0

ROOM	 # OF CHECK-OUT	AMT
Value 		8	2200
Regular 		15	6015
Classique 		46	18590
Premium 		0	0
Regent 		0	0
Queen 		1	850
Gemini 		0	0
Family 		0	0
Executive Suite 	0	0
Mega Suite 	0	0

DISCOUNT 
Value 			  
Regular 		  
Classique 		  
Premium 		  
Regent 			  
Queen 		  
Gemini 		  
Family 		  
Executive Suite 	  
Mega Suite 		  


=== RESERVATIONS ===

Deposits:


Claimed:



SECURITY DEPOSITS

Deposits:
Claimed:


=== SALES BREAKDOWN ===

Transaction Date	Room No.	Cash	Card

2010-08-09 16:02:45 	601 		75 	0 	
2010-08-09 16:06:36 	312 		395 	0 	
2010-08-09 16:06:58 	313 		395 	0 	
2010-08-09 16:13:34 	311 		275 	0 	
2010-08-09 16:14:46 	322 		395 	0 	
2010-08-09 16:19:07 	319 		395 	0 	
2010-08-09 16:27:20 	310 		275 	0 	
2010-08-09 16:46:04 	512 		3200 	0 	
2010-08-09 16:46:33 	418 		276 	0 	
2010-08-09 16:47:57 	416 		345 	0 	
2010-08-09 16:55:44 	301 		395 	0 	
2010-08-09 17:03:24 	321 		395 	0 	
2010-08-09 17:05:50 	323 		275 	0 	
2010-08-09 17:13:57 	315 		395 	0 	
2010-08-09 17:30:51 	309 		395 	0 	
2010-08-09 17:50:04 	317 		395 	0 	
2010-08-09 17:53:32 	305 		275 	0 	
2010-08-09 18:01:40 	306 		395 	0 	
2010-08-09 18:23:49 	307 		395 	0 	
2010-08-09 18:25:23 	413 		140 	0 	
2010-08-09 18:33:06 	304 		395 	0 	
2010-08-09 18:39:31 	308 		395 	0 	
2010-08-09 18:43:52 	312 		395 	0 	
2010-08-09 18:51:45 	302 		395 	0 	
2010-08-09 18:51:52 	313 		395 	0 	
2010-08-09 18:54:21 	316 		345 	0 	
2010-08-09 18:55:25 	315 		395 	0 	
2010-08-09 18:57:59 	319 		695 	0 	
2010-08-09 18:58:05 	321 		695 	0 	
2010-08-09 18:58:13 	324 		595 	0 	
2010-08-09 19:04:18 	404 		695 	0 	
2010-08-09 19:04:51 	406 		695 	0 	
2010-08-09 19:05:47 	407 		395 	0 	
2010-08-09 19:06:47 	409 		395 	0 	
2010-08-09 19:07:36 	402 		695 	0 	
2010-08-09 19:10:57 	509 		750 	0 	
2010-08-09 19:16:36 	401 		395 	0 	
2010-08-09 19:17:39 	324 		80 	0 	
2010-08-09 19:24:50 	403 		645 	0 	
2010-08-09 19:28:39 	315 		125 	0 	
2010-08-09 19:30:13 	410 		275 	0 	
2010-08-09 19:30:49 	317 		395 	0 	
2010-08-09 19:34:26 	419 		395 	0 	
2010-08-09 19:34:32 	417 		695 	0 	
2010-08-09 19:35:03 	416 		20 	0 	
2010-08-09 19:40:18 	413 		0 	695 	
2010-08-09 19:41:08 	322 		395 	0 	
2010-08-09 19:43:36 	303 		345 	0 	
2010-08-09 19:44:16 	314 		345 	0 	
2010-08-09 19:48:52 	410 		70 	0 	
2010-08-09 19:57:06 	418 		345 	0 	
2010-08-09 19:58:36 	306 		695 	0 	
2010-08-09 20:02:54 	412 		395 	0 	
2010-08-09 20:08:33 	415 		695 	0 	
2010-08-09 20:13:25 	321 		125 	0 	
2010-08-09 20:13:58 	414 		276 	0 	
2010-08-09 20:14:59 	408 		675 	0 	
2010-08-09 20:16:04 	304 		695 	0 	
2010-08-09 20:23:14 	401 		80 	0 	
2010-08-09 20:26:33 	421 		695 	0 	
2010-08-09 20:29:36 	309 		395 	0 	
2010-08-09 20:34:54 	405 		595 	0 	
2010-08-09 20:36:20 	307 		695 	0 	
2010-08-09 20:36:56 	311 		595 	0 	
2010-08-09 20:39:41 	422 		395 	0 	
2010-08-09 20:44:00 	310 		275 	0 	
2010-08-09 20:47:28 	313 		695 	0 	
2010-08-09 20:53:49 	512 		210 	0 	
2010-08-09 20:54:00 	315 		695 	0 	
2010-08-09 20:56:11 	506 		800 	0 	
2010-08-09 20:56:57 	507 		800 	0 	
2010-08-09 21:03:54 	301 		395 	0 	
2010-08-09 21:06:52 	504 		800 	0 	
2010-08-09 21:07:54 	407 		695 	0 	
2010-08-09 21:09:35 	323 		595 	0 	
2010-08-09 21:13:02 	221 		695 	0 	
2010-08-09 21:23:19 	219 		395 	0 	
2010-08-09 21:28:46 	218 		695 	0 	
2010-08-09 21:31:40 	220 		395 	0 	
2010-08-09 21:32:01 	220 		90 	0 	
2010-08-09 21:34:21 	320 		645 	0 	
2010-08-09 21:39:53 	505 		800 	0 	
2010-08-09 21:45:01 	504 		332 	0 	
2010-08-09 21:48:19 	416 		345 	0 	
2010-08-09 21:53:37 	411 		595 	0 	
2010-08-09 21:57:11 	403 		210 	0 	
2010-08-09 21:57:23 	504 		90 	0 	
2010-08-09 21:57:35 	218 		30 	0 	
2010-08-09 22:00:26 	510 		800 	0 	
2010-08-09 22:05:16 	505 		10 	0 	
2010-08-09 22:13:50 	510 		10 	0 	
2010-08-09 22:18:43 	420 		345 	0 	
2010-08-09 22:43:27 	603 		1050 	0 	
2010-08-09 23:21:38 	317 		395 	0 	
2010-08-09 23:24:15 	408 		50 	0 	
2010-08-09 23:49:59 	312 		395 	0 	
 			Total:		43669 	695		

=== RECHIT LIST ===




V1