MSHOGUN 1: SHIFT END REPORT
Thursday September 29, 2011 12:01:05 AM

SALES TRANSACTION
Room Sales Order			30945
FnB Sales Order			1140
Beer Sales Order			360
Misc Sales Order			165
Room Sales Adjustment			0
GROSS SALES			32610

DISCOUNT
Room				0
FnB				0
Misc				0

DEPOSIT				28135
REFUND				

TOTAL ACCOUNTABILITY			60745

CASH DECLARATION			3961
CARD				395
FUNDS SAFEKEEP			48000
TOTAL CASH DECLARED			52356

TOTAL CASH ON SYSTEM			3301
OVER/SHORTAGES 			660

ROOM	 # OF CHECK-OUT	AMT
Value 		11	3025
Regular 		27	10515
Classique 		43	17405
Premium 		0	0
Regent 		0	0
Queen 		0	0
Gemini 		0	0
Family 		0	0
Executive Suite 	0	0
Mega Suite 	0	0

DISCOUNT 
Value 			  
Regular 		  
Classique 		  
Premium 		  
Regent 			  
Queen 		  
Gemini 		  
Family 		  
Executive Suite 	  
Mega Suite 		  


=== RESERVATIONS ===

Deposits:


Claimed:



SECURITY DEPOSITS

Deposits:
Claimed:


=== SALES BREAKDOWN ===

Transaction Date	Room No.	Cash	Card

2011-09-28 16:08:24 	321 		395 	0 	
2011-09-28 16:10:27 	413 		395 	0 	
2011-09-28 16:15:25 	422 		395 	0 	
2011-09-28 16:34:23 	414 		345 	0 	
2011-09-28 16:37:56 	409 		395 	0 	
2011-09-28 16:53:12 	408 		316 	0 	
2011-09-28 17:02:24 	313 		316 	0 	
2011-09-28 17:02:39 	415 		316 	0 	
2011-09-28 17:02:58 	420 		345 	0 	
2011-09-28 17:05:21 	306 		395 	0 	
2011-09-28 17:05:28 	406 		395 	0 	
2011-09-28 17:05:36 	309 		395 	0 	
2011-09-28 17:11:57 	403 		345 	0 	
2011-09-28 17:15:34 	303 		345 	0 	
2011-09-28 17:20:54 	302 		395 	0 	
2011-09-28 17:27:52 	409 		215 	0 	
2011-09-28 17:31:29 	307 		395 	0 	
2011-09-28 17:38:52 	316 		345 	0 	
2011-09-28 17:39:02 	305 		275 	0 	
2011-09-28 17:43:56 	210 		345 	0 	
2011-09-28 17:44:03 	318 		465 	0 	
2011-09-28 17:45:08 	321 		675 	0 	
2011-09-28 17:48:02 	305 		20 	0 	
2011-09-28 17:50:01 	322 		395 	0 	
2011-09-28 17:51:01 	412 		395 	0 	
2011-09-28 17:56:07 	317 		395 	0 	
2011-09-28 18:04:14 	211 		465 	0 	
2011-09-28 18:04:20 	202 		345 	0 	
2011-09-28 18:06:59 	320 		276 	0 	
2011-09-28 18:11:32 	308 		395 	0 	
2011-09-28 18:11:49 	416 		345 	0 	
2011-09-28 18:11:56 	407 		395 	0 	
2011-09-28 18:15:42 	401 		395 	0 	
2011-09-28 18:18:28 	312 		395 	0 	
2011-09-28 18:19:43 	412 		240 	0 	
2011-09-28 18:21:36 	315 		395 	0 	
2011-09-28 18:23:24 	301 		316 	0 	
2011-09-28 18:28:43 	401 		15 	0 	
2011-09-28 18:28:50 	213 		345 	0 	
2011-09-28 18:31:08 	311 		275 	0 	
2011-09-28 18:32:23 	421 		395 	0 	
2011-09-28 18:32:30 	201 		345 	0 	
2011-09-28 18:46:05 	310 		275 	0 	
2011-09-28 18:48:06 	209 		275 	0 	
2011-09-28 18:49:24 	303 		345 	0 	
2011-09-28 18:50:20 	421 		100 	0 	
2011-09-28 18:50:31 	205 		345 	0 	
2011-09-28 18:54:02 	219 		395 	0 	
2011-09-28 18:54:12 	220 		316 	0 	
2011-09-28 19:00:04 	417 		695 	0 	
2011-09-28 19:00:11 	413 		695 	0 	
2011-09-28 19:00:17 	419 		695 	0 	
2011-09-28 19:04:35 	221 		535 	0 	
2011-09-28 19:05:23 	215 		645 	0 	
2011-09-28 19:05:57 	422 		395 	0 	
2011-09-28 19:11:10 	424 		595 	0 	
2011-09-28 19:11:18 	203 		345 	0 	
2011-09-28 19:13:59 	408 		695 	0 	
2011-09-28 19:14:09 	218 		395 	0 	
2011-09-28 19:16:12 	324 		275 	0 	
2011-09-28 19:17:05 	318 		155 	0 	
2011-09-28 19:22:12 	302 		320 	0 	
2011-09-28 19:30:25 	411 		595 	0 	
2011-09-28 19:35:01 	322 		395 	0 	
2011-09-28 19:35:24 	323 		595 	0 	
2011-09-28 19:37:19 	405 		595 	0 	
2011-09-28 19:40:16 	409 		395 	0 	
2011-09-28 19:40:22 	308 		395 	0 	
2011-09-28 19:40:58 	421 		0 	395 	
2011-09-28 19:43:35 	415 		695 	0 	
2011-09-28 19:47:41 	423 		595 	0 	
2011-09-28 19:51:17 	411 		10 	0 	
2011-09-28 19:51:43 	314 		645 	0 	
2011-09-28 19:53:33 	301 		695 	0 	
2011-09-28 20:05:06 	208 		275 	0 	
2011-09-28 20:06:45 	212 		275 	0 	
2011-09-28 20:08:00 	315 		695 	0 	
2011-09-28 20:12:23 	313 		395 	0 	
2011-09-28 20:14:31 	308 		395 	0 	
2011-09-28 20:18:10 	305 		595 	0 	
2011-09-28 20:19:09 	414 		345 	0 	
2011-09-28 20:22:11 	301 		155 	0 	
2011-09-28 20:24:52 	319 		150 	0 	
2011-09-28 20:32:19 	418 		645 	0 	
2011-09-28 20:32:26 	404 		695 	0 	
2011-09-28 20:32:57 	204 		345 	0 	
2011-09-28 20:37:56 	320 		645 	0 	
2011-09-28 20:48:54 	406 		695 	0 	
2011-09-28 20:50:33 	313 		210 	0 	
2011-09-28 20:51:49 	216 		595 	0 	
2011-09-28 20:52:02 	410 		595 	0 	
2011-09-28 20:55:28 	317 		695 	0 	
2011-09-28 21:07:15 	316 		645 	0 	
2011-09-28 21:07:22 	304 		695 	0 	
2011-09-28 21:07:29 	309 		395 	0 	
2011-09-28 21:07:43 	406 		90 	0 	
2011-09-28 21:10:23 	401 		395 	0 	
2011-09-28 21:15:37 	420 		645 	0 	
2011-09-28 21:32:43 	302 		395 	0 	
2011-09-28 21:34:52 	416 		645 	0 	
2011-09-28 21:36:23 	421 		695 	0 	
2011-09-28 21:38:36 	402 		695 	0 	
2011-09-28 21:47:25 	412 		140 	0 	
2011-09-28 21:49:13 	307 		395 	0 	
2011-09-28 21:58:00 	403 		645 	0 	
2011-09-28 21:59:03 	407 		695 	0 	
2011-09-28 22:00:06 	312 		395 	0 	
2011-09-28 22:06:14 	207 		345 	0 	
2011-09-28 22:06:21 	303 		345 	0 	
2011-09-28 22:08:42 	311 		595 	0 	
2011-09-28 22:11:53 	308 		395 	0 	
2011-09-28 22:22:19 	308 		30 	0 	
2011-09-28 22:25:46 	213 		645 	0 	
2011-09-28 22:28:51 	312 		45 	0 	
2011-09-28 22:32:53 	307 		175 	0 	
2011-09-28 22:38:27 	211 		645 	0 	
2011-09-28 22:41:43 	306 		695 	0 	
2011-09-28 22:59:18 	319 		695 	0 	
2011-09-28 22:59:24 	409 		395 	0 	
2011-09-28 23:02:47 	319 		25 	0 	
2011-09-28 23:26:19 	302 		25 	0 	
2011-09-28 23:40:00 	318 		345 	0 	
2011-09-28 23:48:26 	412 		395 	0 	
2011-09-28 23:58:15 	313 		695 	0 	
 			Total:		51301 	395		

=== RECHIT LIST ===




V1