MSHOGUN 1: SHIFT END REPORT
Saturday February 05, 2011 12:00:10 AM

SALES TRANSACTION
Room Sales Order			31860
FnB Sales Order			2280
Beer Sales Order			0
Misc Sales Order			145
Room Sales Adjustment			0
GROSS SALES			34285

DISCOUNT
Room				0
FnB				0
Misc				0

DEPOSIT				36053
REFUND				

TOTAL ACCOUNTABILITY			70338

CASH DECLARATION			6625
CARD				395
FUNDS SAFEKEEP			50000
TOTAL CASH DECLARED			57020

TOTAL CASH ON SYSTEM			13959
OVER/SHORTAGES 			-7334

ROOM	 # OF CHECK-OUT	AMT
Value 		8	2400
Regular 		27	9915
Classique 		47	19545
Premium 		0	0
Regent 		0	0
Queen 		0	0
Gemini 		0	0
Family 		0	0
Executive Suite 	0	0
Mega Suite 	0	0

DISCOUNT 
Value 			  
Regular 		  
Classique 		  
Premium 		  
Regent 			  
Queen 		  
Gemini 		  
Family 		  
Executive Suite 	  
Mega Suite 		  


=== RESERVATIONS ===

Deposits:


Claimed:



SECURITY DEPOSITS

Deposits:
Claimed:


=== SALES BREAKDOWN ===

Transaction Date	Room No.	Cash	Card

2011-02-04 16:02:20 	306 		395 	0 	
2011-02-04 16:10:02 	403 		345 	0 	
2011-02-04 16:11:34 	418 		345 	0 	
2011-02-04 16:17:13 	313 		395 	0 	
2011-02-04 16:27:24 	319 		395 	0 	
2011-02-04 16:27:38 	321 		395 	0 	
2011-02-04 16:32:20 	322 		395 	0 	
2011-02-04 16:38:06 	303 		345 	0 	
2011-02-04 16:38:29 	303 		50 	0 	
2011-02-04 16:38:59 	304 		395 	0 	
2011-02-04 16:47:36 	204 		210 	0 	
2011-02-04 16:48:36 	407 		395 	0 	
2011-02-04 16:52:29 	408 		140 	0 	
2011-02-04 16:57:01 	215 		345 	0 	
2011-02-04 17:05:08 	420 		465 	0 	
2011-02-04 17:06:10 	311 		275 	0 	
2011-02-04 17:07:01 	404 		395 	0 	
2011-02-04 17:14:46 	316 		345 	0 	
2011-02-04 17:23:28 	318 		345 	0 	
2011-02-04 17:23:40 	320 		705 	0 	
2011-02-04 17:26:02 	210 		345 	0 	
2011-02-04 17:37:21 	409 		280 	0 	
2011-02-04 17:39:30 	417 		175 	0 	
2011-02-04 17:50:50 	401 		395 	0 	
2011-02-04 17:51:55 	309 		0 	395 	
2011-02-04 17:53:15 	302 		395 	0 	
2011-02-04 17:58:09 	208 		275 	0 	
2011-02-04 18:01:39 	406 		395 	0 	
2011-02-04 18:03:50 	402 		395 	0 	
2011-02-04 18:11:58 	312 		395 	0 	
2011-02-04 18:12:06 	314 		345 	0 	
2011-02-04 18:12:13 	207 		345 	0 	
2011-02-04 18:13:40 	317 		395 	0 	
2011-02-04 18:19:47 	206 		345 	0 	
2011-02-04 18:23:58 	419 		695 	0 	
2011-02-04 18:25:24 	203 		345 	0 	
2011-02-04 18:30:06 	319 		395 	0 	
2011-02-04 18:33:09 	320 		310 	0 	
2011-02-04 18:33:18 	312 		10 	0 	
2011-02-04 18:33:40 	308 		395 	0 	
2011-02-04 18:34:18 	421 		395 	0 	
2011-02-04 18:35:24 	422 		395 	0 	
2011-02-04 18:41:14 	323 		275 	0 	
2011-02-04 18:46:52 	315 		395 	0 	
2011-02-04 18:49:12 	202 		276 	0 	
2011-02-04 18:51:48 	212 		595 	0 	
2011-02-04 18:51:57 	216 		595 	0 	
2011-02-04 18:54:16 	305 		595 	0 	
2011-02-04 18:55:51 	310 		275 	0 	
2011-02-04 19:00:30 	218 		695 	0 	
2011-02-04 19:00:43 	321 		695 	0 	
2011-02-04 19:03:03 	219 		395 	0 	
2011-02-04 19:08:00 	220 		395 	0 	
2011-02-04 19:13:33 	307 		695 	0 	
2011-02-04 19:17:40 	406 		235 	0 	
2011-02-04 19:17:49 	310 		110 	0 	
2011-02-04 19:18:31 	205 		345 	0 	
2011-02-04 19:20:22 	317 		20 	0 	
2011-02-04 19:22:36 	407 		695 	0 	
2011-02-04 19:23:30 	408 		695 	0 	
2011-02-04 19:28:31 	218 		50 	0 	
2011-02-04 19:30:27 	301 		395 	0 	
2011-02-04 19:33:55 	306 		280 	0 	
2011-02-04 19:34:24 	401 		395 	0 	
2011-02-04 19:37:04 	221 		395 	0 	
2011-02-04 19:38:39 	420 		10 	0 	
2011-02-04 19:46:29 	412 		395 	0 	
2011-02-04 19:49:22 	322 		395 	0 	
2011-02-04 19:49:29 	421 		395 	0 	
2011-02-04 19:49:59 	324 		595 	0 	
2011-02-04 19:51:20 	417 		695 	0 	
2011-02-04 19:52:34 	403 		345 	0 	
2011-02-04 19:52:47 	415 		395 	0 	
2011-02-04 19:58:44 	213 		120 	0 	
2011-02-04 20:02:05 	316 		40 	0 	
2011-02-04 20:04:50 	204 		345 	0 	
2011-02-04 20:06:32 	306 		675 	0 	
2011-02-04 20:07:44 	313 		395 	0 	
2011-02-04 20:12:59 	321 		210 	0 	
2011-02-04 20:13:04 	421 		160 	0 	
2011-02-04 20:13:11 	307 		198 	0 	
2011-02-04 20:13:21 	412 		45 	0 	
2011-02-04 20:13:47 	303 		645 	0 	
2011-02-04 20:13:57 	414 		345 	0 	
2011-02-04 20:14:05 	317 		395 	0 	
2011-02-04 20:14:18 	409 		395 	0 	
2011-02-04 20:22:02 	411 		275 	0 	
2011-02-04 20:22:32 	401 		50 	0 	
2011-02-04 20:24:14 	413 		695 	0 	
2011-02-04 20:25:37 	418 		645 	0 	
2011-02-04 20:26:52 	405 		595 	0 	
2011-02-04 20:28:08 	410 		275 	0 	
2011-02-04 20:34:03 	420 		345 	0 	
2011-02-04 20:37:03 	318 		645 	0 	
2011-02-04 20:41:58 	315 		695 	0 	
2011-02-04 20:55:18 	416 		645 	0 	
2011-02-04 20:57:11 	201 		345 	0 	
2011-02-04 20:59:06 	404 		140 	0 	
2011-02-04 21:03:06 	302 		695 	0 	
2011-02-04 21:04:18 	422 		695 	0 	
2011-02-04 21:10:02 	309 		395 	0 	
2011-02-04 21:16:06 	312 		395 	0 	
2011-02-04 21:19:04 	308 		220 	0 	
2011-02-04 21:20:28 	404 		395 	0 	
2011-02-04 21:20:38 	213 		645 	0 	
2011-02-04 21:22:42 	401 		195 	0 	
2011-02-04 21:26:05 	402 		695 	0 	
2011-02-04 21:35:13 	314 		345 	0 	
2011-02-04 21:37:19 	214 		595 	0 	
2011-02-04 21:37:38 	308 		695 	0 	
2011-02-04 21:37:47 	206 		345 	0 	
2011-02-04 21:42:51 	203 		645 	0 	
2011-02-04 21:43:48 	423 		475 	0 	
2011-02-04 21:44:47 	323 		775 	0 	
2011-02-04 21:46:02 	206 		20 	0 	
2011-02-04 21:46:34 	319 		695 	0 	
2011-02-04 21:47:56 	424 		595 	0 	
2011-02-04 21:48:21 	406 		140 	0 	
2011-02-04 21:49:43 	305 		110 	0 	
2011-02-04 21:56:42 	310 		675 	0 	
2011-02-04 21:59:54 	220 		695 	0 	
2011-02-04 22:04:41 	219 		395 	0 	
2011-02-04 22:07:10 	406 		695 	0 	
2011-02-04 22:07:30 	410 		595 	0 	
2011-02-04 22:07:56 	405 		110 	0 	
2011-02-04 22:16:14 	303 		265 	0 	
2011-02-04 22:18:59 	207 		345 	0 	
2011-02-04 22:19:13 	210 		345 	0 	
2011-02-04 22:20:33 	322 		395 	0 	
2011-02-04 22:21:16 	301 		395 	0 	
2011-02-04 22:22:28 	421 		695 	0 	
2011-02-04 22:27:56 	320 		645 	0 	
2011-02-04 22:28:03 	304 		695 	0 	
2011-02-04 22:33:47 	415 		695 	0 	
2011-02-04 22:35:22 	301 		25 	0 	
2011-02-04 22:43:23 	317 		695 	0 	
2011-02-04 22:43:44 	221 		395 	0 	
2011-02-04 22:49:38 	323 		50 	0 	
2011-02-04 22:50:40 	316 		645 	0 	
2011-02-04 22:56:54 	403 		645 	0 	
2011-02-04 23:14:26 	204 		645 	0 	
2011-02-04 23:15:13 	409 		395 	0 	
2011-02-04 23:15:55 	313 		695 	0 	
2011-02-04 23:19:41 	317 		50 	0 	
2011-02-04 23:19:52 	218 		360 	0 	
2011-02-04 23:23:43 	206 		645 	0 	
2011-02-04 23:25:16 	205 		645 	0 	
2011-02-04 23:25:27 	420 		645 	0 	
2011-02-04 23:33:17 	312 		395 	0 	
2011-02-04 23:38:44 	209 		575 	0 	
2011-02-04 23:47:17 	412 		675 	0 	
2011-02-04 23:51:02 	319 		175 	0 	
2011-02-04 23:51:13 	316 		395 	0 	
2011-02-04 23:51:38 	208 		575 	0 	
2011-02-04 23:52:51 	404 		695 	0 	
 			Total:		63959 	395		

=== RECHIT LIST ===




V1