MSHOGUN 1: SHIFT END REPORT
Friday December 10, 2010 12:00:59 AM

SALES TRANSACTION
Room Sales Order			29080
FnB Sales Order			1860
Beer Sales Order			260
Misc Sales Order			30
Room Sales Adjustment			0
GROSS SALES			31230

DISCOUNT
Room				0
FnB				0
Misc				0

DEPOSIT				27800
REFUND				

TOTAL ACCOUNTABILITY			59030

CASH DECLARATION			7292
CARD				0
FUNDS SAFEKEEP			40000
TOTAL CASH DECLARED			47292

TOTAL CASH ON SYSTEM			7294
OVER/SHORTAGES 			-2

ROOM	 # OF CHECK-OUT	AMT
Value 		10	2750
Regular 		19	7995
Classique 		45	18335
Premium 		0	0
Regent 		0	0
Queen 		0	0
Gemini 		0	0
Family 		0	0
Executive Suite 	0	0
Mega Suite 	0	0

DISCOUNT 
Value 			  
Regular 		  
Classique 		  
Premium 		  
Regent 			  
Queen 		  
Gemini 		  
Family 		  
Executive Suite 	  
Mega Suite 		  


=== RESERVATIONS ===

Deposits:


Claimed:



SECURITY DEPOSITS

Deposits:
Claimed:


=== SALES BREAKDOWN ===

Transaction Date	Room No.	Cash	Card

2010-12-09 16:01:30 	308 		140 	0 	
2010-12-09 16:09:12 	218 		395 	0 	
2010-12-09 16:10:26 	404 		150 	0 	
2010-12-09 16:24:31 	219 		395 	0 	
2010-12-09 16:37:04 	202 		345 	0 	
2010-12-09 16:40:08 	220 		395 	0 	
2010-12-09 16:47:32 	312 		395 	0 	
2010-12-09 16:55:07 	309 		395 	0 	
2010-12-09 17:02:39 	304 		395 	0 	
2010-12-09 17:10:57 	308 		395 	0 	
2010-12-09 17:22:42 	317 		395 	0 	
2010-12-09 17:23:44 	407 		115 	0 	
2010-12-09 17:25:51 	213 		276 	0 	
2010-12-09 17:26:13 	213 		210 	0 	
2010-12-09 17:29:41 	208 		275 	0 	
2010-12-09 17:34:21 	207 		345 	0 	
2010-12-09 17:51:58 	209 		275 	0 	
2010-12-09 17:54:24 	210 		345 	0 	
2010-12-09 18:03:22 	204 		345 	0 	
2010-12-09 18:11:55 	205 		345 	0 	
2010-12-09 18:15:33 	221 		395 	0 	
2010-12-09 18:15:53 	219 		316 	0 	
2010-12-09 18:19:59 	212 		595 	0 	
2010-12-09 18:21:03 	214 		275 	0 	
2010-12-09 18:22:50 	301 		395 	0 	
2010-12-09 18:28:23 	303 		480 	0 	
2010-12-09 18:35:46 	221 		345 	0 	
2010-12-09 18:36:22 	220 		395 	0 	
2010-12-09 18:36:39 	319 		316 	0 	
2010-12-09 18:39:06 	306 		395 	0 	
2010-12-09 18:40:36 	305 		595 	0 	
2010-12-09 18:43:16 	216 		275 	0 	
2010-12-09 18:50:37 	312 		395 	0 	
2010-12-09 18:54:04 	404 		695 	0 	
2010-12-09 18:57:19 	203 		345 	0 	
2010-12-09 19:00:40 	215 		345 	0 	
2010-12-09 19:06:08 	309 		395 	0 	
2010-12-09 19:06:16 	401 		395 	0 	
2010-12-09 19:06:25 	402 		695 	0 	
2010-12-09 19:07:48 	203 		50 	0 	
2010-12-09 19:08:21 	302 		395 	0 	
2010-12-09 19:09:13 	315 		300 	0 	
2010-12-09 19:11:07 	208 		275 	0 	
2010-12-09 19:19:37 	321 		395 	0 	
2010-12-09 19:21:54 	404 		280 	0 	
2010-12-09 19:22:02 	220 		50 	0 	
2010-12-09 19:31:42 	206 		345 	0 	
2010-12-09 19:33:16 	307 		695 	0 	
2010-12-09 19:34:24 	217 		595 	0 	
2010-12-09 19:39:32 	218 		395 	0 	
2010-12-09 19:40:29 	207 		345 	0 	
2010-12-09 19:46:09 	402 		440 	0 	
2010-12-09 19:50:53 	409 		395 	0 	
2010-12-09 19:50:59 	302 		50 	0 	
2010-12-09 19:55:15 	221 		80 	0 	
2010-12-09 20:01:27 	408 		695 	0 	
2010-12-09 20:02:21 	404 		90 	0 	
2010-12-09 20:15:08 	412 		395 	0 	
2010-12-09 20:23:33 	407 		695 	0 	
2010-12-09 20:27:04 	406 		695 	0 	
2010-12-09 20:27:25 	216 		275 	0 	
2010-12-09 20:29:46 	319 		395 	0 	
2010-12-09 20:30:06 	413 		695 	0 	
2010-12-09 20:32:12 	414 		150 	0 	
2010-12-09 20:33:20 	324 		595 	0 	
2010-12-09 20:35:34 	316 		645 	0 	
2010-12-09 20:38:27 	211 		345 	0 	
2010-12-09 20:46:48 	412 		50 	0 	
2010-12-09 20:47:16 	404 		180 	0 	
2010-12-09 20:47:21 	407 		100 	0 	
2010-12-09 20:50:30 	306 		695 	0 	
2010-12-09 20:51:32 	415 		695 	0 	
2010-12-09 20:52:32 	419 		695 	0 	
2010-12-09 20:53:56 	308 		695 	0 	
2010-12-09 20:54:38 	422 		316 	0 	
2010-12-09 20:56:35 	306 		135 	0 	
2010-12-09 21:10:26 	317 		140 	0 	
2010-12-09 21:12:08 	304 		395 	0 	
2010-12-09 21:13:33 	314 		705 	0 	
2010-12-09 21:15:59 	415 		110 	0 	
2010-12-09 21:16:15 	421 		395 	0 	
2010-12-09 21:27:49 	315 		695 	0 	
2010-12-09 21:35:23 	318 		645 	0 	
2010-12-09 21:38:09 	404 		290 	0 	
2010-12-09 21:38:53 	320 		645 	0 	
2010-12-09 21:47:42 	317 		695 	0 	
2010-12-09 21:50:09 	204 		120 	0 	
2010-12-09 21:54:58 	318 		50 	0 	
2010-12-09 22:02:25 	312 		395 	0 	
2010-12-09 22:02:38 	205 		345 	0 	
2010-12-09 22:05:28 	221 		395 	0 	
2010-12-09 22:05:37 	219 		395 	0 	
2010-12-09 22:09:49 	220 		0 	395 	
2010-12-09 22:15:07 	301 		395 	0 	
2010-12-09 22:22:06 	313 		695 	0 	
2010-12-09 22:22:14 	319 		695 	0 	
2010-12-09 22:22:22 	303 		345 	0 	
2010-12-09 22:31:14 	212 		50 	0 	
2010-12-09 22:31:30 	218 		695 	0 	
2010-12-09 22:37:28 	405 		595 	0 	
2010-12-09 22:40:10 	422 		395 	0 	
2010-12-09 22:40:26 	214 		595 	0 	
2010-12-09 22:41:31 	309 		395 	0 	
2010-12-09 22:42:53 	416 		705 	0 	
2010-12-09 22:46:22 	420 		645 	0 	
2010-12-09 22:48:12 	213 		645 	0 	
2010-12-09 22:48:25 	213 		25 	0 	
2010-12-09 22:53:09 	414 		645 	0 	
2010-12-09 22:54:09 	418 		645 	0 	
2010-12-09 22:57:59 	309 		380 	0 	
2010-12-09 22:59:48 	403 		645 	0 	
2010-12-09 23:21:47 	309 		10 	0 	
2010-12-09 23:25:33 	208 		575 	0 	
2010-12-09 23:28:29 	310 		595 	0 	
2010-12-09 23:35:10 	221 		695 	0 	
2010-12-09 23:38:18 	312 		25 	0 	
2010-12-09 23:44:24 	215 		240 	0 	
2010-12-09 23:54:21 	317 		420 	0 	
2010-12-09 23:55:40 	412 		395 	0 	
2010-12-09 23:56:34 	422 		50 	0 	
 			Total:		47294 	395		

=== RECHIT LIST ===




V1