MSHOGUN 1: SHIFT END REPORT
Thursday May 05, 2011 12:00:22 AM

SALES TRANSACTION
Room Sales Order			38830
FnB Sales Order			995
Beer Sales Order			90
Misc Sales Order			10
Room Sales Adjustment			0
GROSS SALES			39925

DISCOUNT
Room				0
FnB				0
Misc				0

DEPOSIT				26598
REFUND				

TOTAL ACCOUNTABILITY			66523

CASH DECLARATION			8753
CARD				790
FUNDS SAFEKEEP			40000
TOTAL CASH DECLARED			49543

TOTAL CASH ON SYSTEM			13925
OVER/SHORTAGES 			-5172

ROOM	 # OF CHECK-OUT	AMT
Value 		9	2775
Regular 		29	10725
Classique 		62	25330
Premium 		0	0
Regent 		0	0
Queen 		0	0
Gemini 		0	0
Family 		0	0
Executive Suite 	0	0
Mega Suite 	0	0

DISCOUNT 
Value 			  
Regular 		  
Classique 		  
Premium 		  
Regent 			  
Queen 		  
Gemini 		  
Family 		  
Executive Suite 	  
Mega Suite 		  


=== RESERVATIONS ===

Deposits:


Claimed:



SECURITY DEPOSITS

Deposits:
Claimed:


=== SALES BREAKDOWN ===

Transaction Date	Room No.	Cash	Card

2011-05-04 16:03:47 	301 		395 	0 	
2011-05-04 16:05:22 	203 		345 	0 	
2011-05-04 16:06:06 	307 		395 	0 	
2011-05-04 16:09:21 	315 		395 	0 	
2011-05-04 16:12:35 	210 		345 	0 	
2011-05-04 16:15:16 	307 		90 	0 	
2011-05-04 16:22:50 	206 		345 	0 	
2011-05-04 16:24:31 	205 		276 	0 	
2011-05-04 16:29:52 	401 		395 	0 	
2011-05-04 16:31:18 	402 		395 	0 	
2011-05-04 16:34:10 	303 		345 	0 	
2011-05-04 16:34:48 	316 		345 	0 	
2011-05-04 16:37:14 	403 		345 	0 	
2011-05-04 16:38:30 	414 		345 	0 	
2011-05-04 16:42:04 	214 		275 	0 	
2011-05-04 16:48:01 	416 		345 	0 	
2011-05-04 16:48:48 	418 		345 	0 	
2011-05-04 16:50:41 	420 		345 	0 	
2011-05-04 16:53:03 	204 		276 	0 	
2011-05-04 16:54:55 	314 		345 	0 	
2011-05-04 17:01:27 	221 		395 	0 	
2011-05-04 17:03:21 	218 		395 	0 	
2011-05-04 17:05:52 	208 		275 	0 	
2011-05-04 17:11:49 	209 		275 	0 	
2011-05-04 17:18:07 	219 		395 	0 	
2011-05-04 17:30:08 	302 		395 	0 	
2011-05-04 17:36:44 	308 		395 	0 	
2011-05-04 17:38:51 	317 		395 	0 	
2011-05-04 17:42:42 	312 		140 	0 	
2011-05-04 17:43:19 	412 		395 	0 	
2011-05-04 17:43:34 	318 		345 	0 	
2011-05-04 17:45:55 	322 		395 	0 	
2011-05-04 17:48:57 	310 		275 	0 	
2011-05-04 17:50:07 	313 		395 	0 	
2011-05-04 17:53:34 	313 		10 	0 	
2011-05-04 18:04:02 	220 		395 	0 	
2011-05-04 18:19:33 	307 		316 	0 	
2011-05-04 18:19:39 	309 		395 	0 	
2011-05-04 18:23:21 	309 		50 	0 	
2011-05-04 18:27:57 	315 		395 	0 	
2011-05-04 18:36:22 	312 		395 	0 	
2011-05-04 18:37:01 	311 		275 	0 	
2011-05-04 18:38:17 	308 		395 	0 	
2011-05-04 18:43:55 	321 		395 	0 	
2011-05-04 18:48:40 	401 		395 	0 	
2011-05-04 18:48:58 	407 		395 	0 	
2011-05-04 18:50:44 	422 		395 	0 	
2011-05-04 18:51:55 	324 		595 	0 	
2011-05-04 18:53:56 	413 		395 	0 	
2011-05-04 18:54:08 	207 		345 	0 	
2011-05-04 19:04:35 	421 		395 	0 	
2011-05-04 19:04:44 	415 		395 	0 	
2011-05-04 19:07:10 	212 		595 	0 	
2011-05-04 19:07:26 	220 		175 	0 	
2011-05-04 19:07:45 	212 		15 	0 	
2011-05-04 19:16:04 	221 		370 	0 	
2011-05-04 19:17:12 	419 		695 	0 	
2011-05-04 19:18:43 	410 		595 	0 	
2011-05-04 19:19:06 	406 		140 	0 	
2011-05-04 19:29:14 	404 		316 	0 	
2011-05-04 19:36:40 	419 		80 	0 	
2011-05-04 19:37:17 	417 		395 	0 	
2011-05-04 19:37:25 	423 		595 	0 	
2011-05-04 19:38:46 	409 		395 	0 	
2011-05-04 19:39:55 	218 		395 	0 	
2011-05-04 19:41:15 	410 		15 	0 	
2011-05-04 19:44:56 	210 		276 	0 	
2011-05-04 19:47:06 	403 		645 	0 	
2011-05-04 19:52:46 	301 		395 	0 	
2011-05-04 19:54:11 	211 		345 	0 	
2011-05-04 19:57:24 	203 		276 	0 	
2011-05-04 19:58:24 	206 		276 	0 	
2011-05-04 20:06:07 	205 		345 	0 	
2011-05-04 20:09:13 	304 		395 	0 	
2011-05-04 20:10:07 	306 		395 	0 	
2011-05-04 20:15:46 	323 		590 	0 	
2011-05-04 20:19:09 	208 		275 	0 	
2011-05-04 20:19:43 	422 		395 	0 	
2011-05-04 20:24:27 	406 		695 	0 	
2011-05-04 20:25:03 	322 		395 	0 	
2011-05-04 20:30:20 	416 		645 	0 	
2011-05-04 20:35:31 	402 		695 	0 	
2011-05-04 20:36:46 	418 		645 	0 	
2011-05-04 20:38:05 	420 		645 	0 	
2011-05-04 20:42:03 	215 		705 	0 	
2011-05-04 20:42:41 	302 		695 	0 	
2011-05-04 20:45:05 	412 		395 	0 	
2011-05-04 20:45:58 	201 		345 	0 	
2011-05-04 20:48:09 	321 		695 	0 	
2011-05-04 20:50:19 	414 		645 	0 	
2011-05-04 20:56:09 	320 		645 	0 	
2011-05-04 20:58:25 	319 		395 	0 	
2011-05-04 21:06:01 	315 		695 	0 	
2011-05-04 21:06:58 	204 		345 	0 	
2011-05-04 21:11:00 	318 		645 	0 	
2011-05-04 21:13:21 	402 		160 	0 	
2011-05-04 21:15:32 	220 		395 	0 	
2011-05-04 21:19:21 	313 		695 	0 	
2011-05-04 21:20:58 	309 		395 	0 	
2011-05-04 21:30:16 	307 		395 	0 	
2011-05-04 21:36:02 	303 		645 	0 	
2011-05-04 21:38:28 	416 		238 	0 	
2011-05-04 21:41:43 	214 		595 	0 	
2011-05-04 21:43:36 	312 		395 	0 	
2011-05-04 21:47:44 	321 		180 	0 	
2011-05-04 21:50:13 	317 		140 	0 	
2011-05-04 21:53:01 	219 		695 	0 	
2011-05-04 21:55:09 	314 		645 	0 	
2011-05-04 22:03:02 	308 		695 	0 	
2011-05-04 22:05:31 	421 		695 	0 	
2011-05-04 22:07:05 	404 		695 	0 	
2011-05-04 22:08:43 	401 		395 	0 	
2011-05-04 22:26:52 	304 		695 	0 	
2011-05-04 22:35:25 	316 		645 	0 	
2011-05-04 22:36:53 	417 		675 	0 	
2011-05-04 22:39:33 	403 		345 	0 	
2011-05-04 22:40:37 	407 		395 	0 	
2011-05-04 22:53:44 	213 		645 	0 	
2011-05-04 23:00:40 	415 		695 	0 	
2011-05-04 23:06:36 	203 		0 	645 	
2011-05-04 23:09:29 	319 		695 	0 	
2011-05-04 23:12:37 	213 		40 	0 	
2011-05-04 23:13:54 	206 		585 	0 	
2011-05-04 23:14:04 	409 		395 	0 	
2011-05-04 23:19:10 	422 		110 	0 	
2011-05-04 23:32:42 	218 		695 	0 	
2011-05-04 23:33:18 	302 		80 	0 	
2011-05-04 23:37:15 	216 		595 	0 	
2011-05-04 23:43:56 	306 		695 	0 	
2011-05-04 23:56:20 	317 		695 	0 	
 			Total:		53925 	645		

=== RECHIT LIST ===




V1