MSHOGUN 1: SHIFT END REPORT
Thursday December 30, 2010 4:00:02 PM

SALES TRANSACTION
Room Sales Order			31300
FnB Sales Order			1380
Beer Sales Order			125
Misc Sales Order			65
Room Sales Adjustment			0
GROSS SALES			32870

DISCOUNT
Room				0
FnB				0
Misc				0

DEPOSIT				12420
REFUND				

TOTAL ACCOUNTABILITY			45290

CASH DECLARATION			9028
CARD				695
FUNDS SAFEKEEP			20000
TOTAL CASH DECLARED			29723

TOTAL CASH ON SYSTEM			9029
OVER/SHORTAGES 			-1

ROOM	 # OF CHECK-OUT	AMT
Value 		13	5255
Regular 		19	8595
Classique 		34	17450
Premium 		0	0
Regent 		0	0
Queen 		0	0
Gemini 		0	0
Family 		0	0
Executive Suite 	0	0
Mega Suite 	0	0

DISCOUNT 
Value 			  
Regular 		  
Classique 		  
Premium 		  
Regent 			  
Queen 		  
Gemini 		  
Family 		  
Executive Suite 	  
Mega Suite 		  


=== RESERVATIONS ===

Deposits:


Claimed:



SECURITY DEPOSITS

Deposits:
Claimed:


=== SALES BREAKDOWN ===

Transaction Date	Room No.	Cash	Card

2010-12-30 08:04:33 	412 		420 	0 	
2010-12-30 08:06:20 	318 		585 	0 	
2010-12-30 08:12:37 	320 		465 	0 	
2010-12-30 08:32:27 	310 		275 	0 	
2010-12-30 08:37:42 	309 		395 	0 	
2010-12-30 08:46:46 	312 		395 	0 	
2010-12-30 09:00:27 	312 		175 	0 	
2010-12-30 09:01:31 	308 		395 	0 	
2010-12-30 09:18:06 	207 		345 	0 	
2010-12-30 10:04:54 	214 		200 	0 	
2010-12-30 10:06:38 	307 		395 	0 	
2010-12-30 10:08:09 	304 		395 	0 	
2010-12-30 10:16:40 	306 		395 	0 	
2010-12-30 10:30:31 	302 		395 	0 	
2010-12-30 10:31:50 	316 		345 	0 	
2010-12-30 10:32:37 	319 		395 	0 	
2010-12-30 10:46:36 	206 		276 	0 	
2010-12-30 10:50:47 	301 		395 	0 	
2010-12-30 10:56:58 	311 		275 	0 	
2010-12-30 10:57:27 	324 		200 	0 	
2010-12-30 11:14:05 	309 		395 	0 	
2010-12-30 11:16:06 	203 		345 	0 	
2010-12-30 11:18:59 	313 		395 	0 	
2010-12-30 11:27:47 	205 		465 	0 	
2010-12-30 11:28:51 	308 		395 	0 	
2010-12-30 11:38:03 	210 		345 	0 	
2010-12-30 11:48:12 	202 		345 	0 	
2010-12-30 11:52:11 	218 		395 	0 	
2010-12-30 12:00:44 	406 		50 	0 	
2010-12-30 12:01:37 	220 		395 	0 	
2010-12-30 12:06:47 	213 		345 	0 	
2010-12-30 12:12:50 	216 		275 	0 	
2010-12-30 12:14:11 	302 		335 	0 	
2010-12-30 12:14:55 	205 		175 	0 	
2010-12-30 12:15:10 	206 		160 	0 	
2010-12-30 12:15:23 	218 		80 	0 	
2010-12-30 12:23:24 	215 		345 	0 	
2010-12-30 12:28:23 	315 		395 	0 	
2010-12-30 12:30:15 	316 		345 	0 	
2010-12-30 12:42:53 	308 		135 	0 	
2010-12-30 12:44:23 	305 		275 	0 	
2010-12-30 12:56:53 	318 		465 	0 	
2010-12-30 13:04:15 	413 		395 	0 	
2010-12-30 13:15:48 	403 		276 	0 	
2010-12-30 13:16:30 	217 		275 	0 	
2010-12-30 13:21:59 	209 		275 	0 	
2010-12-30 13:35:28 	208 		275 	0 	
2010-12-30 13:53:48 	402 		316 	0 	
2010-12-30 13:59:26 	322 		395 	0 	
2010-12-30 13:59:58 	407 		395 	0 	
2010-12-30 14:00:04 	421 		395 	0 	
2010-12-30 14:08:06 	310 		275 	0 	
2010-12-30 14:09:17 	212 		275 	0 	
2010-12-30 14:10:45 	219 		395 	0 	
2010-12-30 14:11:55 	306 		395 	0 	
2010-12-30 14:13:23 	214 		275 	0 	
2010-12-30 14:17:36 	301 		395 	0 	
2010-12-30 14:27:36 	304 		395 	0 	
2010-12-30 14:35:16 	302 		395 	0 	
2010-12-30 14:35:29 	307 		395 	0 	
2010-12-30 14:38:19 	309 		395 	0 	
2010-12-30 14:38:43 	308 		395 	0 	
2010-12-30 14:41:13 	303 		345 	0 	
2010-12-30 14:46:34 	422 		395 	0 	
2010-12-30 14:48:34 	316 		345 	0 	
2010-12-30 14:48:57 	317 		395 	0 	
2010-12-30 14:54:14 	320 		465 	0 	
2010-12-30 14:54:24 	315 		395 	0 	
2010-12-30 14:56:49 	312 		395 	0 	
2010-12-30 15:05:16 	409 		316 	0 	
2010-12-30 15:05:57 	319 		395 	0 	
2010-12-30 15:07:34 	415 		395 	0 	
2010-12-30 15:11:29 	311 		275 	0 	
2010-12-30 15:14:23 	218 		395 	0 	
2010-12-30 15:16:12 	312 		80 	0 	
2010-12-30 15:26:46 	321 		395 	0 	
2010-12-30 15:28:32 	304 		395 	0 	
2010-12-30 15:28:46 	210 		345 	0 	
2010-12-30 15:30:33 	314 		345 	0 	
2010-12-30 15:33:36 	413 		65 	0 	
2010-12-30 15:38:48 	317 		60 	0 	
2010-12-30 15:38:59 	311 		175 	0 	
2010-12-30 15:43:19 	313 		395 	0 	
2010-12-30 15:49:54 	305 		275 	0 	
2010-12-30 15:53:17 	208 		275 	0 	
2010-12-30 15:56:02 	207 		345 	0 	
2010-12-30 15:56:56 	221 		395 	0 	
2010-12-30 15:57:23 	207 		20 	0 	
 			Total:		29029 	0		

=== RECHIT LIST ===




V1