MSHOGUN 1: SHIFT END REPORT
Tuesday August 31, 2010 8:00:05 AM

SALES TRANSACTION
Room Sales Order			24940
FnB Sales Order			1193
Beer Sales Order			240
Misc Sales Order			30
Room Sales Adjustment			0
GROSS SALES			26403

DISCOUNT
Room				0
FnB				0
Misc				0

DEPOSIT				3910
REFUND				

TOTAL ACCOUNTABILITY			30313

CASH DECLARATION			7934
CARD				0
FUNDS SAFEKEEP			0
TOTAL CASH DECLARED			7934

TOTAL CASH ON SYSTEM			7929
OVER/SHORTAGES 			5

ROOM	 # OF CHECK-OUT	AMT
Value 		8	4520
Regular 		4	2040
Classique 		24	15280
Premium 		0	0
Regent 		3	3100
Queen 		0	0
Gemini 		0	0
Family 		0	0
Executive Suite 	0	0
Mega Suite 	0	0

DISCOUNT 
Value 			  
Regular 		  
Classique 		  
Premium 		  
Regent 			  
Queen 		  
Gemini 		  
Family 		  
Executive Suite 	  
Mega Suite 		  


=== RESERVATIONS ===

Deposits:


Claimed:



SECURITY DEPOSITS

Deposits:
Claimed:


=== SALES BREAKDOWN ===

Transaction Date	Room No.	Cash	Card

2010-08-31 00:05:56 	215 		345 	0 	
2010-08-31 00:09:38 	214 		80 	0 	
2010-08-31 00:28:12 	409 		420 	0 	
2010-08-31 00:30:08 	307 		395 	0 	
2010-08-31 01:04:15 	210 		345 	0 	
2010-08-31 01:22:49 	303 		645 	0 	
2010-08-31 01:57:35 	214 		100 	0 	
2010-08-31 02:01:15 	310 		50 	0 	
2010-08-31 02:35:35 	412 		140 	0 	
2010-08-31 03:02:33 	314 		585 	0 	
2010-08-31 03:08:23 	316 		705 	0 	
2010-08-31 04:21:19 	507 		800 	0 	
2010-08-31 04:59:19 	305 		10 	0 	
2010-08-31 05:03:49 	510 		850 	0 	
2010-08-31 05:23:40 	314 		20 	0 	
2010-08-31 05:23:55 	313 		125 	0 	
2010-08-31 06:00:52 	405 		210 	0 	
2010-08-31 06:02:25 	207 		585 	0 	
2010-08-31 06:21:47 	304 		395 	0 	
2010-08-31 06:29:39 	207 		265 	0 	
2010-08-31 07:33:36 	306 		316 	0 	
2010-08-31 07:36:57 	324 		198 	0 	
2010-08-31 07:39:32 	318 		345 	0 	
 			Total:		7929 	0		

=== RECHIT LIST ===




V1