MSHOGUN 1: SHIFT END REPORT
Saturday January 29, 2011 8:03:05 AM

SALES TRANSACTION
Room Sales Order			29985
FnB Sales Order			1625
Beer Sales Order			210
Misc Sales Order			145
Room Sales Adjustment			0
GROSS SALES			31965

DISCOUNT
Room				0
FnB				0
Misc				0

DEPOSIT				6388
REFUND				

TOTAL ACCOUNTABILITY			38353

CASH DECLARATION			688
CARD				1400
FUNDS SAFEKEEP			20000
TOTAL CASH DECLARED			22088

TOTAL CASH ON SYSTEM			688
OVER/SHORTAGES 			0

ROOM	 # OF CHECK-OUT	AMT
Value 		12	5440
Regular 		20	9360
Classique 		27	15185
Premium 		0	0
Regent 		0	0
Queen 		0	0
Gemini 		0	0
Family 		0	0
Executive Suite 	0	0
Mega Suite 	0	0

DISCOUNT 
Value 			  
Regular 		  
Classique 		  
Premium 		  
Regent 			  
Queen 		  
Gemini 		  
Family 		  
Executive Suite 	  
Mega Suite 		  


=== RESERVATIONS ===

Deposits:


Claimed:



SECURITY DEPOSITS

Deposits:
Claimed:


=== SALES BREAKDOWN ===

Transaction Date	Room No.	Cash	Card

2011-01-29 00:05:49 	311 		290 	0 	
2011-01-29 00:05:50 	311 		15 	0 	
2011-01-29 00:06:10 	209 		10 	0 	
2011-01-29 00:06:34 	303 		465 	0 	
2011-01-29 00:10:35 	217 		275 	0 	
2011-01-29 00:11:52 	217 		45 	0 	
2011-01-29 00:12:04 	314 		345 	0 	
2011-01-29 00:18:46 	323 		478 	0 	
2011-01-29 00:18:56 	309 		65 	0 	
2011-01-29 00:24:28 	318 		645 	0 	
2011-01-29 00:25:19 	206 		205 	0 	
2011-01-29 00:28:23 	405 		100 	0 	
2011-01-29 00:36:48 	310 		375 	0 	
2011-01-29 00:36:54 	301 		695 	0 	
2011-01-29 00:43:10 	423 		475 	0 	
2011-01-29 00:46:10 	405 		375 	0 	
2011-01-29 00:47:43 	410 		575 	0 	
2011-01-29 00:55:11 	208 		575 	0 	
2011-01-29 00:58:48 	301 		280 	0 	
2011-01-29 01:06:17 	308 		395 	0 	
2011-01-29 01:10:23 	409 		395 	0 	
2011-01-29 01:12:14 	415 		700 	0 	
2011-01-29 01:23:05 	311 		110 	0 	
2011-01-29 01:28:37 	415 		395 	0 	
2011-01-29 01:30:37 	207 		200 	0 	
2011-01-29 01:34:12 	312 		815 	0 	
2011-01-29 01:36:55 	221 		535 	0 	
2011-01-29 01:45:39 	422 		695 	0 	
2011-01-29 01:49:56 	207 		345 	0 	
2011-01-29 02:06:38 	211 		345 	0 	
2011-01-29 02:07:58 	210 		465 	0 	
2011-01-29 02:21:44 	421 		395 	0 	
2011-01-29 02:27:38 	314 		345 	0 	
2011-01-29 02:28:55 	202 		705 	0 	
2011-01-29 02:32:35 	209 		275 	0 	
2011-01-29 02:37:56 	308 		695 	0 	
2011-01-29 02:43:16 	401 		395 	0 	
2011-01-29 02:49:02 	201 		345 	0 	
2011-01-29 03:00:28 	308 		185 	0 	
2011-01-29 03:00:29 	308 		85 	0 	
2011-01-29 03:13:56 	211 		345 	0 	
2011-01-29 03:14:08 	409 		395 	0 	
2011-01-29 04:19:23 	401 		210 	0 	
2011-01-29 04:28:32 	323 		50 	0 	
2011-01-29 04:28:35 	323 		10 	0 	
2011-01-29 04:52:48 	415 		395 	0 	
2011-01-29 04:53:06 	415 		20 	0 	
2011-01-29 05:10:38 	217 		200 	0 	
2011-01-29 05:32:25 	303 		345 	0 	
2011-01-29 06:04:14 	314 		705 	0 	
2011-01-29 06:18:37 	421 		140 	0 	
2011-01-29 06:31:13 	310 		200 	0 	
2011-01-29 06:58:25 	207 		345 	0 	
2011-01-29 07:12:05 	319 		30 	0 	
2011-01-29 07:17:05 	211 		345 	0 	
2011-01-29 07:35:44 	409 		395 	0 	
2011-01-29 07:37:09 	403 		25 	0 	
2011-01-29 07:38:12 	422 		260 	0 	
2011-01-29 07:55:34 	213 		945 	0 	
2011-01-29 07:57:45 	306 		220 	0 	
 			Total:		20688 	0		

=== RECHIT LIST ===




V1