MSHOGUN 1: SHIFT END REPORT
Thursday September 15, 2011 12:00:42 AM

SALES TRANSACTION
Room Sales Order			23465
FnB Sales Order			2480
Beer Sales Order			360
Misc Sales Order			60
Room Sales Adjustment			0
GROSS SALES			26365

DISCOUNT
Room				0
FnB				0
Misc				0

DEPOSIT				24140
REFUND				

TOTAL ACCOUNTABILITY			50505

CASH DECLARATION			4388
CARD				0
FUNDS SAFEKEEP			40000
TOTAL CASH DECLARED			44388

TOTAL CASH ON SYSTEM			4388
OVER/SHORTAGES 			0

ROOM	 # OF CHECK-OUT	AMT
Value 		14	4150
Regular 		11	4395
Classique 		36	14920
Premium 		0	0
Regent 		0	0
Queen 		0	0
Gemini 		0	0
Family 		0	0
Executive Suite 	0	0
Mega Suite 	0	0

DISCOUNT 
Value 			  
Regular 		  
Classique 		  
Premium 		  
Regent 			  
Queen 		  
Gemini 		  
Family 		  
Executive Suite 	  
Mega Suite 		  


=== RESERVATIONS ===

Deposits:


Claimed:



SECURITY DEPOSITS

Deposits:
Claimed:


=== SALES BREAKDOWN ===

Transaction Date	Room No.	Cash	Card

2011-09-14 16:10:22 	307 		395 	0 	
2011-09-14 16:10:55 	321 		395 	0 	
2011-09-14 16:15:25 	316 		345 	0 	
2011-09-14 16:16:24 	312 		140 	0 	
2011-09-14 16:25:15 	420 		340 	0 	
2011-09-14 16:25:22 	420 		120 	0 	
2011-09-14 16:29:31 	318 		345 	0 	
2011-09-14 16:41:20 	301 		395 	0 	
2011-09-14 16:43:10 	315 		395 	0 	
2011-09-14 16:51:42 	308 		395 	0 	
2011-09-14 17:00:49 	305 		275 	0 	
2011-09-14 17:03:28 	311 		275 	0 	
2011-09-14 17:07:16 	208 		275 	0 	
2011-09-14 17:19:39 	314 		345 	0 	
2011-09-14 17:26:03 	306 		395 	0 	
2011-09-14 17:28:46 	302 		395 	0 	
2011-09-14 17:28:57 	317 		395 	0 	
2011-09-14 17:35:25 	319 		395 	0 	
2011-09-14 17:35:35 	312 		395 	0 	
2011-09-14 17:38:11 	316 		220 	0 	
2011-09-14 17:39:40 	313 		395 	0 	
2011-09-14 17:44:20 	403 		345 	0 	
2011-09-14 17:45:54 	314 		10 	0 	
2011-09-14 17:51:10 	309 		395 	0 	
2011-09-14 17:54:45 	209 		275 	0 	
2011-09-14 18:05:07 	307 		395 	0 	
2011-09-14 18:05:13 	320 		345 	0 	
2011-09-14 18:11:20 	323 		275 	0 	
2011-09-14 18:13:48 	418 		345 	0 	
2011-09-14 18:14:41 	324 		275 	0 	
2011-09-14 18:35:49 	310 		275 	0 	
2011-09-14 18:39:51 	402 		695 	0 	
2011-09-14 18:39:58 	301 		395 	0 	
2011-09-14 18:42:04 	316 		276 	0 	
2011-09-14 18:49:49 	313 		395 	0 	
2011-09-14 18:56:13 	403 		150 	0 	
2011-09-14 18:57:44 	404 		695 	0 	
2011-09-14 19:01:42 	406 		695 	0 	
2011-09-14 19:06:53 	419 		280 	0 	
2011-09-14 19:09:36 	409 		395 	0 	
2011-09-14 19:10:12 	302 		695 	0 	
2011-09-14 19:12:22 	415 		395 	0 	
2011-09-14 19:14:03 	411 		595 	0 	
2011-09-14 19:14:33 	413 		395 	0 	
2011-09-14 19:16:32 	321 		395 	0 	
2011-09-14 19:19:30 	408 		316 	0 	
2011-09-14 19:22:00 	322 		395 	0 	
2011-09-14 19:24:59 	417 		695 	0 	
2011-09-14 19:26:17 	212 		595 	0 	
2011-09-14 19:31:15 	412 		395 	0 	
2011-09-14 19:34:08 	415 		25 	0 	
2011-09-14 19:36:34 	315 		55 	0 	
2011-09-14 19:38:13 	405 		595 	0 	
2011-09-14 19:40:20 	401 		395 	0 	
2011-09-14 19:43:37 	409 		290 	0 	
2011-09-14 19:51:48 	311 		275 	0 	
2011-09-14 20:00:10 	315 		395 	0 	
2011-09-14 20:01:32 	208 		275 	0 	
2011-09-14 20:01:40 	407 		535 	0 	
2011-09-14 20:02:12 	412 		50 	0 	
2011-09-14 20:08:25 	317 		395 	0 	
2011-09-14 20:11:45 	423 		595 	0 	
2011-09-14 20:11:52 	219 		395 	0 	
2011-09-14 20:21:11 	424 		595 	0 	
2011-09-14 20:24:06 	312 		395 	0 	
2011-09-14 20:29:53 	410 		595 	0 	
2011-09-14 20:37:35 	218 		695 	0 	
2011-09-14 20:39:51 	301 		395 	0 	
2011-09-14 20:40:06 	414 		645 	0 	
2011-09-14 20:43:30 	404 		195 	0 	
2011-09-14 20:43:37 	219 		200 	0 	
2011-09-14 20:45:42 	304 		695 	0 	
2011-09-14 20:50:37 	219 		60 	0 	
2011-09-14 20:53:23 	308 		695 	0 	
2011-09-14 20:53:56 	307 		395 	0 	
2011-09-14 20:54:13 	416 		645 	0 	
2011-09-14 20:54:19 	220 		695 	0 	
2011-09-14 20:54:34 	305 		275 	0 	
2011-09-14 20:54:42 	314 		276 	0 	
2011-09-14 21:08:43 	324 		10 	0 	
2011-09-14 21:16:53 	309 		395 	0 	
2011-09-14 21:17:11 	409 		695 	0 	
2011-09-14 21:18:18 	319 		695 	0 	
2011-09-14 21:21:18 	418 		645 	0 	
2011-09-14 21:31:41 	209 		275 	0 	
2011-09-14 21:38:09 	403 		645 	0 	
2011-09-14 21:46:43 	322 		395 	0 	
2011-09-14 22:03:53 	320 		645 	0 	
2011-09-14 22:04:00 	307 		695 	0 	
2011-09-14 22:06:53 	218 		100 	0 	
2011-09-14 22:07:04 	209 		50 	0 	
2011-09-14 22:07:11 	302 		120 	0 	
2011-09-14 22:07:20 	318 		645 	0 	
2011-09-14 22:14:32 	316 		645 	0 	
2011-09-14 22:14:59 	306 		395 	0 	
2011-09-14 22:21:48 	415 		695 	0 	
2011-09-14 22:22:38 	303 		645 	0 	
2011-09-14 22:31:52 	317 		10 	0 	
2011-09-14 22:31:54 	317 		10 	0 	
2011-09-14 22:32:46 	323 		595 	0 	
2011-09-14 22:33:05 	419 		695 	0 	
2011-09-14 22:43:55 	320 		420 	0 	
2011-09-14 22:44:04 	303 		50 	0 	
2011-09-14 22:44:13 	408 		695 	0 	
2011-09-14 22:58:21 	213 		465 	0 	
2011-09-14 23:03:40 	415 		25 	0 	
2011-09-14 23:07:13 	213 		25 	0 	
2011-09-14 23:10:56 	413 		305 	0 	
2011-09-14 23:13:01 	408 		25 	0 	
2011-09-14 23:18:49 	321 		695 	0 	
2011-09-14 23:44:06 	314 		345 	0 	
2011-09-14 23:46:22 	313 		395 	0 	
2011-09-14 23:49:37 	305 		165 	0 	
2011-09-14 23:55:10 	407 		545 	0 	
 			Total:		44388 	0		

=== RECHIT LIST ===




V1