MSHOGUN 1: SHIFT END REPORT
Monday February 21, 2011 4:00:02 PM

SALES TRANSACTION
Room Sales Order			23710
FnB Sales Order			1258
Beer Sales Order			90
Misc Sales Order			30
Room Sales Adjustment			0
GROSS SALES			25088

DISCOUNT
Room				0
FnB				0
Misc				0

DEPOSIT				8653
REFUND				

TOTAL ACCOUNTABILITY			33741

CASH DECLARATION			8868
CARD				0
FUNDS SAFEKEEP			10000
TOTAL CASH DECLARED			18868

TOTAL CASH ON SYSTEM			12158
OVER/SHORTAGES 			-3290

ROOM	 # OF CHECK-OUT	AMT
Value 		3	825
Regular 		12	6240
Classique 		35	16645
Premium 		0	0
Regent 		0	0
Queen 		0	0
Gemini 		0	0
Family 		0	0
Executive Suite 	0	0
Mega Suite 	0	0

DISCOUNT 
Value 			  
Regular 		  
Classique 		  
Premium 		  
Regent 			  
Queen 		  
Gemini 		  
Family 		  
Executive Suite 	  
Mega Suite 		  


=== RESERVATIONS ===

Deposits:


Claimed:



SECURITY DEPOSITS

Deposits:
Claimed:


=== SALES BREAKDOWN ===

Transaction Date	Room No.	Cash	Card

2011-02-21 08:17:46 	304 		395 	0 	
2011-02-21 08:23:56 	215 		25 	0 	
2011-02-21 08:28:33 	402 		110 	0 	
2011-02-21 08:30:49 	301 		395 	0 	
2011-02-21 08:38:52 	307 		210 	0 	
2011-02-21 09:03:06 	210 		120 	0 	
2011-02-21 09:13:43 	213 		585 	0 	
2011-02-21 09:29:49 	306 		395 	0 	
2011-02-21 09:30:46 	309 		316 	0 	
2011-02-21 09:38:29 	214 		275 	0 	
2011-02-21 10:10:05 	204 		240 	0 	
2011-02-21 10:14:15 	213 		90 	0 	
2011-02-21 10:26:07 	201 		345 	0 	
2011-02-21 10:27:49 	402 		395 	0 	
2011-02-21 10:54:21 	404 		395 	0 	
2011-02-21 11:06:33 	211 		250 	0 	
2011-02-21 11:24:33 	404 		25 	0 	
2011-02-21 11:28:39 	315 		395 	0 	
2011-02-21 11:34:30 	406 		395 	0 	
2011-02-21 11:50:10 	403 		345 	0 	
2011-02-21 12:01:13 	216 		275 	0 	
2011-02-21 12:04:09 	407 		395 	0 	
2011-02-21 12:04:26 	416 		345 	0 	
2011-02-21 12:08:02 	408 		395 	0 	
2011-02-21 12:13:18 	414 		705 	0 	
2011-02-21 12:16:36 	301 		395 	0 	
2011-02-21 12:24:03 	416 		170 	0 	
2011-02-21 12:26:40 	302 		395 	0 	
2011-02-21 12:28:37 	316 		345 	0 	
2011-02-21 12:34:29 	304 		395 	0 	
2011-02-21 12:37:17 	219 		395 	0 	
2011-02-21 12:43:41 	220 		395 	0 	
2011-02-21 13:01:44 	320 		585 	0 	
2011-02-21 13:06:13 	401 		395 	0 	
2011-02-21 13:06:26 	421 		395 	0 	
2011-02-21 13:06:40 	221 		395 	0 	
2011-02-21 13:07:16 	419 		395 	0 	
2011-02-21 13:13:04 	414 		200 	0 	
2011-02-21 13:24:42 	417 		395 	0 	
2011-02-21 13:27:10 	416 		160 	0 	
2011-02-21 13:28:27 	415 		395 	0 	
2011-02-21 13:29:09 	303 		345 	0 	
2011-02-21 13:42:28 	421 		198 	0 	
2011-02-21 13:43:31 	413 		395 	0 	
2011-02-21 13:57:18 	308 		395 	0 	
2011-02-21 13:57:30 	309 		395 	0 	
2011-02-21 14:10:43 	301 		395 	0 	
2011-02-21 14:17:23 	307 		395 	0 	
2011-02-21 14:18:08 	315 		95 	0 	
2011-02-21 14:27:07 	309 		205 	0 	
2011-02-21 14:40:49 	422 		395 	0 	
2011-02-21 15:06:14 	402 		0 	316 	
2011-02-21 15:07:45 	412 		395 	0 	
2011-02-21 15:07:57 	215 		345 	0 	
2011-02-21 15:08:18 	305 		275 	0 	
2011-02-21 15:09:21 	220 		535 	0 	
2011-02-21 15:09:33 	312 		395 	0 	
2011-02-21 15:17:59 	422 		418 	0 	
2011-02-21 15:20:09 	315 		395 	0 	
2011-02-21 15:21:24 	306 		420 	0 	
2011-02-21 15:23:02 	317 		535 	0 	
2011-02-21 15:30:12 	412 		20 	0 	
2011-02-21 15:30:16 	412 		140 	0 	
2011-02-21 15:31:44 	318 		345 	0 	
2011-02-21 15:37:09 	319 		395 	0 	
2011-02-21 15:48:14 	321 		316 	0 	
2011-02-21 15:55:14 	304 		395 	0 	
 			Total:		22158 	316		

=== RECHIT LIST ===




V1