MSHOGUN 1: SHIFT END REPORT
Saturday December 24, 2011 7:57:41 AM

SALES TRANSACTION
Room Sales Order			30615
FnB Sales Order			2500
Beer Sales Order			160
Misc Sales Order			120
Room Sales Adjustment			0
GROSS SALES			33395

DISCOUNT
Room				0
FnB				0
Misc				0

DEPOSIT				6798
REFUND				

TOTAL ACCOUNTABILITY			40193

CASH DECLARATION			8530
CARD				695
FUNDS SAFEKEEP			10000
TOTAL CASH DECLARED			19225

TOTAL CASH ON SYSTEM			8500
OVER/SHORTAGES 			30

ROOM	 # OF CHECK-OUT	AMT
Value 		15	7305
Regular 		24	11340
Classique 		22	11970
Premium 		0	0
Regent 		0	0
Queen 		0	0
Gemini 		0	0
Family 		0	0
Executive Suite 	0	0
Mega Suite 	0	0

DISCOUNT 
Value 			  
Regular 		  
Classique 		  
Premium 		  
Regent 			  
Queen 		  
Gemini 		  
Family 		  
Executive Suite 	  
Mega Suite 		  


=== RESERVATIONS ===

Deposits:


Claimed:



SECURITY DEPOSITS

Deposits:
Claimed:


=== SALES BREAKDOWN ===

Transaction Date	Room No.	Cash	Card

2011-12-24 00:22:14 	301 		395 	0 	
2011-12-24 00:23:02 	401 		395 	0 	
2011-12-24 00:29:22 	311 		775 	0 	
2011-12-24 00:38:12 	312 		395 	0 	
2011-12-24 00:39:37 	207 		345 	0 	
2011-12-24 00:40:57 	318 		705 	0 	
2011-12-24 00:41:50 	208 		275 	0 	
2011-12-24 00:51:26 	212 		320 	0 	
2011-12-24 00:52:16 	221 		320 	0 	
2011-12-24 01:03:41 	213 		705 	0 	
2011-12-24 01:06:04 	309 		395 	0 	
2011-12-24 01:10:39 	406 		395 	0 	
2011-12-24 01:26:13 	309 		210 	0 	
2011-12-24 01:31:45 	210 		345 	0 	
2011-12-24 01:38:41 	206 		345 	0 	
2011-12-24 01:50:00 	207 		345 	0 	
2011-12-24 01:51:27 	208 		275 	0 	
2011-12-24 01:58:22 	420 		345 	0 	
2011-12-24 02:34:42 	322 		395 	0 	
2011-12-24 02:37:28 	306 		220 	0 	
2011-12-24 02:58:44 	210 		345 	0 	
2011-12-24 03:09:57 	414 		345 	0 	
2011-12-24 03:15:54 	206 		15 	0 	
2011-12-24 03:21:20 	312 		395 	0 	
2011-12-24 03:25:28 	301 		395 	0 	
2011-12-24 03:31:41 	318 		210 	0 	
2011-12-24 03:43:42 	312 		50 	0 	
2011-12-24 03:46:38 	206 		345 	0 	
2011-12-24 03:50:31 	309 		316 	0 	
2011-12-24 04:02:09 	314 		585 	0 	
2011-12-24 04:25:23 	201 		345 	0 	
2011-12-24 04:43:19 	314 		198 	0 	
2011-12-24 04:46:06 	406 		675 	0 	
2011-12-24 04:53:14 	401 		140 	0 	
2011-12-24 05:05:05 	207 		345 	0 	
2011-12-24 05:06:51 	208 		275 	0 	
2011-12-24 05:07:53 	420 		345 	0 	
2011-12-24 05:10:09 	401 		395 	0 	
2011-12-24 05:14:12 	207 		45 	0 	
2011-12-24 05:14:49 	208 		35 	0 	
2011-12-24 05:15:16 	209 		275 	0 	
2011-12-24 05:19:50 	322 		395 	0 	
2011-12-24 05:22:24 	420 		125 	0 	
2011-12-24 05:38:28 	306 		395 	0 	
2011-12-24 06:01:57 	409 		395 	0 	
2011-12-24 06:05:34 	206 		345 	0 	
2011-12-24 06:11:19 	202 		345 	0 	
2011-12-24 06:57:59 	412 		395 	0 	
2011-12-24 07:06:50 	415 		140 	0 	
2011-12-24 07:10:13 	214 		130 	0 	
2011-12-24 07:14:36 	413 		60 	0 	
2011-12-24 07:19:20 	312 		395 	0 	
2011-12-24 07:27:17 	408 		736 	0 	
2011-12-24 07:28:38 	324 		275 	0 	
2011-12-24 07:49:38 	308 		395 	0 	
 			Total:		18500 	0		

=== RECHIT LIST ===




V1