MSHOGUN 1: SHIFT END REPORT
Friday March 25, 2011 8:00:01 AM

SALES TRANSACTION
Room Sales Order			14330
FnB Sales Order			450
Beer Sales Order			170
Misc Sales Order			55
Room Sales Adjustment			0
GROSS SALES			15005

DISCOUNT
Room				0
FnB				0
Misc				0

DEPOSIT				2385
REFUND				

TOTAL ACCOUNTABILITY			17390

CASH DECLARATION			7415
CARD				0
FUNDS SAFEKEEP			0
TOTAL CASH DECLARED			7415

TOTAL CASH ON SYSTEM			7415
OVER/SHORTAGES 			0

ROOM	 # OF CHECK-OUT	AMT
Value 		6	3210
Regular 		5	2625
Classique 		17	8495
Premium 		0	0
Regent 		0	0
Queen 		0	0
Gemini 		0	0
Family 		0	0
Executive Suite 	0	0
Mega Suite 	0	0

DISCOUNT 
Value 			  
Regular 		  
Classique 		  
Premium 		  
Regent 			  
Queen 		  
Gemini 		  
Family 		  
Executive Suite 	  
Mega Suite 		  


=== RESERVATIONS ===

Deposits:


Claimed:



SECURITY DEPOSITS

Deposits:
Claimed:


=== SALES BREAKDOWN ===

Transaction Date	Room No.	Cash	Card

2011-03-25 00:08:07 	309 		395 	0 	
2011-03-25 00:09:41 	412 		395 	0 	
2011-03-25 00:38:42 	401 		395 	0 	
2011-03-25 00:45:44 	409 		40 	0 	
2011-03-25 00:46:38 	306 		695 	0 	
2011-03-25 00:46:49 	213 		345 	0 	
2011-03-25 01:00:15 	401 		240 	0 	
2011-03-25 01:10:10 	301 		395 	0 	
2011-03-25 01:25:22 	322 		395 	0 	
2011-03-25 01:33:23 	322 		80 	0 	
2011-03-25 01:58:10 	312 		395 	0 	
2011-03-25 02:26:33 	422 		395 	0 	
2011-03-25 04:13:25 	409 		675 	0 	
2011-03-25 04:17:43 	218 		280 	0 	
2011-03-25 04:46:11 	321 		100 	0 	
2011-03-25 04:49:47 	219 		395 	0 	
2011-03-25 05:19:57 	406 		235 	0 	
2011-03-25 05:32:55 	213 		345 	0 	
2011-03-25 05:50:04 	306 		110 	0 	
2011-03-25 05:58:18 	215 		705 	0 	
2011-03-25 06:07:31 	407 		10 	0 	
2011-03-25 07:05:10 	304 		395 	0 	
 			Total:		7415 	0		

=== RECHIT LIST ===




V1