MSHOGUN 1: SHIFT END REPORT
Sunday February 12, 2012 8:00:07 AM

SALES TRANSACTION
Room Sales Order			37045
FnB Sales Order			2121
Beer Sales Order			800
Misc Sales Order			30
Room Sales Adjustment			0
GROSS SALES			39996

DISCOUNT
Room				0
FnB				0
Misc				0

DEPOSIT				5978
REFUND				

TOTAL ACCOUNTABILITY			45974

CASH DECLARATION			4944
CARD				695
FUNDS SAFEKEEP			10000
TOTAL CASH DECLARED			15639

TOTAL CASH ON SYSTEM			4844
OVER/SHORTAGES 			100

ROOM	 # OF CHECK-OUT	AMT
Value 		15	7785
Regular 		13	7965
Classique 		33	21295
Premium 		0	0
Regent 		0	0
Queen 		0	0
Gemini 		0	0
Family 		0	0
Executive Suite 	0	0
Mega Suite 	0	0

DISCOUNT 
Value 			  
Regular 		  
Classique 		  
Premium 		  
Regent 			  
Queen 		  
Gemini 		  
Family 		  
Executive Suite 	  
Mega Suite 		  


=== RESERVATIONS ===

Deposits:


Claimed:



SECURITY DEPOSITS

Deposits:
Claimed:


=== SALES BREAKDOWN ===

Transaction Date	Room No.	Cash	Card

2012-02-12 00:09:48 	216 		20 	0 	
2012-02-12 00:12:16 	412 		395 	0 	
2012-02-12 00:12:29 	204 		645 	0 	
2012-02-12 00:20:37 	410 		575 	0 	
2012-02-12 00:23:34 	304 		90 	0 	
2012-02-12 00:46:18 	216 		275 	0 	
2012-02-12 01:03:59 	309 		130 	0 	
2012-02-12 01:10:00 	309 		535 	0 	
2012-02-12 01:52:19 	209 		575 	0 	
2012-02-12 01:56:08 	412 		815 	0 	
2012-02-12 02:37:13 	207 		345 	0 	
2012-02-12 02:37:57 	401 		675 	0 	
2012-02-12 02:41:15 	312 		535 	0 	
2012-02-12 02:50:27 	316 		50 	0 	
2012-02-12 02:56:55 	301 		715 	0 	
2012-02-12 03:02:36 	401 		80 	0 	
2012-02-12 03:04:14 	301 		395 	0 	
2012-02-12 03:06:15 	406 		155 	0 	
2012-02-12 03:07:56 	420 		345 	0 	
2012-02-12 03:13:08 	311 		475 	0 	
2012-02-12 03:23:02 	310 		100 	0 	
2012-02-12 03:39:07 	414 		363 	0 	
2012-02-12 03:42:34 	406 		675 	0 	
2012-02-12 03:44:03 	316 		240 	0 	
2012-02-12 03:54:38 	316 		345 	0 	
2012-02-12 03:55:35 	210 		240 	0 	
2012-02-12 04:00:36 	310 		275 	0 	
2012-02-12 04:52:55 	216 		575 	0 	
2012-02-12 05:13:04 	306 		695 	0 	
2012-02-12 05:31:15 	303 		0 	1185 	
2012-02-12 05:31:28 	309 		395 	0 	
2012-02-12 05:31:41 	309 		25 	0 	
2012-02-12 05:37:27 	418 		345 	0 	
2012-02-12 06:05:57 	321 		75 	0 	
2012-02-12 06:08:59 	419 		395 	0 	
2012-02-12 06:15:13 	313 		395 	0 	
2012-02-12 06:47:48 	319 		535 	0 	
2012-02-12 06:54:14 	302 		55 	0 	
2012-02-12 06:54:52 	303 		65 	0 	
2012-02-12 06:58:02 	310 		275 	0 	
2012-02-12 07:00:43 	207 		345 	0 	
2012-02-12 07:05:56 	301 		140 	0 	
2012-02-12 07:11:12 	420 		120 	0 	
2012-02-12 07:24:35 	319 		45 	0 	
2012-02-12 07:25:33 	319 		25 	0 	
2012-02-12 07:51:21 	201 		276 	0 	
 			Total:		14844 	1185		

=== RECHIT LIST ===




V1