MSHOGUN 1: SHIFT END REPORT
Monday June 06, 2011 12:00:07 AM

SALES TRANSACTION
Room Sales Order			45595
FnB Sales Order			2020
Beer Sales Order			495
Misc Sales Order			40
Room Sales Adjustment			0
GROSS SALES			48150

DISCOUNT
Room				0
FnB				0
Misc				0

DEPOSIT				32335
REFUND				

TOTAL ACCOUNTABILITY			80485

CASH DECLARATION			9160
CARD				395
FUNDS SAFEKEEP			50000
TOTAL CASH DECLARED			59555

TOTAL CASH ON SYSTEM			9785
OVER/SHORTAGES 			-625

ROOM	 # OF CHECK-OUT	AMT
Value 		14	4750
Regular 		36	14700
Classique 		63	26145
Premium 		0	0
Regent 		0	0
Queen 		0	0
Gemini 		0	0
Family 		0	0
Executive Suite 	0	0
Mega Suite 	0	0

DISCOUNT 
Value 			  
Regular 		  
Classique 		  
Premium 		  
Regent 			  
Queen 		  
Gemini 		  
Family 		  
Executive Suite 	  
Mega Suite 		  


=== RESERVATIONS ===

Deposits:


Claimed:



SECURITY DEPOSITS

Deposits:
Claimed:


=== SALES BREAKDOWN ===

Transaction Date	Room No.	Cash	Card

2011-06-05 16:09:27 	409 		140 	0 	
2011-06-05 16:13:02 	204 		390 	0 	
2011-06-05 16:13:29 	218 		535 	0 	
2011-06-05 16:13:37 	219 		395 	0 	
2011-06-05 16:15:15 	413 		395 	0 	
2011-06-05 16:16:02 	422 		395 	0 	
2011-06-05 16:17:27 	202 		85 	0 	
2011-06-05 16:17:37 	208 		275 	0 	
2011-06-05 16:19:19 	417 		625 	0 	
2011-06-05 16:20:20 	210 		345 	0 	
2011-06-05 16:22:52 	203 		345 	0 	
2011-06-05 16:27:16 	220 		395 	0 	
2011-06-05 16:30:09 	409 		395 	0 	
2011-06-05 16:30:18 	408 		535 	0 	
2011-06-05 16:38:50 	409 		50 	0 	
2011-06-05 16:41:16 	310 		275 	0 	
2011-06-05 16:41:23 	315 		395 	0 	
2011-06-05 16:42:01 	321 		395 	0 	
2011-06-05 16:50:10 	407 		395 	0 	
2011-06-05 16:51:12 	402 		395 	0 	
2011-06-05 16:52:14 	412 		140 	0 	
2011-06-05 16:53:14 	309 		395 	0 	
2011-06-05 16:54:25 	312 		395 	0 	
2011-06-05 16:58:40 	417 		395 	0 	
2011-06-05 17:13:30 	202 		90 	0 	
2011-06-05 17:21:34 	419 		535 	0 	
2011-06-05 17:28:26 	401 		395 	0 	
2011-06-05 17:31:53 	307 		135 	0 	
2011-06-05 17:39:25 	421 		395 	0 	
2011-06-05 17:42:19 	308 		395 	0 	
2011-06-05 17:45:40 	319 		395 	0 	
2011-06-05 17:47:18 	313 		280 	0 	
2011-06-05 17:48:10 	412 		395 	0 	
2011-06-05 17:50:06 	406 		395 	0 	
2011-06-05 17:54:24 	404 		395 	0 	
2011-06-05 17:54:35 	415 		395 	0 	
2011-06-05 17:55:17 	423 		100 	0 	
2011-06-05 17:55:45 	413 		395 	0 	
2011-06-05 18:06:11 	309 		150 	0 	
2011-06-05 18:10:50 	207 		345 	0 	
2011-06-05 18:11:33 	206 		345 	0 	
2011-06-05 18:17:27 	301 		395 	0 	
2011-06-05 18:18:32 	212 		275 	0 	
2011-06-05 18:19:18 	312 		395 	0 	
2011-06-05 18:21:20 	408 		205 	0 	
2011-06-05 18:25:41 	307 		395 	0 	
2011-06-05 18:26:45 	313 		395 	0 	
2011-06-05 18:44:26 	317 		395 	0 	
2011-06-05 18:46:21 	416 		645 	0 	
2011-06-05 18:48:44 	420 		645 	0 	
2011-06-05 18:49:41 	205 		345 	0 	
2011-06-05 18:56:29 	403 		645 	0 	
2011-06-05 18:58:14 	213 		345 	0 	
2011-06-05 19:09:11 	202 		120 	0 	
2011-06-05 19:13:20 	303 		705 	0 	
2011-06-05 19:15:32 	406 		695 	0 	
2011-06-05 19:18:43 	422 		395 	0 	
2011-06-05 19:26:06 	304 		695 	0 	
2011-06-05 19:29:58 	208 		275 	0 	
2011-06-05 19:33:37 	306 		695 	0 	
2011-06-05 19:45:04 	210 		345 	0 	
2011-06-05 19:48:32 	423 		595 	0 	
2011-06-05 20:00:14 	423 		10 	0 	
2011-06-05 20:05:41 	321 		395 	0 	
2011-06-05 20:05:50 	319 		395 	0 	
2011-06-05 20:06:00 	215 		345 	0 	
2011-06-05 20:08:49 	320 		345 	0 	
2011-06-05 20:09:45 	309 		395 	0 	
2011-06-05 20:12:03 	308 		395 	0 	
2011-06-05 20:12:10 	315 		695 	0 	
2011-06-05 20:13:18 	418 		645 	0 	
2011-06-05 20:20:06 	314 		345 	0 	
2011-06-05 20:20:17 	209 		275 	0 	
2011-06-05 20:20:25 	318 		345 	0 	
2011-06-05 20:25:20 	424 		595 	0 	
2011-06-05 20:27:07 	414 		645 	0 	
2011-06-05 20:29:30 	321 		160 	0 	
2011-06-05 20:37:20 	219 		395 	0 	
2011-06-05 20:38:54 	218 		695 	0 	
2011-06-05 20:39:40 	204 		345 	0 	
2011-06-05 20:41:45 	323 		595 	0 	
2011-06-05 20:43:00 	220 		695 	0 	
2011-06-05 20:44:36 	211 		345 	0 	
2011-06-05 20:48:21 	402 		695 	0 	
2011-06-05 20:53:36 	202 		345 	0 	
2011-06-05 20:53:46 	312 		395 	0 	
2011-06-05 20:54:24 	307 		695 	0 	
2011-06-05 20:56:31 	216 		595 	0 	
2011-06-05 20:56:43 	205 		345 	0 	
2011-06-05 21:00:20 	414 		80 	0 	
2011-06-05 21:00:33 	420 		315 	0 	
2011-06-05 21:01:42 	203 		345 	0 	
2011-06-05 21:05:25 	405 		275 	0 	
2011-06-05 21:07:29 	316 		645 	0 	
2011-06-05 21:16:02 	217 		595 	0 	
2011-06-05 21:17:38 	317 		695 	0 	
2011-06-05 21:17:54 	407 		695 	0 	
2011-06-05 21:18:35 	319 		695 	0 	
2011-06-05 21:21:31 	214 		595 	0 	
2011-06-05 21:29:23 	301 		395 	0 	
2011-06-05 21:32:58 	302 		695 	0 	
2011-06-05 21:34:31 	313 		695 	0 	
2011-06-05 21:39:46 	404 		695 	0 	
2011-06-05 21:46:53 	409 		395 	0 	
2011-06-05 21:47:47 	322 		395 	0 	
2011-06-05 21:51:50 	421 		695 	0 	
2011-06-05 21:53:34 	422 		395 	0 	
2011-06-05 21:58:50 	408 		695 	0 	
2011-06-05 21:58:57 	413 		695 	0 	
2011-06-05 22:00:31 	219 		645 	0 	
2011-06-05 22:08:04 	421 		10 	0 	
2011-06-05 22:08:59 	401 		395 	0 	
2011-06-05 22:12:26 	415 		695 	0 	
2011-06-05 22:15:57 	419 		695 	0 	
2011-06-05 22:18:57 	412 		815 	0 	
2011-06-05 22:27:36 	417 		695 	0 	
2011-06-05 22:28:48 	203 		345 	0 	
2011-06-05 22:33:12 	314 		645 	0 	
2011-06-05 22:34:02 	204 		345 	0 	
2011-06-05 22:45:43 	213 		645 	0 	
2011-06-05 22:48:48 	402 		50 	0 	
2011-06-05 22:48:58 	415 		10 	0 	
2011-06-05 22:49:11 	408 		50 	0 	
2011-06-05 22:55:34 	206 		645 	0 	
2011-06-05 22:56:40 	419 		390 	0 	
2011-06-05 22:57:14 	210 		345 	0 	
2011-06-05 23:10:39 	308 		695 	0 	
2011-06-05 23:13:03 	221 		815 	0 	
2011-06-05 23:13:36 	207 		240 	0 	
2011-06-05 23:14:21 	408 		140 	0 	
2011-06-05 23:14:31 	221 		50 	0 	
2011-06-05 23:17:22 	321 		395 	0 	
2011-06-05 23:22:17 	320 		645 	0 	
2011-06-05 23:23:13 	318 		345 	0 	
2011-06-05 23:36:02 	320 		110 	0 	
2011-06-05 23:36:10 	308 		245 	0 	
2011-06-05 23:39:33 	219 		50 	0 	
2011-06-05 23:40:43 	312 		395 	0 	
2011-06-05 23:49:00 	314 		280 	0 	
2011-06-05 23:51:57 	215 		345 	0 	
2011-06-05 23:54:56 	305 		595 	0 	
2011-06-05 23:56:34 	324 		595 	0 	
 			Total:		59785 	0		

=== RECHIT LIST ===




V1