MSHOGUN 1: SHIFT END REPORT
Thursday November 04, 2010 12:00:55 AM

SALES TRANSACTION
Room Sales Order			35185
FnB Sales Order			1963
Beer Sales Order			250
Misc Sales Order			125
Room Sales Adjustment			0
GROSS SALES			37523

DISCOUNT
Room				0
FnB				0
Misc				0

DEPOSIT				16475
REFUND				

TOTAL ACCOUNTABILITY			53998

CASH DECLARATION			12336
CARD				0
FUNDS SAFEKEEP			30000
TOTAL CASH DECLARED			42336

TOTAL CASH ON SYSTEM			12336
OVER/SHORTAGES 			0

ROOM	 # OF CHECK-OUT	AMT
Value 		15	4125
Regular 		33	12585
Classique 		45	18475
Premium 		0	0
Regent 		0	0
Queen 		0	0
Gemini 		0	0
Family 		0	0
Executive Suite 	0	0
Mega Suite 	0	0

DISCOUNT 
Value 			  
Regular 		  
Classique 		  
Premium 		  
Regent 			  
Queen 		  
Gemini 		  
Family 		  
Executive Suite 	  
Mega Suite 		  


=== RESERVATIONS ===

Deposits:


Claimed:



SECURITY DEPOSITS

Deposits:
Claimed:


=== SALES BREAKDOWN ===

Transaction Date	Room No.	Cash	Card

2010-11-03 16:23:47 	218 		395 	0 	
2010-11-03 16:30:49 	208 		275 	0 	
2010-11-03 16:34:38 	220 		395 	0 	
2010-11-03 16:37:01 	306 		395 	0 	
2010-11-03 16:38:38 	213 		276 	0 	
2010-11-03 16:39:38 	215 		345 	0 	
2010-11-03 16:40:38 	203 		345 	0 	
2010-11-03 16:44:08 	209 		275 	0 	
2010-11-03 16:44:17 	221 		395 	0 	
2010-11-03 16:50:48 	304 		395 	0 	
2010-11-03 16:52:28 	419 		175 	0 	
2010-11-03 16:55:07 	211 		345 	0 	
2010-11-03 16:59:32 	207 		345 	0 	
2010-11-03 17:04:30 	314 		345 	0 	
2010-11-03 17:05:49 	304 		30 	0 	
2010-11-03 17:11:08 	308 		395 	0 	
2010-11-03 17:11:34 	214 		275 	0 	
2010-11-03 17:14:12 	302 		395 	0 	
2010-11-03 17:14:36 	317 		395 	0 	
2010-11-03 17:15:05 	310 		275 	0 	
2010-11-03 17:29:49 	216 		275 	0 	
2010-11-03 17:30:59 	312 		395 	0 	
2010-11-03 17:35:00 	313 		395 	0 	
2010-11-03 17:35:12 	311 		275 	0 	
2010-11-03 17:36:19 	203 		310 	0 	
2010-11-03 17:40:34 	207 		65 	0 	
2010-11-03 17:47:10 	305 		275 	0 	
2010-11-03 17:47:23 	323 		275 	0 	
2010-11-03 17:48:30 	321 		395 	0 	
2010-11-03 18:00:37 	210 		15 	0 	
2010-11-03 18:02:07 	204 		705 	0 	
2010-11-03 18:05:31 	201 		345 	0 	
2010-11-03 18:05:47 	424 		595 	0 	
2010-11-03 18:09:45 	309 		395 	0 	
2010-11-03 18:12:04 	202 		345 	0 	
2010-11-03 18:12:18 	205 		345 	0 	
2010-11-03 18:19:45 	206 		345 	0 	
2010-11-03 18:20:47 	306 		395 	0 	
2010-11-03 18:23:23 	402 		695 	0 	
2010-11-03 18:27:49 	219 		140 	0 	
2010-11-03 18:29:53 	307 		316 	0 	
2010-11-03 18:32:49 	216 		275 	0 	
2010-11-03 18:35:06 	318 		645 	0 	
2010-11-03 18:35:49 	210 		276 	0 	
2010-11-03 18:39:50 	204 		120 	0 	
2010-11-03 18:41:14 	202 		110 	0 	
2010-11-03 18:41:35 	306 		15 	0 	
2010-11-03 18:43:21 	220 		308 	0 	
2010-11-03 18:46:33 	316 		645 	0 	
2010-11-03 18:46:48 	404 		395 	0 	
2010-11-03 18:47:15 	406 		695 	0 	
2010-11-03 18:48:50 	322 		395 	0 	
2010-11-03 18:54:36 	214 		275 	0 	
2010-11-03 18:54:54 	401 		395 	0 	
2010-11-03 19:01:32 	412 		395 	0 	
2010-11-03 19:01:44 	218 		395 	0 	
2010-11-03 19:01:53 	219 		395 	0 	
2010-11-03 19:03:06 	208 		275 	0 	
2010-11-03 19:04:19 	403 		345 	0 	
2010-11-03 19:06:07 	408 		395 	0 	
2010-11-03 19:16:54 	213 		345 	0 	
2010-11-03 19:19:55 	211 		345 	0 	
2010-11-03 19:21:49 	417 		395 	0 	
2010-11-03 19:25:33 	311 		275 	0 	
2010-11-03 19:26:14 	313 		395 	0 	
2010-11-03 19:26:47 	322 		345 	0 	
2010-11-03 19:27:27 	208 		190 	0 	
2010-11-03 19:40:40 	422 		395 	0 	
2010-11-03 19:43:13 	409 		395 	0 	
2010-11-03 19:44:47 	409 		50 	0 	
2010-11-03 19:48:11 	314 		645 	0 	
2010-11-03 19:49:45 	310 		275 	0 	
2010-11-03 19:51:59 	410 		275 	0 	
2010-11-03 19:53:46 	410 		20 	0 	
2010-11-03 20:06:01 	215 		345 	0 	
2010-11-03 20:08:58 	315 		395 	0 	
2010-11-03 20:14:13 	319 		395 	0 	
2010-11-03 20:19:14 	405 		595 	0 	
2010-11-03 20:21:17 	320 		345 	0 	
2010-11-03 20:23:42 	407 		395 	0 	
2010-11-03 20:31:58 	421 		395 	0 	
2010-11-03 20:38:32 	413 		695 	0 	
2010-11-03 20:38:45 	324 		595 	0 	
2010-11-03 20:39:01 	415 		695 	0 	
2010-11-03 20:40:41 	303 		345 	0 	
2010-11-03 20:44:54 	416 		645 	0 	
2010-11-03 20:45:50 	418 		645 	0 	
2010-11-03 20:47:19 	303 		90 	0 	
2010-11-03 20:48:11 	420 		645 	0 	
2010-11-03 20:56:31 	414 		345 	0 	
2010-11-03 20:57:11 	414 		20 	0 	
2010-11-03 20:59:53 	206 		345 	0 	
2010-11-03 21:01:06 	419 		695 	0 	
2010-11-03 21:04:14 	301 		395 	0 	
2010-11-03 21:04:31 	408 		695 	0 	
2010-11-03 21:08:20 	404 		695 	0 	
2010-11-03 21:13:03 	419 		115 	0 	
2010-11-03 21:14:01 	308 		695 	0 	
2010-11-03 21:36:08 	421 		15 	0 	
2010-11-03 21:38:09 	412 		395 	0 	
2010-11-03 21:40:19 	312 		395 	0 	
2010-11-03 21:44:04 	309 		395 	0 	
2010-11-03 21:53:21 	417 		80 	0 	
2010-11-03 21:55:17 	403 		345 	0 	
2010-11-03 22:02:26 	302 		695 	0 	
2010-11-03 22:08:05 	404 		50 	0 	
2010-11-03 22:12:53 	304 		695 	0 	
2010-11-03 22:21:00 	302 		30 	0 	
2010-11-03 22:21:48 	314 		250 	0 	
2010-11-03 22:30:05 	214 		275 	0 	
2010-11-03 23:07:13 	313 		140 	0 	
2010-11-03 23:17:29 	221 		695 	0 	
2010-11-03 23:28:37 	417 		140 	0 	
2010-11-03 23:29:51 	313 		695 	0 	
2010-11-03 23:30:03 	220 		695 	0 	
2010-11-03 23:36:00 	208 		275 	0 	
 			Total:		42336 	0		

=== RECHIT LIST ===




V1