MSHOGUN 1: SHIFT END REPORT
Wednesday November 10, 2010 4:02:08 PM

SALES TRANSACTION
Room Sales Order			23985
FnB Sales Order			2020
Beer Sales Order			45
Misc Sales Order			20
Room Sales Adjustment			0
GROSS SALES			26070

DISCOUNT
Room				0
FnB				0
Misc				0

DEPOSIT				8910
REFUND				

TOTAL ACCOUNTABILITY			34980

CASH DECLARATION			1405
CARD				825
FUNDS SAFEKEEP			20000
TOTAL CASH DECLARED			22230

TOTAL CASH ON SYSTEM			1405
OVER/SHORTAGES 			0

ROOM	 # OF CHECK-OUT	AMT
Value 		9	3855
Regular 		17	8505
Classique 		23	11625
Premium 		0	0
Regent 		0	0
Queen 		0	0
Gemini 		0	0
Family 		0	0
Executive Suite 	0	0
Mega Suite 	0	0

DISCOUNT 
Value 			  
Regular 		  
Classique 		  
Premium 		  
Regent 			  
Queen 		  
Gemini 		  
Family 		  
Executive Suite 	  
Mega Suite 		  


=== RESERVATIONS ===

Deposits:


Claimed:



SECURITY DEPOSITS

Deposits:
Claimed:


=== SALES BREAKDOWN ===

Transaction Date	Room No.	Cash	Card

2010-11-10 08:05:00 	419 		460 	0 	
2010-11-10 08:05:03 	419 		30 	0 	
2010-11-10 08:25:04 	207 		0 	240 	
2010-11-10 08:43:43 	211 		150 	0 	
2010-11-10 08:44:09 	315 		395 	0 	
2010-11-10 09:03:42 	314 		345 	0 	
2010-11-10 09:51:11 	324 		275 	0 	
2010-11-10 09:52:49 	212 		100 	0 	
2010-11-10 09:54:54 	301 		395 	0 	
2010-11-10 09:55:32 	214 		275 	0 	
2010-11-10 10:15:03 	416 		276 	0 	
2010-11-10 10:18:08 	322 		395 	0 	
2010-11-10 10:28:43 	303 		276 	0 	
2010-11-10 10:36:55 	218 		395 	0 	
2010-11-10 10:53:06 	403 		345 	0 	
2010-11-10 11:07:04 	408 		140 	0 	
2010-11-10 11:16:06 	203 		345 	0 	
2010-11-10 11:22:58 	219 		395 	0 	
2010-11-10 11:26:18 	310 		275 	0 	
2010-11-10 11:28:30 	218 		95 	0 	
2010-11-10 11:31:51 	220 		395 	0 	
2010-11-10 11:36:33 	215 		240 	0 	
2010-11-10 11:50:18 	219 		200 	0 	
2010-11-10 12:00:48 	212 		275 	0 	
2010-11-10 12:10:05 	210 		465 	0 	
2010-11-10 12:12:41 	306 		395 	0 	
2010-11-10 12:25:55 	304 		395 	0 	
2010-11-10 12:38:54 	302 		395 	0 	
2010-11-10 12:39:03 	221 		395 	0 	
2010-11-10 12:43:57 	404 		395 	0 	
2010-11-10 12:44:32 	315 		815 	0 	
2010-11-10 13:06:20 	307 		395 	0 	
2010-11-10 13:11:52 	313 		395 	0 	
2010-11-10 13:26:57 	314 		345 	0 	
2010-11-10 13:46:50 	216 		275 	0 	
2010-11-10 13:47:37 	412 		395 	0 	
2010-11-10 14:00:23 	322 		395 	0 	
2010-11-10 14:04:37 	414 		345 	0 	
2010-11-10 14:05:50 	213 		345 	0 	
2010-11-10 14:12:07 	408 		395 	0 	
2010-11-10 14:30:11 	316 		345 	0 	
2010-11-10 14:34:23 	423 		275 	0 	
2010-11-10 14:36:23 	320 		345 	0 	
2010-11-10 14:38:59 	407 		395 	0 	
2010-11-10 14:47:22 	406 		395 	0 	
2010-11-10 14:53:44 	407 		90 	0 	
2010-11-10 14:55:54 	417 		395 	0 	
2010-11-10 14:57:04 	421 		395 	0 	
2010-11-10 15:04:33 	403 		345 	0 	
2010-11-10 15:06:04 	215 		345 	0 	
2010-11-10 15:08:09 	309 		395 	0 	
2010-11-10 15:15:14 	323 		275 	0 	
2010-11-10 15:17:38 	324 		275 	0 	
2010-11-10 15:28:09 	312 		316 	0 	
2010-11-10 15:29:24 	214 		275 	0 	
2010-11-10 15:30:57 	402 		395 	0 	
2010-11-10 15:33:32 	409 		316 	0 	
2010-11-10 15:35:55 	405 		275 	0 	
2010-11-10 15:40:00 	420 		705 	0 	
2010-11-10 15:41:17 	418 		345 	0 	
2010-11-10 15:42:20 	415 		395 	0 	
2010-11-10 15:45:42 	304 		395 	0 	
2010-11-10 15:59:14 	409 		100 	0 	
2010-11-10 15:59:20 	415 		90 	0 	
 			Total:		20889 	240		

=== RECHIT LIST ===




V1