MSHOGUN 1: SHIFT END REPORT
Sunday May 15, 2011 4:00:02 PM

SALES TRANSACTION
Room Sales Order			45450
FnB Sales Order			5358
Beer Sales Order			770
Misc Sales Order			95
Room Sales Adjustment			0
GROSS SALES			51673

DISCOUNT
Room				0
FnB				0
Misc				0

DEPOSIT				16335
REFUND				

TOTAL ACCOUNTABILITY			68008

CASH DECLARATION			1059
CARD				0
FUNDS SAFEKEEP			40000
TOTAL CASH DECLARED			41059

TOTAL CASH ON SYSTEM			1114
OVER/SHORTAGES 			-55

ROOM	 # OF CHECK-OUT	AMT
Value 		20	10100
Regular 		26	12090
Classique 		44	23260
Premium 		0	0
Regent 		0	0
Queen 		0	0
Gemini 		0	0
Family 		0	0
Executive Suite 	0	0
Mega Suite 	0	0

DISCOUNT 
Value 			  
Regular 		  
Classique 		  
Premium 		  
Regent 			  
Queen 		  
Gemini 		  
Family 		  
Executive Suite 	  
Mega Suite 		  


=== RESERVATIONS ===

Deposits:


Claimed:



SECURITY DEPOSITS

Deposits:
Claimed:


=== SALES BREAKDOWN ===

Transaction Date	Room No.	Cash	Card

2011-05-15 08:32:57 	305 		140 	0 	
2011-05-15 08:39:37 	215 		120 	0 	
2011-05-15 08:41:50 	410 		220 	0 	
2011-05-15 08:46:00 	221 		375 	0 	
2011-05-15 08:52:32 	321 		140 	0 	
2011-05-15 08:53:52 	219 		395 	0 	
2011-05-15 08:54:42 	309 		675 	0 	
2011-05-15 09:06:49 	208 		400 	0 	
2011-05-15 09:09:14 	301 		395 	0 	
2011-05-15 09:10:52 	203 		345 	0 	
2011-05-15 09:12:55 	314 		25 	0 	
2011-05-15 09:14:06 	405 		210 	0 	
2011-05-15 09:25:30 	312 		395 	0 	
2011-05-15 09:36:11 	402 		210 	0 	
2011-05-15 09:38:28 	307 		395 	0 	
2011-05-15 09:46:05 	319 		316 	0 	
2011-05-15 09:46:37 	310 		275 	0 	
2011-05-15 09:46:37 	310 		20 	0 	
2011-05-15 09:46:43 	310 		-20 	0 	
2011-05-15 09:54:06 	321 		395 	0 	
2011-05-15 09:56:08 	406 		395 	0 	
2011-05-15 09:57:12 	210 		345 	0 	
2011-05-15 09:59:51 	206 		25 	0 	
2011-05-15 10:03:44 	202 		345 	0 	
2011-05-15 10:04:01 	204 		345 	0 	
2011-05-15 10:04:16 	314 		345 	0 	
2011-05-15 10:12:52 	214 		275 	0 	
2011-05-15 10:18:13 	213 		345 	0 	
2011-05-15 10:28:06 	303 		345 	0 	
2011-05-15 10:35:02 	316 		345 	0 	
2011-05-15 10:39:13 	318 		345 	0 	
2011-05-15 10:43:52 	403 		345 	0 	
2011-05-15 10:44:42 	409 		395 	0 	
2011-05-15 10:51:35 	412 		395 	0 	
2011-05-15 11:03:57 	418 		345 	0 	
2011-05-15 11:22:58 	420 		438 	0 	
2011-05-15 11:32:47 	205 		120 	0 	
2011-05-15 11:35:26 	320 		400 	0 	
2011-05-15 11:37:35 	217 		275 	0 	
2011-05-15 11:40:09 	421 		395 	0 	
2011-05-15 11:42:35 	422 		395 	0 	
2011-05-15 11:54:04 	421 		50 	0 	
2011-05-15 11:54:11 	409 		50 	0 	
2011-05-15 11:57:12 	304 		395 	0 	
2011-05-15 12:01:04 	414 		585 	0 	
2011-05-15 12:02:01 	408 		395 	0 	
2011-05-15 12:04:04 	308 		235 	0 	
2011-05-15 12:07:40 	218 		280 	0 	
2011-05-15 12:15:29 	408 		180 	0 	
2011-05-15 12:18:37 	302 		535 	0 	
2011-05-15 12:22:07 	306 		395 	0 	
2011-05-15 12:23:43 	215 		345 	0 	
2011-05-15 12:27:03 	323 		300 	0 	
2011-05-15 12:28:37 	324 		210 	0 	
2011-05-15 12:33:45 	416 		345 	0 	
2011-05-15 12:38:34 	407 		395 	0 	
2011-05-15 12:45:07 	404 		395 	0 	
2011-05-15 12:50:19 	324 		300 	0 	
2011-05-15 12:53:00 	217 		250 	0 	
2011-05-15 12:56:29 	310 		275 	0 	
2011-05-15 12:58:26 	317 		395 	0 	
2011-05-15 13:03:15 	311 		275 	0 	
2011-05-15 13:05:21 	205 		705 	0 	
2011-05-15 13:06:08 	414 		210 	0 	
2011-05-15 13:06:30 	419 		395 	0 	
2011-05-15 13:08:11 	417 		395 	0 	
2011-05-15 13:10:06 	415 		395 	0 	
2011-05-15 13:13:21 	312 		140 	0 	
2011-05-15 13:16:58 	402 		395 	0 	
2011-05-15 13:19:26 	210 		345 	0 	
2011-05-15 13:22:22 	206 		585 	0 	
2011-05-15 13:26:45 	202 		465 	0 	
2011-05-15 13:29:32 	321 		395 	0 	
2011-05-15 13:37:58 	307 		535 	0 	
2011-05-15 13:41:14 	213 		345 	0 	
2011-05-15 13:42:20 	208 		275 	0 	
2011-05-15 13:44:14 	312 		395 	0 	
2011-05-15 13:49:44 	409 		395 	0 	
2011-05-15 13:51:30 	412 		395 	0 	
2011-05-15 13:53:16 	209 		275 	0 	
2011-05-15 13:57:23 	301 		395 	0 	
2011-05-15 14:03:48 	204 		120 	0 	
2011-05-15 14:04:40 	206 		65 	0 	
2011-05-15 14:08:38 	406 		395 	0 	
2011-05-15 14:09:56 	314 		345 	0 	
2011-05-15 14:11:59 	303 		585 	0 	
2011-05-15 14:12:30 	309 		395 	0 	
2011-05-15 14:15:03 	316 		585 	0 	
2011-05-15 14:15:17 	319 		140 	0 	
2011-05-15 14:21:11 	421 		55 	0 	
2011-05-15 14:23:55 	301 		50 	0 	
2011-05-15 14:27:02 	214 		275 	0 	
2011-05-15 14:29:58 	218 		395 	0 	
2011-05-15 14:30:09 	221 		395 	0 	
2011-05-15 14:33:15 	204 		585 	0 	
2011-05-15 14:33:44 	320 		345 	0 	
2011-05-15 14:36:57 	418 		705 	0 	
2011-05-15 14:40:07 	318 		345 	0 	
2011-05-15 14:42:07 	220 		395 	0 	
2011-05-15 14:50:10 	217 		275 	0 	
2011-05-15 14:52:07 	319 		395 	0 	
2011-05-15 15:01:15 	203 		705 	0 	
2011-05-15 15:01:27 	208 		250 	0 	
2011-05-15 15:05:29 	212 		275 	0 	
2011-05-15 15:07:50 	216 		275 	0 	
2011-05-15 15:09:32 	308 		395 	0 	
2011-05-15 15:10:42 	215 		345 	0 	
2011-05-15 15:16:21 	313 		395 	0 	
2011-05-15 15:17:27 	408 		395 	0 	
2011-05-15 15:18:36 	407 		395 	0 	
2011-05-15 15:20:47 	421 		395 	0 	
2011-05-15 15:28:00 	413 		395 	0 	
2011-05-15 15:30:23 	403 		345 	0 	
2011-05-15 15:33:18 	306 		395 	0 	
2011-05-15 15:33:41 	304 		395 	0 	
2011-05-15 15:36:30 	317 		395 	0 	
2011-05-15 15:38:00 	416 		345 	0 	
2011-05-15 15:39:54 	323 		275 	0 	
2011-05-15 15:46:38 	402 		395 	0 	
2011-05-15 15:46:45 	409 		395 	0 	
2011-05-15 15:52:27 	420 		705 	0 	
 			Total:		41114 	0		

=== RECHIT LIST ===




V1