MSHOGUN 1: SHIFT END REPORT
Wednesday April 06, 2011 4:00:37 PM

SALES TRANSACTION
Room Sales Order			22585
FnB Sales Order			1535
Beer Sales Order			0
Misc Sales Order			55
Room Sales Adjustment			0
GROSS SALES			24175

DISCOUNT
Room				0
FnB				0
Misc				0

DEPOSIT				9020
REFUND				

TOTAL ACCOUNTABILITY			33195

CASH DECLARATION			21
CARD				695
FUNDS SAFEKEEP			20000
TOTAL CASH DECLARED			20716

TOTAL CASH ON SYSTEM			21
OVER/SHORTAGES 			0

ROOM	 # OF CHECK-OUT	AMT
Value 		8	4220
Regular 		9	4005
Classique 		28	14360
Premium 		0	0
Regent 		0	0
Queen 		0	0
Gemini 		0	0
Family 		0	0
Executive Suite 	0	0
Mega Suite 	0	0

DISCOUNT 
Value 			  
Regular 		  
Classique 		  
Premium 		  
Regent 			  
Queen 		  
Gemini 		  
Family 		  
Executive Suite 	  
Mega Suite 		  


=== RESERVATIONS ===

Deposits:


Claimed:



SECURITY DEPOSITS

Deposits:
Claimed:


=== SALES BREAKDOWN ===

Transaction Date	Room No.	Cash	Card

2011-04-06 08:37:13 	314 		345 	0 	
2011-04-06 08:41:41 	301 		395 	0 	
2011-04-06 08:44:40 	212 		210 	0 	
2011-04-06 08:45:40 	416 		125 	0 	
2011-04-06 09:52:30 	407 		395 	0 	
2011-04-06 10:04:25 	413 		235 	0 	
2011-04-06 10:30:06 	406 		395 	0 	
2011-04-06 10:35:25 	420 		275 	0 	
2011-04-06 10:37:40 	316 		585 	0 	
2011-04-06 10:40:16 	307 		395 	0 	
2011-04-06 10:46:58 	408 		65 	0 	
2011-04-06 11:15:35 	314 		225 	0 	
2011-04-06 11:19:33 	303 		345 	0 	
2011-04-06 11:35:08 	304 		35 	0 	
2011-04-06 11:43:16 	323 		100 	0 	
2011-04-06 11:46:17 	319 		395 	0 	
2011-04-06 11:47:51 	404 		395 	0 	
2011-04-06 12:06:12 	318 		705 	0 	
2011-04-06 12:13:17 	208 		275 	0 	
2011-04-06 12:25:50 	321 		395 	0 	
2011-04-06 12:33:07 	401 		395 	0 	
2011-04-06 12:38:16 	315 		395 	0 	
2011-04-06 12:45:22 	314 		120 	0 	
2011-04-06 12:48:52 	416 		705 	0 	
2011-04-06 12:52:29 	211 		345 	0 	
2011-04-06 12:52:38 	308 		395 	0 	
2011-04-06 13:10:40 	415 		395 	0 	
2011-04-06 13:10:49 	417 		395 	0 	
2011-04-06 13:15:05 	409 		395 	0 	
2011-04-06 13:19:53 	419 		395 	0 	
2011-04-06 13:26:26 	402 		395 	0 	
2011-04-06 13:34:15 	309 		395 	0 	
2011-04-06 13:44:45 	407 		395 	0 	
2011-04-06 13:50:28 	219 		395 	0 	
2011-04-06 13:55:18 	218 		395 	0 	
2011-04-06 13:55:38 	311 		275 	0 	
2011-04-06 14:15:21 	216 		275 	0 	
2011-04-06 14:18:14 	314 		345 	0 	
2011-04-06 14:35:10 	304 		395 	0 	
2011-04-06 14:35:53 	419 		170 	0 	
2011-04-06 14:35:56 	419 		110 	0 	
2011-04-06 14:36:17 	220 		395 	0 	
2011-04-06 14:39:20 	215 		276 	0 	
2011-04-06 14:44:19 	302 		395 	0 	
2011-04-06 14:44:37 	301 		395 	0 	
2011-04-06 14:48:04 	221 		395 	0 	
2011-04-06 14:49:39 	312 		395 	0 	
2011-04-06 14:58:08 	312 		180 	0 	
2011-04-06 14:59:33 	319 		395 	0 	
2011-04-06 15:02:21 	403 		345 	0 	
2011-04-06 15:02:35 	206 		345 	0 	
2011-04-06 15:08:24 	306 		395 	0 	
2011-04-06 15:22:28 	205 		345 	0 	
2011-04-06 15:29:16 	418 		465 	0 	
2011-04-06 15:30:21 	321 		395 	0 	
2011-04-06 15:31:19 	313 		395 	0 	
2011-04-06 15:42:12 	307 		395 	0 	
2011-04-06 15:56:14 	303 		345 	0 	
 			Total:		20021 	0		

=== RECHIT LIST ===




V1