MSHOGUN 1: SHIFT END REPORT
Wednesday November 09, 2011 3:54:07 PM

SALES TRANSACTION
Room Sales Order			28795
FnB Sales Order			1935
Beer Sales Order			405
Misc Sales Order			30
Room Sales Adjustment			-140
GROSS SALES			31025

DISCOUNT
Room				0
FnB				0
Misc				0

DEPOSIT				11375
REFUND				

TOTAL ACCOUNTABILITY			42400

CASH DECLARATION			5848
CARD				0
FUNDS SAFEKEEP			20000
TOTAL CASH DECLARED			25848

TOTAL CASH ON SYSTEM			5838
OVER/SHORTAGES 			10

ROOM	 # OF CHECK-OUT	AMT
Value 		5	2815
Regular 		15	7995
Classique 		35	17985
Premium 		0	0
Regent 		0	0
Queen 		0	0
Gemini 		0	0
Family 		0	0
Executive Suite 	0	0
Mega Suite 	0	0

DISCOUNT 
Value 			  
Regular 		  
Classique 		  
Premium 		  
Regent 			  
Queen 		  
Gemini 		  
Family 		  
Executive Suite 	  
Mega Suite 		  


=== RESERVATIONS ===

Deposits:


Claimed:



SECURITY DEPOSITS

Deposits:
Claimed:


=== SALES BREAKDOWN ===

Transaction Date	Room No.	Cash	Card

2011-11-09 08:04:29 	420 		25 	0 	
2011-11-09 08:06:02 	316 		50 	0 	
2011-11-09 08:23:42 	322 		395 	0 	
2011-11-09 08:40:55 	212 		275 	0 	
2011-11-09 08:41:50 	204 		345 	0 	
2011-11-09 08:51:45 	301 		395 	0 	
2011-11-09 09:08:58 	202 		345 	0 	
2011-11-09 09:20:42 	408 		40 	0 	
2011-11-09 09:25:18 	306 		395 	0 	
2011-11-09 09:25:26 	307 		395 	0 	
2011-11-09 09:56:10 	204 		25 	0 	
2011-11-09 10:18:03 	307 		80 	0 	
2011-11-09 10:20:12 	309 		395 	0 	
2011-11-09 10:27:50 	308 		140 	0 	
2011-11-09 10:30:07 	308 		-140 	0 	
2011-11-09 10:38:49 	313 		395 	0 	
2011-11-09 10:47:38 	321 		395 	0 	
2011-11-09 11:13:20 	303 		345 	0 	
2011-11-09 11:24:13 	315 		395 	0 	
2011-11-09 11:29:43 	301 		675 	0 	
2011-11-09 11:37:44 	314 		360 	0 	
2011-11-09 11:48:39 	211 		345 	0 	
2011-11-09 11:50:11 	312 		395 	0 	
2011-11-09 11:55:08 	322 		140 	0 	
2011-11-09 11:56:43 	219 		395 	0 	
2011-11-09 11:57:17 	220 		395 	0 	
2011-11-09 11:57:26 	310 		275 	0 	
2011-11-09 12:09:54 	221 		395 	0 	
2011-11-09 12:10:50 	308 		395 	0 	
2011-11-09 12:16:13 	405 		150 	0 	
2011-11-09 12:20:11 	214 		475 	0 	
2011-11-09 12:24:14 	306 		400 	0 	
2011-11-09 12:36:01 	215 		345 	0 	
2011-11-09 12:44:21 	304 		395 	0 	
2011-11-09 12:49:31 	309 		395 	0 	
2011-11-09 12:54:17 	324 		275 	0 	
2011-11-09 13:01:13 	213 		705 	0 	
2011-11-09 13:21:53 	320 		465 	0 	
2011-11-09 13:22:00 	302 		395 	0 	
2011-11-09 13:27:24 	205 		276 	0 	
2011-11-09 13:28:19 	206 		345 	0 	
2011-11-09 13:31:26 	322 		316 	0 	
2011-11-09 13:35:23 	315 		395 	0 	
2011-11-09 13:43:48 	315 		190 	0 	
2011-11-09 13:44:11 	321 		395 	0 	
2011-11-09 13:47:47 	217 		275 	0 	
2011-11-09 13:48:22 	317 		395 	0 	
2011-11-09 13:49:11 	406 		395 	0 	
2011-11-09 13:49:38 	404 		395 	0 	
2011-11-09 13:55:45 	404 		50 	0 	
2011-11-09 13:59:39 	319 		395 	0 	
2011-11-09 14:06:39 	307 		170 	0 	
2011-11-09 14:10:23 	402 		395 	0 	
2011-11-09 14:14:43 	409 		395 	0 	
2011-11-09 14:15:06 	412 		395 	0 	
2011-11-09 14:20:04 	415 		395 	0 	
2011-11-09 14:23:15 	413 		395 	0 	
2011-11-09 14:23:35 	318 		636 	0 	
2011-11-09 14:29:21 	212 		275 	0 	
2011-11-09 14:35:10 	313 		395 	0 	
2011-11-09 14:41:48 	322 		65 	0 	
2011-11-09 14:43:47 	408 		395 	0 	
2011-11-09 14:53:21 	312 		395 	0 	
2011-11-09 14:53:29 	407 		395 	0 	
2011-11-09 15:01:38 	419 		395 	0 	
2011-11-09 15:01:48 	421 		395 	0 	
2011-11-09 15:01:55 	314 		345 	0 	
2011-11-09 15:09:38 	418 		585 	0 	
2011-11-09 15:12:05 	422 		395 	0 	
2011-11-09 15:13:32 	307 		85 	0 	
2011-11-09 15:16:01 	410 		275 	0 	
2011-11-09 15:16:18 	405 		200 	0 	
2011-11-09 15:17:31 	411 		575 	0 	
2011-11-09 15:20:50 	417 		395 	0 	
2011-11-09 15:22:34 	302 		395 	0 	
2011-11-09 15:24:55 	219 		395 	0 	
2011-11-09 15:30:43 	411 		15 	0 	
2011-11-09 15:31:27 	220 		395 	0 	
2011-11-09 15:46:07 	220 		10 	0 	
 			Total:		25838 	0		

=== RECHIT LIST ===




V1