MSHOGUN 1: SHIFT END REPORT
Sunday February 26, 2012 7:59:47 AM

SALES TRANSACTION
Room Sales Order			35025
FnB Sales Order			1765
Beer Sales Order			310
Misc Sales Order			110
Room Sales Adjustment			0
GROSS SALES			37210

DISCOUNT
Room				0
FnB				0
Misc				0

DEPOSIT				4710
REFUND				

TOTAL ACCOUNTABILITY			41920

CASH DECLARATION			4866
CARD				395
FUNDS SAFEKEEP			10000
TOTAL CASH DECLARED			15261

TOTAL CASH ON SYSTEM			4866
OVER/SHORTAGES 			0

ROOM	 # OF CHECK-OUT	AMT
Value 		17	9615
Regular 		13	7245
Classique 		31	18165
Premium 		0	0
Regent 		0	0
Queen 		0	0
Gemini 		0	0
Family 		0	0
Executive Suite 	0	0
Mega Suite 	0	0

DISCOUNT 
Value 			  
Regular 		  
Classique 		  
Premium 		  
Regent 			  
Queen 		  
Gemini 		  
Family 		  
Executive Suite 	  
Mega Suite 		  


=== RESERVATIONS ===

Deposits:


Claimed:



SECURITY DEPOSITS

Deposits:
Claimed:


=== SALES BREAKDOWN ===

Transaction Date	Room No.	Cash	Card

2012-02-26 00:17:11 	404 		410 	0 	
2012-02-26 00:19:37 	411 		200 	0 	
2012-02-26 00:20:33 	301 		0 	395 	
2012-02-26 00:21:03 	204 		90 	0 	
2012-02-26 00:22:24 	208 		575 	0 	
2012-02-26 00:23:21 	404 		395 	0 	
2012-02-26 00:31:16 	409 		50 	0 	
2012-02-26 00:39:11 	209 		275 	0 	
2012-02-26 01:00:00 	411 		575 	0 	
2012-02-26 01:41:02 	309 		215 	0 	
2012-02-26 02:00:52 	312 		695 	0 	
2012-02-26 02:05:45 	309 		395 	0 	
2012-02-26 02:14:20 	421 		675 	0 	
2012-02-26 02:19:19 	201 		345 	0 	
2012-02-26 02:19:41 	201 		25 	0 	
2012-02-26 02:28:09 	301 		395 	0 	
2012-02-26 02:35:08 	409 		535 	0 	
2012-02-26 03:03:03 	310 		875 	0 	
2012-02-26 03:11:33 	404 		395 	0 	
2012-02-26 03:37:42 	309 		675 	0 	
2012-02-26 03:53:28 	210 		276 	0 	
2012-02-26 04:11:02 	202 		345 	0 	
2012-02-26 04:29:58 	301 		395 	0 	
2012-02-26 04:45:49 	209 		100 	0 	
2012-02-26 05:13:48 	402 		955 	0 	
2012-02-26 05:25:46 	209 		875 	0 	
2012-02-26 05:31:58 	209 		50 	0 	
2012-02-26 05:56:25 	216 		400 	0 	
2012-02-26 06:00:41 	424 		875 	0 	
2012-02-26 06:02:33 	402 		280 	0 	
2012-02-26 06:19:28 	404 		395 	0 	
2012-02-26 06:39:01 	208 		275 	0 	
2012-02-26 06:42:53 	411 		50 	0 	
2012-02-26 06:46:38 	207 		345 	0 	
2012-02-26 06:56:53 	205 		345 	0 	
2012-02-26 06:57:30 	218 		150 	0 	
2012-02-26 06:58:55 	421 		50 	0 	
2012-02-26 07:00:27 	408 		10 	0 	
2012-02-26 07:05:08 	201 		345 	0 	
2012-02-26 07:07:46 	407 		30 	0 	
2012-02-26 07:24:35 	323 		275 	0 	
2012-02-26 07:37:11 	211 		250 	0 	
 			Total:		14866 	395		

=== RECHIT LIST ===




V1