MSHOGUN 1: SHIFT END REPORT
Wednesday August 25, 2010 8:00:05 AM

SALES TRANSACTION
Room Sales Order			23960
FnB Sales Order			850
Beer Sales Order			130
Misc Sales Order			255
Room Sales Adjustment			0
GROSS SALES			25195

DISCOUNT
Room				0
FnB				0
Misc				0

DEPOSIT				9548
REFUND				

TOTAL ACCOUNTABILITY			34743

CASH DECLARATION			4828
CARD				0
FUNDS SAFEKEEP			10000
TOTAL CASH DECLARED			14828

TOTAL CASH ON SYSTEM			4848
OVER/SHORTAGES 			-20

ROOM	 # OF CHECK-OUT	AMT
Value 		8	3580
Regular 		9	4365
Classique 		11	5965
Premium 		2	1500
Regent 		5	5600
Queen 		2	2950
Gemini 		0	0
Family 		0	0
Executive Suite 	0	0
Mega Suite 	0	0

DISCOUNT 
Value 			  
Regular 		  
Classique 		  
Premium 		  
Regent 			  
Queen 		  
Gemini 		  
Family 		  
Executive Suite 	  
Mega Suite 		  


=== RESERVATIONS ===

Deposits:


Claimed:



SECURITY DEPOSITS

Deposits:
Claimed:


=== SALES BREAKDOWN ===

Transaction Date	Room No.	Cash	Card

2010-08-25 00:06:04 	303 		345 	0 	
2010-08-25 00:13:25 	414 		20 	0 	
2010-08-25 00:26:33 	513 		800 	0 	
2010-08-25 00:34:39 	314 		0 	645 	
2010-08-25 00:37:36 	320 		345 	0 	
2010-08-25 00:38:15 	510 		110 	0 	
2010-08-25 01:04:10 	308 		675 	0 	
2010-08-25 01:47:06 	316 		465 	0 	
2010-08-25 02:44:50 	516 		800 	0 	
2010-08-25 02:49:43 	304 		395 	0 	
2010-08-25 03:07:14 	411 		100 	0 	
2010-08-25 03:34:25 	306 		395 	0 	
2010-08-25 03:46:35 	313 		395 	0 	
2010-08-25 03:46:44 	519 		800 	0 	
2010-08-25 03:47:42 	418 		145 	0 	
2010-08-25 03:58:59 	307 		395 	0 	
2010-08-25 04:28:09 	318 		345 	0 	
2010-08-25 04:28:16 	309 		395 	0 	
2010-08-25 04:41:04 	601 		440 	0 	
2010-08-25 04:47:17 	520 		800 	0 	
2010-08-25 05:12:27 	609 		1700 	0 	
2010-08-25 05:20:56 	315 		395 	0 	
2010-08-25 05:30:49 	608 		40 	0 	
2010-08-25 05:38:30 	316 		60 	0 	
2010-08-25 05:43:46 	506 		800 	0 	
2010-08-25 06:04:50 	410 		50 	0 	
2010-08-25 06:05:25 	317 		395 	0 	
2010-08-25 06:18:41 	505 		800 	0 	
2010-08-25 06:40:43 	321 		395 	0 	
2010-08-25 06:41:22 	319 		395 	0 	
2010-08-25 07:08:54 	322 		395 	0 	
2010-08-25 07:11:37 	319 		250 	0 	
2010-08-25 07:31:01 	306 		140 	0 	
2010-08-25 07:32:26 	317 		198 	0 	
2010-08-25 07:42:48 	402 		395 	0 	
2010-08-25 07:54:58 	311 		275 	0 	
 			Total:		14848 	645		

=== RECHIT LIST ===




V1