MSHOGUN 1: SHIFT END REPORT
Monday December 12, 2011 7:59:20 AM

SALES TRANSACTION
Room Sales Order			32730
FnB Sales Order			1270
Beer Sales Order			350
Misc Sales Order			25
Room Sales Adjustment			0
GROSS SALES			34375

DISCOUNT
Room				0
FnB				0
Misc				0

DEPOSIT				4595
REFUND				

TOTAL ACCOUNTABILITY			38970

CASH DECLARATION			5028
CARD				0
FUNDS SAFEKEEP			10000
TOTAL CASH DECLARED			15028

TOTAL CASH ON SYSTEM			5028
OVER/SHORTAGES 			0

ROOM	 # OF CHECK-OUT	AMT
Value 		12	6760
Regular 		16	8760
Classique 		30	17210
Premium 		0	0
Regent 		0	0
Queen 		0	0
Gemini 		0	0
Family 		0	0
Executive Suite 	0	0
Mega Suite 	0	0

DISCOUNT 
Value 			  
Regular 		  
Classique 		  
Premium 		  
Regent 			  
Queen 		  
Gemini 		  
Family 		  
Executive Suite 	  
Mega Suite 		  


=== RESERVATIONS ===

Deposits:


Claimed:



SECURITY DEPOSITS

Deposits:
Claimed:


=== SALES BREAKDOWN ===

Transaction Date	Room No.	Cash	Card

2011-12-12 00:05:13 	406 		90 	0 	
2011-12-12 00:10:56 	214 		90 	0 	
2011-12-12 00:11:28 	401 		316 	0 	
2011-12-12 00:11:45 	309 		395 	0 	
2011-12-12 00:11:56 	320 		645 	0 	
2011-12-12 00:12:21 	412 		695 	0 	
2011-12-12 00:14:50 	401 		25 	0 	
2011-12-12 00:18:32 	210 		345 	0 	
2011-12-12 00:19:18 	220 		695 	0 	
2011-12-12 00:39:40 	201 		276 	0 	
2011-12-12 00:40:23 	311 		575 	0 	
2011-12-12 01:05:08 	310 		575 	0 	
2011-12-12 01:12:16 	417 		100 	0 	
2011-12-12 01:12:55 	321 		285 	0 	
2011-12-12 01:27:59 	221 		140 	0 	
2011-12-12 01:41:53 	308 		695 	0 	
2011-12-12 01:44:07 	409 		395 	0 	
2011-12-12 01:50:51 	209 		575 	0 	
2011-12-12 02:20:59 	209 		50 	0 	
2011-12-12 02:50:11 	309 		320 	0 	
2011-12-12 02:58:39 	207 		345 	0 	
2011-12-12 03:02:35 	221 		316 	0 	
2011-12-12 03:03:28 	218 		695 	0 	
2011-12-12 03:12:01 	301 		395 	0 	
2011-12-12 03:16:20 	401 		675 	0 	
2011-12-12 03:30:55 	309 		395 	0 	
2011-12-12 04:01:37 	202 		945 	0 	
2011-12-12 04:17:03 	418 		200 	0 	
2011-12-12 04:22:52 	409 		395 	0 	
2011-12-12 04:31:04 	210 		345 	0 	
2011-12-12 04:55:43 	204 		705 	0 	
2011-12-12 05:08:45 	322 		395 	0 	
2011-12-12 05:40:36 	418 		945 	0 	
2011-12-12 06:01:56 	411 		275 	0 	
2011-12-12 06:04:20 	204 		25 	0 	
2011-12-12 07:06:05 	208 		275 	0 	
2011-12-12 07:20:42 	417 		140 	0 	
2011-12-12 07:46:37 	301 		280 	0 	
 			Total:		15028 	0		

=== RECHIT LIST ===




V1