MSHOGUN 1: SHIFT END REPORT
Tuesday March 06, 2012 12:00:19 AM

SALES TRANSACTION
Room Sales Order			37880
FnB Sales Order			2100
Beer Sales Order			0
Misc Sales Order			190
Room Sales Adjustment			0
GROSS SALES			40170

DISCOUNT
Room				0
FnB				0
Misc				0

DEPOSIT				23175
REFUND				

TOTAL ACCOUNTABILITY			63345

CASH DECLARATION			6751
CARD				140
FUNDS SAFEKEEP			40000
TOTAL CASH DECLARED			46891

TOTAL CASH ON SYSTEM			6496
OVER/SHORTAGES 			255

ROOM	 # OF CHECK-OUT	AMT
Value 		12	3720
Regular 		27	11475
Classique 		51	22685
Premium 		0	0
Regent 		0	0
Queen 		0	0
Gemini 		0	0
Family 		0	0
Executive Suite 	0	0
Mega Suite 	0	0

DISCOUNT 
Value 			  
Regular 		  
Classique 		  
Premium 		  
Regent 			  
Queen 		  
Gemini 		  
Family 		  
Executive Suite 	  
Mega Suite 		  


=== RESERVATIONS ===

Deposits:


Claimed:



SECURITY DEPOSITS

Deposits:
Claimed:


=== SALES BREAKDOWN ===

Transaction Date	Room No.	Cash	Card

2012-03-05 16:01:05 	302 		140 	0 	
2012-03-05 16:05:04 	413 		140 	0 	
2012-03-05 16:17:21 	421 		0 	140 	
2012-03-05 16:17:51 	407 		395 	0 	
2012-03-05 16:18:00 	203 		345 	0 	
2012-03-05 16:18:08 	307 		395 	0 	
2012-03-05 16:23:18 	409 		395 	0 	
2012-03-05 16:23:25 	308 		395 	0 	
2012-03-05 16:30:11 	319 		395 	0 	
2012-03-05 16:34:21 	211 		345 	0 	
2012-03-05 16:42:12 	208 		275 	0 	
2012-03-05 16:43:24 	207 		120 	0 	
2012-03-05 16:50:36 	317 		395 	0 	
2012-03-05 16:50:43 	401 		395 	0 	
2012-03-05 16:51:50 	320 		120 	0 	
2012-03-05 16:56:47 	210 		345 	0 	
2012-03-05 16:56:57 	301 		395 	0 	
2012-03-05 17:02:56 	302 		395 	0 	
2012-03-05 17:03:05 	304 		395 	0 	
2012-03-05 17:09:07 	412 		395 	0 	
2012-03-05 17:25:50 	302 		100 	0 	
2012-03-05 17:28:00 	416 		345 	0 	
2012-03-05 17:28:09 	215 		345 	0 	
2012-03-05 17:43:07 	422 		395 	0 	
2012-03-05 17:43:13 	313 		395 	0 	
2012-03-05 17:43:28 	209 		275 	0 	
2012-03-05 17:43:36 	320 		345 	0 	
2012-03-05 17:51:35 	311 		275 	0 	
2012-03-05 17:53:59 	313 		45 	0 	
2012-03-05 17:59:15 	204 		345 	0 	
2012-03-05 18:03:42 	409 		395 	0 	
2012-03-05 18:04:00 	419 		695 	0 	
2012-03-05 18:04:09 	413 		695 	0 	
2012-03-05 18:05:59 	402 		395 	0 	
2012-03-05 18:06:13 	415 		695 	0 	
2012-03-05 18:17:41 	321 		395 	0 	
2012-03-05 18:17:54 	221 		395 	0 	
2012-03-05 18:23:55 	404 		695 	0 	
2012-03-05 18:30:07 	220 		395 	0 	
2012-03-05 18:45:36 	305 		595 	0 	
2012-03-05 18:45:44 	304 		695 	0 	
2012-03-05 18:51:10 	420 		345 	0 	
2012-03-05 18:51:18 	208 		275 	0 	
2012-03-05 18:56:07 	312 		395 	0 	
2012-03-05 18:59:22 	306 		695 	0 	
2012-03-05 19:00:05 	412 		395 	0 	
2012-03-05 19:00:11 	309 		395 	0 	
2012-03-05 19:02:19 	310 		275 	0 	
2012-03-05 19:06:59 	420 		250 	0 	
2012-03-05 19:08:08 	322 		395 	0 	
2012-03-05 19:10:58 	307 		230 	0 	
2012-03-05 19:20:39 	406 		695 	0 	
2012-03-05 19:20:46 	308 		395 	0 	
2012-03-05 19:21:48 	302 		316 	0 	
2012-03-05 19:22:11 	310 		25 	0 	
2012-03-05 19:28:11 	204 		345 	0 	
2012-03-05 19:37:08 	220 		300 	0 	
2012-03-05 19:42:09 	301 		395 	0 	
2012-03-05 19:47:30 	320 		645 	0 	
2012-03-05 19:53:50 	421 		395 	0 	
2012-03-05 19:58:18 	318 		645 	0 	
2012-03-05 19:59:44 	307 		695 	0 	
2012-03-05 19:59:53 	319 		395 	0 	
2012-03-05 20:04:04 	218 		395 	0 	
2012-03-05 20:09:32 	410 		275 	0 	
2012-03-05 20:10:43 	208 		275 	0 	
2012-03-05 20:21:35 	207 		345 	0 	
2012-03-05 20:21:44 	407 		695 	0 	
2012-03-05 20:21:55 	316 		645 	0 	
2012-03-05 20:22:04 	317 		395 	0 	
2012-03-05 20:22:13 	405 		595 	0 	
2012-03-05 20:23:37 	302 		360 	0 	
2012-03-05 20:23:49 	308 		540 	0 	
2012-03-05 20:24:22 	403 		645 	0 	
2012-03-05 20:24:28 	411 		275 	0 	
2012-03-05 20:24:35 	402 		395 	0 	
2012-03-05 20:24:57 	307 		300 	0 	
2012-03-05 20:30:20 	206 		345 	0 	
2012-03-05 20:33:04 	210 		345 	0 	
2012-03-05 20:34:25 	315 		695 	0 	
2012-03-05 20:37:26 	318 		10 	0 	
2012-03-05 20:45:51 	418 		345 	0 	
2012-03-05 20:46:14 	312 		645 	0 	
2012-03-05 20:46:20 	313 		645 	0 	
2012-03-05 20:46:48 	401 		140 	0 	
2012-03-05 20:47:48 	202 		0 	345 	
2012-03-05 20:55:37 	308 		695 	0 	
2012-03-05 21:01:20 	306 		350 	0 	
2012-03-05 21:01:23 	306 		160 	0 	
2012-03-05 21:12:03 	204 		345 	0 	
2012-03-05 21:23:38 	422 		395 	0 	
2012-03-05 21:26:19 	412 		395 	0 	
2012-03-05 21:33:52 	312 		50 	0 	
2012-03-05 21:34:23 	313 		50 	0 	
2012-03-05 21:41:05 	402 		695 	0 	
2012-03-05 21:41:14 	423 		595 	0 	
2012-03-05 21:46:26 	209 		100 	0 	
2012-03-05 21:52:42 	321 		140 	0 	
2012-03-05 21:54:25 	424 		595 	0 	
2012-03-05 22:02:02 	205 		345 	0 	
2012-03-05 22:02:12 	317 		695 	0 	
2012-03-05 22:02:20 	205 		20 	0 	
2012-03-05 22:09:15 	208 		275 	0 	
2012-03-05 22:09:24 	211 		345 	0 	
2012-03-05 22:13:52 	302 		395 	0 	
2012-03-05 22:20:44 	219 		395 	0 	
2012-03-05 22:26:26 	324 		595 	0 	
2012-03-05 22:28:53 	323 		595 	0 	
2012-03-05 22:29:37 	220 		695 	0 	
2012-03-05 22:32:22 	321 		695 	0 	
2012-03-05 22:32:28 	314 		645 	0 	
2012-03-05 22:57:05 	314 		100 	0 	
2012-03-05 22:57:12 	308 		240 	0 	
2012-03-05 23:04:45 	215 		345 	0 	
2012-03-05 23:14:23 	213 		645 	0 	
2012-03-05 23:20:57 	213 		50 	0 	
2012-03-05 23:25:27 	411 		595 	0 	
2012-03-05 23:42:30 	309 		280 	0 	
2012-03-05 23:47:13 	421 		695 	0 	
 			Total:		46496 	485		

=== RECHIT LIST ===




V1