MSHOGUN 1: SHIFT END REPORT
Tuesday August 02, 2011 7:59:55 AM

SALES TRANSACTION
Room Sales Order			19295
FnB Sales Order			1075
Beer Sales Order			45
Misc Sales Order			15
Room Sales Adjustment			0
GROSS SALES			20430

DISCOUNT
Room				0
FnB				0
Misc				0

DEPOSIT				6905
REFUND				

TOTAL ACCOUNTABILITY			27335

CASH DECLARATION			6836
CARD				0
FUNDS SAFEKEEP			10000
TOTAL CASH DECLARED			16836

TOTAL CASH ON SYSTEM			6786
OVER/SHORTAGES 			50

ROOM	 # OF CHECK-OUT	AMT
Value 		3	1765
Regular 		13	6645
Classique 		19	10885
Premium 		0	0
Regent 		0	0
Queen 		0	0
Gemini 		0	0
Family 		0	0
Executive Suite 	0	0
Mega Suite 	0	0

DISCOUNT 
Value 			  
Regular 		  
Classique 		  
Premium 		  
Regent 			  
Queen 		  
Gemini 		  
Family 		  
Executive Suite 	  
Mega Suite 		  


=== RESERVATIONS ===

Deposits:


Claimed:



SECURITY DEPOSITS

Deposits:
Claimed:


=== SALES BREAKDOWN ===

Transaction Date	Room No.	Cash	Card

2011-08-02 00:05:24 	403 		645 	0 	
2011-08-02 00:06:03 	205 		345 	0 	
2011-08-02 00:06:50 	318 		705 	0 	
2011-08-02 00:07:38 	418 		645 	0 	
2011-08-02 00:12:14 	413 		695 	0 	
2011-08-02 00:15:56 	303 		345 	0 	
2011-08-02 00:33:05 	406 		395 	0 	
2011-08-02 00:37:09 	404 		695 	0 	
2011-08-02 00:45:05 	206 		345 	0 	
2011-08-02 00:45:34 	207 		345 	0 	
2011-08-02 00:58:15 	210 		345 	0 	
2011-08-02 00:59:48 	313 		695 	0 	
2011-08-02 01:23:07 	204 		705 	0 	
2011-08-02 01:37:38 	207 		15 	0 	
2011-08-02 02:01:41 	417 		695 	0 	
2011-08-02 02:16:45 	315 		316 	0 	
2011-08-02 02:21:08 	205 		85 	0 	
2011-08-02 02:22:16 	422 		395 	0 	
2011-08-02 02:23:33 	412 		675 	0 	
2011-08-02 02:41:25 	403 		225 	0 	
2011-08-02 02:42:19 	412 		160 	0 	
2011-08-02 02:44:34 	401 		395 	0 	
2011-08-02 02:58:25 	317 		395 	0 	
2011-08-02 03:03:37 	207 		345 	0 	
2011-08-02 03:29:44 	419 		110 	0 	
2011-08-02 03:36:09 	415 		395 	0 	
2011-08-02 03:37:26 	405 		225 	0 	
2011-08-02 03:48:18 	306 		675 	0 	
2011-08-02 04:34:26 	412 		50 	0 	
2011-08-02 05:21:30 	302 		205 	0 	
2011-08-02 05:28:01 	303 		240 	0 	
2011-08-02 05:53:30 	318 		365 	0 	
2011-08-02 05:58:48 	406 		815 	0 	
2011-08-02 06:00:10 	315 		140 	0 	
2011-08-02 06:30:14 	322 		560 	0 	
2011-08-02 06:55:24 	309 		395 	0 	
2011-08-02 07:08:42 	422 		280 	0 	
2011-08-02 07:10:38 	206 		705 	0 	
2011-08-02 07:19:12 	220 		395 	0 	
2011-08-02 07:24:45 	408 		40 	0 	
2011-08-02 07:43:09 	213 		585 	0 	
 			Total:		16786 	0		

=== RECHIT LIST ===




V1