MSHOGUN 1: SHIFT END REPORT
Monday October 25, 2010 8:00:03 AM

SALES TRANSACTION
Room Sales Order			23390
FnB Sales Order			845
Beer Sales Order			260
Misc Sales Order			70
Room Sales Adjustment			70
GROSS SALES			24635

DISCOUNT
Room				0
FnB				0
Misc				0

DEPOSIT				2210
REFUND				

TOTAL ACCOUNTABILITY			26845

CASH DECLARATION			3635
CARD				0
FUNDS SAFEKEEP			0
TOTAL CASH DECLARED			3635

TOTAL CASH ON SYSTEM			5635
OVER/SHORTAGES 			-2000

ROOM	 # OF CHECK-OUT	AMT
Value 		8	3140
Regular 		17	8145
Classique 		21	12175
Premium 		0	0
Regent 		0	0
Queen 		0	0
Gemini 		0	0
Family 		0	0
Executive Suite 	0	0
Mega Suite 	0	0

DISCOUNT 
Value 			  
Regular 		  
Classique 		  
Premium 		  
Regent 			  
Queen 		  
Gemini 		  
Family 		  
Executive Suite 	  
Mega Suite 		  


=== RESERVATIONS ===

Deposits:


Claimed:



SECURITY DEPOSITS

Deposits:
Claimed:


=== SALES BREAKDOWN ===

Transaction Date	Room No.	Cash	Card

2010-10-25 00:12:01 	215 		120 	0 	
2010-10-25 00:19:57 	320 		645 	0 	
2010-10-25 00:27:56 	211 		645 	0 	
2010-10-25 00:30:02 	215 		345 	0 	
2010-10-25 00:47:05 	312 		395 	0 	
2010-10-25 01:04:21 	213 		30 	0 	
2010-10-25 01:11:57 	204 		120 	0 	
2010-10-25 01:12:36 	207 		110 	0 	
2010-10-25 01:12:58 	401 		395 	0 	
2010-10-25 01:16:06 	320 		50 	0 	
2010-10-25 01:19:41 	323 		275 	0 	
2010-10-25 01:32:02 	209 		275 	0 	
2010-10-25 01:32:29 	209 		100 	0 	
2010-10-25 01:32:41 	207 		345 	0 	
2010-10-25 01:38:36 	207 		20 	0 	
2010-10-25 01:50:23 	421 		395 	0 	
2010-10-25 01:54:10 	201 		70 	0 	
2010-10-25 02:14:42 	207 		180 	0 	
2010-10-25 02:41:04 	401 		65 	0 	
2010-10-25 03:00:21 	217 		100 	0 	
2010-10-25 03:58:10 	411 		100 	0 	
2010-10-25 07:05:09 	408 		50 	0 	
2010-10-25 07:09:28 	303 		50 	0 	
2010-10-25 07:35:58 	424 		80 	0 	
2010-10-25 07:36:27 	319 		535 	0 	
2010-10-25 07:42:14 	308 		140 	0 	
 			Total:		5635 	0		

=== RECHIT LIST ===




V1