MSHOGUN 1: SHIFT END REPORT
Thursday August 25, 2011 7:59:49 AM

SALES TRANSACTION
Room Sales Order			20910
FnB Sales Order			1035
Beer Sales Order			875
Misc Sales Order			30
Room Sales Adjustment			0
GROSS SALES			22850

DISCOUNT
Room				0
FnB				0
Misc				0

DEPOSIT				5435
REFUND				

TOTAL ACCOUNTABILITY			28285

CASH DECLARATION			561
CARD				0
FUNDS SAFEKEEP			10000
TOTAL CASH DECLARED			10561

TOTAL CASH ON SYSTEM			561
OVER/SHORTAGES 			0

ROOM	 # OF CHECK-OUT	AMT
Value 		9	5115
Regular 		10	5010
Classique 		19	10785
Premium 		0	0
Regent 		0	0
Queen 		0	0
Gemini 		0	0
Family 		0	0
Executive Suite 	0	0
Mega Suite 	0	0

DISCOUNT 
Value 			  
Regular 		  
Classique 		  
Premium 		  
Regent 			  
Queen 		  
Gemini 		  
Family 		  
Executive Suite 	  
Mega Suite 		  


=== RESERVATIONS ===

Deposits:


Claimed:



SECURITY DEPOSITS

Deposits:
Claimed:


=== SALES BREAKDOWN ===

Transaction Date	Room No.	Cash	Card

2011-08-25 00:10:59 	323 		125 	0 	
2011-08-25 00:11:22 	311 		25 	0 	
2011-08-25 00:21:30 	221 		695 	0 	
2011-08-25 00:21:53 	216 		375 	0 	
2011-08-25 00:35:57 	215 		345 	0 	
2011-08-25 00:55:46 	211 		645 	0 	
2011-08-25 01:07:27 	213 		645 	0 	
2011-08-25 01:08:20 	205 		276 	0 	
2011-08-25 01:28:00 	210 		345 	0 	
2011-08-25 01:28:27 	210 		20 	0 	
2011-08-25 01:48:18 	322 		395 	0 	
2011-08-25 01:48:31 	220 		695 	0 	
2011-08-25 02:34:46 	312 		695 	0 	
2011-08-25 02:41:46 	424 		220 	0 	
2011-08-25 02:48:25 	220 		80 	0 	
2011-08-25 02:57:01 	412 		140 	0 	
2011-08-25 03:15:03 	307 		140 	0 	
2011-08-25 03:22:36 	206 		705 	0 	
2011-08-25 03:36:50 	420 		120 	0 	
2011-08-25 03:43:13 	204 		345 	0 	
2011-08-25 03:58:52 	313 		100 	0 	
2011-08-25 04:17:11 	301 		395 	0 	
2011-08-25 04:35:26 	207 		465 	0 	
2011-08-25 04:44:26 	403 		290 	0 	
2011-08-25 05:18:27 	407 		250 	0 	
2011-08-25 06:21:53 	306 		395 	0 	
2011-08-25 06:31:48 	212 		490 	0 	
2011-08-25 06:38:56 	319 		140 	0 	
2011-08-25 06:56:18 	315 		150 	0 	
2011-08-25 06:59:24 	307 		395 	0 	
2011-08-25 07:27:05 	317 		210 	0 	
2011-08-25 07:40:38 	213 		225 	0 	
2011-08-25 07:54:28 	303 		25 	0 	
 			Total:		10561 	0		

=== RECHIT LIST ===




V1