MSHOGUN 1: SHIFT END REPORT
Saturday November 19, 2011 12:00:25 AM

SALES TRANSACTION
Room Sales Order			39550
FnB Sales Order			2150
Beer Sales Order			735
Misc Sales Order			60
Room Sales Adjustment			0
GROSS SALES			42495

DISCOUNT
Room				0
FnB				0
Misc				0

DEPOSIT				42220
REFUND				

TOTAL ACCOUNTABILITY			84715

CASH DECLARATION			6813
CARD				0
FUNDS SAFEKEEP			60000
TOTAL CASH DECLARED			66813

TOTAL CASH ON SYSTEM			13995
OVER/SHORTAGES 			-7182

ROOM	 # OF CHECK-OUT	AMT
Value 		11	3025
Regular 		32	12240
Classique 		59	24285
Premium 		0	0
Regent 		0	0
Queen 		0	0
Gemini 		0	0
Family 		0	0
Executive Suite 	0	0
Mega Suite 	0	0

DISCOUNT 
Value 			  
Regular 		  
Classique 		  
Premium 		  
Regent 			  
Queen 		  
Gemini 		  
Family 		  
Executive Suite 	  
Mega Suite 		  


=== RESERVATIONS ===

Deposits:


Claimed:



SECURITY DEPOSITS

Deposits:
Claimed:


=== SALES BREAKDOWN ===

Transaction Date	Room No.	Cash	Card

2011-11-18 16:10:49 	406 		395 	0 	
2011-11-18 16:10:56 	405 		275 	0 	
2011-11-18 16:11:03 	408 		395 	0 	
2011-11-18 16:18:36 	414 		345 	0 	
2011-11-18 16:27:31 	406 		220 	0 	
2011-11-18 16:32:31 	321 		50 	0 	
2011-11-18 16:36:37 	407 		395 	0 	
2011-11-18 16:36:52 	413 		395 	0 	
2011-11-18 16:49:50 	415 		395 	0 	
2011-11-18 16:49:58 	402 		395 	0 	
2011-11-18 16:55:25 	412 		395 	0 	
2011-11-18 16:55:34 	422 		395 	0 	
2011-11-18 16:55:51 	403 		345 	0 	
2011-11-18 16:59:49 	406 		90 	0 	
2011-11-18 17:04:57 	401 		395 	0 	
2011-11-18 17:07:25 	309 		395 	0 	
2011-11-18 17:11:10 	420 		345 	0 	
2011-11-18 17:19:22 	407 		675 	0 	
2011-11-18 17:22:31 	418 		345 	0 	
2011-11-18 17:28:16 	417 		395 	0 	
2011-11-18 17:28:29 	314 		345 	0 	
2011-11-18 17:37:05 	318 		705 	0 	
2011-11-18 17:37:12 	313 		395 	0 	
2011-11-18 17:37:59 	213 		345 	0 	
2011-11-18 17:39:43 	301 		395 	0 	
2011-11-18 17:39:55 	308 		395 	0 	
2011-11-18 17:40:50 	304 		395 	0 	
2011-11-18 17:43:25 	404 		395 	0 	
2011-11-18 17:48:06 	322 		395 	0 	
2011-11-18 17:55:24 	209 		275 	0 	
2011-11-18 17:55:34 	311 		275 	0 	
2011-11-18 17:55:44 	212 		275 	0 	
2011-11-18 17:56:04 	313 		65 	0 	
2011-11-18 17:59:00 	307 		395 	0 	
2011-11-18 18:03:53 	220 		395 	0 	
2011-11-18 18:05:43 	318 		290 	0 	
2011-11-18 18:12:42 	319 		695 	0 	
2011-11-18 18:12:50 	312 		395 	0 	
2011-11-18 18:12:57 	315 		395 	0 	
2011-11-18 18:13:18 	321 		395 	0 	
2011-11-18 18:17:30 	312 		50 	0 	
2011-11-18 18:19:16 	406 		535 	0 	
2011-11-18 18:26:49 	214 		275 	0 	
2011-11-18 18:26:57 	205 		345 	0 	
2011-11-18 18:28:24 	214 		10 	0 	
2011-11-18 18:28:52 	219 		395 	0 	
2011-11-18 18:29:18 	218 		395 	0 	
2011-11-18 18:39:00 	417 		695 	0 	
2011-11-18 18:40:15 	406 		65 	0 	
2011-11-18 18:44:00 	419 		695 	0 	
2011-11-18 18:44:14 	221 		395 	0 	
2011-11-18 18:44:54 	215 		585 	0 	
2011-11-18 18:45:24 	402 		695 	0 	
2011-11-18 18:49:18 	215 		50 	0 	
2011-11-18 18:49:33 	409 		395 	0 	
2011-11-18 18:54:27 	401 		395 	0 	
2011-11-18 19:02:02 	415 		695 	0 	
2011-11-18 19:02:09 	411 		595 	0 	
2011-11-18 19:02:20 	421 		695 	0 	
2011-11-18 19:03:01 	323 		595 	0 	
2011-11-18 19:03:43 	317 		695 	0 	
2011-11-18 19:04:25 	314 		645 	0 	
2011-11-18 19:06:27 	302 		695 	0 	
2011-11-18 19:06:33 	409 		290 	0 	
2011-11-18 19:08:53 	204 		345 	0 	
2011-11-18 19:09:06 	405 		595 	0 	
2011-11-18 19:10:47 	324 		595 	0 	
2011-11-18 19:13:29 	424 		595 	0 	
2011-11-18 19:14:04 	312 		316 	0 	
2011-11-18 19:14:47 	203 		345 	0 	
2011-11-18 19:15:30 	413 		695 	0 	
2011-11-18 19:17:57 	401 		25 	0 	
2011-11-18 19:18:05 	317 		20 	0 	
2011-11-18 19:18:19 	202 		345 	0 	
2011-11-18 19:18:40 	206 		345 	0 	
2011-11-18 19:20:19 	408 		395 	0 	
2011-11-18 19:23:04 	211 		345 	0 	
2011-11-18 19:26:46 	210 		345 	0 	
2011-11-18 19:28:26 	216 		595 	0 	
2011-11-18 19:29:58 	407 		210 	0 	
2011-11-18 19:36:25 	220 		695 	0 	
2011-11-18 19:37:38 	301 		395 	0 	
2011-11-18 19:38:50 	306 		316 	0 	
2011-11-18 19:40:55 	416 		645 	0 	
2011-11-18 19:42:37 	201 		345 	0 	
2011-11-18 19:45:32 	212 		595 	0 	
2011-11-18 19:50:48 	316 		345 	0 	
2011-11-18 19:51:01 	414 		345 	0 	
2011-11-18 19:51:11 	208 		275 	0 	
2011-11-18 19:51:23 	307 		395 	0 	
2011-11-18 19:57:00 	217 		595 	0 	
2011-11-18 19:57:09 	305 		595 	0 	
2011-11-18 20:06:29 	401 		395 	0 	
2011-11-18 20:06:42 	412 		395 	0 	
2011-11-18 20:06:51 	422 		395 	0 	
2011-11-18 20:08:00 	321 		316 	0 	
2011-11-18 20:10:17 	417 		260 	0 	
2011-11-18 20:11:26 	304 		50 	0 	
2011-11-18 20:13:22 	423 		595 	0 	
2011-11-18 20:13:33 	410 		595 	0 	
2011-11-18 20:17:51 	310 		595 	0 	
2011-11-18 20:19:22 	210 		345 	0 	
2011-11-18 20:19:30 	207 		345 	0 	
2011-11-18 20:19:45 	313 		395 	0 	
2011-11-18 20:19:58 	403 		345 	0 	
2011-11-18 20:21:52 	418 		645 	0 	
2011-11-18 20:24:02 	315 		695 	0 	
2011-11-18 20:25:32 	420 		345 	0 	
2011-11-18 20:28:57 	303 		345 	0 	
2011-11-18 20:34:35 	211 		645 	0 	
2011-11-18 20:35:01 	218 		395 	0 	
2011-11-18 20:36:16 	209 		275 	0 	
2011-11-18 20:43:11 	308 		695 	0 	
2011-11-18 20:43:51 	322 		395 	0 	
2011-11-18 20:49:30 	309 		690 	0 	
2011-11-18 20:50:34 	404 		695 	0 	
2011-11-18 20:50:54 	311 		275 	0 	
2011-11-18 20:51:07 	204 		345 	0 	
2011-11-18 20:51:21 	213 		645 	0 	
2011-11-18 21:02:35 	412 		695 	0 	
2011-11-18 21:03:18 	211 		535 	0 	
2011-11-18 21:05:12 	316 		645 	0 	
2011-11-18 21:07:41 	217 		105 	0 	
2011-11-18 21:08:11 	306 		210 	0 	
2011-11-18 21:20:17 	309 		395 	0 	
2011-11-18 21:25:37 	205 		645 	0 	
2011-11-18 21:33:00 	203 		645 	0 	
2011-11-18 21:33:20 	221 		316 	0 	
2011-11-18 21:33:37 	208 		275 	0 	
2011-11-18 21:35:10 	412 		410 	0 	
2011-11-18 21:35:55 	214 		595 	0 	
2011-11-18 21:39:24 	221 		80 	0 	
2011-11-18 21:41:45 	209 		595 	0 	
2011-11-18 21:43:16 	201 		345 	0 	
2011-11-18 21:50:35 	206 		345 	0 	
2011-11-18 21:50:47 	320 		645 	0 	
2011-11-18 21:51:00 	303 		345 	0 	
2011-11-18 22:00:46 	215 		645 	0 	
2011-11-18 22:01:07 	219 		695 	0 	
2011-11-18 22:05:47 	424 		230 	0 	
2011-11-18 22:05:52 	424 		40 	0 	
2011-11-18 22:13:21 	214 		100 	0 	
2011-11-18 22:14:55 	407 		695 	0 	
2011-11-18 22:15:10 	408 		695 	0 	
2011-11-18 22:15:34 	401 		395 	0 	
2011-11-18 22:16:12 	409 		695 	0 	
2011-11-18 22:18:36 	312 		395 	0 	
2011-11-18 22:21:33 	313 		395 	0 	
2011-11-18 22:25:11 	414 		645 	0 	
2011-11-18 22:28:38 	202 		585 	0 	
2011-11-18 22:38:24 	422 		30 	0 	
2011-11-18 22:39:55 	301 		10 	0 	
2011-11-18 22:47:50 	212 		210 	0 	
2011-11-18 22:48:04 	215 		25 	0 	
2011-11-18 22:53:02 	207 		345 	0 	
2011-11-18 22:54:34 	304 		280 	0 	
2011-11-18 22:57:46 	406 		695 	0 	
2011-11-18 22:58:16 	406 		100 	0 	
2011-11-18 23:02:40 	420 		465 	0 	
2011-11-18 23:07:07 	210 		345 	0 	
2011-11-18 23:07:42 	201 		645 	0 	
2011-11-18 23:12:20 	306 		695 	0 	
2011-11-18 23:12:36 	307 		695 	0 	
2011-11-18 23:14:14 	311 		275 	0 	
2011-11-18 23:16:17 	206 		645 	0 	
2011-11-18 23:22:02 	422 		695 	0 	
2011-11-18 23:25:51 	218 		695 	0 	
2011-11-18 23:32:18 	304 		695 	0 	
2011-11-18 23:32:30 	403 		645 	0 	
2011-11-18 23:32:50 	301 		395 	0 	
2011-11-18 23:33:15 	318 		645 	0 	
2011-11-18 23:39:54 	309 		316 	0 	
2011-11-18 23:40:21 	321 		395 	0 	
2011-11-18 23:40:34 	322 		395 	0 	
2011-11-18 23:53:56 	206 		130 	0 	
2011-11-18 23:54:48 	322 		200 	0 	
 			Total:		73995 	0		

=== RECHIT LIST ===




V1