MSHOGUN 1: SHIFT END REPORT
Tuesday October 05, 2010 8:00:52 AM

SALES TRANSACTION
Room Sales Order			22685
FnB Sales Order			848
Beer Sales Order			130
Misc Sales Order			30
Room Sales Adjustment			50
GROSS SALES			23743

DISCOUNT
Room				0
FnB				0
Misc				0

DEPOSIT				6015
REFUND				

TOTAL ACCOUNTABILITY			29758

CASH DECLARATION			10361
CARD				0
FUNDS SAFEKEEP			0
TOTAL CASH DECLARED			10361

TOTAL CASH ON SYSTEM			10361
OVER/SHORTAGES 			0

ROOM	 # OF CHECK-OUT	AMT
Value 		6	2930
Regular 		10	4890
Classique 		17	10015
Premium 		2	1650
Regent 		3	2400
Queen 		1	850
Gemini 		0	0
Family 		0	0
Executive Suite 	0	0
Mega Suite 	0	0

DISCOUNT 
Value 			  
Regular 		  
Classique 		  
Premium 		  
Regent 			  
Queen 		  
Gemini 		  
Family 		  
Executive Suite 	  
Mega Suite 		  


=== RESERVATIONS ===

Deposits:


Claimed:



SECURITY DEPOSITS

Deposits:
Claimed:


=== SALES BREAKDOWN ===

Transaction Date	Room No.	Cash	Card

2010-10-05 00:06:03 	318 		585 	0 	
2010-10-05 00:06:43 	312 		395 	0 	
2010-10-05 00:15:24 	304 		50 	0 	
2010-10-05 00:16:30 	406 		395 	0 	
2010-10-05 00:16:55 	319 		695 	0 	
2010-10-05 00:35:08 	420 		345 	0 	
2010-10-05 00:51:39 	215 		345 	0 	
2010-10-05 00:55:43 	418 		645 	0 	
2010-10-05 00:56:04 	522 		750 	0 	
2010-10-05 00:58:54 	423 		15 	0 	
2010-10-05 00:59:13 	523 		750 	0 	
2010-10-05 01:16:37 	310 		275 	0 	
2010-10-05 01:23:00 	206 		345 	0 	
2010-10-05 02:11:18 	616 		40 	0 	
2010-10-05 03:34:29 	406 		395 	0 	
2010-10-05 03:41:06 	411 		475 	0 	
2010-10-05 04:15:38 	520 		20 	0 	
2010-10-05 04:29:51 	315 		10 	0 	
2010-10-05 06:18:46 	509 		150 	0 	
2010-10-05 06:24:37 	422 		395 	0 	
2010-10-05 06:39:29 	522 		125 	0 	
2010-10-05 06:43:11 	309 		316 	0 	
2010-10-05 06:45:27 	523 		25 	0 	
2010-10-05 06:51:03 	510 		800 	0 	
2010-10-05 06:57:45 	414 		50 	0 	
2010-10-05 07:13:22 	511 		800 	0 	
2010-10-05 07:14:47 	312 		395 	0 	
2010-10-05 07:33:55 	203 		345 	0 	
2010-10-05 07:52:49 	422 		205 	0 	
2010-10-05 07:57:17 	303 		50 	0 	
2010-10-05 07:58:49 	523 		175 	0 	
 			Total:		10361 	0		

=== RECHIT LIST ===

Room No. 605 	 Rechit Date: 2010-10-05 07:23:46







V1