MSHOGUN 1: SHIFT END REPORT
Tuesday February 22, 2011 4:00:04 PM

SALES TRANSACTION
Room Sales Order			21655
FnB Sales Order			2100
Beer Sales Order			200
Misc Sales Order			0
Room Sales Adjustment			0
GROSS SALES			23955

DISCOUNT
Room				0
FnB				0
Misc				0

DEPOSIT				11350
REFUND				

TOTAL ACCOUNTABILITY			35305

CASH DECLARATION			2993
CARD				0
FUNDS SAFEKEEP			20000
TOTAL CASH DECLARED			22993

TOTAL CASH ON SYSTEM			3062
OVER/SHORTAGES 			-69

ROOM	 # OF CHECK-OUT	AMT
Value 		1	275
Regular 		9	4005
Classique 		33	17375
Premium 		0	0
Regent 		0	0
Queen 		0	0
Gemini 		0	0
Family 		0	0
Executive Suite 	0	0
Mega Suite 	0	0

DISCOUNT 
Value 			  
Regular 		  
Classique 		  
Premium 		  
Regent 			  
Queen 		  
Gemini 		  
Family 		  
Executive Suite 	  
Mega Suite 		  


=== RESERVATIONS ===

Deposits:


Claimed:



SECURITY DEPOSITS

Deposits:
Claimed:


=== SALES BREAKDOWN ===

Transaction Date	Room No.	Cash	Card

2011-02-22 08:08:54 	213 		255 	0 	
2011-02-22 08:10:51 	218 		65 	0 	
2011-02-22 08:11:44 	219 		50 	0 	
2011-02-22 08:28:44 	219 		330 	0 	
2011-02-22 09:05:03 	313 		25 	0 	
2011-02-22 09:46:23 	322 		140 	0 	
2011-02-22 09:48:38 	315 		395 	0 	
2011-02-22 10:12:10 	304 		395 	0 	
2011-02-22 10:15:12 	319 		395 	0 	
2011-02-22 10:15:40 	406 		395 	0 	
2011-02-22 10:16:16 	309 		395 	0 	
2011-02-22 10:30:35 	218 		235 	0 	
2011-02-22 10:39:48 	303 		705 	0 	
2011-02-22 10:57:55 	306 		395 	0 	
2011-02-22 11:14:24 	308 		395 	0 	
2011-02-22 11:16:56 	317 		395 	0 	
2011-02-22 11:20:32 	319 		170 	0 	
2011-02-22 11:24:30 	202 		345 	0 	
2011-02-22 11:24:40 	301 		316 	0 	
2011-02-22 11:32:19 	312 		395 	0 	
2011-02-22 11:39:19 	317 		210 	0 	
2011-02-22 11:56:12 	403 		705 	0 	
2011-02-22 12:11:27 	203 		276 	0 	
2011-02-22 12:12:58 	208 		275 	0 	
2011-02-22 12:20:09 	204 		345 	0 	
2011-02-22 12:21:32 	408 		395 	0 	
2011-02-22 12:22:39 	409 		395 	0 	
2011-02-22 12:55:17 	302 		535 	0 	
2011-02-22 13:01:38 	205 		345 	0 	
2011-02-22 13:04:08 	313 		395 	0 	
2011-02-22 13:07:02 	401 		395 	0 	
2011-02-22 13:17:02 	307 		395 	0 	
2011-02-22 13:29:23 	302 		235 	0 	
2011-02-22 13:30:26 	212 		275 	0 	
2011-02-22 13:38:30 	413 		395 	0 	
2011-02-22 13:38:46 	315 		395 	0 	
2011-02-22 13:40:29 	317 		395 	0 	
2011-02-22 13:45:05 	206 		345 	0 	
2011-02-22 13:58:37 	201 		345 	0 	
2011-02-22 13:59:46 	415 		395 	0 	
2011-02-22 14:18:14 	321 		395 	0 	
2011-02-22 14:18:40 	407 		395 	0 	
2011-02-22 14:24:37 	406 		395 	0 	
2011-02-22 14:27:48 	214 		275 	0 	
2011-02-22 14:31:36 	319 		395 	0 	
2011-02-22 14:33:49 	219 		815 	0 	
2011-02-22 14:36:44 	213 		345 	0 	
2011-02-22 14:45:48 	316 		345 	0 	
2011-02-22 14:47:34 	304 		535 	0 	
2011-02-22 14:58:16 	320 		705 	0 	
2011-02-22 15:02:22 	209 		275 	0 	
2011-02-22 15:08:30 	303 		100 	0 	
2011-02-22 15:16:28 	318 		345 	0 	
2011-02-22 15:24:27 	302 		185 	0 	
2011-02-22 15:24:54 	221 		395 	0 	
2011-02-22 15:29:06 	208 		275 	0 	
2011-02-22 15:29:56 	218 		395 	0 	
2011-02-22 15:32:03 	306 		675 	0 	
2011-02-22 15:32:18 	314 		345 	0 	
2011-02-22 15:32:52 	320 		70 	0 	
2011-02-22 15:32:56 	320 		100 	0 	
2011-02-22 15:42:30 	308 		395 	0 	
2011-02-22 15:48:16 	215 		345 	0 	
2011-02-22 15:51:53 	407 		135 	0 	
2011-02-22 15:52:14 	309 		395 	0 	
2011-02-22 15:52:25 	313 		395 	0 	
 			Total:		23062 	0		

=== RECHIT LIST ===




V1