MSHOGUN 1: SHIFT END REPORT
Friday February 03, 2012 3:56:07 PM

SALES TRANSACTION
Room Sales Order			28160
FnB Sales Order			2243
Beer Sales Order			130
Misc Sales Order			0
Room Sales Adjustment			0
GROSS SALES			30533

DISCOUNT
Room				0
FnB				0
Misc				0

DEPOSIT				10230
REFUND				

TOTAL ACCOUNTABILITY			40763

CASH DECLARATION			5390
CARD				1040
FUNDS SAFEKEEP			20000
TOTAL CASH DECLARED			26430

TOTAL CASH ON SYSTEM			5379
OVER/SHORTAGES 			11

ROOM	 # OF CHECK-OUT	AMT
Value 		7	2765
Regular 		15	7995
Classique 		32	17400
Premium 		0	0
Regent 		0	0
Queen 		0	0
Gemini 		0	0
Family 		0	0
Executive Suite 	0	0
Mega Suite 	0	0

DISCOUNT 
Value 			  
Regular 		  
Classique 		  
Premium 		  
Regent 			  
Queen 		  
Gemini 		  
Family 		  
Executive Suite 	  
Mega Suite 		  


=== RESERVATIONS ===

Deposits:


Claimed:



SECURITY DEPOSITS

Deposits:
Claimed:


=== SALES BREAKDOWN ===

Transaction Date	Room No.	Cash	Card

2012-02-03 08:01:09 	302 		265 	0 	
2012-02-03 08:12:31 	304 		395 	0 	
2012-02-03 08:19:09 	221 		395 	0 	
2012-02-03 08:40:46 	204 		585 	0 	
2012-02-03 08:46:58 	221 		198 	0 	
2012-02-03 09:14:09 	203 		345 	0 	
2012-02-03 09:23:37 	205 		345 	0 	
2012-02-03 09:26:37 	220 		395 	0 	
2012-02-03 09:30:46 	315 		395 	0 	
2012-02-03 09:33:20 	313 		25 	0 	
2012-02-03 09:37:24 	312 		395 	0 	
2012-02-03 09:49:36 	212 		200 	0 	
2012-02-03 09:50:39 	312 		50 	0 	
2012-02-03 10:01:08 	319 		0 	345 	
2012-02-03 10:06:36 	307 		395 	0 	
2012-02-03 10:11:44 	213 		585 	0 	
2012-02-03 10:14:25 	309 		395 	0 	
2012-02-03 10:20:08 	303 		465 	0 	
2012-02-03 10:44:30 	205 		115 	0 	
2012-02-03 10:44:33 	205 		120 	0 	
2012-02-03 10:44:36 	205 		40 	0 	
2012-02-03 10:51:07 	215 		276 	0 	
2012-02-03 10:56:41 	209 		275 	0 	
2012-02-03 11:02:11 	202 		585 	0 	
2012-02-03 11:15:54 	324 		275 	0 	
2012-02-03 11:16:04 	302 		395 	0 	
2012-02-03 11:30:18 	301 		395 	0 	
2012-02-03 11:35:35 	219 		395 	0 	
2012-02-03 11:46:49 	306 		395 	0 	
2012-02-03 11:57:21 	204 		335 	0 	
2012-02-03 12:06:22 	316 		705 	0 	
2012-02-03 12:06:30 	218 		395 	0 	
2012-02-03 12:22:22 	213 		165 	0 	
2012-02-03 12:23:16 	314 		345 	0 	
2012-02-03 12:26:36 	317 		395 	0 	
2012-02-03 12:31:38 	221 		140 	0 	
2012-02-03 12:46:51 	308 		395 	0 	
2012-02-03 12:49:51 	314 		165 	0 	
2012-02-03 12:52:33 	313 		395 	0 	
2012-02-03 12:58:53 	207 		345 	0 	
2012-02-03 13:02:57 	322 		25 	0 	
2012-02-03 13:03:38 	315 		395 	0 	
2012-02-03 13:05:52 	304 		395 	0 	
2012-02-03 13:06:52 	319 		395 	0 	
2012-02-03 13:08:57 	320 		465 	0 	
2012-02-03 13:16:18 	203 		345 	0 	
2012-02-03 13:16:42 	201 		465 	0 	
2012-02-03 13:16:57 	403 		705 	0 	
2012-02-03 13:19:43 	302 		395 	0 	
2012-02-03 13:32:32 	321 		395 	0 	
2012-02-03 13:32:43 	310 		275 	0 	
2012-02-03 13:32:51 	311 		275 	0 	
2012-02-03 13:37:15 	321 		20 	0 	
2012-02-03 13:41:28 	409 		395 	0 	
2012-02-03 13:46:52 	219 		290 	0 	
2012-02-03 14:14:57 	309 		395 	0 	
2012-02-03 14:19:26 	312 		395 	0 	
2012-02-03 14:23:27 	318 		345 	0 	
2012-02-03 14:32:33 	404 		395 	0 	
2012-02-03 14:33:47 	401 		395 	0 	
2012-02-03 14:49:21 	402 		395 	0 	
2012-02-03 14:54:14 	215 		345 	0 	
2012-02-03 14:54:58 	307 		395 	0 	
2012-02-03 14:56:35 	301 		395 	0 	
2012-02-03 14:59:56 	221 		675 	0 	
2012-02-03 15:00:06 	308 		395 	0 	
2012-02-03 15:00:19 	401 		260 	0 	
2012-02-03 15:08:52 	404 		25 	0 	
2012-02-03 15:13:29 	216 		275 	0 	
2012-02-03 15:17:26 	213 		345 	0 	
2012-02-03 15:23:20 	313 		395 	0 	
2012-02-03 15:23:36 	306 		395 	0 	
2012-02-03 15:51:11 	204 		345 	0 	
2012-02-03 15:51:29 	203 		705 	0 	
 			Total:		25379 	345		

=== RECHIT LIST ===




V1