MSHOGUN 1: SHIFT END REPORT
Monday March 21, 2011 7:58:37 AM

SALES TRANSACTION
Room Sales Order			25270
FnB Sales Order			765
Beer Sales Order			400
Misc Sales Order			20
Room Sales Adjustment			-395
GROSS SALES			26060

DISCOUNT
Room				0
FnB				0
Misc				0

DEPOSIT				3115
REFUND				

TOTAL ACCOUNTABILITY			29175

CASH DECLARATION			8071
CARD				395
FUNDS SAFEKEEP			0
TOTAL CASH DECLARED			8466

TOTAL CASH ON SYSTEM			8071
OVER/SHORTAGES 			0

ROOM	 # OF CHECK-OUT	AMT
Value 		6	2610
Regular 		14	7290
Classique 		26	15370
Premium 		0	0
Regent 		0	0
Queen 		0	0
Gemini 		0	0
Family 		0	0
Executive Suite 	0	0
Mega Suite 	0	0

DISCOUNT 
Value 			  
Regular 		  
Classique 		  
Premium 		  
Regent 			  
Queen 		  
Gemini 		  
Family 		  
Executive Suite 	  
Mega Suite 		  


=== RESERVATIONS ===

Deposits:


Claimed:



SECURITY DEPOSITS

Deposits:
Claimed:


=== SALES BREAKDOWN ===

Transaction Date	Room No.	Cash	Card

2011-03-21 00:09:59 	306 		395 	0 	
2011-03-21 00:13:56 	306 		-395 	0 	
2011-03-21 00:15:10 	306 		695 	0 	
2011-03-21 00:15:58 	206 		585 	0 	
2011-03-21 00:20:17 	202 		345 	0 	
2011-03-21 00:25:35 	417 		695 	0 	
2011-03-21 00:27:45 	322 		316 	0 	
2011-03-21 00:36:15 	320 		645 	0 	
2011-03-21 00:45:52 	301 		0 	395 	
2011-03-21 00:47:58 	203 		345 	0 	
2011-03-21 00:50:53 	315 		160 	0 	
2011-03-21 01:03:27 	205 		585 	0 	
2011-03-21 01:16:30 	204 		585 	0 	
2011-03-21 02:13:15 	401 		395 	0 	
2011-03-21 02:13:33 	314 		345 	0 	
2011-03-21 04:46:54 	304 		395 	0 	
2011-03-21 06:51:06 	215 		345 	0 	
2011-03-21 07:30:26 	206 		585 	0 	
2011-03-21 07:34:19 	314 		705 	0 	
2011-03-21 07:54:11 	203 		345 	0 	
 			Total:		8071 	395		

=== RECHIT LIST ===




V1