MSHOGUN 1: SHIFT END REPORT
Tuesday July 06, 2010 12:01:38 AM

SALES TRANSACTION
Room Sales Order			34715
FnB Sales Order			1705
Beer Sales Order			0
Misc Sales Order			94
Room Sales Adjustment			0
GROSS SALES			36514

DISCOUNT
Room				0
FnB				0
Misc				0

DEPOSIT				36493
REFUND				

TOTAL ACCOUNTABILITY			73007

CASH DECLARATION			7032
CARD				0
FUNDS SAFEKEEP			50000
TOTAL CASH DECLARED			57032

TOTAL CASH ON SYSTEM			7032
OVER/SHORTAGES 			0

ROOM	 # OF CHECK-OUT	AMT
Value 		13	3675
Regular 		34	12810
Classique 		44	17380
Premium 		0	0
Regent 		0	0
Queen 		1	850
Gemini 		0	0
Family 		0	0
Executive Suite 	0	0
Mega Suite 	0	0

DISCOUNT 
Value 			  
Regular 		  
Classique 		  
Premium 		  
Regent 			  
Queen 		  
Gemini 		  
Family 		  
Executive Suite 	  
Mega Suite 		  


=== RESERVATIONS ===

Deposits:


Claimed:



SECURITY DEPOSITS

Deposits:
Claimed:


=== SALES BREAKDOWN ===

Transaction Date	Room No.	Cash	Card

2010-07-05 16:11:51 	307 		395 	0 	
2010-07-05 16:13:06 	306 		395 	0 	
2010-07-05 16:20:19 	318 		345 	0 	
2010-07-05 16:22:17 	312 		395 	0 	
2010-07-05 16:25:19 	206 		345 	0 	
2010-07-05 16:27:40 	201 		345 	0 	
2010-07-05 16:29:03 	316 		345 	0 	
2010-07-05 16:33:23 	206 		10 	0 	
2010-07-05 16:37:44 	221 		395 	0 	
2010-07-05 16:44:04 	309 		395 	0 	
2010-07-05 16:52:59 	507 		800 	0 	
2010-07-05 16:57:19 	603 		1050 	0 	
2010-07-05 16:58:09 	319 		395 	0 	
2010-07-05 16:59:22 	306 		395 	0 	
2010-07-05 17:00:41 	213 		465 	0 	
2010-07-05 17:05:21 	209 		275 	0 	
2010-07-05 17:16:00 	211 		345 	0 	
2010-07-05 17:17:39 	308 		395 	0 	
2010-07-05 17:26:14 	317 		395 	0 	
2010-07-05 17:30:25 	409 		395 	0 	
2010-07-05 17:35:43 	612 		50 	0 	
2010-07-05 17:37:03 	403 		345 	0 	
2010-07-05 17:40:26 	407 		395 	0 	
2010-07-05 17:40:39 	208 		275 	0 	
2010-07-05 17:43:50 	217 		275 	0 	
2010-07-05 17:44:04 	220 		395 	0 	
2010-07-05 17:44:17 	414 		345 	0 	
2010-07-05 17:48:00 	412 		395 	0 	
2010-07-05 17:48:33 	320 		110 	0 	
2010-07-05 17:50:29 	422 		395 	0 	
2010-07-05 17:50:45 	315 		395 	0 	
2010-07-05 17:51:15 	203 		270 	0 	
2010-07-05 17:53:20 	420 		345 	0 	
2010-07-05 18:03:31 	318 		345 	0 	
2010-07-05 18:03:46 	314 		345 	0 	
2010-07-05 18:05:12 	307 		101 	0 	
2010-07-05 18:08:19 	206 		10 	0 	
2010-07-05 18:08:29 	211 		430 	0 	
2010-07-05 18:13:17 	404 		695 	0 	
2010-07-05 18:16:37 	401 		395 	0 	
2010-07-05 18:17:12 	608 		15 	0 	
2010-07-05 18:18:55 	316 		345 	0 	
2010-07-05 18:19:35 	408 		395 	0 	
2010-07-05 18:22:57 	410 		595 	0 	
2010-07-05 18:26:27 	323 		275 	0 	
2010-07-05 18:33:26 	506 		800 	0 	
2010-07-05 18:42:40 	312 		395 	0 	
2010-07-05 18:45:27 	301 		395 	0 	
2010-07-05 18:52:58 	420 		25 	0 	
2010-07-05 18:53:14 	311 		275 	0 	
2010-07-05 18:54:07 	405 		595 	0 	
2010-07-05 19:04:38 	214 		595 	0 	
2010-07-05 19:09:32 	402 		695 	0 	
2010-07-05 19:10:05 	305 		275 	0 	
2010-07-05 19:11:16 	215 		345 	0 	
2010-07-05 19:13:11 	302 		395 	0 	
2010-07-05 19:13:34 	204 		345 	0 	
2010-07-05 19:17:08 	421 		395 	0 	
2010-07-05 19:19:37 	210 		345 	0 	
2010-07-05 19:25:46 	413 		395 	0 	
2010-07-05 19:26:02 	307 		395 	0 	
2010-07-05 19:28:25 	507 		475 	0 	
2010-07-05 19:28:57 	609 		110 	0 	
2010-07-05 19:37:20 	324 		275 	0 	
2010-07-05 19:38:09 	306 		395 	0 	
2010-07-05 19:39:39 	617 		210 	0 	
2010-07-05 19:51:20 	501 		1600 	0 	
2010-07-05 19:51:59 	406 		695 	0 	
2010-07-05 19:52:28 	321 		395 	0 	
2010-07-05 19:52:39 	218 		395 	0 	
2010-07-05 20:03:43 	212 		275 	0 	
2010-07-05 20:05:25 	202 		345 	0 	
2010-07-05 20:08:00 	303 		345 	0 	
2010-07-05 20:09:22 	216 		275 	0 	
2010-07-05 20:10:24 	322 		395 	0 	
2010-07-05 20:12:46 	415 		695 	0 	
2010-07-05 20:16:00 	205 		345 	0 	
2010-07-05 20:16:35 	206 		345 	0 	
2010-07-05 20:17:50 	320 		345 	0 	
2010-07-05 20:23:48 	221 		695 	0 	
2010-07-05 20:24:00 	323 		275 	0 	
2010-07-05 20:24:34 	306 		160 	0 	
2010-07-05 20:26:11 	304 		695 	0 	
2010-07-05 20:29:36 	419 		695 	0 	
2010-07-05 20:29:50 	422 		395 	0 	
2010-07-05 20:30:14 	503 		300 	0 	
2010-07-05 20:40:36 	417 		695 	0 	
2010-07-05 20:41:55 	316 		345 	0 	
2010-07-05 20:45:04 	506 		210 	0 	
2010-07-05 21:02:25 	202 		8 	0 	
2010-07-05 21:02:43 	317 		695 	0 	
2010-07-05 21:03:04 	209 		100 	0 	
2010-07-05 21:04:24 	217 		595 	0 	
2010-07-05 21:15:58 	304 		160 	0 	
2010-07-05 21:16:02 	304 		185 	0 	
2010-07-05 21:20:46 	209 		595 	0 	
2010-07-05 21:21:22 	409 		395 	0 	
2010-07-05 21:21:35 	318 		345 	0 	
2010-07-05 21:31:01 	314 		585 	0 	
2010-07-05 21:32:10 	214 		305 	0 	
2010-07-05 21:39:34 	407 		695 	0 	
2010-07-05 21:44:46 	308 		695 	0 	
2010-07-05 21:59:20 	412 		695 	0 	
2010-07-05 21:59:59 	605 		1050 	0 	
2010-07-05 22:00:32 	419 		40 	0 	
2010-07-05 22:02:40 	219 		395 	0 	
2010-07-05 22:08:29 	408 		695 	0 	
2010-07-05 22:09:45 	319 		695 	0 	
2010-07-05 22:11:00 	315 		695 	0 	
2010-07-05 22:13:34 	404 		210 	0 	
2010-07-05 22:14:34 	413 		695 	0 	
2010-07-05 22:17:47 	309 		395 	0 	
2010-07-05 22:18:39 	414 		345 	0 	
2010-07-05 22:24:54 	421 		695 	0 	
2010-07-05 22:30:17 	416 		645 	0 	
2010-07-05 22:31:52 	401 		395 	0 	
2010-07-05 22:40:58 	412 		50 	0 	
2010-07-05 22:47:33 	307 		695 	0 	
2010-07-05 22:49:24 	306 		395 	0 	
2010-07-05 22:56:44 	418 		345 	0 	
2010-07-05 23:00:25 	301 		395 	0 	
2010-07-05 23:04:34 	504 		800 	0 	
2010-07-05 23:05:56 	303 		705 	0 	
2010-07-05 23:08:28 	605 		548 	0 	
2010-07-05 23:10:46 	403 		345 	0 	
2010-07-05 23:15:22 	218 		695 	0 	
2010-07-05 23:18:00 	301 		100 	0 	
2010-07-05 23:38:47 	220 		695 	0 	
2010-07-05 23:47:20 	301 		180 	0 	
2010-07-05 23:48:07 	320 		345 	0 	
2010-07-05 23:51:34 	302 		695 	0 	
2010-07-05 23:53:49 	422 		695 	0 	
2010-07-05 23:56:39 	312 		395 	0 	
2010-07-05 23:57:45 	322 		695 	0 	
 			Total:		57032 	0		

=== RECHIT LIST ===

Room No. 609 	 Rechit Date: 2010-07-05 16:46:03



Food and Beverage Sales

		
 
Order Code# 1278381518693 	 07-05 19:28
		 Bihon Guisado 	 110.00
				 Sub Total:		 110.00 






V1