MSHOGUN 1: SHIFT END REPORT
Tuesday December 20, 2011 7:58:25 AM

SALES TRANSACTION
Room Sales Order			30640
FnB Sales Order			1765
Beer Sales Order			280
Misc Sales Order			40
Room Sales Adjustment			0
GROSS SALES			32725

DISCOUNT
Room				0
FnB				0
Misc				0

DEPOSIT				6015
REFUND				

TOTAL ACCOUNTABILITY			38740

CASH DECLARATION			2791
CARD				645
FUNDS SAFEKEEP			10000
TOTAL CASH DECLARED			13436

TOTAL CASH ON SYSTEM			3791
OVER/SHORTAGES 			-1000

ROOM	 # OF CHECK-OUT	AMT
Value 		15	7745
Regular 		17	10665
Classique 		22	12230
Premium 		0	0
Regent 		0	0
Queen 		0	0
Gemini 		0	0
Family 		0	0
Executive Suite 	0	0
Mega Suite 	0	0

DISCOUNT 
Value 			  
Regular 		  
Classique 		  
Premium 		  
Regent 			  
Queen 		  
Gemini 		  
Family 		  
Executive Suite 	  
Mega Suite 		  


=== RESERVATIONS ===

Deposits:


Claimed:



SECURITY DEPOSITS

Deposits:
Claimed:


=== SALES BREAKDOWN ===

Transaction Date	Room No.	Cash	Card

2011-12-20 00:09:45 	210 		465 	0 	
2011-12-20 00:13:37 	302 		695 	0 	
2011-12-20 00:19:42 	207 		465 	0 	
2011-12-20 00:21:07 	322 		535 	0 	
2011-12-20 00:21:31 	415 		395 	0 	
2011-12-20 00:30:17 	321 		395 	0 	
2011-12-20 00:41:35 	215 		0 	645 	
2011-12-20 00:41:55 	409 		695 	0 	
2011-12-20 00:42:30 	421 		80 	0 	
2011-12-20 00:43:32 	309 		160 	0 	
2011-12-20 00:46:35 	311 		475 	0 	
2011-12-20 00:49:07 	305 		375 	0 	
2011-12-20 01:02:12 	310 		575 	0 	
2011-12-20 01:03:01 	409 		100 	0 	
2011-12-20 01:27:38 	218 		50 	0 	
2011-12-20 01:54:43 	314 		345 	0 	
2011-12-20 02:11:27 	311 		135 	0 	
2011-12-20 02:12:27 	422 		395 	0 	
2011-12-20 02:14:02 	321 		695 	0 	
2011-12-20 02:23:35 	309 		695 	0 	
2011-12-20 02:23:45 	321 		50 	0 	
2011-12-20 03:01:38 	309 		50 	0 	
2011-12-20 03:30:09 	312 		316 	0 	
2011-12-20 03:34:42 	203 		645 	0 	
2011-12-20 03:35:02 	204 		645 	0 	
2011-12-20 03:36:30 	216 		275 	0 	
2011-12-20 03:38:06 	204 		230 	0 	
2011-12-20 03:38:08 	204 		75 	0 	
2011-12-20 03:44:36 	401 		255 	0 	
2011-12-20 03:44:55 	401 		100 	0 	
2011-12-20 03:46:28 	401 		280 	0 	
2011-12-20 03:49:41 	412 		50 	0 	
2011-12-20 03:50:04 	412 		25 	0 	
2011-12-20 03:58:20 	415 		395 	0 	
2011-12-20 04:06:49 	401 		535 	0 	
2011-12-20 04:17:33 	203 		300 	0 	
2011-12-20 05:42:23 	305 		100 	0 	
2011-12-20 06:06:01 	410 		200 	0 	
2011-12-20 06:18:47 	209 		200 	0 	
2011-12-20 06:26:00 	423 		250 	0 	
2011-12-20 06:26:46 	306 		245 	0 	
2011-12-20 06:38:37 	207 		705 	0 	
2011-12-20 07:09:24 	406 		140 	0 	
 			Total:		13791 	645		

=== RECHIT LIST ===




V1