MSHOGUN 1: SHIFT END REPORT
Friday August 12, 2011 3:59:53 PM

SALES TRANSACTION
Room Sales Order			28460
FnB Sales Order			2413
Beer Sales Order			180
Misc Sales Order			15
Room Sales Adjustment			50
GROSS SALES			31118

DISCOUNT
Room				0
FnB				0
Misc				0

DEPOSIT				8545
REFUND				

TOTAL ACCOUNTABILITY			39663

CASH DECLARATION			502
CARD				695
FUNDS SAFEKEEP			20000
TOTAL CASH DECLARED			21197

TOTAL CASH ON SYSTEM			502
OVER/SHORTAGES 			0

ROOM	 # OF CHECK-OUT	AMT
Value 		9	4055
Regular 		11	6195
Classique 		36	18260
Premium 		0	0
Regent 		0	0
Queen 		0	0
Gemini 		0	0
Family 		0	0
Executive Suite 	0	0
Mega Suite 	0	0

DISCOUNT 
Value 			  
Regular 		  
Classique 		  
Premium 		  
Regent 			  
Queen 		  
Gemini 		  
Family 		  
Executive Suite 	  
Mega Suite 		  


=== RESERVATIONS ===

Deposits:


Claimed:



SECURITY DEPOSITS

Deposits:
Claimed:


=== SALES BREAKDOWN ===

Transaction Date	Room No.	Cash	Card

2011-08-12 08:30:27 	406 		50 	0 	
2011-08-12 08:31:01 	218 		395 	0 	
2011-08-12 08:32:20 	402 		395 	0 	
2011-08-12 08:56:10 	321 		240 	0 	
2011-08-12 09:02:56 	219 		535 	0 	
2011-08-12 09:07:34 	302 		50 	0 	
2011-08-12 09:37:21 	322 		395 	0 	
2011-08-12 09:44:33 	208 		275 	0 	
2011-08-12 10:00:00 	322 		50 	0 	
2011-08-12 10:14:29 	308 		395 	0 	
2011-08-12 10:30:38 	209 		275 	0 	
2011-08-12 10:33:29 	211 		490 	0 	
2011-08-12 10:44:33 	202 		200 	0 	
2011-08-12 11:00:03 	419 		395 	0 	
2011-08-12 11:01:04 	419 		90 	0 	
2011-08-12 11:09:53 	402 		395 	0 	
2011-08-12 11:29:10 	406 		395 	0 	
2011-08-12 11:48:09 	403 		705 	0 	
2011-08-12 11:55:08 	405 		275 	0 	
2011-08-12 12:07:18 	404 		395 	0 	
2011-08-12 12:10:05 	407 		395 	0 	
2011-08-12 12:15:37 	204 		945 	0 	
2011-08-12 12:20:36 	408 		316 	0 	
2011-08-12 12:27:37 	312 		395 	0 	
2011-08-12 12:27:47 	302 		395 	0 	
2011-08-12 12:31:07 	406 		110 	0 	
2011-08-12 12:34:02 	301 		395 	0 	
2011-08-12 12:42:31 	401 		395 	0 	
2011-08-12 13:01:05 	403 		130 	0 	
2011-08-12 13:03:15 	307 		395 	0 	
2011-08-12 13:05:34 	413 		395 	0 	
2011-08-12 13:12:19 	322 		395 	0 	
2011-08-12 13:14:40 	408 		198 	0 	
2011-08-12 13:24:26 	216 		275 	0 	
2011-08-12 13:27:46 	218 		395 	0 	
2011-08-12 13:30:06 	205 		345 	0 	
2011-08-12 13:31:56 	415 		395 	0 	
2011-08-12 13:38:38 	421 		395 	0 	
2011-08-12 13:39:12 	417 		316 	0 	
2011-08-12 13:43:22 	220 		395 	0 	
2011-08-12 13:48:41 	221 		395 	0 	
2011-08-12 13:48:52 	420 		345 	0 	
2011-08-12 13:57:23 	207 		345 	0 	
2011-08-12 14:00:30 	218 		255 	0 	
2011-08-12 14:00:53 	210 		345 	0 	
2011-08-12 14:10:14 	211 		345 	0 	
2011-08-12 14:13:46 	219 		395 	0 	
2011-08-12 14:14:40 	409 		316 	0 	
2011-08-12 14:22:38 	321 		395 	0 	
2011-08-12 14:28:05 	213 		345 	0 	
2011-08-12 14:28:40 	303 		345 	0 	
2011-08-12 14:29:18 	319 		395 	0 	
2011-08-12 14:53:54 	Lobby 		40 	0 	
2011-08-12 15:02:03 	315 		395 	0 	
2011-08-12 15:06:43 	402 		675 	0 	
2011-08-12 15:11:50 	408 		316 	0 	
2011-08-12 15:20:29 	306 		395 	0 	
2011-08-12 15:37:09 	416 		345 	0 	
2011-08-12 15:37:42 	418 		345 	0 	
 			Total:		20502 	0		

=== RECHIT LIST ===




V1