MSHOGUN 1: SHIFT END REPORT
Monday January 31, 2011 4:00:02 PM

SALES TRANSACTION
Room Sales Order			25275
FnB Sales Order			2395
Beer Sales Order			260
Misc Sales Order			115
Room Sales Adjustment			0
GROSS SALES			28045

DISCOUNT
Room				0
FnB				0
Misc				0

DEPOSIT				7755
REFUND				

TOTAL ACCOUNTABILITY			35800

CASH DECLARATION			4143
CARD				0
FUNDS SAFEKEEP			20000
TOTAL CASH DECLARED			24143

TOTAL CASH ON SYSTEM			4143
OVER/SHORTAGES 			0

ROOM	 # OF CHECK-OUT	AMT
Value 		7	2025
Regular 		15	7515
Classique 		29	15735
Premium 		0	0
Regent 		0	0
Queen 		0	0
Gemini 		0	0
Family 		0	0
Executive Suite 	0	0
Mega Suite 	0	0

DISCOUNT 
Value 			  
Regular 		  
Classique 		  
Premium 		  
Regent 			  
Queen 		  
Gemini 		  
Family 		  
Executive Suite 	  
Mega Suite 		  


=== RESERVATIONS ===

Deposits:


Claimed:



SECURITY DEPOSITS

Deposits:
Claimed:


=== SALES BREAKDOWN ===

Transaction Date	Room No.	Cash	Card

2011-01-31 09:03:19 	304 		100 	0 	
2011-01-31 09:03:42 	314 		480 	0 	
2011-01-31 09:04:12 	209 		275 	0 	
2011-01-31 09:13:19 	408 		560 	0 	
2011-01-31 09:16:01 	213 		120 	0 	
2011-01-31 09:18:39 	407 		395 	0 	
2011-01-31 09:20:54 	203 		345 	0 	
2011-01-31 09:33:01 	204 		585 	0 	
2011-01-31 09:37:20 	307 		110 	0 	
2011-01-31 09:43:41 	406 		395 	0 	
2011-01-31 09:57:11 	202 		345 	0 	
2011-01-31 10:06:28 	207 		345 	0 	
2011-01-31 10:12:02 	415 		395 	0 	
2011-01-31 10:42:48 	323 		275 	0 	
2011-01-31 10:46:11 	417 		395 	0 	
2011-01-31 11:01:13 	210 		585 	0 	
2011-01-31 11:02:22 	416 		585 	0 	
2011-01-31 11:07:58 	422 		210 	0 	
2011-01-31 11:14:36 	321 		395 	0 	
2011-01-31 11:24:56 	201 		585 	0 	
2011-01-31 11:25:51 	309 		395 	0 	
2011-01-31 11:31:11 	310 		275 	0 	
2011-01-31 11:32:03 	321 		205 	0 	
2011-01-31 11:37:53 	402 		395 	0 	
2011-01-31 11:47:44 	401 		316 	0 	
2011-01-31 11:55:18 	311 		275 	0 	
2011-01-31 11:58:20 	412 		395 	0 	
2011-01-31 12:18:02 	420 		345 	0 	
2011-01-31 12:20:35 	304 		140 	0 	
2011-01-31 12:30:14 	301 		395 	0 	
2011-01-31 12:32:38 	311 		205 	0 	
2011-01-31 12:46:35 	209 		100 	0 	
2011-01-31 12:51:05 	211 		125 	0 	
2011-01-31 12:58:06 	314 		345 	0 	
2011-01-31 13:04:30 	306 		395 	0 	
2011-01-31 13:05:40 	308 		395 	0 	
2011-01-31 13:06:43 	323 		190 	0 	
2011-01-31 13:08:44 	217 		275 	0 	
2011-01-31 13:11:10 	302 		395 	0 	
2011-01-31 13:19:03 	209 		275 	0 	
2011-01-31 13:19:16 	303 		345 	0 	
2011-01-31 13:19:29 	303 		20 	0 	
2011-01-31 13:27:56 	213 		465 	0 	
2011-01-31 13:36:28 	403 		345 	0 	
2011-01-31 13:36:35 	404 		535 	0 	
2011-01-31 13:37:52 	312 		395 	0 	
2011-01-31 13:41:54 	315 		395 	0 	
2011-01-31 13:43:49 	308 		85 	0 	
2011-01-31 13:45:28 	302 		30 	0 	
2011-01-31 13:57:19 	312 		90 	0 	
2011-01-31 13:57:46 	219 		395 	0 	
2011-01-31 14:05:34 	305 		275 	0 	
2011-01-31 14:05:44 	218 		395 	0 	
2011-01-31 14:13:20 	316 		345 	0 	
2011-01-31 14:15:27 	220 		316 	0 	
2011-01-31 14:19:01 	412 		316 	0 	
2011-01-31 14:22:51 	402 		235 	0 	
2011-01-31 14:27:02 	221 		395 	0 	
2011-01-31 14:31:19 	319 		395 	0 	
2011-01-31 14:36:28 	304 		395 	0 	
2011-01-31 14:36:41 	216 		275 	0 	
2011-01-31 14:42:00 	310 		205 	0 	
2011-01-31 14:44:24 	407 		395 	0 	
2011-01-31 15:00:30 	406 		395 	0 	
2011-01-31 15:03:41 	407 		160 	0 	
2011-01-31 15:15:38 	408 		395 	0 	
2011-01-31 15:18:56 	323 		275 	0 	
2011-01-31 15:20:43 	413 		395 	0 	
2011-01-31 15:22:34 	309 		395 	0 	
2011-01-31 15:25:09 	312 		50 	0 	
2011-01-31 15:36:58 	415 		395 	0 	
2011-01-31 15:42:09 	208 		275 	0 	
2011-01-31 15:48:35 	218 		395 	0 	
2011-01-31 15:55:23 	415 		70 	0 	
2011-01-31 15:57:14 	303 		585 	0 	
 			Total:		24143 	0		

=== RECHIT LIST ===




V1