MSHOGUN 1: SHIFT END REPORT
Monday March 05, 2012 8:00:02 AM

SALES TRANSACTION
Room Sales Order			23640
FnB Sales Order			1410
Beer Sales Order			165
Misc Sales Order			35
Room Sales Adjustment			0
GROSS SALES			25250

DISCOUNT
Room				0
FnB				0
Misc				0

DEPOSIT				3645
REFUND				

TOTAL ACCOUNTABILITY			28895

CASH DECLARATION			595
CARD				0
FUNDS SAFEKEEP			10000
TOTAL CASH DECLARED			10595

TOTAL CASH ON SYSTEM			575
OVER/SHORTAGES 			20

ROOM	 # OF CHECK-OUT	AMT
Value 		11	5785
Regular 		11	6675
Classique 		20	11180
Premium 		0	0
Regent 		0	0
Queen 		0	0
Gemini 		0	0
Family 		0	0
Executive Suite 	0	0
Mega Suite 	0	0

DISCOUNT 
Value 			  
Regular 		  
Classique 		  
Premium 		  
Regent 			  
Queen 		  
Gemini 		  
Family 		  
Executive Suite 	  
Mega Suite 		  


=== RESERVATIONS ===

Deposits:


Claimed:



SECURITY DEPOSITS

Deposits:
Claimed:


=== SALES BREAKDOWN ===

Transaction Date	Room No.	Cash	Card

2012-03-05 00:03:51 	309 		395 	0 	
2012-03-05 00:04:56 	301 		395 	0 	
2012-03-05 00:27:51 	311 		475 	0 	
2012-03-05 00:29:23 	205 		465 	0 	
2012-03-05 00:53:30 	322 		695 	0 	
2012-03-05 00:59:34 	401 		395 	0 	
2012-03-05 01:01:49 	207 		585 	0 	
2012-03-05 01:10:34 	219 		535 	0 	
2012-03-05 01:13:28 	220 		695 	0 	
2012-03-05 01:25:13 	409 		395 	0 	
2012-03-05 01:38:10 	409 		110 	0 	
2012-03-05 01:47:11 	210 		345 	0 	
2012-03-05 01:57:25 	316 		25 	0 	
2012-03-05 02:40:57 	412 		695 	0 	
2012-03-05 02:41:54 	310 		275 	0 	
2012-03-05 02:43:50 	301 		50 	0 	
2012-03-05 03:00:03 	221 		50 	0 	
2012-03-05 03:00:12 	409 		55 	0 	
2012-03-05 04:01:05 	309 		140 	0 	
2012-03-05 04:01:30 	301 		395 	0 	
2012-03-05 04:21:49 	209 		275 	0 	
2012-03-05 04:56:41 	401 		815 	0 	
2012-03-05 04:56:53 	309 		395 	0 	
2012-03-05 05:27:59 	423 		240 	0 	
2012-03-05 05:44:56 	405 		160 	0 	
2012-03-05 06:59:27 	217 		10 	0 	
2012-03-05 06:59:34 	207 		120 	0 	
2012-03-05 07:34:29 	309 		50 	0 	
2012-03-05 07:39:55 	411 		475 	0 	
2012-03-05 07:48:38 	205 		345 	0 	
2012-03-05 07:50:43 	411 		125 	0 	
2012-03-05 07:51:36 	219 		395 	0 	
 			Total:		10575 	0		

=== RECHIT LIST ===




V1