MSHOGUN 1: SHIFT END REPORT
Saturday August 14, 2010 8:00:01 AM

SALES TRANSACTION
Room Sales Order			48060
FnB Sales Order			2005
Beer Sales Order			930
Misc Sales Order			475
Room Sales Adjustment			0
GROSS SALES			51470

DISCOUNT
Room				0
FnB				0
Misc				0

DEPOSIT				14290
REFUND				

TOTAL ACCOUNTABILITY			65760

CASH DECLARATION			3795
CARD				1700
FUNDS SAFEKEEP			30000
TOTAL CASH DECLARED			35495

TOTAL CASH ON SYSTEM			3725
OVER/SHORTAGES 			70

ROOM	 # OF CHECK-OUT	AMT
Value 		12	5800
Regular 		24	11640
Classique 		28	15620
Premium 		6	3300
Regent 		7	5800
Queen 		2	2550
Gemini 		1	950
Family 		2	1700
Executive Suite 	1	700
Mega Suite 	0	0

DISCOUNT 
Value 			  
Regular 		  
Classique 		  
Premium 		  
Regent 			  
Queen 		  
Gemini 		  
Family 		  
Executive Suite 	  
Mega Suite 		  


=== RESERVATIONS ===

Deposits:


Claimed:



SECURITY DEPOSITS

Deposits:
Claimed:


=== SALES BREAKDOWN ===

Transaction Date	Room No.	Cash	Card

2010-08-14 00:04:17 	502 		210 	0 	
2010-08-14 00:04:24 	207 		40 	0 	
2010-08-14 00:09:12 	522 		750 	0 	
2010-08-14 00:11:42 	516 		800 	0 	
2010-08-14 00:17:41 	515 		800 	0 	
2010-08-14 00:21:06 	603 		65 	0 	
2010-08-14 00:22:55 	412 		395 	0 	
2010-08-14 00:23:07 	605 		1350 	0 	
2010-08-14 00:24:08 	511 		155 	0 	
2010-08-14 00:27:58 	317 		280 	0 	
2010-08-14 00:30:37 	314 		240 	0 	
2010-08-14 00:33:11 	311 		200 	0 	
2010-08-14 00:34:27 	317 		395 	0 	
2010-08-14 00:35:30 	210 		585 	0 	
2010-08-14 00:40:06 	201 		345 	0 	
2010-08-14 00:46:15 	519 		800 	0 	
2010-08-14 00:46:21 	314 		345 	0 	
2010-08-14 00:48:18 	515 		320 	0 	
2010-08-14 00:48:27 	317 		90 	0 	
2010-08-14 00:48:37 	521 		450 	0 	
2010-08-14 00:53:27 	310 		575 	0 	
2010-08-14 00:54:53 	520 		500 	0 	
2010-08-14 00:56:34 	609 		850 	0 	
2010-08-14 01:03:05 	320 		345 	0 	
2010-08-14 01:04:37 	603 		1050 	0 	
2010-08-14 01:06:43 	208 		275 	0 	
2010-08-14 01:14:14 	311 		575 	0 	
2010-08-14 01:18:56 	615 		850 	0 	
2010-08-14 01:19:24 	205 		225 	0 	
2010-08-14 01:22:27 	209 		475 	0 	
2010-08-14 01:25:44 	617 		850 	0 	
2010-08-14 01:30:43 	401 		50 	0 	
2010-08-14 01:38:29 	314 		345 	0 	
2010-08-14 01:43:58 	205 		345 	0 	
2010-08-14 01:44:04 	401 		110 	0 	
2010-08-14 01:49:11 	206 		465 	0 	
2010-08-14 01:49:40 	604 		950 	0 	
2010-08-14 01:53:44 	606 		950 	0 	
2010-08-14 01:54:24 	602 		700 	0 	
2010-08-14 01:56:23 	322 		420 	0 	
2010-08-14 01:56:59 	614 		1100 	0 	
2010-08-14 01:58:46 	604 		10 	0 	
2010-08-14 02:00:53 	202 		345 	0 	
2010-08-14 02:05:11 	607 		950 	0 	
2010-08-14 02:09:09 	322 		395 	0 	
2010-08-14 02:11:38 	606 		15 	0 	
2010-08-14 02:25:00 	519 		205 	0 	
2010-08-14 02:31:12 	409 		140 	0 	
2010-08-14 02:41:17 	309 		395 	0 	
2010-08-14 02:48:02 	221 		395 	0 	
2010-08-14 02:48:10 	409 		395 	0 	
2010-08-14 02:58:45 	412 		395 	0 	
2010-08-14 02:59:04 	Lobby 		80 	0 	
2010-08-14 03:03:55 	221 		80 	0 	
2010-08-14 03:03:57 	221 		25 	0 	
2010-08-14 03:03:59 	221 		30 	0 	
2010-08-14 03:04:08 	309 		90 	0 	
2010-08-14 03:10:14 	401 		395 	0 	
2010-08-14 03:10:30 	317 		395 	0 	
2010-08-14 03:13:14 	307 		50 	0 	
2010-08-14 03:15:07 	615 		165 	0 	
2010-08-14 03:21:14 	523 		450 	0 	
2010-08-14 03:32:35 	521 		450 	0 	
2010-08-14 03:37:28 	320 		345 	0 	
2010-08-14 03:41:29 	520 		500 	0 	
2010-08-14 03:52:02 	521 		85 	0 	
2010-08-14 04:23:28 	201 		120 	0 	
2010-08-14 04:25:54 	412 		395 	0 	
2010-08-14 04:26:43 	206 		-50 	0 	
2010-08-14 04:27:41 	206 		70 	0 	
2010-08-14 04:31:32 	503 		25 	0 	
2010-08-14 05:00:32 	503 		205 	0 	
2010-08-14 05:01:08 	203 		360 	0 	
2010-08-14 05:02:47 	503 		10 	0 	
2010-08-14 05:03:05 	401 		395 	0 	
2010-08-14 05:09:13 	208 		100 	0 	
2010-08-14 05:42:21 	317 		280 	0 	
2010-08-14 05:43:56 	205 		120 	0 	
2010-08-14 05:49:10 	415 		340 	0 	
2010-08-14 05:50:48 	310 		50 	0 	
2010-08-14 06:00:25 	206 		345 	0 	
2010-08-14 06:10:49 	613 		1200 	0 	
2010-08-14 06:28:12 	404 		395 	0 	
2010-08-14 07:11:29 	203 		345 	0 	
2010-08-14 07:46:46 	309 		675 	0 	
2010-08-14 07:47:14 	309 		50 	0 	
2010-08-14 07:51:49 	605 		65 	0 	
2010-08-14 07:54:37 	606 		40 	0 	
2010-08-14 07:55:50 	409 		395 	0 	
2010-08-14 07:55:58 	312 		395 	0 	
 			Total:		33725 	0		

=== RECHIT LIST ===




V1