MSHOGUN 1: SHIFT END REPORT
Monday August 29, 2011 4:00:10 PM

SALES TRANSACTION
Room Sales Order			29205
FnB Sales Order			2600
Beer Sales Order			375
Misc Sales Order			65
Room Sales Adjustment			0
GROSS SALES			32245

DISCOUNT
Room				0
FnB				0
Misc				0

DEPOSIT				11960
REFUND				

TOTAL ACCOUNTABILITY			44205

CASH DECLARATION			6215
CARD				695
FUNDS SAFEKEEP			20000
TOTAL CASH DECLARED			26910

TOTAL CASH ON SYSTEM			6000
OVER/SHORTAGES 			215

ROOM	 # OF CHECK-OUT	AMT
Value 		13	6235
Regular 		16	8400
Classique 		26	14570
Premium 		0	0
Regent 		0	0
Queen 		0	0
Gemini 		0	0
Family 		0	0
Executive Suite 	0	0
Mega Suite 	0	0

DISCOUNT 
Value 			  
Regular 		  
Classique 		  
Premium 		  
Regent 			  
Queen 		  
Gemini 		  
Family 		  
Executive Suite 	  
Mega Suite 		  


=== RESERVATIONS ===

Deposits:


Claimed:



SECURITY DEPOSITS

Deposits:
Claimed:


=== SALES BREAKDOWN ===

Transaction Date	Room No.	Cash	Card

2011-08-29 08:15:17 	416 		705 	0 	
2011-08-29 08:23:26 	212 		490 	0 	
2011-08-29 09:00:48 	406 		395 	0 	
2011-08-29 09:04:16 	404 		445 	0 	
2011-08-29 09:15:17 	204 		165 	0 	
2011-08-29 09:19:52 	405 		100 	0 	
2011-08-29 09:30:47 	312 		395 	0 	
2011-08-29 09:32:41 	314 		345 	0 	
2011-08-29 09:36:58 	413 		675 	0 	
2011-08-29 09:44:50 	403 		345 	0 	
2011-08-29 09:50:16 	401 		395 	0 	
2011-08-29 09:51:06 	204 		175 	0 	
2011-08-29 10:06:56 	317 		1375 	0 	
2011-08-29 10:22:31 	220 		140 	0 	
2011-08-29 10:43:57 	320 		345 	0 	
2011-08-29 10:51:35 	315 		395 	0 	
2011-08-29 11:20:19 	310 		275 	0 	
2011-08-29 11:43:59 	402 		395 	0 	
2011-08-29 11:51:43 	407 		395 	0 	
2011-08-29 12:10:00 	321 		395 	0 	
2011-08-29 12:20:10 	311 		275 	0 	
2011-08-29 12:22:19 	402 		100 	0 	
2011-08-29 12:25:06 	322 		395 	0 	
2011-08-29 12:28:40 	311 		15 	0 	
2011-08-29 12:28:49 	306 		395 	0 	
2011-08-29 12:31:09 	312 		395 	0 	
2011-08-29 12:48:23 	206 		705 	0 	
2011-08-29 12:51:49 	319 		395 	0 	
2011-08-29 12:59:49 	206 		25 	0 	
2011-08-29 13:04:48 	211 		345 	0 	
2011-08-29 13:06:30 	209 		275 	0 	
2011-08-29 13:09:39 	309 		395 	0 	
2011-08-29 13:15:50 	207 		345 	0 	
2011-08-29 13:16:42 	210 		345 	0 	
2011-08-29 13:24:46 	207 		10 	0 	
2011-08-29 13:28:26 	208 		275 	0 	
2011-08-29 13:36:19 	214 		275 	0 	
2011-08-29 13:40:57 	422 		395 	0 	
2011-08-29 13:49:43 	308 		395 	0 	
2011-08-29 13:53:55 	317 		205 	0 	
2011-08-29 14:03:25 	205 		345 	0 	
2011-08-29 14:04:20 	421 		395 	0 	
2011-08-29 14:07:11 	420 		345 	0 	
2011-08-29 14:19:56 	403 		585 	0 	
2011-08-29 14:22:12 	304 		395 	0 	
2011-08-29 14:25:28 	302 		395 	0 	
2011-08-29 14:26:38 	413 		395 	0 	
2011-08-29 14:28:08 	408 		395 	0 	
2011-08-29 14:40:48 	409 		395 	0 	
2011-08-29 14:41:30 	414 		345 	0 	
2011-08-29 14:41:39 	409 		90 	0 	
2011-08-29 14:45:48 	205 		15 	0 	
2011-08-29 14:46:46 	303 		345 	0 	
2011-08-29 14:47:03 	417 		395 	0 	
2011-08-29 14:48:14 	212 		275 	0 	
2011-08-29 14:50:19 	404 		395 	0 	
2011-08-29 14:51:34 	419 		395 	0 	
2011-08-29 14:52:41 	215 		345 	0 	
2011-08-29 14:55:35 	217 		275 	0 	
2011-08-29 14:56:11 	415 		395 	0 	
2011-08-29 15:00:24 	401 		395 	0 	
2011-08-29 15:04:49 	402 		395 	0 	
2011-08-29 15:14:34 	209 		235 	0 	
2011-08-29 15:15:59 	218 		395 	0 	
2011-08-29 15:19:22 	406 		395 	0 	
2011-08-29 15:21:28 	407 		675 	0 	
2011-08-29 15:31:00 	316 		345 	0 	
2011-08-29 15:32:06 	323 		275 	0 	
2011-08-29 15:34:02 	218 		50 	0 	
2011-08-29 15:34:10 	408 		270 	0 	
2011-08-29 15:37:51 	316 		10 	0 	
2011-08-29 15:43:55 	220 		395 	0 	
2011-08-29 15:46:02 	312 		395 	0 	
2011-08-29 15:46:54 	324 		275 	0 	
2011-08-29 15:53:54 	310 		275 	0 	
 			Total:		26000 	0		

=== RECHIT LIST ===




V1