MSHOGUN 1: SHIFT END REPORT
Thursday October 20, 2011 3:59:05 PM

SALES TRANSACTION
Room Sales Order			25760
FnB Sales Order			1290
Beer Sales Order			260
Misc Sales Order			20
Room Sales Adjustment			0
GROSS SALES			27330

DISCOUNT
Room				0
FnB				0
Misc				0

DEPOSIT				13138
REFUND				

TOTAL ACCOUNTABILITY			40468

CASH DECLARATION			9132
CARD				1040
FUNDS SAFEKEEP			20000
TOTAL CASH DECLARED			30172

TOTAL CASH ON SYSTEM			9128
OVER/SHORTAGES 			4

ROOM	 # OF CHECK-OUT	AMT
Value 		11	4605
Regular 		12	6180
Classique 		33	14975
Premium 		0	0
Regent 		0	0
Queen 		0	0
Gemini 		0	0
Family 		0	0
Executive Suite 	0	0
Mega Suite 	0	0

DISCOUNT 
Value 			  
Regular 		  
Classique 		  
Premium 		  
Regent 			  
Queen 		  
Gemini 		  
Family 		  
Executive Suite 	  
Mega Suite 		  


=== RESERVATIONS ===

Deposits:


Claimed:



SECURITY DEPOSITS

Deposits:
Claimed:


=== SALES BREAKDOWN ===

Transaction Date	Room No.	Cash	Card

2011-10-20 08:04:37 	209 		155 	0 	
2011-10-20 08:08:37 	221 		395 	0 	
2011-10-20 08:40:38 	304 		395 	0 	
2011-10-20 08:54:50 	324 		250 	0 	
2011-10-20 08:56:54 	302 		395 	0 	
2011-10-20 09:13:48 	319 		395 	0 	
2011-10-20 09:29:45 	411 		320 	0 	
2011-10-20 09:39:54 	206 		345 	0 	
2011-10-20 10:06:35 	321 		395 	0 	
2011-10-20 10:11:24 	301 		395 	0 	
2011-10-20 10:22:40 	401 		316 	0 	
2011-10-20 10:24:40 	318 		345 	0 	
2011-10-20 10:38:36 	414 		585 	0 	
2011-10-20 10:49:24 	307 		395 	0 	
2011-10-20 10:54:40 	312 		395 	0 	
2011-10-20 10:57:45 	407 		395 	0 	
2011-10-20 11:06:15 	208 		110 	0 	
2011-10-20 11:12:54 	406 		395 	0 	
2011-10-20 11:37:15 	415 		815 	0 	
2011-10-20 11:37:27 	203 		465 	0 	
2011-10-20 11:45:53 	221 		316 	0 	
2011-10-20 11:52:34 	309 		316 	0 	
2011-10-20 11:52:46 	422 		395 	0 	
2011-10-20 11:55:21 	215 		345 	0 	
2011-10-20 12:01:44 	204 		585 	0 	
2011-10-20 12:09:17 	322 		395 	0 	
2011-10-20 12:09:31 	412 		395 	0 	
2011-10-20 12:23:56 	210 		345 	0 	
2011-10-20 12:24:03 	404 		395 	0 	
2011-10-20 12:24:14 	408 		316 	0 	
2011-10-20 12:27:45 	319 		50 	0 	
2011-10-20 12:30:44 	306 		395 	0 	
2011-10-20 12:30:52 	219 		395 	0 	
2011-10-20 12:33:10 	313 		395 	0 	
2011-10-20 12:34:09 	413 		395 	0 	
2011-10-20 12:34:19 	409 		395 	0 	
2011-10-20 12:35:11 	208 		275 	0 	
2011-10-20 12:41:32 	207 		345 	0 	
2011-10-20 12:44:49 	313 		90 	0 	
2011-10-20 12:48:08 	304 		535 	0 	
2011-10-20 12:48:19 	205 		705 	0 	
2011-10-20 12:52:21 	308 		180 	0 	
2011-10-20 12:57:40 	209 		275 	0 	
2011-10-20 12:58:46 	203 		245 	0 	
2011-10-20 13:00:15 	315 		395 	0 	
2011-10-20 13:00:49 	218 		395 	0 	
2011-10-20 13:03:11 	205 		180 	0 	
2011-10-20 13:06:40 	319 		395 	0 	
2011-10-20 13:07:07 	305 		275 	0 	
2011-10-20 13:10:45 	206 		345 	0 	
2011-10-20 13:12:18 	323 		575 	0 	
2011-10-20 13:18:10 	307 		270 	0 	
2011-10-20 13:18:34 	302 		395 	0 	
2011-10-20 13:18:40 	214 		275 	0 	
2011-10-20 13:25:25 	417 		75 	0 	
2011-10-20 13:36:01 	307 		395 	0 	
2011-10-20 13:40:23 	321 		395 	0 	
2011-10-20 13:46:26 	220 		395 	0 	
2011-10-20 13:46:33 	324 		275 	0 	
2011-10-20 13:59:24 	409 		395 	0 	
2011-10-20 13:59:34 	221 		395 	0 	
2011-10-20 14:01:00 	309 		395 	0 	
2011-10-20 14:02:13 	407 		395 	0 	
2011-10-20 14:21:51 	402 		395 	0 	
2011-10-20 14:34:05 	401 		395 	0 	
2011-10-20 14:48:45 	408 		478 	0 	
2011-10-20 14:53:09 	301 		395 	0 	
2011-10-20 15:00:53 	408 		140 	0 	
2011-10-20 15:02:04 	218 		395 	0 	
2011-10-20 15:10:50 	312 		395 	0 	
2011-10-20 15:15:30 	308 		395 	0 	
2011-10-20 15:19:15 	317 		395 	0 	
2011-10-20 15:20:11 	404 		395 	0 	
2011-10-20 15:24:16 	322 		395 	0 	
2011-10-20 15:24:34 	208 		275 	0 	
2011-10-20 15:27:14 	213 		345 	0 	
2011-10-20 15:32:36 	406 		395 	0 	
2011-10-20 15:52:28 	205 		85 	0 	
2011-10-20 15:53:41 	419 		395 	0 	
2011-10-20 15:53:51 	417 		395 	0 	
2011-10-20 15:55:32 	422 		316 	0 	
 			Total:		29128 	0		

=== RECHIT LIST ===




V1