MSHOGUN 1: SHIFT END REPORT
Monday March 28, 2011 4:00:19 PM

SALES TRANSACTION
Room Sales Order			24420
FnB Sales Order			1580
Beer Sales Order			180
Misc Sales Order			95
Room Sales Adjustment			0
GROSS SALES			26275

DISCOUNT
Room				0
FnB				0
Misc				0

DEPOSIT				11115
REFUND				

TOTAL ACCOUNTABILITY			37390

CASH DECLARATION			2116
CARD				0
FUNDS SAFEKEEP			20000
TOTAL CASH DECLARED			22116

TOTAL CASH ON SYSTEM			2211
OVER/SHORTAGES 			-95

ROOM	 # OF CHECK-OUT	AMT
Value 		11	5085
Regular 		14	6510
Classique 		23	12825
Premium 		0	0
Regent 		0	0
Queen 		0	0
Gemini 		0	0
Family 		0	0
Executive Suite 	0	0
Mega Suite 	0	0

DISCOUNT 
Value 			  
Regular 		  
Classique 		  
Premium 		  
Regent 			  
Queen 		  
Gemini 		  
Family 		  
Executive Suite 	  
Mega Suite 		  


=== RESERVATIONS ===

Deposits:


Claimed:



SECURITY DEPOSITS

Deposits:
Claimed:


=== SALES BREAKDOWN ===

Transaction Date	Room No.	Cash	Card

2011-03-28 08:20:58 	409 		395 	0 	
2011-03-28 08:33:47 	212 		500 	0 	
2011-03-28 08:39:32 	309 		105 	0 	
2011-03-28 08:45:22 	324 		270 	0 	
2011-03-28 08:47:22 	410 		210 	0 	
2011-03-28 09:30:42 	309 		140 	0 	
2011-03-28 09:44:43 	420 		345 	0 	
2011-03-28 09:44:52 	301 		395 	0 	
2011-03-28 09:51:25 	301 		30 	0 	
2011-03-28 10:08:28 	203 		585 	0 	
2011-03-28 10:12:00 	205 		345 	0 	
2011-03-28 10:14:56 	303 		705 	0 	
2011-03-28 10:22:47 	305 		275 	0 	
2011-03-28 10:44:40 	314 		295 	0 	
2011-03-28 10:50:53 	202 		345 	0 	
2011-03-28 10:52:43 	304 		395 	0 	
2011-03-28 11:04:24 	401 		395 	0 	
2011-03-28 11:08:43 	307 		395 	0 	
2011-03-28 11:17:24 	321 		395 	0 	
2011-03-28 11:19:47 	313 		395 	0 	
2011-03-28 11:27:45 	211 		705 	0 	
2011-03-28 11:28:36 	204 		345 	0 	
2011-03-28 11:51:34 	206 		345 	0 	
2011-03-28 11:54:34 	317 		395 	0 	
2011-03-28 11:55:44 	401 		160 	0 	
2011-03-28 11:56:22 	201 		345 	0 	
2011-03-28 12:03:23 	208 		275 	0 	
2011-03-28 12:12:08 	209 		375 	0 	
2011-03-28 12:32:47 	210 		345 	0 	
2011-03-28 13:18:16 	202 		205 	0 	
2011-03-28 13:25:55 	212 		275 	0 	
2011-03-28 13:33:51 	207 		345 	0 	
2011-03-28 13:34:48 	308 		395 	0 	
2011-03-28 13:42:28 	320 		345 	0 	
2011-03-28 13:42:43 	309 		395 	0 	
2011-03-28 13:49:30 	214 		275 	0 	
2011-03-28 14:00:20 	302 		395 	0 	
2011-03-28 14:05:12 	304 		395 	0 	
2011-03-28 14:20:01 	318 		345 	0 	
2011-03-28 14:25:51 	307 		395 	0 	
2011-03-28 14:38:04 	208 		275 	0 	
2011-03-28 14:43:18 	313 		395 	0 	
2011-03-28 14:52:30 	306 		395 	0 	
2011-03-28 14:53:26 	321 		395 	0 	
2011-03-28 15:02:16 	215 		345 	0 	
2011-03-28 15:10:01 	317 		395 	0 	
2011-03-28 15:11:16 	205 		240 	0 	
2011-03-28 15:12:54 	204 		276 	0 	
2011-03-28 15:16:52 	406 		535 	0 	
2011-03-28 15:18:21 	314 		345 	0 	
2011-03-28 15:21:22 	301 		395 	0 	
2011-03-28 15:23:40 	319 		395 	0 	
2011-03-28 15:24:48 	203 		345 	0 	
2011-03-28 15:26:21 	404 		395 	0 	
2011-03-28 15:27:21 	202 		345 	0 	
2011-03-28 15:30:14 	304 		440 	0 	
2011-03-28 15:32:34 	213 		345 	0 	
2011-03-28 15:36:00 	407 		395 	0 	
2011-03-28 15:36:18 	402 		395 	0 	
2011-03-28 15:38:28 	408 		395 	0 	
2011-03-28 15:45:52 	213 		10 	0 	
2011-03-28 15:54:10 	409 		395 	0 	
2011-03-28 15:55:08 	218 		395 	0 	
 			Total:		22211 	0		

=== RECHIT LIST ===




V1