MSHOGUN 1: SHIFT END REPORT
Wednesday October 12, 2011 3:59:01 PM

SALES TRANSACTION
Room Sales Order			29250
FnB Sales Order			825
Beer Sales Order			305
Misc Sales Order			20
Room Sales Adjustment			50
GROSS SALES			30450

DISCOUNT
Room				0
FnB				0
Misc				0

DEPOSIT				12515
REFUND				

TOTAL ACCOUNTABILITY			42965

CASH DECLARATION			3756
CARD				395
FUNDS SAFEKEEP			20000
TOTAL CASH DECLARED			24151

TOTAL CASH ON SYSTEM			3756
OVER/SHORTAGES 			0

ROOM	 # OF CHECK-OUT	AMT
Value 		7	3905
Regular 		17	9825
Classique 		30	15570
Premium 		0	0
Regent 		0	0
Queen 		0	0
Gemini 		0	0
Family 		0	0
Executive Suite 	0	0
Mega Suite 	0	0

DISCOUNT 
Value 			  
Regular 		  
Classique 		  
Premium 		  
Regent 			  
Queen 		  
Gemini 		  
Family 		  
Executive Suite 	  
Mega Suite 		  


=== RESERVATIONS ===

Deposits:


Claimed:



SECURITY DEPOSITS

Deposits:
Claimed:


=== SALES BREAKDOWN ===

Transaction Date	Room No.	Cash	Card

2011-10-12 08:12:20 	209 		155 	0 	
2011-10-12 08:15:16 	303 		25 	0 	
2011-10-12 08:41:59 	408 		395 	0 	
2011-10-12 08:55:07 	413 		395 	0 	
2011-10-12 09:03:31 	206 		345 	0 	
2011-10-12 09:19:00 	423 		45 	0 	
2011-10-12 09:33:08 	309 		395 	0 	
2011-10-12 10:01:12 	220 		140 	0 	
2011-10-12 10:04:05 	321 		395 	0 	
2011-10-12 10:12:37 	321 		190 	0 	
2011-10-12 10:19:05 	202 		40 	0 	
2011-10-12 10:37:41 	208 		210 	0 	
2011-10-12 10:47:42 	402 		140 	0 	
2011-10-12 10:59:00 	319 		395 	0 	
2011-10-12 11:32:20 	213 		636 	0 	
2011-10-12 11:44:05 	407 		395 	0 	
2011-10-12 11:58:21 	421 		535 	0 	
2011-10-12 12:02:12 	421 		50 	0 	
2011-10-12 12:11:20 	304 		395 	0 	
2011-10-12 12:11:30 	412 		395 	0 	
2011-10-12 12:14:10 	419 		395 	0 	
2011-10-12 12:19:25 	308 		395 	0 	
2011-10-12 12:19:37 	207 		585 	0 	
2011-10-12 12:19:46 	313 		395 	0 	
2011-10-12 12:39:54 	307 		395 	0 	
2011-10-12 12:45:36 	301 		395 	0 	
2011-10-12 12:54:37 	206 		705 	0 	
2011-10-12 12:57:59 	218 		395 	0 	
2011-10-12 13:00:21 	217 		475 	0 	
2011-10-12 13:01:33 	206 		25 	0 	
2011-10-12 13:01:36 	206 		25 	0 	
2011-10-12 13:01:59 	207 		-240 	0 	
2011-10-12 13:11:19 	302 		316 	0 	
2011-10-12 13:13:26 	406 		395 	0 	
2011-10-12 13:19:55 	409 		815 	0 	
2011-10-12 13:20:42 	405 		300 	0 	
2011-10-12 13:22:49 	303 		345 	0 	
2011-10-12 13:23:05 	319 		395 	0 	
2011-10-12 13:25:34 	310 		275 	0 	
2011-10-12 13:29:56 	304 		395 	0 	
2011-10-12 13:37:45 	411 		275 	0 	
2011-10-12 13:40:42 	420 		345 	0 	
2011-10-12 13:44:36 	415 		395 	0 	
2011-10-12 13:58:11 	321 		395 	0 	
2011-10-12 13:59:22 	418 		345 	0 	
2011-10-12 14:07:02 	404 		395 	0 	
2011-10-12 14:12:28 	209 		275 	0 	
2011-10-12 14:19:43 	210 		465 	0 	
2011-10-12 14:21:35 	201 		465 	0 	
2011-10-12 14:27:09 	204 		345 	0 	
2011-10-12 14:27:54 	205 		465 	0 	
2011-10-12 14:43:55 	322 		395 	0 	
2011-10-12 14:59:41 	312 		316 	0 	
2011-10-12 15:02:56 	314 		345 	0 	
2011-10-12 15:03:20 	210 		605 	0 	
2011-10-12 15:14:36 	324 		275 	0 	
2011-10-12 15:16:08 	401 		395 	0 	
2011-10-12 15:25:43 	308 		395 	0 	
2011-10-12 15:25:55 	218 		316 	0 	
2011-10-12 15:26:08 	413 		316 	0 	
2011-10-12 15:26:54 	309 		316 	0 	
2011-10-12 15:27:05 	402 		395 	0 	
2011-10-12 15:35:13 	424 		475 	0 	
2011-10-12 15:38:28 	319 		395 	0 	
2011-10-12 15:42:51 	302 		220 	0 	
2011-10-12 15:47:05 	306 		395 	0 	
2011-10-12 15:49:20 	307 		395 	0 	
2011-10-12 15:50:10 	301 		395 	0 	
2011-10-12 15:57:21 	313 		395 	0 	
 			Total:		23756 	0		

=== RECHIT LIST ===




V1