MSHOGUN 1: SHIFT END REPORT
Thursday April 14, 2011 12:00:01 AM

SALES TRANSACTION
Room Sales Order			22320
FnB Sales Order			803
Beer Sales Order			360
Misc Sales Order			55
Room Sales Adjustment			0
GROSS SALES			23538

DISCOUNT
Room				0
FnB				0
Misc				0

DEPOSIT				17575
REFUND				

TOTAL ACCOUNTABILITY			41113

CASH DECLARATION			1954
CARD				1770
FUNDS SAFEKEEP			20000
TOTAL CASH DECLARED			23724

TOTAL CASH ON SYSTEM			1954
OVER/SHORTAGES 			0

ROOM	 # OF CHECK-OUT	AMT
Value 		11	3025
Regular 		18	7050
Classique 		31	12245
Premium 		0	0
Regent 		0	0
Queen 		0	0
Gemini 		0	0
Family 		0	0
Executive Suite 	0	0
Mega Suite 	0	0

DISCOUNT 
Value 			  
Regular 		  
Classique 		  
Premium 		  
Regent 			  
Queen 		  
Gemini 		  
Family 		  
Executive Suite 	  
Mega Suite 		  


=== RESERVATIONS ===

Deposits:


Claimed:



SECURITY DEPOSITS

Deposits:
Claimed:


=== SALES BREAKDOWN ===

Transaction Date	Room No.	Cash	Card

2011-04-13 20:04:22 	324 		275 	0 	
2011-04-13 20:05:37 	203 		645 	0 	
2011-04-13 20:06:38 	205 		345 	0 	
2011-04-13 20:09:16 	215 		45 	0 	
2011-04-13 20:12:42 	405 		595 	0 	
2011-04-13 20:16:02 	424 		275 	0 	
2011-04-13 20:30:01 	418 		645 	0 	
2011-04-13 20:30:24 	402 		695 	0 	
2011-04-13 20:36:45 	414 		645 	0 	
2011-04-13 20:37:36 	401 		395 	0 	
2011-04-13 20:40:03 	309 		0 	395 	
2011-04-13 20:40:32 	402 		180 	0 	
2011-04-13 20:43:50 	416 		645 	0 	
2011-04-13 20:56:55 	405 		50 	0 	
2011-04-13 20:57:03 	220 		260 	0 	
2011-04-13 20:58:19 	305 		595 	0 	
2011-04-13 21:04:30 	423 		275 	0 	
2011-04-13 21:06:46 	313 		695 	0 	
2011-04-13 21:08:28 	201 		276 	0 	
2011-04-13 21:11:19 	407 		695 	0 	
2011-04-13 21:14:07 	308 		395 	0 	
2011-04-13 21:14:32 	404 		395 	0 	
2011-04-13 21:16:32 	420 		345 	0 	
2011-04-13 21:20:44 	307 		0 	395 	
2011-04-13 21:22:19 	422 		395 	0 	
2011-04-13 21:29:38 	406 		290 	0 	
2011-04-13 21:31:20 	421 		695 	0 	
2011-04-13 21:37:43 	420 		30 	0 	
2011-04-13 21:44:45 	304 		395 	0 	
2011-04-13 21:51:22 	422 		423 	0 	
2011-04-13 21:54:59 	303 		345 	0 	
2011-04-13 22:05:19 	324 		595 	0 	
2011-04-13 22:10:46 	316 		120 	0 	
2011-04-13 22:19:06 	417 		395 	0 	
2011-04-13 22:22:42 	312 		395 	0 	
2011-04-13 22:31:06 	315 		695 	0 	
2011-04-13 22:39:51 	321 		695 	0 	
2011-04-13 22:41:15 	302 		695 	0 	
2011-04-13 22:51:07 	306 		695 	0 	
2011-04-13 22:55:42 	219 		695 	0 	
2011-04-13 22:59:57 	209 		275 	0 	
2011-04-13 23:08:21 	218 		395 	0 	
2011-04-13 23:10:45 	205 		345 	0 	
2011-04-13 23:12:26 	320 		645 	0 	
2011-04-13 23:19:45 	303 		235 	0 	
2011-04-13 23:19:55 	407 		320 	0 	
2011-04-13 23:20:03 	324 		500 	0 	
2011-04-13 23:22:22 	213 		645 	0 	
2011-04-13 23:36:06 	221 		395 	0 	
2011-04-13 23:45:21 	306 		385 	0 	
2011-04-13 23:45:38 	406 		10 	0 	
2011-04-13 23:46:13 	313 		60 	0 	
2011-04-13 23:50:08 	319 		695 	0 	
2011-04-13 23:51:59 	404 		130 	0 	
 			Total:		21954 	790		

=== RECHIT LIST ===




V1