MSHOGUN 1: SHIFT END REPORT
Wednesday December 07, 2011 12:00:38 AM

SALES TRANSACTION
Room Sales Order			25455
FnB Sales Order			2573
Beer Sales Order			120
Misc Sales Order			20
Room Sales Adjustment			0
GROSS SALES			28168

DISCOUNT
Room				0
FnB				0
Misc				0

DEPOSIT				33510
REFUND				

TOTAL ACCOUNTABILITY			61678

CASH DECLARATION			2056
CARD				0
FUNDS SAFEKEEP			50000
TOTAL CASH DECLARED			52056

TOTAL CASH ON SYSTEM			2106
OVER/SHORTAGES 			-50

ROOM	 # OF CHECK-OUT	AMT
Value 		19	6425
Regular 		13	5205
Classique 		35	13825
Premium 		0	0
Regent 		0	0
Queen 		0	0
Gemini 		0	0
Family 		0	0
Executive Suite 	0	0
Mega Suite 	0	0

DISCOUNT 
Value 			  
Regular 		  
Classique 		  
Premium 		  
Regent 			  
Queen 		  
Gemini 		  
Family 		  
Executive Suite 	  
Mega Suite 		  


=== RESERVATIONS ===

Deposits:


Claimed:



SECURITY DEPOSITS

Deposits:
Claimed:


=== SALES BREAKDOWN ===

Transaction Date	Room No.	Cash	Card

2011-12-06 16:06:43 	219 		395 	0 	
2011-12-06 16:07:02 	221 		316 	0 	
2011-12-06 16:10:20 	423 		275 	0 	
2011-12-06 16:10:34 	307 		395 	0 	
2011-12-06 16:20:12 	304 		395 	0 	
2011-12-06 16:22:31 	313 		395 	0 	
2011-12-06 16:24:49 	315 		395 	0 	
2011-12-06 16:31:29 	410 		275 	0 	
2011-12-06 16:37:07 	409 		395 	0 	
2011-12-06 16:46:03 	304 		190 	0 	
2011-12-06 16:56:44 	307 		40 	0 	
2011-12-06 17:00:15 	306 		395 	0 	
2011-12-06 17:01:18 	308 		395 	0 	
2011-12-06 17:08:20 	320 		363 	0 	
2011-12-06 17:09:30 	321 		285 	0 	
2011-12-06 17:09:57 	220 		395 	0 	
2011-12-06 17:19:54 	403 		260 	0 	
2011-12-06 17:28:47 	301 		395 	0 	
2011-12-06 17:30:16 	216 		275 	0 	
2011-12-06 17:37:28 	316 		345 	0 	
2011-12-06 17:40:49 	216 		120 	0 	
2011-12-06 17:53:56 	217 		275 	0 	
2011-12-06 17:56:19 	318 		345 	0 	
2011-12-06 17:57:50 	310 		275 	0 	
2011-12-06 18:02:44 	303 		276 	0 	
2011-12-06 18:06:12 	313 		395 	0 	
2011-12-06 18:09:50 	319 		395 	0 	
2011-12-06 18:12:49 	208 		275 	0 	
2011-12-06 18:29:23 	417 		695 	0 	
2011-12-06 18:30:07 	218 		395 	0 	
2011-12-06 18:30:21 	407 		395 	0 	
2011-12-06 18:33:09 	419 		695 	0 	
2011-12-06 18:39:53 	402 		695 	0 	
2011-12-06 18:42:03 	422 		395 	0 	
2011-12-06 18:44:58 	314 		345 	0 	
2011-12-06 18:49:39 	403 		345 	0 	
2011-12-06 18:49:49 	408 		395 	0 	
2011-12-06 18:50:04 	322 		395 	0 	
2011-12-06 18:50:27 	416 		276 	0 	
2011-12-06 18:51:25 	219 		200 	0 	
2011-12-06 18:55:45 	420 		645 	0 	
2011-12-06 18:56:16 	212 		275 	0 	
2011-12-06 18:58:37 	406 		395 	0 	
2011-12-06 19:00:39 	415 		695 	0 	
2011-12-06 19:00:49 	315 		395 	0 	
2011-12-06 19:00:58 	318 		345 	0 	
2011-12-06 19:04:03 	422 		210 	0 	
2011-12-06 19:06:54 	404 		395 	0 	
2011-12-06 19:10:22 	407 		460 	0 	
2011-12-06 19:14:00 	423 		595 	0 	
2011-12-06 19:14:10 	401 		395 	0 	
2011-12-06 19:20:27 	Lobby 		130 	0 	
2011-12-06 19:21:21 	309 		395 	0 	
2011-12-06 19:28:02 	323 		595 	0 	
2011-12-06 19:31:33 	413 		695 	0 	
2011-12-06 19:37:29 	305 		280 	0 	
2011-12-06 19:40:19 	324 		595 	0 	
2011-12-06 19:49:32 	418 		645 	0 	
2011-12-06 19:49:40 	405 		275 	0 	
2011-12-06 19:52:32 	412 		395 	0 	
2011-12-06 20:02:39 	317 		695 	0 	
2011-12-06 20:03:03 	321 		695 	0 	
2011-12-06 20:03:23 	311 		275 	0 	
2011-12-06 20:15:39 	416 		645 	0 	
2011-12-06 20:17:58 	421 		695 	0 	
2011-12-06 20:19:27 	312 		395 	0 	
2011-12-06 20:27:34 	319 		695 	0 	
2011-12-06 20:32:38 	302 		695 	0 	
2011-12-06 20:34:34 	216 		0 	595 	
2011-12-06 20:39:30 	410 		275 	0 	
2011-12-06 20:42:10 	308 		395 	0 	
2011-12-06 20:46:29 	306 		695 	0 	
2011-12-06 20:48:19 	413 		330 	0 	
2011-12-06 20:48:50 	216 		10 	0 	
2011-12-06 20:54:15 	307 		695 	0 	
2011-12-06 20:58:06 	219 		395 	0 	
2011-12-06 21:00:48 	319 		210 	0 	
2011-12-06 21:04:23 	217 		595 	0 	
2011-12-06 21:11:16 	220 		695 	0 	
2011-12-06 21:14:03 	305 		595 	0 	
2011-12-06 21:23:56 	321 		90 	0 	
2011-12-06 21:24:47 	221 		395 	0 	
2011-12-06 21:27:27 	407 		695 	0 	
2011-12-06 21:28:23 	304 		695 	0 	
2011-12-06 21:30:27 	322 		395 	0 	
2011-12-06 21:34:19 	316 		345 	0 	
2011-12-06 21:34:31 	408 		695 	0 	
2011-12-06 21:37:26 	414 		645 	0 	
2011-12-06 21:41:58 	320 		645 	0 	
2011-12-06 21:47:17 	403 		645 	0 	
2011-12-06 21:48:17 	315 		695 	0 	
2011-12-06 21:51:39 	318 		645 	0 	
2011-12-06 22:02:57 	314 		345 	0 	
2011-12-06 22:03:19 	404 		695 	0 	
2011-12-06 22:09:06 	314 		50 	0 	
2011-12-06 22:09:43 	413 		135 	0 	
2011-12-06 22:22:28 	406 		695 	0 	
2011-12-06 22:43:39 	303 		345 	0 	
2011-12-06 22:44:41 	422 		695 	0 	
2011-12-06 22:54:49 	218 		695 	0 	
2011-12-06 22:55:58 	215 		645 	0 	
2011-12-06 22:56:16 	409 		395 	0 	
2011-12-06 22:57:46 	412 		395 	0 	
2011-12-06 22:58:47 	409 		25 	0 	
2011-12-06 22:59:40 	301 		395 	0 	
2011-12-06 23:02:56 	308 		0 	395 	
2011-12-06 23:04:54 	213 		345 	0 	
2011-12-06 23:05:14 	211 		645 	0 	
2011-12-06 23:05:30 	405 		595 	0 	
2011-12-06 23:08:25 	206 		645 	0 	
2011-12-06 23:15:11 	204 		645 	0 	
2011-12-06 23:15:23 	203 		645 	0 	
2011-12-06 23:17:35 	205 		645 	0 	
2011-12-06 23:20:15 	309 		395 	0 	
2011-12-06 23:36:01 	202 		645 	0 	
2011-12-06 23:36:15 	312 		395 	0 	
2011-12-06 23:48:15 	424 		595 	0 	
2011-12-06 23:48:39 	212 		575 	0 	
2011-12-06 23:51:32 	214 		595 	0 	
 			Total:		52106 	990		

=== RECHIT LIST ===




V1