MSHOGUN 1: SHIFT END REPORT
Tuesday April 05, 2011 3:58:59 PM

SALES TRANSACTION
Room Sales Order			23320
FnB Sales Order			1835
Beer Sales Order			0
Misc Sales Order			0
Room Sales Adjustment			0
GROSS SALES			25155

DISCOUNT
Room				0
FnB				0
Misc				0

DEPOSIT				6190
REFUND				

TOTAL ACCOUNTABILITY			31345

CASH DECLARATION			8393
CARD				0
FUNDS SAFEKEEP			10000
TOTAL CASH DECLARED			18393

TOTAL CASH ON SYSTEM			8393
OVER/SHORTAGES 			0

ROOM	 # OF CHECK-OUT	AMT
Value 		5	2655
Regular 		12	5580
Classique 		31	15085
Premium 		0	0
Regent 		0	0
Queen 		0	0
Gemini 		0	0
Family 		0	0
Executive Suite 	0	0
Mega Suite 	0	0

DISCOUNT 
Value 			  
Regular 		  
Classique 		  
Premium 		  
Regent 			  
Queen 		  
Gemini 		  
Family 		  
Executive Suite 	  
Mega Suite 		  


=== RESERVATIONS ===

Deposits:


Claimed:



SECURITY DEPOSITS

Deposits:
Claimed:


=== SALES BREAKDOWN ===

Transaction Date	Room No.	Cash	Card

2011-04-05 08:03:45 	303 		155 	0 	
2011-04-05 08:07:42 	301 		140 	0 	
2011-04-05 08:46:02 	408 		50 	0 	
2011-04-05 08:59:56 	211 		120 	0 	
2011-04-05 09:23:16 	306 		395 	0 	
2011-04-05 09:29:46 	314 		516 	0 	
2011-04-05 09:34:47 	312 		395 	0 	
2011-04-05 09:37:00 	308 		395 	0 	
2011-04-05 09:39:58 	407 		395 	0 	
2011-04-05 10:13:01 	204 		345 	0 	
2011-04-05 10:50:25 	215 		345 	0 	
2011-04-05 11:06:02 	417 		25 	0 	
2011-04-05 11:29:44 	302 		395 	0 	
2011-04-05 11:36:56 	304 		316 	0 	
2011-04-05 11:43:20 	321 		395 	0 	
2011-04-05 11:49:28 	212 		275 	0 	
2011-04-05 12:02:10 	307 		395 	0 	
2011-04-05 12:22:20 	210 		345 	0 	
2011-04-05 12:22:32 	321 		290 	0 	
2011-04-05 12:42:41 	315 		395 	0 	
2011-04-05 12:44:57 	316 		345 	0 	
2011-04-05 12:49:55 	303 		705 	0 	
2011-04-05 12:50:28 	221 		395 	0 	
2011-04-05 12:56:56 	317 		395 	0 	
2011-04-05 12:58:22 	304 		395 	0 	
2011-04-05 13:00:16 	310 		275 	0 	
2011-04-05 13:00:44 	205 		345 	0 	
2011-04-05 13:06:56 	306 		316 	0 	
2011-04-05 13:08:50 	219 		395 	0 	
2011-04-05 13:15:59 	202 		345 	0 	
2011-04-05 13:16:12 	312 		395 	0 	
2011-04-05 13:18:05 	210 		180 	0 	
2011-04-05 13:27:53 	308 		395 	0 	
2011-04-05 13:41:27 	401 		395 	0 	
2011-04-05 13:42:33 	402 		395 	0 	
2011-04-05 13:43:38 	404 		395 	0 	
2011-04-05 13:49:30 	302 		210 	0 	
2011-04-05 13:49:39 	409 		395 	0 	
2011-04-05 13:56:02 	416 		345 	0 	
2011-04-05 14:22:05 	418 		345 	0 	
2011-04-05 14:23:53 	408 		395 	0 	
2011-04-05 14:34:10 	415 		395 	0 	
2011-04-05 14:38:50 	419 		395 	0 	
2011-04-05 14:44:10 	218 		395 	0 	
2011-04-05 14:48:11 	211 		585 	0 	
2011-04-05 14:59:20 	421 		395 	0 	
2011-04-05 15:00:33 	402 		395 	0 	
2011-04-05 15:08:06 	420 		345 	0 	
2011-04-05 15:10:24 	221 		395 	0 	
2011-04-05 15:21:43 	315 		395 	0 	
2011-04-05 15:22:30 	414 		345 	0 	
2011-04-05 15:44:01 	314 		120 	0 	
2011-04-05 15:48:35 	406 		395 	0 	
 			Total:		18393 	0		

=== RECHIT LIST ===




V1