MSHOGUN 1: SHIFT END REPORT
Monday August 30, 2010 8:00:20 AM

SALES TRANSACTION
Room Sales Order			37555
FnB Sales Order			1863
Beer Sales Order			840
Misc Sales Order			105
Room Sales Adjustment			0
GROSS SALES			40363

DISCOUNT
Room				0
FnB				0
Misc				0

DEPOSIT				9738
REFUND				

TOTAL ACCOUNTABILITY			50101

CASH DECLARATION			5598
CARD				2185
FUNDS SAFEKEEP			10000
TOTAL CASH DECLARED			17783

TOTAL CASH ON SYSTEM			6488
OVER/SHORTAGES 			-890

ROOM	 # OF CHECK-OUT	AMT
Value 		13	6715
Regular 		13	7605
Classique 		31	16685
Premium 		2	1500
Regent 		2	2400
Queen 		2	1700
Gemini 		1	950
Family 		0	0
Executive Suite 	0	0
Mega Suite 	0	0

DISCOUNT 
Value 			  
Regular 		  
Classique 		  
Premium 		  
Regent 			  
Queen 		  
Gemini 		  
Family 		  
Executive Suite 	  
Mega Suite 		  


=== RESERVATIONS ===

Deposits:


Claimed:



SECURITY DEPOSITS

Deposits:
Claimed:


=== SALES BREAKDOWN ===

Transaction Date	Room No.	Cash	Card

2010-08-30 00:09:53 	503 		800 	0 	
2010-08-30 00:11:41 	505 		800 	0 	
2010-08-30 00:14:38 	210 		345 	0 	
2010-08-30 00:17:24 	213 		345 	0 	
2010-08-30 00:29:37 	214 		575 	0 	
2010-08-30 00:36:20 	506 		800 	0 	
2010-08-30 00:36:55 	417 		270 	0 	
2010-08-30 00:58:18 	409 		395 	0 	
2010-08-30 01:01:16 	322 		395 	0 	
2010-08-30 01:06:56 	208 		275 	0 	
2010-08-30 01:08:43 	302 		395 	0 	
2010-08-30 01:17:37 	423 		575 	0 	
2010-08-30 01:26:51 	401 		395 	0 	
2010-08-30 01:27:02 	421 		395 	0 	
2010-08-30 01:38:49 	312 		140 	0 	
2010-08-30 01:50:00 	401 		15 	0 	
2010-08-30 01:50:56 	421 		30 	0 	
2010-08-30 01:53:42 	301 		395 	0 	
2010-08-30 02:00:22 	502 		30 	0 	
2010-08-30 02:18:31 	312 		395 	0 	
2010-08-30 03:00:40 	514 		800 	0 	
2010-08-30 03:10:11 	306 		395 	0 	
2010-08-30 03:10:55 	408 		675 	0 	
2010-08-30 04:12:16 	612 		90 	0 	
2010-08-30 04:17:35 	409 		395 	0 	
2010-08-30 04:35:23 	312 		395 	0 	
2010-08-30 04:52:27 	421 		395 	0 	
2010-08-30 04:53:00 	421 		25 	0 	
2010-08-30 05:01:54 	401 		395 	0 	
2010-08-30 05:05:39 	403 		465 	0 	
2010-08-30 05:07:57 	302 		675 	0 	
2010-08-30 06:02:52 	501 		50 	0 	
2010-08-30 06:09:44 	608 		850 	0 	
2010-08-30 06:12:54 	207 		120 	0 	
2010-08-30 06:17:39 	210 		345 	0 	
2010-08-30 06:45:18 	313 		25 	0 	
2010-08-30 06:47:53 	610 		100 	0 	
2010-08-30 06:47:56 	610 		408 	0 	
2010-08-30 07:07:34 	520 		25 	0 	
2010-08-30 07:13:41 	322 		420 	0 	
2010-08-30 07:16:29 	219 		50 	0 	
2010-08-30 07:37:49 	518 		25 	0 	
2010-08-30 07:40:43 	610 		0 	2100 	
2010-08-30 07:41:16 	519 		800 	0 	
2010-08-30 07:43:53 	516 		800 	0 	
 			Total:		16488 	2100		

=== RECHIT LIST ===




V1