MSHOGUN 1: SHIFT END REPORT
Friday December 16, 2011 7:58:07 AM

SALES TRANSACTION
Room Sales Order			26925
FnB Sales Order			1318
Beer Sales Order			270
Misc Sales Order			35
Room Sales Adjustment			0
GROSS SALES			28548

DISCOUNT
Room				0
FnB				0
Misc				0

DEPOSIT				5935
REFUND				

TOTAL ACCOUNTABILITY			34483

CASH DECLARATION			3040
CARD				0
FUNDS SAFEKEEP			10000
TOTAL CASH DECLARED			13040

TOTAL CASH ON SYSTEM			3060
OVER/SHORTAGES 			-20

ROOM	 # OF CHECK-OUT	AMT
Value 		15	7505
Regular 		12	6360
Classique 		24	13060
Premium 		0	0
Regent 		0	0
Queen 		0	0
Gemini 		0	0
Family 		0	0
Executive Suite 	0	0
Mega Suite 	0	0

DISCOUNT 
Value 			  
Regular 		  
Classique 		  
Premium 		  
Regent 			  
Queen 		  
Gemini 		  
Family 		  
Executive Suite 	  
Mega Suite 		  


=== RESERVATIONS ===

Deposits:


Claimed:



SECURITY DEPOSITS

Deposits:
Claimed:


=== SALES BREAKDOWN ===

Transaction Date	Room No.	Cash	Card

2011-12-16 00:06:06 	306 		695 	0 	
2011-12-16 00:47:54 	221 		695 	0 	
2011-12-16 01:02:25 	209 		575 	0 	
2011-12-16 01:17:54 	409 		290 	0 	
2011-12-16 01:24:27 	301 		395 	0 	
2011-12-16 01:27:05 	309 		395 	0 	
2011-12-16 01:28:13 	312 		395 	0 	
2011-12-16 01:29:20 	210 		465 	0 	
2011-12-16 01:32:59 	212 		100 	0 	
2011-12-16 01:42:15 	212 		275 	0 	
2011-12-16 01:45:55 	312 		90 	0 	
2011-12-16 01:47:30 	210 		45 	0 	
2011-12-16 01:49:29 	220 		295 	0 	
2011-12-16 02:03:18 	207 		345 	0 	
2011-12-16 02:11:20 	413 		100 	0 	
2011-12-16 02:51:37 	401 		395 	0 	
2011-12-16 03:08:21 	412 		395 	0 	
2011-12-16 03:14:18 	310 		100 	0 	
2011-12-16 03:17:35 	301 		395 	0 	
2011-12-16 03:49:16 	407 		270 	0 	
2011-12-16 04:35:50 	312 		395 	0 	
2011-12-16 04:44:02 	318 		945 	0 	
2011-12-16 04:45:15 	413 		395 	0 	
2011-12-16 06:10:48 	309 		395 	0 	
2011-12-16 06:18:47 	410 		150 	0 	
2011-12-16 06:27:09 	315 		395 	0 	
2011-12-16 06:45:56 	419 		15 	0 	
2011-12-16 06:59:57 	404 		395 	0 	
2011-12-16 07:02:56 	316 		705 	0 	
2011-12-16 07:12:13 	324 		210 	0 	
2011-12-16 07:14:46 	317 		395 	0 	
2011-12-16 07:27:18 	215 		585 	0 	
2011-12-16 07:30:11 	412 		140 	0 	
2011-12-16 07:31:26 	301 		395 	0 	
2011-12-16 07:36:01 	213 		585 	0 	
2011-12-16 07:37:12 	323 		250 	0 	
 			Total:		13060 	0		

=== RECHIT LIST ===




V1