MSHOGUN 1: SHIFT END REPORT
Sunday September 18, 2011 4:02:12 PM

SALES TRANSACTION
Room Sales Order			45140
FnB Sales Order			3255
Beer Sales Order			480
Misc Sales Order			20
Room Sales Adjustment			0
GROSS SALES			48895

DISCOUNT
Room				0
FnB				0
Misc				0

DEPOSIT				21015
REFUND				

TOTAL ACCOUNTABILITY			69910

CASH DECLARATION			5227
CARD				0
FUNDS SAFEKEEP			40000
TOTAL CASH DECLARED			45227

TOTAL CASH ON SYSTEM			5207
OVER/SHORTAGES 			20

ROOM	 # OF CHECK-OUT	AMT
Value 		21	8855
Regular 		24	12540
Classique 		43	23745
Premium 		0	0
Regent 		0	0
Queen 		0	0
Gemini 		0	0
Family 		0	0
Executive Suite 	0	0
Mega Suite 	0	0

DISCOUNT 
Value 			  
Regular 		  
Classique 		  
Premium 		  
Regent 			  
Queen 		  
Gemini 		  
Family 		  
Executive Suite 	  
Mega Suite 		  


=== RESERVATIONS ===

Deposits:


Claimed:



SECURITY DEPOSITS

Deposits:
Claimed:


=== SALES BREAKDOWN ===

Transaction Date	Room No.	Cash	Card

2011-09-18 08:09:19 	317 		140 	0 	
2011-09-18 08:28:02 	210 		360 	0 	
2011-09-18 08:43:13 	314 		345 	0 	
2011-09-18 08:43:34 	321 		395 	0 	
2011-09-18 08:51:30 	407 		395 	0 	
2011-09-18 08:54:05 	315 		280 	0 	
2011-09-18 09:04:09 	320 		276 	0 	
2011-09-18 09:05:07 	205 		275 	0 	
2011-09-18 09:08:29 	221 		130 	0 	
2011-09-18 09:12:47 	402 		420 	0 	
2011-09-18 09:22:09 	211 		50 	0 	
2011-09-18 09:27:04 	307 		165 	0 	
2011-09-18 09:27:34 	316 		345 	0 	
2011-09-18 09:30:07 	420 		825 	0 	
2011-09-18 09:32:15 	212 		275 	0 	
2011-09-18 09:36:17 	406 		395 	0 	
2011-09-18 09:38:56 	306 		395 	0 	
2011-09-18 10:10:28 	206 		345 	0 	
2011-09-18 10:16:27 	210 		345 	0 	
2011-09-18 10:24:02 	303 		345 	0 	
2011-09-18 10:27:08 	311 		375 	0 	
2011-09-18 10:39:14 	308 		395 	0 	
2011-09-18 10:47:18 	320 		345 	0 	
2011-09-18 10:54:01 	217 		575 	0 	
2011-09-18 10:58:32 	211 		205 	0 	
2011-09-18 11:02:18 	208 		275 	0 	
2011-09-18 11:03:39 	408 		495 	0 	
2011-09-18 11:04:33 	318 		480 	0 	
2011-09-18 11:10:27 	307 		316 	0 	
2011-09-18 11:10:40 	302 		395 	0 	
2011-09-18 11:10:51 	209 		275 	0 	
2011-09-18 11:11:04 	403 		705 	0 	
2011-09-18 11:14:32 	305 		275 	0 	
2011-09-18 11:15:05 	319 		535 	0 	
2011-09-18 11:15:51 	319 		50 	0 	
2011-09-18 11:34:33 	317 		395 	0 	
2011-09-18 11:40:16 	302 		190 	0 	
2011-09-18 11:42:46 	203 		465 	0 	
2011-09-18 11:42:55 	322 		395 	0 	
2011-09-18 11:47:18 	313 		395 	0 	
2011-09-18 11:53:18 	408 		395 	0 	
2011-09-18 11:59:05 	404 		395 	0 	
2011-09-18 11:59:35 	416 		345 	0 	
2011-09-18 12:08:49 	402 		395 	0 	
2011-09-18 12:13:46 	324 		275 	0 	
2011-09-18 12:15:45 	417 		395 	0 	
2011-09-18 12:17:59 	414 		345 	0 	
2011-09-18 12:21:03 	318 		345 	0 	
2011-09-18 12:25:16 	323 		275 	0 	
2011-09-18 12:33:22 	221 		395 	0 	
2011-09-18 12:33:37 	315 		395 	0 	
2011-09-18 12:47:17 	206 		345 	0 	
2011-09-18 12:49:29 	411 		275 	0 	
2011-09-18 13:06:15 	407 		395 	0 	
2011-09-18 13:06:25 	424 		275 	0 	
2011-09-18 13:20:15 	418 		705 	0 	
2011-09-18 13:20:24 	202 		345 	0 	
2011-09-18 13:20:41 	215 		465 	0 	
2011-09-18 13:24:07 	220 		700 	0 	
2011-09-18 13:24:53 	309 		395 	0 	
2011-09-18 13:25:04 	423 		275 	0 	
2011-09-18 13:25:15 	312 		395 	0 	
2011-09-18 13:28:16 	406 		395 	0 	
2011-09-18 13:32:31 	322 		395 	0 	
2011-09-18 13:38:33 	419 		395 	0 	
2011-09-18 13:38:48 	208 		275 	0 	
2011-09-18 13:43:03 	405 		275 	0 	
2011-09-18 13:43:13 	415 		395 	0 	
2011-09-18 13:43:26 	412 		395 	0 	
2011-09-18 13:46:27 	304 		395 	0 	
2011-09-18 13:46:39 	212 		275 	0 	
2011-09-18 13:47:05 	205 		345 	0 	
2011-09-18 13:49:10 	214 		475 	0 	
2011-09-18 13:50:09 	214 		20 	0 	
2011-09-18 14:02:16 	303 		465 	0 	
2011-09-18 14:04:42 	310 		275 	0 	
2011-09-18 14:04:55 	210 		345 	0 	
2011-09-18 14:05:10 	410 		275 	0 	
2011-09-18 14:16:46 	324 		275 	0 	
2011-09-18 14:17:52 	207 		345 	0 	
2011-09-18 14:18:01 	305 		275 	0 	
2011-09-18 14:19:09 	311 		275 	0 	
2011-09-18 14:19:27 	216 		275 	0 	
2011-09-18 14:28:37 	307 		395 	0 	
2011-09-18 14:32:14 	308 		395 	0 	
2011-09-18 14:32:23 	421 		395 	0 	
2011-09-18 14:32:32 	320 		276 	0 	
2011-09-18 14:32:41 	316 		276 	0 	
2011-09-18 14:32:51 	306 		395 	0 	
2011-09-18 14:33:02 	314 		345 	0 	
2011-09-18 14:39:52 	409 		395 	0 	
2011-09-18 14:40:04 	201 		345 	0 	
2011-09-18 14:40:17 	204 		465 	0 	
2011-09-18 14:40:28 	413 		395 	0 	
2011-09-18 14:44:46 	301 		395 	0 	
2011-09-18 14:46:46 	209 		100 	0 	
2011-09-18 14:47:06 	219 		395 	0 	
2011-09-18 14:47:18 	313 		395 	0 	
2011-09-18 14:50:29 	419 		316 	0 	
2011-09-18 14:51:57 	211 		120 	0 	
2011-09-18 14:53:20 	408 		316 	0 	
2011-09-18 14:57:46 	304 		110 	0 	
2011-09-18 14:58:04 	220 		395 	0 	
2011-09-18 14:58:42 	302 		395 	0 	
2011-09-18 15:00:44 	412 		395 	0 	
2011-09-18 15:02:44 	407 		380 	0 	
2011-09-18 15:03:13 	318 		160 	0 	
2011-09-18 15:05:23 	317 		395 	0 	
2011-09-18 15:08:46 	321 		395 	0 	
2011-09-18 15:09:40 	401 		395 	0 	
2011-09-18 15:11:44 	416 		345 	0 	
2011-09-18 15:13:50 	218 		316 	0 	
2011-09-18 15:19:07 	415 		395 	0 	
2011-09-18 15:25:01 	323 		275 	0 	
2011-09-18 15:25:11 	404 		395 	0 	
2011-09-18 15:25:21 	209 		275 	0 	
2011-09-18 15:29:41 	211 		345 	0 	
2011-09-18 15:29:50 	414 		345 	0 	
2011-09-18 15:30:19 	407 		675 	0 	
2011-09-18 15:34:12 	320 		220 	0 	
2011-09-18 15:34:28 	316 		215 	0 	
2011-09-18 15:35:08 	402 		395 	0 	
2011-09-18 15:37:35 	216 		275 	0 	
2011-09-18 15:37:57 	203 		345 	0 	
2011-09-18 15:39:23 	318 		345 	0 	
2011-09-18 15:41:55 	412 		50 	0 	
2011-09-18 15:42:56 	409 		395 	0 	
2011-09-18 15:46:29 	315 		395 	0 	
2011-09-18 15:50:29 	411 		275 	0 	
2011-09-18 15:50:38 	319 		395 	0 	
 			Total:		45207 	0		

=== RECHIT LIST ===




V1