MSHOGUN 1: SHIFT END REPORT
Friday February 10, 2012 4:00:01 PM

SALES TRANSACTION
Room Sales Order			28235
FnB Sales Order			1475
Beer Sales Order			0
Misc Sales Order			105
Room Sales Adjustment			0
GROSS SALES			29815

DISCOUNT
Room				0
FnB				0
Misc				0

DEPOSIT				10215
REFUND				

TOTAL ACCOUNTABILITY			40030

CASH DECLARATION			7058
CARD				1101
FUNDS SAFEKEEP			20000
TOTAL CASH DECLARED			28159

TOTAL CASH ON SYSTEM			6827
OVER/SHORTAGES 			231

ROOM	 # OF CHECK-OUT	AMT
Value 		10	4430
Regular 		16	7260
Classique 		31	16545
Premium 		0	0
Regent 		0	0
Queen 		0	0
Gemini 		0	0
Family 		0	0
Executive Suite 	0	0
Mega Suite 	0	0

DISCOUNT 
Value 			  
Regular 		  
Classique 		  
Premium 		  
Regent 			  
Queen 		  
Gemini 		  
Family 		  
Executive Suite 	  
Mega Suite 		  


=== RESERVATIONS ===

Deposits:


Claimed:



SECURITY DEPOSITS

Deposits:
Claimed:


=== SALES BREAKDOWN ===

Transaction Date	Room No.	Cash	Card

2012-02-10 08:20:08 	207 		345 	0 	
2012-02-10 08:24:04 	219 		395 	0 	
2012-02-10 08:46:10 	308 		395 	0 	
2012-02-10 08:53:39 	407 		395 	0 	
2012-02-10 08:54:45 	210 		345 	0 	
2012-02-10 08:54:54 	406 		395 	0 	
2012-02-10 09:16:19 	303 		360 	0 	
2012-02-10 09:21:06 	320 		585 	0 	
2012-02-10 09:28:49 	207 		30 	0 	
2012-02-10 09:35:37 	408 		395 	0 	
2012-02-10 09:38:15 	412 		0 	456 	
2012-02-10 09:39:12 	410 		275 	0 	
2012-02-10 09:40:24 	409 		395 	0 	
2012-02-10 09:42:28 	415 		535 	0 	
2012-02-10 09:53:38 	421 		110 	0 	
2012-02-10 10:00:30 	323 		100 	0 	
2012-02-10 10:03:17 	204 		345 	0 	
2012-02-10 10:03:58 	315 		15 	0 	
2012-02-10 10:13:35 	215 		945 	0 	
2012-02-10 10:14:39 	424 		575 	0 	
2012-02-10 10:24:28 	218 		350 	0 	
2012-02-10 10:34:50 	205 		345 	0 	
2012-02-10 11:05:51 	311 		275 	0 	
2012-02-10 11:13:03 	408 		205 	0 	
2012-02-10 11:27:06 	414 		585 	0 	
2012-02-10 11:36:53 	206 		345 	0 	
2012-02-10 11:38:18 	414 		50 	0 	
2012-02-10 11:38:40 	309 		395 	0 	
2012-02-10 12:09:42 	304 		395 	0 	
2012-02-10 12:19:52 	310 		275 	0 	
2012-02-10 12:20:04 	306 		395 	0 	
2012-02-10 12:27:17 	418 		345 	0 	
2012-02-10 12:32:56 	420 		345 	0 	
2012-02-10 12:33:47 	306 		40 	0 	
2012-02-10 12:36:08 	307 		395 	0 	
2012-02-10 12:43:32 	313 		395 	0 	
2012-02-10 12:44:33 	314 		345 	0 	
2012-02-10 12:48:55 	319 		395 	0 	
2012-02-10 12:50:14 	308 		395 	0 	
2012-02-10 12:51:03 	310 		210 	0 	
2012-02-10 12:52:58 	315 		395 	0 	
2012-02-10 12:57:26 	218 		395 	0 	
2012-02-10 12:57:32 	317 		395 	0 	
2012-02-10 12:58:51 	203 		345 	0 	
2012-02-10 12:59:13 	203 		25 	0 	
2012-02-10 13:06:28 	220 		420 	0 	
2012-02-10 13:07:51 	304 		395 	0 	
2012-02-10 13:09:38 	322 		395 	0 	
2012-02-10 13:12:53 	312 		395 	0 	
2012-02-10 13:21:57 	419 		395 	0 	
2012-02-10 13:24:01 	208 		275 	0 	
2012-02-10 13:26:46 	422 		395 	0 	
2012-02-10 13:31:25 	202 		1425 	0 	
2012-02-10 13:37:36 	209 		275 	0 	
2012-02-10 13:40:51 	421 		316 	0 	
2012-02-10 13:49:43 	411 		275 	0 	
2012-02-10 14:00:37 	312 		105 	0 	
2012-02-10 14:05:25 	406 		395 	0 	
2012-02-10 14:07:24 	414 		-240 	0 	
2012-02-10 14:09:23 	407 		395 	0 	
2012-02-10 14:11:02 	212 		275 	0 	
2012-02-10 14:14:16 	402 		395 	0 	
2012-02-10 14:14:38 	403 		345 	0 	
2012-02-10 14:15:23 	212 		95 	0 	
2012-02-10 14:18:49 	305 		275 	0 	
2012-02-10 14:24:05 	316 		585 	0 	
2012-02-10 14:42:56 	302 		395 	0 	
2012-02-10 14:44:37 	409 		316 	0 	
2012-02-10 14:46:35 	311 		275 	0 	
2012-02-10 14:47:12 	405 		275 	0 	
2012-02-10 14:52:42 	302 		20 	0 	
2012-02-10 15:04:25 	301 		395 	0 	
2012-02-10 15:07:57 	306 		395 	0 	
2012-02-10 15:18:23 	321 		395 	0 	
2012-02-10 15:30:51 	317 		395 	0 	
2012-02-10 15:35:18 	303 		345 	0 	
2012-02-10 15:37:33 	221 		395 	0 	
2012-02-10 15:49:54 	313 		395 	0 	
2012-02-10 15:50:28 	323 		275 	0 	
 			Total:		26827 	456		

=== RECHIT LIST ===




V1