MSHOGUN 1: SHIFT END REPORT
Wednesday March 23, 2011 12:00:05 AM

SALES TRANSACTION
Room Sales Order			27545
FnB Sales Order			2078
Beer Sales Order			160
Misc Sales Order			25
Room Sales Adjustment			0
GROSS SALES			29808

DISCOUNT
Room				0
FnB				0
Misc				0

DEPOSIT				24178
REFUND				

TOTAL ACCOUNTABILITY			53986

CASH DECLARATION			4386
CARD				0
FUNDS SAFEKEEP			40000
TOTAL CASH DECLARED			44386

TOTAL CASH ON SYSTEM			4386
OVER/SHORTAGES 			0

ROOM	 # OF CHECK-OUT	AMT
Value 		5	1375
Regular 		18	6930
Classique 		48	19240
Premium 		0	0
Regent 		0	0
Queen 		0	0
Gemini 		0	0
Family 		0	0
Executive Suite 	0	0
Mega Suite 	0	0

DISCOUNT 
Value 			  
Regular 		  
Classique 		  
Premium 		  
Regent 			  
Queen 		  
Gemini 		  
Family 		  
Executive Suite 	  
Mega Suite 		  


=== RESERVATIONS ===

Deposits:


Claimed:



SECURITY DEPOSITS

Deposits:
Claimed:


=== SALES BREAKDOWN ===

Transaction Date	Room No.	Cash	Card

2011-03-22 16:14:50 	218 		395 	0 	
2011-03-22 16:15:01 	219 		395 	0 	
2011-03-22 16:15:13 	220 		395 	0 	
2011-03-22 16:15:25 	221 		395 	0 	
2011-03-22 16:15:53 	213 		585 	0 	
2011-03-22 16:16:36 	309 		395 	0 	
2011-03-22 16:17:25 	202 		276 	0 	
2011-03-22 16:34:23 	307 		395 	0 	
2011-03-22 16:44:39 	404 		198 	0 	
2011-03-22 16:45:53 	203 		345 	0 	
2011-03-22 17:01:02 	208 		275 	0 	
2011-03-22 17:13:18 	212 		275 	0 	
2011-03-22 17:17:59 	306 		395 	0 	
2011-03-22 17:23:18 	312 		395 	0 	
2011-03-22 17:23:35 	315 		395 	0 	
2011-03-22 17:23:47 	204 		345 	0 	
2011-03-22 17:38:26 	312 		160 	0 	
2011-03-22 17:41:15 	211 		345 	0 	
2011-03-22 17:49:30 	205 		345 	0 	
2011-03-22 17:53:55 	206 		345 	0 	
2011-03-22 17:54:07 	301 		395 	0 	
2011-03-22 17:54:20 	207 		345 	0 	
2011-03-22 17:57:14 	402 		395 	0 	
2011-03-22 17:59:50 	219 		50 	0 	
2011-03-22 18:05:30 	220 		170 	0 	
2011-03-22 18:15:29 	214 		275 	0 	
2011-03-22 18:18:51 	403 		645 	0 	
2011-03-22 18:21:16 	308 		395 	0 	
2011-03-22 18:23:46 	321 		395 	0 	
2011-03-22 18:24:30 	313 		395 	0 	
2011-03-22 18:31:25 	404 		395 	0 	
2011-03-22 18:47:48 	406 		695 	0 	
2011-03-22 18:50:52 	412 		316 	0 	
2011-03-22 18:52:35 	412 		50 	0 	
2011-03-22 19:03:20 	401 		395 	0 	
2011-03-22 19:08:01 	309 		55 	0 	
2011-03-22 19:13:36 	314 		345 	0 	
2011-03-22 19:13:54 	318 		345 	0 	
2011-03-22 19:18:54 	320 		645 	0 	
2011-03-22 19:20:37 	301 		55 	0 	
2011-03-22 19:21:06 	319 		140 	0 	
2011-03-22 19:29:21 	307 		395 	0 	
2011-03-22 19:30:42 	309 		316 	0 	
2011-03-22 19:33:00 	304 		395 	0 	
2011-03-22 19:39:31 	315 		695 	0 	
2011-03-22 19:40:12 	306 		395 	0 	
2011-03-22 19:52:47 	219 		395 	0 	
2011-03-22 19:54:08 	320 		238 	0 	
2011-03-22 19:56:52 	301 		160 	0 	
2011-03-22 19:57:11 	319 		316 	0 	
2011-03-22 20:01:16 	417 		695 	0 	
2011-03-22 20:01:27 	413 		695 	0 	
2011-03-22 20:04:16 	319 		10 	0 	
2011-03-22 20:13:30 	218 		395 	0 	
2011-03-22 20:17:45 	208 		275 	0 	
2011-03-22 20:26:01 	220 		316 	0 	
2011-03-22 20:34:43 	408 		695 	0 	
2011-03-22 20:37:10 	215 		345 	0 	
2011-03-22 20:37:34 	407 		695 	0 	
2011-03-22 20:40:43 	221 		395 	0 	
2011-03-22 20:41:02 	317 		395 	0 	
2011-03-22 20:41:18 	415 		695 	0 	
2011-03-22 20:45:19 	306 		290 	0 	
2011-03-22 20:48:00 	409 		695 	0 	
2011-03-22 20:48:13 	402 		395 	0 	
2011-03-22 20:51:47 	316 		250 	0 	
2011-03-22 20:53:33 	216 		595 	0 	
2011-03-22 20:57:55 	402 		25 	0 	
2011-03-22 20:58:43 	315 		260 	0 	
2011-03-22 20:59:29 	404 		695 	0 	
2011-03-22 21:04:52 	322 		395 	0 	
2011-03-22 21:07:24 	313 		695 	0 	
2011-03-22 21:13:04 	321 		695 	0 	
2011-03-22 21:13:22 	302 		695 	0 	
2011-03-22 21:16:05 	301 		395 	0 	
2011-03-22 21:16:16 	323 		595 	0 	
2011-03-22 21:16:31 	419 		695 	0 	
2011-03-22 21:25:29 	309 		260 	0 	
2011-03-22 21:31:12 	421 		695 	0 	
2011-03-22 21:37:17 	422 		695 	0 	
2011-03-22 21:45:53 	308 		695 	0 	
2011-03-22 21:52:02 	306 		695 	0 	
2011-03-22 21:57:32 	219 		695 	0 	
2011-03-22 22:03:45 	307 		210 	0 	
2011-03-22 22:05:24 	312 		395 	0 	
2011-03-22 22:05:36 	212 		595 	0 	
2011-03-22 22:10:29 	220 		695 	0 	
2011-03-22 22:31:39 	412 		395 	0 	
2011-03-22 22:32:52 	307 		695 	0 	
2011-03-22 22:38:11 	420 		645 	0 	
2011-03-22 22:45:22 	416 		585 	0 	
2011-03-22 22:45:40 	418 		585 	0 	
2011-03-22 22:52:03 	401 		395 	0 	
2011-03-22 23:04:27 	401 		90 	0 	
2011-03-22 23:10:04 	414 		705 	0 	
2011-03-22 23:10:48 	304 		695 	0 	
2011-03-22 23:18:38 	221 		50 	0 	
2011-03-22 23:22:20 	402 		695 	0 	
2011-03-22 23:22:38 	319 		695 	0 	
2011-03-22 23:23:45 	421 		135 	0 	
2011-03-22 23:24:37 	309 		395 	0 	
2011-03-22 23:27:14 	312 		395 	0 	
2011-03-22 23:45:47 	317 		395 	0 	
2011-03-22 23:47:33 	316 		585 	0 	
2011-03-22 23:51:43 	301 		395 	0 	
 			Total:		44386 	0		

=== RECHIT LIST ===




V1