MSHOGUN 1: SHIFT END REPORT
Tuesday December 14, 2010 8:00:01 AM

SALES TRANSACTION
Room Sales Order			21915
FnB Sales Order			1080
Beer Sales Order			170
Misc Sales Order			110
Room Sales Adjustment			0
GROSS SALES			23275

DISCOUNT
Room				0
FnB				0
Misc				0

DEPOSIT				6545
REFUND				

TOTAL ACCOUNTABILITY			29820

CASH DECLARATION			4440
CARD				695
FUNDS SAFEKEEP			10000
TOTAL CASH DECLARED			15135

TOTAL CASH ON SYSTEM			4440
OVER/SHORTAGES 			0

ROOM	 # OF CHECK-OUT	AMT
Value 		9	4715
Regular 		8	4440
Classique 		24	12760
Premium 		0	0
Regent 		0	0
Queen 		0	0
Gemini 		0	0
Family 		0	0
Executive Suite 	0	0
Mega Suite 	0	0

DISCOUNT 
Value 			  
Regular 		  
Classique 		  
Premium 		  
Regent 			  
Queen 		  
Gemini 		  
Family 		  
Executive Suite 	  
Mega Suite 		  


=== RESERVATIONS ===

Deposits:


Claimed:



SECURITY DEPOSITS

Deposits:
Claimed:


=== SALES BREAKDOWN ===

Transaction Date	Room No.	Cash	Card

2010-12-14 00:09:32 	305 		275 	0 	
2010-12-14 00:10:30 	314 		345 	0 	
2010-12-14 00:13:55 	322 		395 	0 	
2010-12-14 00:15:20 	316 		645 	0 	
2010-12-14 00:28:46 	218 		10 	0 	
2010-12-14 00:34:04 	306 		695 	0 	
2010-12-14 00:36:15 	403 		105 	0 	
2010-12-14 00:39:26 	305 		25 	0 	
2010-12-14 00:51:42 	308 		695 	0 	
2010-12-14 00:52:44 	420 		645 	0 	
2010-12-14 01:00:10 	218 		90 	0 	
2010-12-14 01:19:34 	205 		645 	0 	
2010-12-14 01:37:06 	422 		695 	0 	
2010-12-14 01:47:14 	411 		150 	0 	
2010-12-14 01:55:38 	314 		80 	0 	
2010-12-14 02:01:29 	412 		395 	0 	
2010-12-14 02:07:50 	410 		135 	0 	
2010-12-14 02:08:17 	409 		695 	0 	
2010-12-14 02:37:10 	317 		535 	0 	
2010-12-14 02:39:44 	301 		395 	0 	
2010-12-14 02:39:54 	315 		395 	0 	
2010-12-14 02:40:10 	315 		100 	0 	
2010-12-14 03:09:48 	314 		705 	0 	
2010-12-14 03:40:54 	219 		395 	0 	
2010-12-14 03:43:37 	404 		270 	0 	
2010-12-14 03:48:52 	213 		345 	0 	
2010-12-14 03:57:42 	404 		40 	0 	
2010-12-14 04:24:12 	403 		240 	0 	
2010-12-14 04:28:18 	418 		705 	0 	
2010-12-14 04:33:18 	421 		395 	0 	
2010-12-14 04:36:32 	305 		275 	0 	
2010-12-14 04:46:09 	220 		395 	0 	
2010-12-14 06:06:13 	317 		260 	0 	
2010-12-14 06:16:19 	401 		395 	0 	
2010-12-14 06:17:43 	321 		30 	0 	
2010-12-14 06:41:09 	301 		140 	0 	
2010-12-14 06:42:12 	202 		345 	0 	
2010-12-14 06:42:18 	204 		345 	0 	
2010-12-14 07:04:26 	406 		155 	0 	
2010-12-14 07:15:10 	303 		50 	0 	
2010-12-14 07:20:02 	301 		395 	0 	
2010-12-14 07:31:05 	307 		80 	0 	
2010-12-14 07:31:07 	307 		135 	0 	
2010-12-14 07:55:54 	401 		200 	0 	
 			Total:		14440 	0		

=== RECHIT LIST ===




V1