MSHOGUN 1: SHIFT END REPORT
Thursday June 16, 2011 12:00:07 AM

SALES TRANSACTION
Room Sales Order			36290
FnB Sales Order			1885
Beer Sales Order			260
Misc Sales Order			60
Room Sales Adjustment			-100
GROSS SALES			38395

DISCOUNT
Room				0
FnB				0
Misc				0

DEPOSIT				38345
REFUND				

TOTAL ACCOUNTABILITY			76740

CASH DECLARATION			5540
CARD				0
FUNDS SAFEKEEP			60000
TOTAL CASH DECLARED			65540

TOTAL CASH ON SYSTEM			4745
OVER/SHORTAGES 			795

ROOM	 # OF CHECK-OUT	AMT
Value 		10	2750
Regular 		37	14925
Classique 		45	18615
Premium 		0	0
Regent 		0	0
Queen 		0	0
Gemini 		0	0
Family 		0	0
Executive Suite 	0	0
Mega Suite 	0	0

DISCOUNT 
Value 			  
Regular 		  
Classique 		  
Premium 		  
Regent 			  
Queen 		  
Gemini 		  
Family 		  
Executive Suite 	  
Mega Suite 		  


=== RESERVATIONS ===

Deposits:


Claimed:



SECURITY DEPOSITS

Deposits:
Claimed:


=== SALES BREAKDOWN ===

Transaction Date	Room No.	Cash	Card

2011-06-15 16:07:26 	307 		395 	0 	
2011-06-15 16:07:35 	302 		395 	0 	
2011-06-15 16:12:21 	203 		585 	0 	
2011-06-15 16:14:27 	306 		395 	0 	
2011-06-15 16:33:45 	207 		345 	0 	
2011-06-15 16:34:00 	202 		345 	0 	
2011-06-15 16:42:44 	301 		395 	0 	
2011-06-15 16:43:13 	304 		395 	0 	
2011-06-15 17:00:40 	402 		-100 	0 	
2011-06-15 17:02:09 	209 		275 	0 	
2011-06-15 17:05:46 	308 		395 	0 	
2011-06-15 17:20:10 	204 		345 	0 	
2011-06-15 17:25:38 	303 		705 	0 	
2011-06-15 17:29:37 	312 		316 	0 	
2011-06-15 17:33:17 	321 		395 	0 	
2011-06-15 17:35:03 	206 		345 	0 	
2011-06-15 17:36:20 	414 		50 	0 	
2011-06-15 17:41:55 	319 		395 	0 	
2011-06-15 17:49:40 	210 		345 	0 	
2011-06-15 17:49:40 	210 		655 	0 	
2011-06-15 17:56:25 	215 		120 	0 	
2011-06-15 17:59:27 	317 		395 	0 	
2011-06-15 18:06:03 	315 		395 	0 	
2011-06-15 18:06:15 	406 		395 	0 	
2011-06-15 18:07:05 	201 		345 	0 	
2011-06-15 18:07:40 	218 		316 	0 	
2011-06-15 18:08:48 	208 		275 	0 	
2011-06-15 18:12:17 	322 		395 	0 	
2011-06-15 18:17:56 	316 		345 	0 	
2011-06-15 18:20:56 	212 		275 	0 	
2011-06-15 18:21:07 	404 		395 	0 	
2011-06-15 18:22:53 	205 		345 	0 	
2011-06-15 18:24:57 	314 		345 	0 	
2011-06-15 18:30:12 	409 		395 	0 	
2011-06-15 18:32:54 	220 		395 	0 	
2011-06-15 18:35:06 	219 		395 	0 	
2011-06-15 18:35:17 	401 		395 	0 	
2011-06-15 18:39:47 	407 		395 	0 	
2011-06-15 18:42:12 	318 		345 	0 	
2011-06-15 18:43:47 	207 		345 	0 	
2011-06-15 18:43:56 	408 		395 	0 	
2011-06-15 18:49:16 	205 		205 	0 	
2011-06-15 18:54:34 	211 		345 	0 	
2011-06-15 18:55:30 	306 		395 	0 	
2011-06-15 18:59:13 	415 		695 	0 	
2011-06-15 19:00:24 	417 		695 	0 	
2011-06-15 19:03:44 	307 		25 	0 	
2011-06-15 19:09:15 	202 		345 	0 	
2011-06-15 19:12:11 	307 		25 	0 	
2011-06-15 19:13:45 	307 		695 	0 	
2011-06-15 19:14:11 	419 		695 	0 	
2011-06-15 19:16:06 	203 		155 	0 	
2011-06-15 19:19:41 	206 		345 	0 	
2011-06-15 19:22:39 	210 		-655 	0 	
2011-06-15 19:23:38 	417 		210 	0 	
2011-06-15 19:24:12 	421 		695 	0 	
2011-06-15 19:28:43 	412 		395 	0 	
2011-06-15 19:40:37 	213 		345 	0 	
2011-06-15 19:40:51 	413 		695 	0 	
2011-06-15 19:41:04 	422 		395 	0 	
2011-06-15 19:42:18 	215 		345 	0 	
2011-06-15 19:43:29 	206 		140 	0 	
2011-06-15 19:43:47 	320 		345 	0 	
2011-06-15 19:44:25 	403 		276 	0 	
2011-06-15 19:45:36 	205 		345 	0 	
2011-06-15 19:47:53 	319 		695 	0 	
2011-06-15 19:48:25 	416 		465 	0 	
2011-06-15 19:49:07 	322 		395 	0 	
2011-06-15 19:52:04 	414 		465 	0 	
2011-06-15 19:52:42 	420 		276 	0 	
2011-06-15 19:56:41 	216 		275 	0 	
2011-06-15 19:59:24 	304 		395 	0 	
2011-06-15 20:01:36 	418 		645 	0 	
2011-06-15 20:05:49 	321 		395 	0 	
2011-06-15 20:08:25 	301 		395 	0 	
2011-06-15 20:13:26 	216 		180 	0 	
2011-06-15 20:17:50 	306 		695 	0 	
2011-06-15 20:19:30 	204 		345 	0 	
2011-06-15 20:22:26 	217 		575 	0 	
2011-06-15 20:28:03 	207 		345 	0 	
2011-06-15 20:30:19 	308 		395 	0 	
2011-06-15 20:31:13 	308 		30 	0 	
2011-06-15 20:31:52 	210 		345 	0 	
2011-06-15 20:41:29 	302 		695 	0 	
2011-06-15 20:46:20 	213 		345 	0 	
2011-06-15 20:46:36 	214 		275 	0 	
2011-06-15 20:46:56 	210 		20 	0 	
2011-06-15 20:50:30 	218 		695 	0 	
2011-06-15 20:58:04 	312 		316 	0 	
2011-06-15 20:58:21 	317 		395 	0 	
2011-06-15 21:03:49 	315 		695 	0 	
2011-06-15 21:06:03 	322 		395 	0 	
2011-06-15 21:06:54 	316 		645 	0 	
2011-06-15 21:09:36 	423 		595 	0 	
2011-06-15 21:10:09 	408 		695 	0 	
2011-06-15 21:12:14 	203 		645 	0 	
2011-06-15 21:12:46 	324 		275 	0 	
2011-06-15 21:14:47 	305 		595 	0 	
2011-06-15 21:17:07 	212 		595 	0 	
2011-06-15 21:17:25 	323 		595 	0 	
2011-06-15 21:18:35 	405 		595 	0 	
2011-06-15 21:19:29 	406 		395 	0 	
2011-06-15 21:22:51 	201 		645 	0 	
2011-06-15 21:23:17 	217 		130 	0 	
2011-06-15 21:24:35 	304 		65 	0 	
2011-06-15 21:28:19 	407 		695 	0 	
2011-06-15 21:28:54 	204 		645 	0 	
2011-06-15 21:40:13 	410 		595 	0 	
2011-06-15 21:43:38 	401 		395 	0 	
2011-06-15 21:47:02 	321 		695 	0 	
2011-06-15 21:47:21 	206 		645 	0 	
2011-06-15 21:48:55 	202 		645 	0 	
2011-06-15 21:49:40 	411 		595 	0 	
2011-06-15 21:52:58 	301 		80 	0 	
2011-06-15 21:55:49 	211 		645 	0 	
2011-06-15 21:57:13 	215 		645 	0 	
2011-06-15 21:58:20 	219 		695 	0 	
2011-06-15 22:02:24 	305 		210 	0 	
2011-06-15 22:02:59 	423 		260 	0 	
2011-06-15 22:03:28 	401 		185 	0 	
2011-06-15 22:04:03 	218 		50 	0 	
2011-06-15 22:05:01 	408 		290 	0 	
2011-06-15 22:05:40 	315 		25 	0 	
2011-06-15 22:09:38 	404 		140 	0 	
2011-06-15 22:10:17 	409 		395 	0 	
2011-06-15 22:10:33 	412 		395 	0 	
2011-06-15 22:14:08 	406 		60 	0 	
2011-06-15 22:14:15 	406 		280 	0 	
2011-06-15 22:14:40 	301 		395 	0 	
2011-06-15 22:18:41 	402 		695 	0 	
2011-06-15 22:19:08 	318 		645 	0 	
2011-06-15 22:22:58 	314 		345 	0 	
2011-06-15 22:24:33 	422 		395 	0 	
2011-06-15 22:28:15 	310 		595 	0 	
2011-06-15 22:29:58 	424 		595 	0 	
2011-06-15 22:45:27 	205 		345 	0 	
2011-06-15 22:47:53 	220 		695 	0 	
2011-06-15 22:49:49 	404 		695 	0 	
2011-06-15 22:51:20 	317 		695 	0 	
2011-06-15 22:53:47 	403 		645 	0 	
2011-06-15 22:55:44 	313 		695 	0 	
2011-06-15 22:57:19 	420 		645 	0 	
2011-06-15 23:00:12 	320 		645 	0 	
2011-06-15 23:01:58 	216 		275 	0 	
2011-06-15 23:03:46 	304 		695 	0 	
2011-06-15 23:11:51 	207 		240 	0 	
2011-06-15 23:21:00 	221 		695 	0 	
2011-06-15 23:23:46 	220 		120 	0 	
2011-06-15 23:24:38 	303 		645 	0 	
2011-06-15 23:27:41 	213 		585 	0 	
2011-06-15 23:30:07 	210 		645 	0 	
2011-06-15 23:33:39 	309 		675 	0 	
2011-06-15 23:34:03 	214 		50 	0 	
2011-06-15 23:35:57 	314 		645 	0 	
2011-06-15 23:40:35 	308 		395 	0 	
2011-06-15 23:42:53 	201 		30 	0 	
2011-06-15 23:46:22 	213 		115 	0 	
2011-06-15 23:47:08 	321 		75 	0 	
2011-06-15 23:51:52 	414 		645 	0 	
2011-06-15 23:52:11 	207 		345 	0 	
 			Total:		65400 	0		

=== RECHIT LIST ===




V1