MSHOGUN 1: SHIFT END REPORT
Thursday January 26, 2012 8:03:01 AM

SALES TRANSACTION
Room Sales Order			32115
FnB Sales Order			1760
Beer Sales Order			305
Misc Sales Order			60
Room Sales Adjustment			0
GROSS SALES			34240

DISCOUNT
Room				0
FnB				0
Misc				0

DEPOSIT				1740
REFUND				

TOTAL ACCOUNTABILITY			35980

CASH DECLARATION			2335
CARD				0
FUNDS SAFEKEEP			10000
TOTAL CASH DECLARED			12335

TOTAL CASH ON SYSTEM			2270
OVER/SHORTAGES 			65

ROOM	 # OF CHECK-OUT	AMT
Value 		13	5955
Regular 		19	10035
Classique 		27	16125
Premium 		0	0
Regent 		0	0
Queen 		0	0
Gemini 		0	0
Family 		0	0
Executive Suite 	0	0
Mega Suite 	0	0

DISCOUNT 
Value 			  
Regular 		  
Classique 		  
Premium 		  
Regent 			  
Queen 		  
Gemini 		  
Family 		  
Executive Suite 	  
Mega Suite 		  


=== RESERVATIONS ===

Deposits:


Claimed:



SECURITY DEPOSITS

Deposits:
Claimed:


=== SALES BREAKDOWN ===

Transaction Date	Room No.	Cash	Card

2012-01-26 00:10:28 	301 		695 	0 	
2012-01-26 00:10:42 	405 		675 	0 	
2012-01-26 00:10:48 	420 		345 	0 	
2012-01-26 00:11:03 	423 		575 	0 	
2012-01-26 00:23:18 	206 		100 	0 	
2012-01-26 00:23:31 	411 		275 	0 	
2012-01-26 00:40:57 	201 		345 	0 	
2012-01-26 00:47:43 	201 		20 	0 	
2012-01-26 00:54:02 	210 		585 	0 	
2012-01-26 01:00:09 	412 		395 	0 	
2012-01-26 01:04:37 	410 		575 	0 	
2012-01-26 01:13:47 	309 		390 	0 	
2012-01-26 01:15:31 	312 		535 	0 	
2012-01-26 01:23:00 	401 		395 	0 	
2012-01-26 01:31:23 	422 		675 	0 	
2012-01-26 01:45:51 	309 		675 	0 	
2012-01-26 01:46:33 	419 		395 	0 	
2012-01-26 01:56:48 	207 		345 	0 	
2012-01-26 02:21:10 	310 		275 	0 	
2012-01-26 02:28:32 	424 		275 	0 	
2012-01-26 02:48:24 	401 		130 	0 	
2012-01-26 03:53:23 	401 		395 	0 	
2012-01-26 03:53:29 	211 		345 	0 	
2012-01-26 04:19:29 	Lobby 		65 	0 	
2012-01-26 04:21:28 	211 		25 	0 	
2012-01-26 04:24:11 	424 		275 	0 	
2012-01-26 05:12:11 	203 		200 	0 	
2012-01-26 05:36:58 	210 		230 	0 	
2012-01-26 05:50:52 	420 		345 	0 	
2012-01-26 06:21:57 	315 		395 	0 	
2012-01-26 06:40:33 	214 		240 	0 	
2012-01-26 06:47:14 	406 		50 	0 	
2012-01-26 06:51:12 	322 		205 	0 	
2012-01-26 06:59:56 	412 		470 	0 	
2012-01-26 07:00:51 	423 		100 	0 	
2012-01-26 07:21:43 	321 		255 	0 	
 			Total:		12270 	0		

=== RECHIT LIST ===




V1