MSHOGUN 1: SHIFT END REPORT
Sunday January 23, 2011 8:00:02 AM

SALES TRANSACTION
Room Sales Order			36800
FnB Sales Order			880
Beer Sales Order			180
Misc Sales Order			35
Room Sales Adjustment			-395
GROSS SALES			37500

DISCOUNT
Room				0
FnB				0
Misc				0

DEPOSIT				3520
REFUND				

TOTAL ACCOUNTABILITY			41020

CASH DECLARATION			6326
CARD				0
FUNDS SAFEKEEP			10000
TOTAL CASH DECLARED			16326

TOTAL CASH ON SYSTEM			6326
OVER/SHORTAGES 			0

ROOM	 # OF CHECK-OUT	AMT
Value 		16	8060
Regular 		16	10320
Classique 		32	18420
Premium 		0	0
Regent 		0	0
Queen 		0	0
Gemini 		0	0
Family 		0	0
Executive Suite 	0	0
Mega Suite 	0	0

DISCOUNT 
Value 			  
Regular 		  
Classique 		  
Premium 		  
Regent 			  
Queen 		  
Gemini 		  
Family 		  
Executive Suite 	  
Mega Suite 		  


=== RESERVATIONS ===

Deposits:


Claimed:



SECURITY DEPOSITS

Deposits:
Claimed:


=== SALES BREAKDOWN ===

Transaction Date	Room No.	Cash	Card

2011-01-23 00:05:59 	217 		575 	0 	
2011-01-23 00:06:08 	305 		475 	0 	
2011-01-23 00:18:00 	208 		210 	0 	
2011-01-23 00:39:31 	422 		395 	0 	
2011-01-23 00:58:02 	319 		135 	0 	
2011-01-23 01:01:14 	312 		815 	0 	
2011-01-23 01:04:21 	301 		395 	0 	
2011-01-23 01:09:29 	322 		25 	0 	
2011-01-23 01:27:23 	412 		395 	0 	
2011-01-23 01:31:06 	317 		395 	0 	
2011-01-23 01:33:11 	210 		55 	0 	
2011-01-23 01:33:46 	401 		140 	0 	
2011-01-23 01:35:05 	218 		395 	0 	
2011-01-23 01:41:37 	401 		395 	0 	
2011-01-23 01:53:41 	306 		395 	0 	
2011-01-23 01:59:59 	320 		345 	0 	
2011-01-23 02:05:08 	219 		675 	0 	
2011-01-23 02:05:48 	219 		-280 	0 	
2011-01-23 02:07:40 	219 		-395 	0 	
2011-01-23 02:08:24 	219 		695 	0 	
2011-01-23 02:19:37 	409 		395 	0 	
2011-01-23 02:20:48 	208 		275 	0 	
2011-01-23 02:29:34 	410 		275 	0 	
2011-01-23 02:39:02 	422 		180 	0 	
2011-01-23 02:51:03 	422 		395 	0 	
2011-01-23 03:01:43 	320 		276 	0 	
2011-01-23 03:26:24 	216 		200 	0 	
2011-01-23 04:08:04 	213 		465 	0 	
2011-01-23 04:14:59 	204 		100 	0 	
2011-01-23 04:21:01 	418 		25 	0 	
2011-01-23 04:23:42 	412 		815 	0 	
2011-01-23 04:29:34 	317 		55 	0 	
2011-01-23 04:39:37 	313 		840 	0 	
2011-01-23 04:41:53 	413 		395 	0 	
2011-01-23 04:42:37 	202 		360 	0 	
2011-01-23 04:45:14 	306 		815 	0 	
2011-01-23 04:47:13 	313 		395 	0 	
2011-01-23 04:51:58 	216 		275 	0 	
2011-01-23 05:03:20 	301 		140 	0 	
2011-01-23 05:11:03 	212 		25 	0 	
2011-01-23 05:11:46 	204 		705 	0 	
2011-01-23 05:21:34 	317 		395 	0 	
2011-01-23 05:28:58 	301 		535 	0 	
2011-01-23 05:31:05 	201 		120 	0 	
2011-01-23 06:09:10 	411 		200 	0 	
2011-01-23 06:31:38 	218 		280 	0 	
2011-01-23 06:50:16 	210 		600 	0 	
2011-01-23 07:15:27 	404 		140 	0 	
2011-01-23 07:32:40 	218 		395 	0 	
2011-01-23 07:52:21 	213 		20 	0 	
 			Total:		16326 	0		

=== RECHIT LIST ===




V1