MSHOGUN 1: SHIFT END REPORT
Thursday April 07, 2011 4:00:01 PM

SALES TRANSACTION
Room Sales Order			19485
FnB Sales Order			440
Beer Sales Order			45
Misc Sales Order			0
Room Sales Adjustment			0
GROSS SALES			19970

DISCOUNT
Room				0
FnB				0
Misc				0

DEPOSIT				9180
REFUND				

TOTAL ACCOUNTABILITY			29150

CASH DECLARATION			7565
CARD				0
FUNDS SAFEKEEP			10000
TOTAL CASH DECLARED			17565

TOTAL CASH ON SYSTEM			7595
OVER/SHORTAGES 			-30

ROOM	 # OF CHECK-OUT	AMT
Value 		6	2610
Regular 		4	1680
Classique 		29	15195
Premium 		0	0
Regent 		0	0
Queen 		0	0
Gemini 		0	0
Family 		0	0
Executive Suite 	0	0
Mega Suite 	0	0

DISCOUNT 
Value 			  
Regular 		  
Classique 		  
Premium 		  
Regent 			  
Queen 		  
Gemini 		  
Family 		  
Executive Suite 	  
Mega Suite 		  


=== RESERVATIONS ===

Deposits:


Claimed:



SECURITY DEPOSITS

Deposits:
Claimed:


=== SALES BREAKDOWN ===

Transaction Date	Room No.	Cash	Card

2011-04-07 08:37:32 	312 		395 	0 	
2011-04-07 08:38:47 	315 		395 	0 	
2011-04-07 08:45:07 	406 		395 	0 	
2011-04-07 09:21:39 	312 		50 	0 	
2011-04-07 09:47:03 	306 		316 	0 	
2011-04-07 09:52:02 	301 		395 	0 	
2011-04-07 10:09:23 	304 		395 	0 	
2011-04-07 10:25:21 	316 		110 	0 	
2011-04-07 10:30:27 	309 		395 	0 	
2011-04-07 10:36:56 	317 		395 	0 	
2011-04-07 11:00:24 	412 		316 	0 	
2011-04-07 11:02:39 	418 		345 	0 	
2011-04-07 11:26:58 	408 		316 	0 	
2011-04-07 12:13:29 	403 		585 	0 	
2011-04-07 12:36:56 	206 		465 	0 	
2011-04-07 12:41:03 	220 		395 	0 	
2011-04-07 12:46:06 	416 		585 	0 	
2011-04-07 12:48:51 	313 		395 	0 	
2011-04-07 12:57:33 	406 		395 	0 	
2011-04-07 12:58:50 	407 		535 	0 	
2011-04-07 13:00:13 	315 		395 	0 	
2011-04-07 13:05:25 	322 		395 	0 	
2011-04-07 13:05:44 	309 		395 	0 	
2011-04-07 13:13:07 	216 		275 	0 	
2011-04-07 13:17:42 	401 		395 	0 	
2011-04-07 13:35:41 	304 		395 	0 	
2011-04-07 13:44:03 	418 		230 	0 	
2011-04-07 13:49:12 	312 		395 	0 	
2011-04-07 14:03:02 	421 		395 	0 	
2011-04-07 14:04:08 	421 		50 	0 	
2011-04-07 14:08:00 	422 		395 	0 	
2011-04-07 14:21:55 	419 		395 	0 	
2011-04-07 14:24:07 	306 		395 	0 	
2011-04-07 14:41:10 	308 		316 	0 	
2011-04-07 14:49:51 	414 		345 	0 	
2011-04-07 14:50:29 	413 		395 	0 	
2011-04-07 15:00:01 	420 		705 	0 	
2011-04-07 15:00:59 	412 		395 	0 	
2011-04-07 15:07:31 	415 		316 	0 	
2011-04-07 15:17:19 	417 		535 	0 	
2011-04-07 15:26:04 	211 		585 	0 	
2011-04-07 15:30:04 	219 		395 	0 	
2011-04-07 15:30:47 	210 		345 	0 	
2011-04-07 15:32:07 	218 		395 	0 	
2011-04-07 15:35:50 	221 		395 	0 	
2011-04-07 15:39:47 	321 		395 	0 	
 			Total:		17595 	0		

=== RECHIT LIST ===




V1