MSHOGUN 1: SHIFT END REPORT
Thursday December 15, 2011 7:59:12 AM

SALES TRANSACTION
Room Sales Order			28285
FnB Sales Order			2048
Beer Sales Order			430
Misc Sales Order			125
Room Sales Adjustment			0
GROSS SALES			30888

DISCOUNT
Room				0
FnB				0
Misc				0

DEPOSIT				5373
REFUND				

TOTAL ACCOUNTABILITY			36261

CASH DECLARATION			6075
CARD				2015
FUNDS SAFEKEEP			10000
TOTAL CASH DECLARED			18090

TOTAL CASH ON SYSTEM			6196
OVER/SHORTAGES 			-121

ROOM	 # OF CHECK-OUT	AMT
Value 		12	5840
Regular 		20	10680
Classique 		19	11765
Premium 		0	0
Regent 		0	0
Queen 		0	0
Gemini 		0	0
Family 		0	0
Executive Suite 	0	0
Mega Suite 	0	0

DISCOUNT 
Value 			  
Regular 		  
Classique 		  
Premium 		  
Regent 			  
Queen 		  
Gemini 		  
Family 		  
Executive Suite 	  
Mega Suite 		  


=== RESERVATIONS ===

Deposits:


Claimed:



SECURITY DEPOSITS

Deposits:
Claimed:


=== SALES BREAKDOWN ===

Transaction Date	Room No.	Cash	Card

2011-12-15 00:10:59 	422 		695 	0 	
2011-12-15 00:12:30 	220 		0 	695 	
2011-12-15 00:13:13 	314 		645 	0 	
2011-12-15 00:25:37 	306 		198 	0 	
2011-12-15 00:38:53 	309 		395 	0 	
2011-12-15 00:39:12 	307 		395 	0 	
2011-12-15 00:40:07 	401 		395 	0 	
2011-12-15 00:43:16 	207 		465 	0 	
2011-12-15 00:43:47 	201 		345 	0 	
2011-12-15 00:55:55 	303 		345 	0 	
2011-12-15 00:56:16 	309 		75 	0 	
2011-12-15 01:01:10 	210 		645 	0 	
2011-12-15 01:01:32 	202 		345 	0 	
2011-12-15 01:02:50 	412 		0 	675 	
2011-12-15 01:03:35 	209 		275 	0 	
2011-12-15 01:04:30 	217 		275 	0 	
2011-12-15 01:28:44 	422 		205 	0 	
2011-12-15 01:31:44 	203 		345 	0 	
2011-12-15 01:35:03 	201 		40 	0 	
2011-12-15 01:35:14 	201 		210 	0 	
2011-12-15 01:50:07 	213 		100 	0 	
2011-12-15 01:51:34 	409 		815 	0 	
2011-12-15 01:56:35 	208 		275 	0 	
2011-12-15 02:05:08 	322 		815 	0 	
2011-12-15 02:06:23 	203 		198 	0 	
2011-12-15 02:47:38 	404 		160 	0 	
2011-12-15 03:08:26 	202 		585 	0 	
2011-12-15 04:11:39 	418 		345 	0 	
2011-12-15 04:23:41 	417 		50 	0 	
2011-12-15 04:32:29 	201 		120 	0 	
2011-12-15 04:48:23 	209 		130 	0 	
2011-12-15 04:49:33 	406 		50 	0 	
2011-12-15 04:51:47 	207 		345 	0 	
2011-12-15 05:07:27 	213 		45 	0 	
2011-12-15 05:45:10 	203 		120 	0 	
2011-12-15 05:49:16 	205 		585 	0 	
2011-12-15 05:51:48 	422 		955 	0 	
2011-12-15 05:59:15 	204 		465 	0 	
2011-12-15 05:59:42 	210 		110 	0 	
2011-12-15 06:08:40 	312 		210 	0 	
2011-12-15 06:26:33 	303 		360 	0 	
2011-12-15 06:32:20 	314 		125 	0 	
2011-12-15 06:47:43 	403 		705 	0 	
2011-12-15 07:10:18 	303 		120 	0 	
2011-12-15 07:12:43 	406 		395 	0 	
2011-12-15 07:20:59 	211 		585 	0 	
2011-12-15 07:30:12 	309 		395 	0 	
2011-12-15 07:48:58 	420 		345 	0 	
2011-12-15 07:49:38 	312 		395 	0 	
 			Total:		16196 	1370		

=== RECHIT LIST ===




V1