MSHOGUN 1: SHIFT END REPORT
Friday December 17, 2010 12:01:14 AM

SALES TRANSACTION
Room Sales Order			44300
FnB Sales Order			2150
Beer Sales Order			755
Misc Sales Order			90
Room Sales Adjustment			0
GROSS SALES			47295

DISCOUNT
Room				0
FnB				0
Misc				0

DEPOSIT				35328
REFUND				

TOTAL ACCOUNTABILITY			82623

CASH DECLARATION			7019
CARD				345
FUNDS SAFEKEEP			60000
TOTAL CASH DECLARED			67364

TOTAL CASH ON SYSTEM			6914
OVER/SHORTAGES 			105

ROOM	 # OF CHECK-OUT	AMT
Value 		28	8400
Regular 		34	13290
Classique 		54	22610
Premium 		0	0
Regent 		0	0
Queen 		0	0
Gemini 		0	0
Family 		0	0
Executive Suite 	0	0
Mega Suite 	0	0

DISCOUNT 
Value 			  
Regular 		  
Classique 		  
Premium 		  
Regent 			  
Queen 		  
Gemini 		  
Family 		  
Executive Suite 	  
Mega Suite 		  


=== RESERVATIONS ===

Deposits:


Claimed:



SECURITY DEPOSITS

Deposits:
Claimed:


=== SALES BREAKDOWN ===

Transaction Date	Room No.	Cash	Card

2010-12-16 16:06:18 	309 		395 	0 	
2010-12-16 16:09:08 	317 		395 	0 	
2010-12-16 16:09:35 	421 		140 	0 	
2010-12-16 16:12:30 	204 		110 	0 	
2010-12-16 16:13:35 	205 		345 	0 	
2010-12-16 16:14:34 	318 		345 	0 	
2010-12-16 16:17:26 	219 		395 	0 	
2010-12-16 16:19:51 	301 		395 	0 	
2010-12-16 16:22:28 	317 		70 	0 	
2010-12-16 16:31:43 	210 		345 	0 	
2010-12-16 16:34:40 	315 		395 	0 	
2010-12-16 16:38:08 	221 		395 	0 	
2010-12-16 16:39:06 	306 		395 	0 	
2010-12-16 16:46:01 	405 		325 	0 	
2010-12-16 16:46:54 	302 		395 	0 	
2010-12-16 16:49:03 	304 		395 	0 	
2010-12-16 16:50:38 	310 		275 	0 	
2010-12-16 16:50:57 	217 		275 	0 	
2010-12-16 16:52:53 	206 		585 	0 	
2010-12-16 16:55:21 	324 		275 	0 	
2010-12-16 16:57:05 	216 		100 	0 	
2010-12-16 16:58:04 	303 		345 	0 	
2010-12-16 16:58:47 	405 		40 	0 	
2010-12-16 16:59:27 	301 		235 	0 	
2010-12-16 17:03:02 	308 		395 	0 	
2010-12-16 17:09:47 	321 		395 	0 	
2010-12-16 17:09:54 	313 		395 	0 	
2010-12-16 17:11:21 	412 		395 	0 	
2010-12-16 17:17:59 	311 		275 	0 	
2010-12-16 17:25:13 	312 		395 	0 	
2010-12-16 17:25:37 	402 		395 	0 	
2010-12-16 17:28:07 	214 		275 	0 	
2010-12-16 17:29:31 	407 		395 	0 	
2010-12-16 17:35:17 	404 		316 	0 	
2010-12-16 17:48:46 	323 		275 	0 	
2010-12-16 17:55:03 	316 		345 	0 	
2010-12-16 17:55:18 	320 		345 	0 	
2010-12-16 17:55:49 	406 		395 	0 	
2010-12-16 18:00:25 	311 		30 	0 	
2010-12-16 18:01:27 	322 		395 	0 	
2010-12-16 18:08:12 	411 		275 	0 	
2010-12-16 18:10:16 	321 		395 	0 	
2010-12-16 18:10:58 	322 		80 	0 	
2010-12-16 18:11:15 	408 		395 	0 	
2010-12-16 18:11:31 	204 		345 	0 	
2010-12-16 18:15:52 	211 		345 	0 	
2010-12-16 18:16:30 	213 		276 	0 	
2010-12-16 18:21:00 	302 		695 	0 	
2010-12-16 18:21:43 	219 		395 	0 	
2010-12-16 18:23:35 	324 		275 	0 	
2010-12-16 18:26:01 	218 		395 	0 	
2010-12-16 18:31:05 	414 		276 	0 	
2010-12-16 18:33:21 	205 		25 	0 	
2010-12-16 18:39:17 	306 		395 	0 	
2010-12-16 18:43:21 	417 		695 	0 	
2010-12-16 18:45:28 	207 		345 	0 	
2010-12-16 18:48:43 	305 		275 	0 	
2010-12-16 18:48:51 	415 		695 	0 	
2010-12-16 18:49:27 	419 		695 	0 	
2010-12-16 18:58:25 	216 		595 	0 	
2010-12-16 19:02:08 	208 		275 	0 	
2010-12-16 19:04:35 	312 		675 	0 	
2010-12-16 19:04:44 	311 		275 	0 	
2010-12-16 19:06:19 	302 		198 	0 	
2010-12-16 19:07:51 	214 		275 	0 	
2010-12-16 19:08:50 	307 		395 	0 	
2010-12-16 19:10:19 	315 		395 	0 	
2010-12-16 19:13:36 	317 		395 	0 	
2010-12-16 19:14:49 	309 		395 	0 	
2010-12-16 19:20:43 	212 		275 	0 	
2010-12-16 19:21:00 	304 		395 	0 	
2010-12-16 19:23:17 	421 		695 	0 	
2010-12-16 19:26:52 	202 		345 	0 	
2010-12-16 19:27:18 	404 		695 	0 	
2010-12-16 19:27:39 	214 		140 	0 	
2010-12-16 19:34:52 	413 		0 	695 	
2010-12-16 19:41:47 	203 		345 	0 	
2010-12-16 19:43:49 	412 		395 	0 	
2010-12-16 19:45:42 	319 		395 	0 	
2010-12-16 19:45:54 	422 		395 	0 	
2010-12-16 19:46:02 	324 		210 	0 	
2010-12-16 19:46:10 	311 		300 	0 	
2010-12-16 19:46:23 	309 		210 	0 	
2010-12-16 19:46:31 	216 		25 	0 	
2010-12-16 19:46:48 	301 		395 	0 	
2010-12-16 19:48:11 	405 		275 	0 	
2010-12-16 19:49:01 	217 		595 	0 	
2010-12-16 19:49:15 	205 		120 	0 	
2010-12-16 19:50:25 	304 		270 	0 	
2010-12-16 19:54:46 	215 		345 	0 	
2010-12-16 19:57:04 	403 		645 	0 	
2010-12-16 19:57:13 	318 		345 	0 	
2010-12-16 19:59:53 	320 		345 	0 	
2010-12-16 20:00:29 	205 		345 	0 	
2010-12-16 20:02:23 	414 		645 	0 	
2010-12-16 20:03:37 	319 		110 	0 	
2010-12-16 20:04:03 	317 		370 	0 	
2010-12-16 20:06:24 	416 		345 	0 	
2010-12-16 20:09:39 	409 		395 	0 	
2010-12-16 20:11:26 	407 		695 	0 	
2010-12-16 20:17:34 	308 		316 	0 	
2010-12-16 20:21:53 	313 		395 	0 	
2010-12-16 20:23:15 	211 		345 	0 	
2010-12-16 20:23:27 	221 		695 	0 	
2010-12-16 20:27:55 	418 		645 	0 	
2010-12-16 20:30:56 	411 		595 	0 	
2010-12-16 20:38:15 	307 		395 	0 	
2010-12-16 20:39:00 	303 		345 	0 	
2010-12-16 20:43:42 	310 		275 	0 	
2010-12-16 20:46:15 	408 		695 	0 	
2010-12-16 20:47:09 	401 		395 	0 	
2010-12-16 20:47:49 	221 		180 	0 	
2010-12-16 20:50:51 	406 		695 	0 	
2010-12-16 20:55:46 	316 		0 	345 	
2010-12-16 20:56:36 	208 		275 	0 	
2010-12-16 20:58:07 	220 		395 	0 	
2010-12-16 20:59:30 	420 		645 	0 	
2010-12-16 21:01:23 	323 		275 	0 	
2010-12-16 21:02:45 	402 		695 	0 	
2010-12-16 21:03:04 	424 		595 	0 	
2010-12-16 21:03:50 	305 		275 	0 	
2010-12-16 21:04:51 	218 		695 	0 	
2010-12-16 21:05:53 	410 		275 	0 	
2010-12-16 21:06:47 	401 		60 	0 	
2010-12-16 21:07:46 	201 		345 	0 	
2010-12-16 21:17:10 	423 		595 	0 	
2010-12-16 21:29:42 	322 		395 	0 	
2010-12-16 21:30:38 	404 		50 	0 	
2010-12-16 21:30:46 	218 		270 	0 	
2010-12-16 21:31:50 	213 		645 	0 	
2010-12-16 21:34:22 	202 		345 	0 	
2010-12-16 21:44:20 	309 		395 	0 	
2010-12-16 21:44:39 	311 		275 	0 	
2010-12-16 21:45:43 	301 		395 	0 	
2010-12-16 21:49:20 	324 		275 	0 	
2010-12-16 21:54:48 	321 		695 	0 	
2010-12-16 21:56:44 	205 		135 	0 	
2010-12-16 21:57:21 	306 		695 	0 	
2010-12-16 21:58:15 	319 		695 	0 	
2010-12-16 22:00:18 	206 		585 	0 	
2010-12-16 22:01:45 	412 		395 	0 	
2010-12-16 22:02:05 	412 		25 	0 	
2010-12-16 22:04:41 	205 		345 	0 	
2010-12-16 22:11:09 	422 		0 	395 	
2010-12-16 22:11:40 	215 		345 	0 	
2010-12-16 22:12:02 	202 		665 	0 	
2010-12-16 22:12:40 	410 		275 	0 	
2010-12-16 22:13:31 	405 		275 	0 	
2010-12-16 22:17:11 	317 		695 	0 	
2010-12-16 22:17:38 	416 		345 	0 	
2010-12-16 22:17:54 	416 		25 	0 	
2010-12-16 22:24:54 	204 		120 	0 	
2010-12-16 22:26:21 	304 		595 	0 	
2010-12-16 22:26:36 	209 		275 	0 	
2010-12-16 22:26:49 	210 		345 	0 	
2010-12-16 22:27:37 	307 		260 	0 	
2010-12-16 22:28:24 	218 		10 	0 	
2010-12-16 22:29:25 	204 		345 	0 	
2010-12-16 22:30:40 	219 		695 	0 	
2010-12-16 22:37:24 	203 		645 	0 	
2010-12-16 22:39:15 	320 		276 	0 	
2010-12-16 22:48:49 	303 		345 	0 	
2010-12-16 22:59:54 	315 		140 	0 	
2010-12-16 23:01:13 	318 		345 	0 	
2010-12-16 23:03:06 	323 		595 	0 	
2010-12-16 23:03:22 	310 		595 	0 	
2010-12-16 23:05:23 	207 		145 	0 	
2010-12-16 23:07:08 	313 		316 	0 	
2010-12-16 23:07:52 	417 		695 	0 	
2010-12-16 23:08:14 	420 		50 	0 	
2010-12-16 23:10:12 	315 		395 	0 	
2010-12-16 23:10:27 	202 		135 	0 	
2010-12-16 23:13:23 	309 		395 	0 	
2010-12-16 23:22:28 	308 		395 	0 	
2010-12-16 23:26:47 	305 		275 	0 	
2010-12-16 23:27:33 	207 		345 	0 	
2010-12-16 23:34:44 	424 		45 	0 	
2010-12-16 23:37:32 	220 		535 	0 	
2010-12-16 23:41:42 	218 		100 	0 	
2010-12-16 23:42:39 	306 		545 	0 	
2010-12-16 23:45:19 	214 		595 	0 	
2010-12-16 23:57:39 	211 		645 	0 	
2010-12-16 23:59:02 	322 		395 	0 	
 			Total:		66914 	1435		

=== RECHIT LIST ===




V1