MSHOGUN 1: SHIFT END REPORT
Thursday October 06, 2011 3:59:27 PM

SALES TRANSACTION
Room Sales Order			24820
FnB Sales Order			1455
Beer Sales Order			160
Misc Sales Order			15
Room Sales Adjustment			0
GROSS SALES			26450

DISCOUNT
Room				0
FnB				0
Misc				0

DEPOSIT				11515
REFUND				

TOTAL ACCOUNTABILITY			37965

CASH DECLARATION			5080
CARD				0
FUNDS SAFEKEEP			20000
TOTAL CASH DECLARED			25080

TOTAL CASH ON SYSTEM			4685
OVER/SHORTAGES 			395

ROOM	 # OF CHECK-OUT	AMT
Value 		5	2015
Regular 		14	7530
Classique 		29	15275
Premium 		0	0
Regent 		0	0
Queen 		0	0
Gemini 		0	0
Family 		0	0
Executive Suite 	0	0
Mega Suite 	0	0

DISCOUNT 
Value 			  
Regular 		  
Classique 		  
Premium 		  
Regent 			  
Queen 		  
Gemini 		  
Family 		  
Executive Suite 	  
Mega Suite 		  


=== RESERVATIONS ===

Deposits:


Claimed:



SECURITY DEPOSITS

Deposits:
Claimed:


=== SALES BREAKDOWN ===

Transaction Date	Room No.	Cash	Card

2011-10-06 08:19:56 	203 		345 	0 	
2011-10-06 08:31:38 	208 		275 	0 	
2011-10-06 08:39:12 	323 		110 	0 	
2011-10-06 08:39:42 	202 		276 	0 	
2011-10-06 08:44:02 	201 		345 	0 	
2011-10-06 09:54:02 	408 		395 	0 	
2011-10-06 10:23:07 	404 		395 	0 	
2011-10-06 10:23:22 	419 		395 	0 	
2011-10-06 10:30:50 	310 		275 	0 	
2011-10-06 10:54:02 	403 		50 	0 	
2011-10-06 11:00:10 	402 		395 	0 	
2011-10-06 11:06:29 	404 		180 	0 	
2011-10-06 11:10:56 	415 		395 	0 	
2011-10-06 11:16:17 	404 		60 	0 	
2011-10-06 11:22:09 	415 		50 	0 	
2011-10-06 11:25:52 	421 		675 	0 	
2011-10-06 11:32:52 	422 		395 	0 	
2011-10-06 11:48:19 	319 		280 	0 	
2011-10-06 11:55:23 	409 		395 	0 	
2011-10-06 12:04:30 	213 		345 	0 	
2011-10-06 12:16:51 	401 		395 	0 	
2011-10-06 12:17:05 	215 		345 	0 	
2011-10-06 12:28:55 	306 		420 	0 	
2011-10-06 12:35:38 	211 		345 	0 	
2011-10-06 12:36:11 	320 		345 	0 	
2011-10-06 12:38:42 	304 		596 	0 	
2011-10-06 12:39:30 	221 		395 	0 	
2011-10-06 12:44:23 	321 		395 	0 	
2011-10-06 12:50:47 	320 		245 	0 	
2011-10-06 12:59:06 	206 		585 	0 	
2011-10-06 12:59:22 	212 		275 	0 	
2011-10-06 13:02:43 	302 		395 	0 	
2011-10-06 13:04:26 	307 		395 	0 	
2011-10-06 13:06:09 	212 		115 	0 	
2011-10-06 13:06:21 	301 		395 	0 	
2011-10-06 13:11:34 	220 		395 	0 	
2011-10-06 13:27:12 	306 		395 	0 	
2011-10-06 13:34:09 	322 		395 	0 	
2011-10-06 13:35:46 	407 		395 	0 	
2011-10-06 13:57:24 	310 		275 	0 	
2011-10-06 13:57:43 	412 		395 	0 	
2011-10-06 13:57:52 	413 		395 	0 	
2011-10-06 13:58:05 	314 		705 	0 	
2011-10-06 14:00:09 	312 		395 	0 	
2011-10-06 14:05:02 	303 		345 	0 	
2011-10-06 14:09:13 	309 		395 	0 	
2011-10-06 14:09:20 	311 		275 	0 	
2011-10-06 14:11:15 	204 		345 	0 	
2011-10-06 14:14:51 	219 		395 	0 	
2011-10-06 14:18:45 	412 		320 	0 	
2011-10-06 14:24:47 	308 		395 	0 	
2011-10-06 14:25:03 	313 		535 	0 	
2011-10-06 14:26:56 	409 		260 	0 	
2011-10-06 14:36:08 	319 		316 	0 	
2011-10-06 14:36:24 	410 		275 	0 	
2011-10-06 14:54:43 	205 		480 	0 	
2011-10-06 14:57:27 	415 		140 	0 	
2011-10-06 14:58:21 	311 		40 	0 	
2011-10-06 15:05:02 	202 		345 	0 	
2011-10-06 15:13:53 	404 		395 	0 	
2011-10-06 15:14:54 	203 		465 	0 	
2011-10-06 15:31:38 	205 		585 	0 	
2011-10-06 15:32:25 	402 		395 	0 	
2011-10-06 15:39:42 	201 		276 	0 	
2011-10-06 15:46:26 	302 		316 	0 	
2011-10-06 15:48:41 	315 		395 	0 	
2011-10-06 15:48:49 	317 		395 	0 	
2011-10-06 15:51:34 	220 		395 	0 	
2011-10-06 15:51:41 	219 		395 	0 	
2011-10-06 15:53:12 	218 		395 	0 	
 			Total:		24685 	0		

=== RECHIT LIST ===




V1