MSHOGUN 1: SHIFT END REPORT
Thursday December 22, 2011 7:56:09 AM

SALES TRANSACTION
Room Sales Order			30900
FnB Sales Order			1420
Beer Sales Order			85
Misc Sales Order			40
Room Sales Adjustment			0
GROSS SALES			32445

DISCOUNT
Room				0
FnB				0
Misc				0

DEPOSIT				7555
REFUND				

TOTAL ACCOUNTABILITY			40000

CASH DECLARATION			8130
CARD				585
FUNDS SAFEKEEP			10000
TOTAL CASH DECLARED			18715

TOTAL CASH ON SYSTEM			8150
OVER/SHORTAGES 			-20

ROOM	 # OF CHECK-OUT	AMT
Value 		14	7190
Regular 		20	9720
Classique 		26	13990
Premium 		0	0
Regent 		0	0
Queen 		0	0
Gemini 		0	0
Family 		0	0
Executive Suite 	0	0
Mega Suite 	0	0

DISCOUNT 
Value 			  
Regular 		  
Classique 		  
Premium 		  
Regent 			  
Queen 		  
Gemini 		  
Family 		  
Executive Suite 	  
Mega Suite 		  


=== RESERVATIONS ===

Deposits:


Claimed:



SECURITY DEPOSITS

Deposits:
Claimed:


=== SALES BREAKDOWN ===

Transaction Date	Room No.	Cash	Card

2011-12-22 00:08:30 	219 		695 	0 	
2011-12-22 00:09:42 	409 		695 	0 	
2011-12-22 00:12:56 	312 		535 	0 	
2011-12-22 00:23:12 	401 		395 	0 	
2011-12-22 00:25:53 	316 		70 	0 	
2011-12-22 00:28:54 	303 		345 	0 	
2011-12-22 00:31:21 	322 		695 	0 	
2011-12-22 00:35:54 	207 		465 	0 	
2011-12-22 00:36:15 	202 		645 	0 	
2011-12-22 00:37:43 	310 		575 	0 	
2011-12-22 00:43:07 	309 		395 	0 	
2011-12-22 00:44:11 	209 		575 	0 	
2011-12-22 00:45:55 	205 		345 	0 	
2011-12-22 00:51:47 	210 		0 	945 	
2011-12-22 00:56:36 	311 		0 	775 	
2011-12-22 01:14:22 	322 		50 	0 	
2011-12-22 01:16:25 	301 		395 	0 	
2011-12-22 01:37:04 	201 		345 	0 	
2011-12-22 01:39:15 	203 		645 	0 	
2011-12-22 01:53:37 	217 		575 	0 	
2011-12-22 01:55:52 	315 		50 	0 	
2011-12-22 01:56:23 	309 		395 	0 	
2011-12-22 02:10:11 	318 		345 	0 	
2011-12-22 02:42:54 	401 		395 	0 	
2011-12-22 02:44:39 	220 		395 	0 	
2011-12-22 02:55:51 	205 		705 	0 	
2011-12-22 03:02:37 	414 		50 	0 	
2011-12-22 03:03:18 	318 		585 	0 	
2011-12-22 03:11:42 	202 		145 	0 	
2011-12-22 03:23:38 	218 		50 	0 	
2011-12-22 03:39:38 	303 		345 	0 	
2011-12-22 03:41:11 	411 		575 	0 	
2011-12-22 04:01:10 	301 		395 	0 	
2011-12-22 04:20:38 	420 		345 	0 	
2011-12-22 04:22:18 	221 		395 	0 	
2011-12-22 04:25:16 	301 		20 	0 	
2011-12-22 04:46:37 	410 		575 	0 	
2011-12-22 05:17:19 	309 		395 	0 	
2011-12-22 05:42:27 	204 		585 	0 	
2011-12-22 05:52:18 	207 		120 	0 	
2011-12-22 05:59:32 	204 		50 	0 	
2011-12-22 06:21:15 	401 		395 	0 	
2011-12-22 06:23:24 	312 		280 	0 	
2011-12-22 06:25:17 	220 		395 	0 	
2011-12-22 06:42:30 	406 		200 	0 	
2011-12-22 06:45:46 	204 		25 	0 	
2011-12-22 07:04:47 	418 		435 	0 	
2011-12-22 07:07:32 	413 		395 	0 	
2011-12-22 07:09:36 	405 		275 	0 	
2011-12-22 07:14:59 	415 		395 	0 	
 			Total:		18150 	1720		

=== RECHIT LIST ===




V1