MSHOGUN 1: SHIFT END REPORT
Monday January 23, 2012 8:00:05 AM

SALES TRANSACTION
Room Sales Order			23220
FnB Sales Order			1393
Beer Sales Order			370
Misc Sales Order			60
Room Sales Adjustment			100
GROSS SALES			25143

DISCOUNT
Room				0
FnB				0
Misc				0

DEPOSIT				2490
REFUND				

TOTAL ACCOUNTABILITY			27633

CASH DECLARATION			8420
CARD				0
FUNDS SAFEKEEP			0
TOTAL CASH DECLARED			8420

TOTAL CASH ON SYSTEM			8420
OVER/SHORTAGES 			0

ROOM	 # OF CHECK-OUT	AMT
Value 		8	4120
Regular 		16	8880
Classique 		16	10320
Premium 		0	0
Regent 		0	0
Queen 		0	0
Gemini 		0	0
Family 		0	0
Executive Suite 	0	0
Mega Suite 	0	0

DISCOUNT 
Value 			  
Regular 		  
Classique 		  
Premium 		  
Regent 			  
Queen 		  
Gemini 		  
Family 		  
Executive Suite 	  
Mega Suite 		  


=== RESERVATIONS ===

Deposits:


Claimed:



SECURITY DEPOSITS

Deposits:
Claimed:


=== SALES BREAKDOWN ===

Transaction Date	Room No.	Cash	Card

2012-01-23 00:20:57 	205 		705 	0 	
2012-01-23 00:24:02 	304 		230 	0 	
2012-01-23 00:24:11 	402 		80 	0 	
2012-01-23 01:10:01 	312 		395 	0 	
2012-01-23 01:11:59 	211 		705 	0 	
2012-01-23 01:18:46 	207 		345 	0 	
2012-01-23 01:30:33 	210 		465 	0 	
2012-01-23 01:31:29 	317 		395 	0 	
2012-01-23 01:33:47 	208 		275 	0 	
2012-01-23 01:38:40 	201 		345 	0 	
2012-01-23 02:33:03 	409 		675 	0 	
2012-01-23 03:15:48 	207 		345 	0 	
2012-01-23 04:47:16 	313 		815 	0 	
2012-01-23 05:10:14 	317 		395 	0 	
2012-01-23 05:16:10 	312 		270 	0 	
2012-01-23 05:50:28 	312 		395 	0 	
2012-01-23 06:12:29 	408 		395 	0 	
2012-01-23 06:52:38 	414 		85 	0 	
2012-01-23 07:12:31 	307 		395 	0 	
2012-01-23 07:18:04 	213 		15 	0 	
2012-01-23 07:21:45 	407 		140 	0 	
2012-01-23 07:29:35 	413 		140 	0 	
2012-01-23 07:30:07 	416 		120 	0 	
2012-01-23 07:31:44 	418 		205 	0 	
2012-01-23 07:36:52 	411 		90 	0 	
 			Total:		8420 	0		

=== RECHIT LIST ===




V1