MSHOGUN 1: SHIFT END REPORT
Tuesday September 27, 2011 3:58:49 PM

SALES TRANSACTION
Room Sales Order			19585
FnB Sales Order			1355
Beer Sales Order			260
Misc Sales Order			0
Room Sales Adjustment			0
GROSS SALES			21200

DISCOUNT
Room				0
FnB				0
Misc				0

DEPOSIT				5165
REFUND				

TOTAL ACCOUNTABILITY			26365

CASH DECLARATION			4644
CARD				0
FUNDS SAFEKEEP			10000
TOTAL CASH DECLARED			14644

TOTAL CASH ON SYSTEM			4644
OVER/SHORTAGES 			0

ROOM	 # OF CHECK-OUT	AMT
Value 		5	2115
Regular 		9	3945
Classique 		23	13525
Premium 		0	0
Regent 		0	0
Queen 		0	0
Gemini 		0	0
Family 		0	0
Executive Suite 	0	0
Mega Suite 	0	0

DISCOUNT 
Value 			  
Regular 		  
Classique 		  
Premium 		  
Regent 			  
Queen 		  
Gemini 		  
Family 		  
Executive Suite 	  
Mega Suite 		  


=== RESERVATIONS ===

Deposits:


Claimed:



SECURITY DEPOSITS

Deposits:
Claimed:


=== SALES BREAKDOWN ===

Transaction Date	Room No.	Cash	Card

2011-09-27 08:07:19 	417 		140 	0 	
2011-09-27 08:10:24 	309 		420 	0 	
2011-09-27 08:37:44 	304 		75 	0 	
2011-09-27 08:46:04 	219 		25 	0 	
2011-09-27 08:54:07 	306 		395 	0 	
2011-09-27 09:02:17 	308 		395 	0 	
2011-09-27 09:36:02 	313 		395 	0 	
2011-09-27 09:37:19 	314 		585 	0 	
2011-09-27 09:55:32 	310 		275 	0 	
2011-09-27 09:56:00 	402 		55 	0 	
2011-09-27 10:00:07 	409 		250 	0 	
2011-09-27 10:15:35 	323 		275 	0 	
2011-09-27 10:20:45 	317 		395 	0 	
2011-09-27 10:23:50 	320 		345 	0 	
2011-09-27 10:48:28 	303 		345 	0 	
2011-09-27 10:57:38 	307 		395 	0 	
2011-09-27 11:02:27 	319 		280 	0 	
2011-09-27 11:10:39 	411 		100 	0 	
2011-09-27 11:11:29 	324 		275 	0 	
2011-09-27 11:18:27 	302 		395 	0 	
2011-09-27 11:24:29 	416 		345 	0 	
2011-09-27 11:34:08 	312 		395 	0 	
2011-09-27 11:44:54 	215 		276 	0 	
2011-09-27 11:50:01 	404 		395 	0 	
2011-09-27 12:03:11 	418 		25 	0 	
2011-09-27 12:30:20 	407 		395 	0 	
2011-09-27 12:30:29 	406 		395 	0 	
2011-09-27 12:33:35 	403 		345 	0 	
2011-09-27 12:59:37 	318 		585 	0 	
2011-09-27 13:05:29 	420 		276 	0 	
2011-09-27 13:58:27 	414 		276 	0 	
2011-09-27 14:03:49 	320 		345 	0 	
2011-09-27 14:28:00 	314 		305 	0 	
2011-09-27 14:29:19 	313 		395 	0 	
2011-09-27 14:35:41 	406 		180 	0 	
2011-09-27 14:36:11 	213 		345 	0 	
2011-09-27 14:37:30 	306 		395 	0 	
2011-09-27 14:44:33 	324 		275 	0 	
2011-09-27 14:50:44 	315 		395 	0 	
2011-09-27 14:51:51 	410 		275 	0 	
2011-09-27 15:10:12 	303 		345 	0 	
2011-09-27 15:10:24 	316 		585 	0 	
2011-09-27 15:13:48 	314 		345 	0 	
2011-09-27 15:36:29 	323 		275 	0 	
2011-09-27 15:39:44 	304 		316 	0 	
2011-09-27 15:47:16 	206 		345 	0 	
 			Total:		14644 	0		

=== RECHIT LIST ===




V1