MSHOGUN 1: SHIFT END REPORT
Friday December 23, 2011 4:03:45 PM

SALES TRANSACTION
Room Sales Order			39095
FnB Sales Order			2480
Beer Sales Order			405
Misc Sales Order			10
Room Sales Adjustment			0
GROSS SALES			41990

DISCOUNT
Room				0
FnB				0
Misc				0

DEPOSIT				15520
REFUND				

TOTAL ACCOUNTABILITY			57510

CASH DECLARATION			116
CARD				0
FUNDS SAFEKEEP			40000
TOTAL CASH DECLARED			40116

TOTAL CASH ON SYSTEM			96
OVER/SHORTAGES 			20

ROOM	 # OF CHECK-OUT	AMT
Value 		10	4750
Regular 		17	8565
Classique 		48	25780
Premium 		0	0
Regent 		0	0
Queen 		0	0
Gemini 		0	0
Family 		0	0
Executive Suite 	0	0
Mega Suite 	0	0

DISCOUNT 
Value 			  
Regular 		  
Classique 		  
Premium 		  
Regent 			  
Queen 		  
Gemini 		  
Family 		  
Executive Suite 	  
Mega Suite 		  


=== RESERVATIONS ===

Deposits:


Claimed:



SECURITY DEPOSITS

Deposits:
Claimed:


=== SALES BREAKDOWN ===

Transaction Date	Room No.	Cash	Card

2011-12-23 08:08:09 	322 		230 	0 	
2011-12-23 08:08:38 	418 		120 	0 	
2011-12-23 08:17:36 	321 		395 	0 	
2011-12-23 08:17:50 	201 		705 	0 	
2011-12-23 08:21:01 	315 		150 	0 	
2011-12-23 08:21:57 	306 		395 	0 	
2011-12-23 08:27:04 	411 		100 	0 	
2011-12-23 08:29:25 	307 		140 	0 	
2011-12-23 08:42:34 	403 		465 	0 	
2011-12-23 08:42:49 	404 		395 	0 	
2011-12-23 08:43:00 	312 		395 	0 	
2011-12-23 08:45:54 	419 		65 	0 	
2011-12-23 08:51:39 	402 		675 	0 	
2011-12-23 08:55:04 	407 		395 	0 	
2011-12-23 09:14:57 	409 		395 	0 	
2011-12-23 09:16:26 	408 		815 	0 	
2011-12-23 09:17:02 	406 		395 	0 	
2011-12-23 09:24:55 	317 		140 	0 	
2011-12-23 09:32:41 	401 		395 	0 	
2011-12-23 09:40:58 	221 		140 	0 	
2011-12-23 09:51:50 	412 		395 	0 	
2011-12-23 09:52:07 	414 		345 	0 	
2011-12-23 09:52:21 	415 		395 	0 	
2011-12-23 09:52:39 	416 		345 	0 	
2011-12-23 09:56:47 	418 		345 	0 	
2011-12-23 10:26:49 	423 		275 	0 	
2011-12-23 10:38:18 	409 		290 	0 	
2011-12-23 10:47:17 	413 		560 	0 	
2011-12-23 10:50:54 	309 		675 	0 	
2011-12-23 11:01:31 	208 		275 	0 	
2011-12-23 11:04:05 	307 		395 	0 	
2011-12-23 11:06:22 	204 		465 	0 	
2011-12-23 11:12:45 	216 		275 	0 	
2011-12-23 11:14:57 	320 		345 	0 	
2011-12-23 11:19:58 	220 		316 	0 	
2011-12-23 11:20:15 	321 		395 	0 	
2011-12-23 11:20:24 	419 		395 	0 	
2011-12-23 11:21:26 	421 		395 	0 	
2011-12-23 11:22:39 	323 		10 	0 	
2011-12-23 11:41:17 	413 		395 	0 	
2011-12-23 11:41:22 	322 		395 	0 	
2011-12-23 12:04:58 	304 		395 	0 	
2011-12-23 12:21:53 	302 		395 	0 	
2011-12-23 12:25:24 	215 		465 	0 	
2011-12-23 12:25:45 	412 		395 	0 	
2011-12-23 12:25:53 	415 		395 	0 	
2011-12-23 12:26:27 	312 		140 	0 	
2011-12-23 12:27:26 	204 		490 	0 	
2011-12-23 12:37:37 	417 		395 	0 	
2011-12-23 12:41:37 	213 		945 	0 	
2011-12-23 13:04:26 	315 		395 	0 	
2011-12-23 13:04:37 	303 		705 	0 	
2011-12-23 13:04:45 	314 		345 	0 	
2011-12-23 13:04:55 	209 		275 	0 	
2011-12-23 13:05:08 	207 		345 	0 	
2011-12-23 13:10:13 	305 		575 	0 	
2011-12-23 13:21:15 	306 		395 	0 	
2011-12-23 13:21:27 	206 		585 	0 	
2011-12-23 13:21:36 	313 		395 	0 	
2011-12-23 13:28:37 	316 		345 	0 	
2011-12-23 13:28:48 	210 		345 	0 	
2011-12-23 13:32:22 	317 		395 	0 	
2011-12-23 13:39:49 	205 		585 	0 	
2011-12-23 13:49:18 	407 		395 	0 	
2011-12-23 13:49:29 	324 		275 	0 	
2011-12-23 13:49:41 	406 		395 	0 	
2011-12-23 14:02:20 	301 		395 	0 	
2011-12-23 14:02:30 	203 		585 	0 	
2011-12-23 14:02:44 	418 		945 	0 	
2011-12-23 14:15:26 	211 		345 	0 	
2011-12-23 14:15:53 	404 		395 	0 	
2011-12-23 14:17:20 	301 		110 	0 	
2011-12-23 14:24:58 	414 		705 	0 	
2011-12-23 14:25:13 	401 		395 	0 	
2011-12-23 14:26:21 	416 		345 	0 	
2011-12-23 14:30:18 	409 		395 	0 	
2011-12-23 14:41:25 	308 		395 	0 	
2011-12-23 14:41:33 	402 		395 	0 	
2011-12-23 14:50:53 	307 		395 	0 	
2011-12-23 14:51:05 	413 		675 	0 	
2011-12-23 14:51:45 	205 		90 	0 	
2011-12-23 14:53:31 	419 		395 	0 	
2011-12-23 14:53:43 	420 		345 	0 	
2011-12-23 14:53:52 	312 		395 	0 	
2011-12-23 15:06:01 	421 		535 	0 	
2011-12-23 15:06:10 	422 		395 	0 	
2011-12-23 15:06:18 	302 		395 	0 	
2011-12-23 15:08:30 	219 		395 	0 	
2011-12-23 15:12:07 	403 		465 	0 	
2011-12-23 15:14:48 	208 		275 	0 	
2011-12-23 15:15:42 	320 		120 	0 	
2011-12-23 15:18:14 	309 		535 	0 	
2011-12-23 15:21:53 	310 		275 	0 	
2011-12-23 15:27:42 	311 		275 	0 	
2011-12-23 15:30:11 	408 		395 	0 	
2011-12-23 15:39:55 	204 		585 	0 	
2011-12-23 15:42:41 	219 		200 	0 	
2011-12-23 15:43:55 	306 		395 	0 	
2011-12-23 15:44:03 	320 		345 	0 	
2011-12-23 15:45:00 	315 		395 	0 	
2011-12-23 15:49:08 	323 		275 	0 	
2011-12-23 15:58:13 	304 		395 	0 	
2011-12-23 15:58:22 	406 		395 	0 	
 			Total:		40096 	0		

=== RECHIT LIST ===




V1