MSHOGUN 1: SHIFT END REPORT
Saturday September 18, 2010 12:02:13 AM

SALES TRANSACTION
Room Sales Order			43985
FnB Sales Order			2565
Beer Sales Order			90
Misc Sales Order			85
Room Sales Adjustment			0
GROSS SALES			46725

DISCOUNT
Room				0
FnB				0
Misc				0

DEPOSIT				41644
REFUND				

TOTAL ACCOUNTABILITY			88369

CASH DECLARATION			7616
CARD				345
FUNDS SAFEKEEP			60000
TOTAL CASH DECLARED			67961

TOTAL CASH ON SYSTEM			7492
OVER/SHORTAGES 			124

ROOM	 # OF CHECK-OUT	AMT
Value 		9	2475
Regular 		28	10740
Classique 		64	26420
Premium 		0	0
Regent 		2	1600
Queen 		1	850
Gemini 		1	1900
Family 		0	0
Executive Suite 	0	0
Mega Suite 	0	0

DISCOUNT 
Value 			  
Regular 		  
Classique 		  
Premium 		  
Regent 			  
Queen 		  
Gemini 		  
Family 		  
Executive Suite 	  
Mega Suite 		  


=== RESERVATIONS ===

Deposits:


Claimed:



SECURITY DEPOSITS

Deposits:
Claimed:


=== SALES BREAKDOWN ===

Transaction Date	Room No.	Cash	Card

2010-09-17 16:06:33 	421 		20 	0 	
2010-09-17 16:10:33 	302 		395 	0 	
2010-09-17 16:12:58 	318 		585 	0 	
2010-09-17 16:16:23 	408 		395 	0 	
2010-09-17 16:21:55 	520 		110 	0 	
2010-09-17 16:28:38 	314 		120 	0 	
2010-09-17 16:32:42 	310 		275 	0 	
2010-09-17 16:38:56 	320 		276 	0 	
2010-09-17 16:38:56 	320 		724 	0 	
2010-09-17 16:50:55 	412 		395 	0 	
2010-09-17 16:52:14 	303 		345 	0 	
2010-09-17 16:52:27 	308 		395 	0 	
2010-09-17 16:53:46 	312 		395 	0 	
2010-09-17 16:56:44 	316 		585 	0 	
2010-09-17 17:00:05 	413 		395 	0 	
2010-09-17 17:06:12 	307 		395 	0 	
2010-09-17 17:09:07 	304 		395 	0 	
2010-09-17 17:21:27 	421 		395 	0 	
2010-09-17 17:21:36 	402 		395 	0 	
2010-09-17 17:23:44 	314 		345 	0 	
2010-09-17 17:32:01 	315 		395 	0 	
2010-09-17 17:39:08 	322 		395 	0 	
2010-09-17 17:46:20 	418 		345 	0 	
2010-09-17 17:49:36 	319 		370 	0 	
2010-09-17 17:52:33 	409 		395 	0 	
2010-09-17 17:56:54 	311 		275 	0 	
2010-09-17 18:00:15 	317 		395 	0 	
2010-09-17 18:02:22 	303 		235 	0 	
2010-09-17 18:02:49 	402 		205 	0 	
2010-09-17 18:03:00 	413 		205 	0 	
2010-09-17 18:15:16 	420 		645 	0 	
2010-09-17 18:18:44 	319 		395 	0 	
2010-09-17 18:25:31 	404 		395 	0 	
2010-09-17 18:25:41 	302 		395 	0 	
2010-09-17 18:28:17 	424 		595 	0 	
2010-09-17 18:30:58 	414 		276 	0 	
2010-09-17 18:32:25 	408 		395 	0 	
2010-09-17 18:37:07 	313 		316 	0 	
2010-09-17 18:39:35 	414 		10 	0 	
2010-09-17 18:39:41 	304 		205 	0 	
2010-09-17 18:51:45 	309 		316 	0 	
2010-09-17 18:57:07 	406 		395 	0 	
2010-09-17 19:01:36 	419 		0 	695 	
2010-09-17 19:01:49 	321 		395 	0 	
2010-09-17 19:01:58 	215 		645 	0 	
2010-09-17 19:02:08 	310 		275 	0 	
2010-09-17 19:07:48 	610 		2100 	0 	
2010-09-17 19:08:11 	403 		345 	0 	
2010-09-17 19:08:24 	317 		395 	0 	
2010-09-17 19:08:31 	312 		395 	0 	
2010-09-17 19:11:16 	423 		595 	0 	
2010-09-17 19:11:31 	213 		345 	0 	
2010-09-17 19:12:38 	409 		395 	0 	
2010-09-17 19:16:05 	320 		-724 	0 	
2010-09-17 19:19:35 	207 		345 	0 	
2010-09-17 19:19:45 	417 		395 	0 	
2010-09-17 19:19:55 	422 		395 	0 	
2010-09-17 19:20:03 	208 		275 	0 	
2010-09-17 19:22:36 	219 		140 	0 	
2010-09-17 19:28:01 	416 		120 	0 	
2010-09-17 19:29:11 	206 		0 	345 	
2010-09-17 19:29:30 	415 		395 	0 	
2010-09-17 19:29:37 	221 		395 	0 	
2010-09-17 19:32:55 	506 		1600 	0 	
2010-09-17 19:33:32 	308 		695 	0 	
2010-09-17 19:33:51 	205 		345 	0 	
2010-09-17 19:34:00 	220 		395 	0 	
2010-09-17 19:35:16 	202 		345 	0 	
2010-09-17 19:41:37 	414 		10 	0 	
2010-09-17 19:41:44 	419 		20 	0 	
2010-09-17 19:41:53 	409 		50 	0 	
2010-09-17 19:47:38 	219 		0 	695 	
2010-09-17 19:47:53 	218 		695 	0 	
2010-09-17 19:47:59 	301 		395 	0 	
2010-09-17 19:48:06 	203 		276 	0 	
2010-09-17 19:49:54 	323 		595 	0 	
2010-09-17 19:51:20 	522 		750 	0 	
2010-09-17 19:52:17 	306 		316 	0 	
2010-09-17 19:52:32 	307 		395 	0 	
2010-09-17 19:53:37 	307 		10 	0 	
2010-09-17 19:55:16 	523 		750 	0 	
2010-09-17 19:55:37 	412 		395 	0 	
2010-09-17 19:58:20 	204 		276 	0 	
2010-09-17 19:58:43 	211 		345 	0 	
2010-09-17 20:03:33 	210 		345 	0 	
2010-09-17 20:09:56 	323 		20 	0 	
2010-09-17 20:10:31 	506 		210 	0 	
2010-09-17 20:11:12 	221 		210 	0 	
2010-09-17 20:11:40 	518 		750 	0 	
2010-09-17 20:12:53 	608 		850 	0 	
2010-09-17 20:14:21 	324 		595 	0 	
2010-09-17 20:15:14 	320 		645 	0 	
2010-09-17 20:16:25 	303 		645 	0 	
2010-09-17 20:22:50 	314 		345 	0 	
2010-09-17 20:23:31 	304 		395 	0 	
2010-09-17 20:23:38 	322 		395 	0 	
2010-09-17 20:25:26 	208 		295 	0 	
2010-09-17 20:26:14 	319 		695 	0 	
2010-09-17 20:26:25 	209 		275 	0 	
2010-09-17 20:29:54 	315 		395 	0 	
2010-09-17 20:33:39 	410 		275 	0 	
2010-09-17 20:36:28 	509 		750 	0 	
2010-09-17 20:41:05 	408 		395 	0 	
2010-09-17 20:42:50 	303 		205 	0 	
2010-09-17 20:43:19 	413 		140 	0 	
2010-09-17 20:44:26 	319 		10 	0 	
2010-09-17 20:45:09 	411 		275 	0 	
2010-09-17 20:48:08 	305 		595 	0 	
2010-09-17 20:58:33 	508 		750 	0 	
2010-09-17 20:59:03 	421 		395 	0 	
2010-09-17 20:59:15 	417 		395 	0 	
2010-09-17 21:03:41 	509 		100 	0 	
2010-09-17 21:09:48 	309 		395 	0 	
2010-09-17 21:09:56 	416 		345 	0 	
2010-09-17 21:16:30 	312 		395 	0 	
2010-09-17 21:16:38 	213 		345 	0 	
2010-09-17 21:20:47 	406 		395 	0 	
2010-09-17 21:22:17 	402 		140 	0 	
2010-09-17 21:23:40 	508 		134 	0 	
2010-09-17 21:28:37 	418 		645 	0 	
2010-09-17 21:33:10 	513 		800 	0 	
2010-09-17 21:34:15 	413 		695 	0 	
2010-09-17 21:34:25 	405 		595 	0 	
2010-09-17 21:37:11 	311 		275 	0 	
2010-09-17 21:40:51 	317 		695 	0 	
2010-09-17 21:42:01 	307 		695 	0 	
2010-09-17 21:44:54 	605 		1050 	0 	
2010-09-17 21:48:10 	318 		645 	0 	
2010-09-17 21:48:38 	415 		695 	0 	
2010-09-17 21:50:34 	216 		275 	0 	
2010-09-17 21:59:10 	306 		695 	0 	
2010-09-17 22:00:27 	302 		395 	0 	
2010-09-17 22:03:52 	402 		316 	0 	
2010-09-17 22:04:05 	409 		395 	0 	
2010-09-17 22:07:24 	512 		800 	0 	
2010-09-17 22:08:19 	322 		395 	0 	
2010-09-17 22:08:24 	321 		695 	0 	
2010-09-17 22:11:25 	207 		345 	0 	
2010-09-17 22:11:33 	212 		595 	0 	
2010-09-17 22:14:11 	419 		135 	0 	
2010-09-17 22:19:37 	218 		50 	0 	
2010-09-17 22:19:44 	207 		50 	0 	
2010-09-17 22:19:54 	412 		395 	0 	
2010-09-17 22:23:05 	402 		35 	0 	
2010-09-17 22:24:31 	415 		50 	0 	
2010-09-17 22:32:06 	315 		695 	0 	
2010-09-17 22:36:33 	316 		645 	0 	
2010-09-17 22:41:20 	521 		0 	750 	
2010-09-17 22:41:46 	412 		210 	0 	
2010-09-17 22:46:27 	313 		140 	0 	
2010-09-17 22:58:22 	318 		210 	0 	
2010-09-17 22:59:14 	515 		800 	0 	
2010-09-17 22:59:36 	220 		695 	0 	
2010-09-17 23:05:35 	521 		325 	0 	
2010-09-17 23:08:48 	301 		695 	0 	
2010-09-17 23:08:56 	407 		695 	0 	
2010-09-17 23:09:03 	313 		695 	0 	
2010-09-17 23:09:52 	308 		395 	0 	
2010-09-17 23:12:16 	401 		695 	0 	
2010-09-17 23:28:24 	Lobby 		45 	0 	
2010-09-17 23:28:39 	Lobby 		45 	0 	
2010-09-17 23:35:23 	414 		645 	0 	
2010-09-17 23:39:12 	304 		695 	0 	
2010-09-17 23:44:36 	314 		645 	0 	
2010-09-17 23:44:49 	309 		25 	0 	
2010-09-17 23:45:22 	411 		595 	0 	
2010-09-17 23:48:27 	416 		0 	645 	
2010-09-17 23:54:14 	403 		645 	0 	
2010-09-17 23:56:18 	314 		180 	0 	
 			Total:		67492 	3130		

=== RECHIT LIST ===

Room No. 601 	 Rechit Date: 2010-09-17 18:38:25




Room No. 605 	 Rechit Date: 2010-09-17 22:38:29







V1