MSHOGUN 1: SHIFT END REPORT
Tuesday November 01, 2011 3:56:54 PM

SALES TRANSACTION
Room Sales Order			23645
FnB Sales Order			1900
Beer Sales Order			360
Misc Sales Order			20
Room Sales Adjustment			0
GROSS SALES			25925

DISCOUNT
Room				0
FnB				0
Misc				0

DEPOSIT				8875
REFUND				

TOTAL ACCOUNTABILITY			34800

CASH DECLARATION			1913
CARD				345
FUNDS SAFEKEEP			20000
TOTAL CASH DECLARED			22258

TOTAL CASH ON SYSTEM			1912
OVER/SHORTAGES 			1

ROOM	 # OF CHECK-OUT	AMT
Value 		13	5055
Regular 		12	6660
Classique 		22	11930
Premium 		0	0
Regent 		0	0
Queen 		0	0
Gemini 		0	0
Family 		0	0
Executive Suite 	0	0
Mega Suite 	0	0

DISCOUNT 
Value 			  
Regular 		  
Classique 		  
Premium 		  
Regent 			  
Queen 		  
Gemini 		  
Family 		  
Executive Suite 	  
Mega Suite 		  


=== RESERVATIONS ===

Deposits:


Claimed:



SECURITY DEPOSITS

Deposits:
Claimed:


=== SALES BREAKDOWN ===

Transaction Date	Room No.	Cash	Card

2011-11-01 08:02:38 	403 		50 	0 	
2011-11-01 08:47:42 	310 		120 	0 	
2011-11-01 08:54:55 	318 		345 	0 	
2011-11-01 09:21:46 	212 		275 	0 	
2011-11-01 09:27:50 	214 		275 	0 	
2011-11-01 09:45:24 	312 		395 	0 	
2011-11-01 09:51:25 	301 		395 	0 	
2011-11-01 10:02:34 	216 		275 	0 	
2011-11-01 10:32:42 	304 		395 	0 	
2011-11-01 10:42:20 	217 		575 	0 	
2011-11-01 10:42:33 	206 		585 	0 	
2011-11-01 10:42:41 	308 		395 	0 	
2011-11-01 10:44:12 	324 		275 	0 	
2011-11-01 11:01:15 	203 		345 	0 	
2011-11-01 11:06:11 	308 		360 	0 	
2011-11-01 11:13:00 	205 		345 	0 	
2011-11-01 11:13:15 	424 		375 	0 	
2011-11-01 11:14:51 	204 		0 	345 	
2011-11-01 11:19:06 	205 		260 	0 	
2011-11-01 11:22:37 	323 		135 	0 	
2011-11-01 11:24:39 	208 		275 	0 	
2011-11-01 11:25:12 	419 		395 	0 	
2011-11-01 11:52:07 	319 		395 	0 	
2011-11-01 12:06:01 	209 		275 	0 	
2011-11-01 12:15:49 	213 		585 	0 	
2011-11-01 12:20:39 	220 		316 	0 	
2011-11-01 12:29:44 	218 		280 	0 	
2011-11-01 12:30:21 	215 		705 	0 	
2011-11-01 12:39:48 	204 		235 	0 	
2011-11-01 12:40:52 	307 		465 	0 	
2011-11-01 12:47:10 	202 		345 	0 	
2011-11-01 12:51:58 	401 		210 	0 	
2011-11-01 12:53:19 	303 		345 	0 	
2011-11-01 13:12:51 	309 		395 	0 	
2011-11-01 13:19:20 	314 		345 	0 	
2011-11-01 13:19:42 	219 		395 	0 	
2011-11-01 13:24:44 	306 		395 	0 	
2011-11-01 13:24:50 	302 		395 	0 	
2011-11-01 13:25:11 	315 		395 	0 	
2011-11-01 13:26:43 	322 		395 	0 	
2011-11-01 13:28:40 	313 		395 	0 	
2011-11-01 13:34:04 	221 		395 	0 	
2011-11-01 13:40:49 	214 		275 	0 	
2011-11-01 13:45:09 	301 		395 	0 	
2011-11-01 13:46:27 	315 		50 	0 	
2011-11-01 13:49:38 	304 		395 	0 	
2011-11-01 13:50:30 	307 		395 	0 	
2011-11-01 13:51:11 	316 		345 	0 	
2011-11-01 13:53:10 	319 		395 	0 	
2011-11-01 14:01:12 	310 		275 	0 	
2011-11-01 14:01:22 	321 		395 	0 	
2011-11-01 14:01:27 	402 		395 	0 	
2011-11-01 14:18:54 	217 		95 	0 	
2011-11-01 14:25:45 	311 		275 	0 	
2011-11-01 14:34:44 	406 		316 	0 	
2011-11-01 14:37:47 	216 		275 	0 	
2011-11-01 14:45:59 	212 		275 	0 	
2011-11-01 14:53:23 	324 		310 	0 	
2011-11-01 14:56:28 	308 		140 	0 	
2011-11-01 14:59:02 	409 		395 	0 	
2011-11-01 15:01:43 	322 		395 	0 	
2011-11-01 15:03:39 	314 		220 	0 	
2011-11-01 15:12:46 	320 		0 	825 	
2011-11-01 15:29:59 	302 		675 	0 	
2011-11-01 15:33:49 	202 		50 	0 	
2011-11-01 15:42:19 	305 		275 	0 	
2011-11-01 15:49:18 	306 		395 	0 	
 			Total:		21912 	1170		

=== RECHIT LIST ===




V1