MSHOGUN 1: SHIFT END REPORT
Wednesday December 01, 2010 4:00:01 PM

SALES TRANSACTION
Room Sales Order			26125
FnB Sales Order			1665
Beer Sales Order			440
Misc Sales Order			0
Room Sales Adjustment			0
GROSS SALES			28230

DISCOUNT
Room				0
FnB				0
Misc				0

DEPOSIT				9470
REFUND				

TOTAL ACCOUNTABILITY			37700

CASH DECLARATION			4456
CARD				1920
FUNDS SAFEKEEP			20000
TOTAL CASH DECLARED			26376

TOTAL CASH ON SYSTEM			4456
OVER/SHORTAGES 			0

ROOM	 # OF CHECK-OUT	AMT
Value 		10	5510
Regular 		16	8340
Classique 		25	12275
Premium 		0	0
Regent 		0	0
Queen 		0	0
Gemini 		0	0
Family 		0	0
Executive Suite 	0	0
Mega Suite 	0	0

DISCOUNT 
Value 			  
Regular 		  
Classique 		  
Premium 		  
Regent 			  
Queen 		  
Gemini 		  
Family 		  
Executive Suite 	  
Mega Suite 		  


=== RESERVATIONS ===

Deposits:


Claimed:



SECURITY DEPOSITS

Deposits:
Claimed:


=== SALES BREAKDOWN ===

Transaction Date	Room No.	Cash	Card

2010-12-01 08:08:36 	314 		345 	0 	
2010-12-01 08:48:24 	322 		395 	0 	
2010-12-01 09:15:56 	321 		395 	0 	
2010-12-01 09:18:56 	320 		345 	0 	
2010-12-01 09:59:12 	310 		100 	0 	
2010-12-01 10:31:21 	318 		705 	0 	
2010-12-01 10:32:22 	312 		395 	0 	
2010-12-01 10:33:40 	322 		160 	0 	
2010-12-01 10:34:57 	319 		395 	0 	
2010-12-01 10:45:42 	406 		395 	0 	
2010-12-01 10:57:22 	304 		395 	0 	
2010-12-01 11:04:46 	414 		585 	0 	
2010-12-01 11:05:48 	302 		395 	0 	
2010-12-01 11:08:05 	301 		395 	0 	
2010-12-01 11:10:39 	407 		395 	0 	
2010-12-01 11:13:58 	203 		25 	0 	
2010-12-01 11:17:08 	311 		275 	0 	
2010-12-01 11:44:23 	404 		395 	0 	
2010-12-01 11:44:34 	202 		345 	0 	
2010-12-01 11:52:49 	408 		395 	0 	
2010-12-01 11:55:48 	413 		395 	0 	
2010-12-01 11:56:07 	305 		275 	0 	
2010-12-01 11:57:53 	405 		275 	0 	
2010-12-01 12:04:23 	215 		120 	0 	
2010-12-01 12:12:17 	403 		345 	0 	
2010-12-01 12:13:25 	404 		670 	0 	
2010-12-01 12:21:33 	418 		345 	0 	
2010-12-01 12:21:40 	417 		395 	0 	
2010-12-01 12:34:00 	410 		275 	0 	
2010-12-01 12:35:03 	402 		395 	0 	
2010-12-01 12:38:31 	416 		345 	0 	
2010-12-01 12:41:25 	419 		395 	0 	
2010-12-01 12:45:04 	411 		475 	0 	
2010-12-01 12:45:14 	420 		585 	0 	
2010-12-01 12:49:20 	402 		200 	0 	
2010-12-01 12:49:40 	206 		705 	0 	
2010-12-01 13:03:06 	409 		395 	0 	
2010-12-01 13:05:14 	321 		395 	0 	
2010-12-01 13:13:48 	320 		705 	0 	
2010-12-01 13:26:58 	420 		250 	0 	
2010-12-01 13:39:52 	319 		395 	0 	
2010-12-01 13:43:09 	303 		345 	0 	
2010-12-01 13:45:26 	318 		295 	0 	
2010-12-01 13:45:35 	419 		65 	0 	
2010-12-01 13:48:05 	209 		275 	0 	
2010-12-01 13:53:15 	204 		345 	0 	
2010-12-01 13:53:32 	312 		395 	0 	
2010-12-01 13:56:25 	205 		345 	0 	
2010-12-01 14:01:13 	207 		345 	0 	
2010-12-01 14:11:29 	208 		0 	1920 	
2010-12-01 14:12:24 	322 		395 	0 	
2010-12-01 14:26:50 	317 		395 	0 	
2010-12-01 14:32:05 	314 		705 	0 	
2010-12-01 14:34:39 	322 		45 	0 	
2010-12-01 14:53:57 	315 		395 	0 	
2010-12-01 14:54:40 	315 		20 	0 	
2010-12-01 15:07:21 	218 		395 	0 	
2010-12-01 15:15:45 	316 		345 	0 	
2010-12-01 15:17:53 	219 		395 	0 	
2010-12-01 15:26:07 	220 		395 	0 	
2010-12-01 15:28:58 	404 		316 	0 	
2010-12-01 15:31:01 	403 		345 	0 	
2010-12-01 15:31:13 	418 		705 	0 	
2010-12-01 15:43:09 	405 		100 	0 	
2010-12-01 15:44:40 	203 		345 	0 	
2010-12-01 15:46:49 	302 		395 	0 	
2010-12-01 15:50:52 	304 		395 	0 	
2010-12-01 15:54:02 	413 		395 	0 	
 			Total:		24456 	1920		

=== RECHIT LIST ===




V1