MSHOGUN 1: SHIFT END REPORT
Friday July 08, 2011 7:58:28 AM

SALES TRANSACTION
Room Sales Order			19615
FnB Sales Order			1460
Beer Sales Order			270
Misc Sales Order			90
Room Sales Adjustment			0
GROSS SALES			21435

DISCOUNT
Room				0
FnB				0
Misc				0

DEPOSIT				4970
REFUND				

TOTAL ACCOUNTABILITY			26405

CASH DECLARATION			2295
CARD				0
FUNDS SAFEKEEP			10000
TOTAL CASH DECLARED			12295

TOTAL CASH ON SYSTEM			2515
OVER/SHORTAGES 			-220

ROOM	 # OF CHECK-OUT	AMT
Value 		10	4450
Regular 		10	5370
Classique 		21	9795
Premium 		0	0
Regent 		0	0
Queen 		0	0
Gemini 		0	0
Family 		0	0
Executive Suite 	0	0
Mega Suite 	0	0

DISCOUNT 
Value 			  
Regular 		  
Classique 		  
Premium 		  
Regent 			  
Queen 		  
Gemini 		  
Family 		  
Executive Suite 	  
Mega Suite 		  


=== RESERVATIONS ===

Deposits:


Claimed:



SECURITY DEPOSITS

Deposits:
Claimed:


=== SALES BREAKDOWN ===

Transaction Date	Room No.	Cash	Card

2011-07-08 00:30:08 	306 		695 	0 	
2011-07-08 00:44:14 	401 		395 	0 	
2011-07-08 00:44:20 	409 		395 	0 	
2011-07-08 00:58:27 	322 		395 	0 	
2011-07-08 01:10:20 	302 		695 	0 	
2011-07-08 01:10:36 	313 		695 	0 	
2011-07-08 01:21:05 	309 		395 	0 	
2011-07-08 01:22:52 	423 		90 	0 	
2011-07-08 01:27:13 	309 		25 	0 	
2011-07-08 02:00:18 	312 		395 	0 	
2011-07-08 02:06:27 	308 		50 	0 	
2011-07-08 02:10:27 	221 		695 	0 	
2011-07-08 02:18:03 	301 		395 	0 	
2011-07-08 02:18:35 	413 		695 	0 	
2011-07-08 02:19:26 	412 		395 	0 	
2011-07-08 02:19:37 	422 		395 	0 	
2011-07-08 02:27:10 	219 		395 	0 	
2011-07-08 02:29:56 	201 		345 	0 	
2011-07-08 02:31:30 	307 		270 	0 	
2011-07-08 02:51:15 	207 		585 	0 	
2011-07-08 03:10:35 	206 		705 	0 	
2011-07-08 03:23:21 	204 		345 	0 	
2011-07-08 03:34:12 	201 		65 	0 	
2011-07-08 03:36:01 	422 		240 	0 	
2011-07-08 03:38:04 	203 		345 	0 	
2011-07-08 04:04:33 	308 		395 	0 	
2011-07-08 04:08:41 	208 		275 	0 	
2011-07-08 04:56:10 	308 		90 	0 	
2011-07-08 05:22:27 	412 		395 	0 	
2011-07-08 06:30:01 	307 		535 	0 	
2011-07-08 07:10:49 	202 		345 	0 	
2011-07-08 07:48:14 	408 		385 	0 	
 			Total:		12515 	0		

=== RECHIT LIST ===




V1