MSHOGUN 1: SHIFT END REPORT
Friday July 01, 2011 7:59:59 AM

SALES TRANSACTION
Room Sales Order			34830
FnB Sales Order			1245
Beer Sales Order			270
Misc Sales Order			50
Room Sales Adjustment			0
GROSS SALES			36395

DISCOUNT
Room				0
FnB				0
Misc				0

DEPOSIT				5265
REFUND				

TOTAL ACCOUNTABILITY			41660

CASH DECLARATION			6135
CARD				0
FUNDS SAFEKEEP			10000
TOTAL CASH DECLARED			16135

TOTAL CASH ON SYSTEM			6110
OVER/SHORTAGES 			25

ROOM	 # OF CHECK-OUT	AMT
Value 		16	7840
Regular 		21	10665
Classique 		27	16325
Premium 		0	0
Regent 		0	0
Queen 		0	0
Gemini 		0	0
Family 		0	0
Executive Suite 	0	0
Mega Suite 	0	0

DISCOUNT 
Value 			  
Regular 		  
Classique 		  
Premium 		  
Regent 			  
Queen 		  
Gemini 		  
Family 		  
Executive Suite 	  
Mega Suite 		  


=== RESERVATIONS ===

Deposits:


Claimed:



SECURITY DEPOSITS

Deposits:
Claimed:


=== SALES BREAKDOWN ===

Transaction Date	Room No.	Cash	Card

2011-07-01 00:12:02 	206 		585 	0 	
2011-07-01 00:12:08 	312 		695 	0 	
2011-07-01 00:14:49 	403 		55 	0 	
2011-07-01 00:19:49 	403 		645 	0 	
2011-07-01 00:31:13 	308 		560 	0 	
2011-07-01 00:45:48 	312 		110 	0 	
2011-07-01 00:54:59 	208 		475 	0 	
2011-07-01 00:59:13 	216 		775 	0 	
2011-07-01 01:14:29 	308 		695 	0 	
2011-07-01 01:15:09 	201 		345 	0 	
2011-07-01 01:21:23 	401 		395 	0 	
2011-07-01 01:23:31 	203 		465 	0 	
2011-07-01 01:23:41 	412 		695 	0 	
2011-07-01 01:28:07 	220 		695 	0 	
2011-07-01 01:33:56 	221 		695 	0 	
2011-07-01 01:41:39 	205 		645 	0 	
2011-07-01 01:41:46 	219 		695 	0 	
2011-07-01 01:50:35 	204 		135 	0 	
2011-07-01 02:05:45 	207 		345 	0 	
2011-07-01 02:06:35 	209 		575 	0 	
2011-07-01 02:07:41 	212 		275 	0 	
2011-07-01 02:15:58 	212 		20 	0 	
2011-07-01 02:19:44 	304 		110 	0 	
2011-07-01 02:24:51 	318 		120 	0 	
2011-07-01 02:25:21 	204 		345 	0 	
2011-07-01 02:35:04 	401 		155 	0 	
2011-07-01 02:44:40 	214 		100 	0 	
2011-07-01 02:51:18 	409 		210 	0 	
2011-07-01 02:51:56 	301 		395 	0 	
2011-07-01 02:53:29 	417 		695 	0 	
2011-07-01 03:09:32 	318 		705 	0 	
2011-07-01 03:32:07 	401 		395 	0 	
2011-07-01 03:39:46 	404 		395 	0 	
2011-07-01 04:17:19 	214 		275 	0 	
2011-07-01 05:11:40 	201 		120 	0 	
2011-07-01 05:58:02 	206 		345 	0 	
2011-07-01 06:00:33 	206 		15 	0 	
2011-07-01 06:18:59 	204 		120 	0 	
2011-07-01 06:56:56 	204 		345 	0 	
2011-07-01 07:09:45 	320 		345 	0 	
2011-07-01 07:39:58 	207 		345 	0 	
 			Total:		16110 	0		

=== RECHIT LIST ===




V1