MSHOGUN 1: SHIFT END REPORT
Friday August 06, 2010 4:00:05 PM

SALES TRANSACTION
Room Sales Order			18320
FnB Sales Order			1270
Beer Sales Order			200
Misc Sales Order			40
Room Sales Adjustment			0
GROSS SALES			19830

DISCOUNT
Room				0
FnB				0
Misc				0

DEPOSIT				25170
REFUND				

TOTAL ACCOUNTABILITY			45000

CASH DECLARATION			6492
CARD				1600
FUNDS SAFEKEEP			30000
TOTAL CASH DECLARED			38092

TOTAL CASH ON SYSTEM			6482
OVER/SHORTAGES 			10

ROOM	 # OF CHECK-OUT	AMT
Value 		7	1925
Regular 		10	5310
Classique 		15	7085
Premium 		1	750
Regent 		2	2400
Queen 		1	850
Gemini 		0	0
Family 		0	0
Executive Suite 	0	0
Mega Suite 	0	0

DISCOUNT 
Value 			  
Regular 		  
Classique 		  
Premium 		  
Regent 			  
Queen 		  
Gemini 		  
Family 		  
Executive Suite 	  
Mega Suite 		  


=== RESERVATIONS ===

Deposits:


Claimed:



SECURITY DEPOSITS

Deposits:
Claimed:


=== SALES BREAKDOWN ===

Transaction Date	Room No.	Cash	Card

2010-08-06 08:11:25 	505 		800 	0 	
2010-08-06 08:24:16 	306 		395 	0 	
2010-08-06 08:25:02 	218 		395 	0 	
2010-08-06 08:28:39 	504 		800 	0 	
2010-08-06 08:51:34 	207 		345 	0 	
2010-08-06 09:17:58 	309 		420 	0 	
2010-08-06 09:31:50 	507 		1600 	0 	
2010-08-06 09:40:15 	307 		395 	0 	
2010-08-06 09:47:30 	215 		705 	0 	
2010-08-06 09:53:12 	308 		316 	0 	
2010-08-06 10:12:59 	204 		705 	0 	
2010-08-06 10:18:47 	308 		80 	0 	
2010-08-06 10:18:55 	308 		10 	0 	
2010-08-06 10:34:54 	611 		2100 	0 	
2010-08-06 10:59:11 	322 		395 	0 	
2010-08-06 11:06:42 	511 		0 	1600 	
2010-08-06 11:10:40 	208 		275 	0 	
2010-08-06 11:13:13 	203 		465 	0 	
2010-08-06 11:18:46 	206 		585 	0 	
2010-08-06 11:19:52 	310 		275 	0 	
2010-08-06 11:23:54 	515 		360 	0 	
2010-08-06 11:27:13 	305 		275 	0 	
2010-08-06 11:33:43 	202 		345 	0 	
2010-08-06 11:34:19 	212 		275 	0 	
2010-08-06 11:38:12 	301 		395 	0 	
2010-08-06 11:39:39 	313 		675 	0 	
2010-08-06 11:50:43 	209 		275 	0 	
2010-08-06 11:54:29 	504 		180 	0 	
2010-08-06 11:56:18 	312 		675 	0 	
2010-08-06 12:08:05 	218 		255 	0 	
2010-08-06 12:10:33 	304 		395 	0 	
2010-08-06 12:15:42 	501 		800 	0 	
2010-08-06 12:23:03 	320 		345 	0 	
2010-08-06 12:26:52 	316 		585 	0 	
2010-08-06 12:31:34 	203 		210 	0 	
2010-08-06 12:31:37 	203 		110 	0 	
2010-08-06 12:33:51 	503 		1600 	0 	
2010-08-06 12:34:59 	303 		40 	0 	
2010-08-06 12:35:03 	303 		110 	0 	
2010-08-06 12:40:16 	502 		180 	0 	
2010-08-06 12:42:11 	214 		275 	0 	
2010-08-06 12:46:27 	317 		535 	0 	
2010-08-06 12:57:51 	206 		50 	0 	
2010-08-06 13:03:22 	216 		275 	0 	
2010-08-06 13:04:30 	506 		1600 	0 	
2010-08-06 13:05:16 	309 		395 	0 	
2010-08-06 13:06:58 	314 		465 	0 	
2010-08-06 13:09:44 	323 		275 	0 	
2010-08-06 13:17:49 	308 		395 	0 	
2010-08-06 13:20:38 	307 		395 	0 	
2010-08-06 13:28:05 	315 		395 	0 	
2010-08-06 13:32:09 	314 		225 	0 	
2010-08-06 13:48:10 	324 		275 	0 	
2010-08-06 13:49:28 	306 		395 	0 	
2010-08-06 14:04:38 	318 		276 	0 	
2010-08-06 14:07:29 	319 		395 	0 	
2010-08-06 14:08:56 	303 		516 	0 	
2010-08-06 14:09:21 	402 		395 	0 	
2010-08-06 14:10:18 	401 		395 	0 	
2010-08-06 14:13:13 	211 		276 	0 	
2010-08-06 14:14:36 	321 		395 	0 	
2010-08-06 14:23:37 	207 		345 	0 	
2010-08-06 14:28:15 	210 		345 	0 	
2010-08-06 14:32:19 	322 		395 	0 	
2010-08-06 14:36:26 	406 		395 	0 	
2010-08-06 14:42:10 	406 		160 	0 	
2010-08-06 14:43:45 	404 		395 	0 	
2010-08-06 14:49:58 	407 		395 	0 	
2010-08-06 14:51:46 	408 		316 	0 	
2010-08-06 14:54:29 	202 		345 	0 	
2010-08-06 15:01:22 	510 		1325 	0 	
2010-08-06 15:01:37 	208 		275 	0 	
2010-08-06 15:02:50 	304 		316 	0 	
2010-08-06 15:08:54 	403 		345 	0 	
2010-08-06 15:20:51 	306 		15 	0 	
2010-08-06 15:22:43 	409 		395 	0 	
2010-08-06 15:31:00 	304 		110 	0 	
2010-08-06 15:36:12 	514 		800 	0 	
2010-08-06 15:40:08 	201 		276 	0 	
2010-08-06 15:46:20 	206 		345 	0 	
2010-08-06 15:52:05 	412 		395 	0 	
2010-08-06 15:53:52 	205 		345 	0 	
2010-08-06 15:57:06 	314 		705 	0 	
 			Total:		36482 	1600		

=== RECHIT LIST ===

Room No. 513 	 Rechit Date: 2010-08-06 13:29:55




Room No. 611 	 Rechit Date: 2010-08-06 10:33:06




Room No. 503 	 Rechit Date: 2010-08-06 12:53:23







V1