MSHOGUN 1: SHIFT END REPORT
Saturday November 05, 2011 3:56:29 PM

SALES TRANSACTION
Room Sales Order			34620
FnB Sales Order			2968
Beer Sales Order			350
Misc Sales Order			75
Room Sales Adjustment			0
GROSS SALES			38013

DISCOUNT
Room				0
FnB				0
Misc				0

DEPOSIT				13420
REFUND				

TOTAL ACCOUNTABILITY			51433

CASH DECLARATION			7440
CARD				695
FUNDS SAFEKEEP			20000
TOTAL CASH DECLARED			28135

TOTAL CASH ON SYSTEM			7440
OVER/SHORTAGES 			0

ROOM	 # OF CHECK-OUT	AMT
Value 		15	6985
Regular 		17	10605
Classique 		30	17030
Premium 		0	0
Regent 		0	0
Queen 		0	0
Gemini 		0	0
Family 		0	0
Executive Suite 	0	0
Mega Suite 	0	0

DISCOUNT 
Value 			  
Regular 		  
Classique 		  
Premium 		  
Regent 			  
Queen 		  
Gemini 		  
Family 		  
Executive Suite 	  
Mega Suite 		  


=== RESERVATIONS ===

Deposits:


Claimed:



SECURITY DEPOSITS

Deposits:
Claimed:


=== SALES BREAKDOWN ===

Transaction Date	Room No.	Cash	Card

2011-11-05 07:58:39 	204 		225 	0 	
2011-11-05 08:11:22 	317 		140 	0 	
2011-11-05 08:19:18 	304 		535 	0 	
2011-11-05 08:20:52 	316 		50 	0 	
2011-11-05 08:36:16 	308 		395 	0 	
2011-11-05 08:46:41 	420 		120 	0 	
2011-11-05 08:52:10 	323 		275 	0 	
2011-11-05 08:53:31 	302 		365 	0 	
2011-11-05 09:03:22 	214 		50 	0 	
2011-11-05 09:10:15 	313 		395 	0 	
2011-11-05 09:18:37 	316 		25 	0 	
2011-11-05 09:23:31 	303 		50 	0 	
2011-11-05 09:28:02 	418 		330 	0 	
2011-11-05 09:43:57 	324 		415 	0 	
2011-11-05 09:44:28 	321 		395 	0 	
2011-11-05 09:47:13 	423 		230 	0 	
2011-11-05 10:00:09 	312 		395 	0 	
2011-11-05 10:05:16 	314 		345 	0 	
2011-11-05 10:24:14 	215 		240 	0 	
2011-11-05 10:25:28 	317 		395 	0 	
2011-11-05 10:28:07 	405 		275 	0 	
2011-11-05 10:39:49 	307 		395 	0 	
2011-11-05 10:50:34 	302 		395 	0 	
2011-11-05 11:09:48 	301 		395 	0 	
2011-11-05 11:14:47 	321 		55 	0 	
2011-11-05 11:17:03 	324 		275 	0 	
2011-11-05 11:20:47 	421 		615 	0 	
2011-11-05 11:32:27 	315 		280 	0 	
2011-11-05 11:46:25 	309 		395 	0 	
2011-11-05 11:49:45 	321 		200 	0 	
2011-11-05 12:00:46 	319 		815 	0 	
2011-11-05 12:02:36 	324 		165 	0 	
2011-11-05 12:04:02 	305 		275 	0 	
2011-11-05 12:29:50 	303 		345 	0 	
2011-11-05 12:37:14 	316 		585 	0 	
2011-11-05 12:39:35 	411 		275 	0 	
2011-11-05 12:56:02 	306 		395 	0 	
2011-11-05 12:59:42 	320 		345 	0 	
2011-11-05 13:01:28 	304 		395 	0 	
2011-11-05 13:03:19 	203 		585 	0 	
2011-11-05 13:05:20 	302 		110 	0 	
2011-11-05 13:12:10 	212 		275 	0 	
2011-11-05 13:14:50 	308 		395 	0 	
2011-11-05 13:18:10 	212 		80 	0 	
2011-11-05 13:21:38 	321 		395 	0 	
2011-11-05 13:30:09 	301 		395 	0 	
2011-11-05 13:30:40 	412 		395 	0 	
2011-11-05 13:36:15 	220 		395 	0 	
2011-11-05 13:44:35 	218 		395 	0 	
2011-11-05 13:47:55 	307 		395 	0 	
2011-11-05 13:52:58 	221 		395 	0 	
2011-11-05 13:53:04 	322 		395 	0 	
2011-11-05 13:53:53 	214 		275 	0 	
2011-11-05 13:55:32 	404 		395 	0 	
2011-11-05 13:57:06 	206 		345 	0 	
2011-11-05 14:00:20 	205 		345 	0 	
2011-11-05 14:02:39 	313 		395 	0 	
2011-11-05 14:09:20 	204 		345 	0 	
2011-11-05 14:22:37 	315 		395 	0 	
2011-11-05 14:22:45 	317 		395 	0 	
2011-11-05 14:22:54 	312 		395 	0 	
2011-11-05 14:23:23 	321 		50 	0 	
2011-11-05 14:26:50 	209 		275 	0 	
2011-11-05 14:26:59 	209 		10 	0 	
2011-11-05 14:39:36 	211 		345 	0 	
2011-11-05 14:40:27 	407 		395 	0 	
2011-11-05 14:41:58 	406 		395 	0 	
2011-11-05 14:46:21 	315 		300 	0 	
2011-11-05 14:46:40 	309 		395 	0 	
2011-11-05 14:52:22 	219 		395 	0 	
2011-11-05 15:08:03 	215 		345 	0 	
2011-11-05 15:10:12 	423 		275 	0 	
2011-11-05 15:13:46 	302 		395 	0 	
2011-11-05 15:14:11 	301 		395 	0 	
2011-11-05 15:25:27 	215 		15 	0 	
2011-11-05 15:25:41 	213 		345 	0 	
2011-11-05 15:29:48 	317 		105 	0 	
2011-11-05 15:33:20 	322 		395 	0 	
2011-11-05 15:37:09 	412 		210 	0 	
2011-11-05 15:41:30 	402 		395 	0 	
2011-11-05 15:46:15 	305 		100 	0 	
2011-11-05 15:48:13 	202 		585 	0 	
2011-11-05 15:48:20 	401 		395 	0 	
2011-11-05 15:48:29 	408 		395 	0 	
2011-11-05 15:55:05 	409 		395 	0 	
 			Total:		27440 	0		

=== RECHIT LIST ===




V1