MSHOGUN 1: SHIFT END REPORT
Tuesday March 08, 2011 12:00:28 AM

SALES TRANSACTION
Room Sales Order			40115
FnB Sales Order			2210
Beer Sales Order			300
Misc Sales Order			50
Room Sales Adjustment			0
GROSS SALES			42675

DISCOUNT
Room				0
FnB				0
Misc				0

DEPOSIT				23995
REFUND				

TOTAL ACCOUNTABILITY			66670

CASH DECLARATION			3700
CARD				0
FUNDS SAFEKEEP			40000
TOTAL CASH DECLARED			43700

TOTAL CASH ON SYSTEM			8401
OVER/SHORTAGES 			-4701

ROOM	 # OF CHECK-OUT	AMT
Value 		10	2850
Regular 		30	11910
Classique 		61	25355
Premium 		0	0
Regent 		0	0
Queen 		0	0
Gemini 		0	0
Family 		0	0
Executive Suite 	0	0
Mega Suite 	0	0

DISCOUNT 
Value 			  
Regular 		  
Classique 		  
Premium 		  
Regent 			  
Queen 		  
Gemini 		  
Family 		  
Executive Suite 	  
Mega Suite 		  


=== RESERVATIONS ===

Deposits:


Claimed:



SECURITY DEPOSITS

Deposits:
Claimed:


=== SALES BREAKDOWN ===

Transaction Date	Room No.	Cash	Card

2011-03-07 16:04:03 	420 		345 	0 	
2011-03-07 16:10:05 	214 		275 	0 	
2011-03-07 16:13:06 	213 		345 	0 	
2011-03-07 16:13:59 	420 		20 	0 	
2011-03-07 16:20:14 	420 		50 	0 	
2011-03-07 16:21:08 	418 		345 	0 	
2011-03-07 16:23:45 	408 		395 	0 	
2011-03-07 16:29:53 	419 		395 	0 	
2011-03-07 16:30:38 	207 		705 	0 	
2011-03-07 16:31:23 	309 		140 	0 	
2011-03-07 16:37:14 	204 		120 	0 	
2011-03-07 16:43:59 	219 		395 	0 	
2011-03-07 16:50:31 	306 		395 	0 	
2011-03-07 16:50:46 	319 		395 	0 	
2011-03-07 16:52:01 	309 		395 	0 	
2011-03-07 16:55:02 	203 		345 	0 	
2011-03-07 17:02:20 	310 		275 	0 	
2011-03-07 17:12:41 	409 		150 	0 	
2011-03-07 17:14:34 	209 		275 	0 	
2011-03-07 17:16:10 	312 		395 	0 	
2011-03-07 17:19:09 	401 		395 	0 	
2011-03-07 17:24:47 	209 		130 	0 	
2011-03-07 17:27:12 	307 		395 	0 	
2011-03-07 17:27:37 	406 		140 	0 	
2011-03-07 17:31:22 	218 		395 	0 	
2011-03-07 17:34:53 	219 		395 	0 	
2011-03-07 17:36:06 	418 		75 	0 	
2011-03-07 17:40:36 	207 		70 	0 	
2011-03-07 17:42:02 	420 		165 	0 	
2011-03-07 17:52:39 	422 		395 	0 	
2011-03-07 18:04:38 	313 		280 	0 	
2011-03-07 18:06:47 	311 		275 	0 	
2011-03-07 18:16:41 	211 		345 	0 	
2011-03-07 18:16:55 	306 		395 	0 	
2011-03-07 18:17:36 	304 		395 	0 	
2011-03-07 18:17:50 	204 		345 	0 	
2011-03-07 18:20:44 	308 		395 	0 	
2011-03-07 18:21:21 	306 		50 	0 	
2011-03-07 18:21:47 	212 		275 	0 	
2011-03-07 18:22:47 	316 		345 	0 	
2011-03-07 18:25:36 	313 		395 	0 	
2011-03-07 18:27:19 	408 		695 	0 	
2011-03-07 18:27:33 	406 		395 	0 	
2011-03-07 18:31:22 	214 		275 	0 	
2011-03-07 18:40:25 	219 		55 	0 	
2011-03-07 18:44:03 	421 		395 	0 	
2011-03-07 18:44:14 	409 		395 	0 	
2011-03-07 18:45:12 	402 		395 	0 	
2011-03-07 18:47:59 	301 		395 	0 	
2011-03-07 18:58:52 	321 		395 	0 	
2011-03-07 18:59:05 	403 		645 	0 	
2011-03-07 19:02:27 	303 		645 	0 	
2011-03-07 19:05:58 	322 		140 	0 	
2011-03-07 19:10:34 	416 		345 	0 	
2011-03-07 19:11:09 	213 		276 	0 	
2011-03-07 19:18:54 	221 		395 	0 	
2011-03-07 19:21:32 	218 		210 	0 	
2011-03-07 19:21:36 	218 		60 	0 	
2011-03-07 19:22:42 	210 		345 	0 	
2011-03-07 19:23:11 	419 		695 	0 	
2011-03-07 19:28:13 	307 		395 	0 	
2011-03-07 19:30:28 	323 		595 	0 	
2011-03-07 19:32:16 	408 		50 	0 	
2011-03-07 19:33:34 	407 		695 	0 	
2011-03-07 19:34:32 	205 		345 	0 	
2011-03-07 19:36:42 	320 		345 	0 	
2011-03-07 19:39:52 	220 		395 	0 	
2011-03-07 19:40:10 	322 		395 	0 	
2011-03-07 19:48:35 	415 		695 	0 	
2011-03-07 19:48:51 	209 		595 	0 	
2011-03-07 19:54:06 	318 		465 	0 	
2011-03-07 19:54:33 	209 		15 	0 	
2011-03-07 19:56:09 	310 		275 	0 	
2011-03-07 19:56:20 	319 		695 	0 	
2011-03-07 20:00:51 	418 		120 	0 	
2011-03-07 20:05:50 	204 		345 	0 	
2011-03-07 20:05:59 	406 		395 	0 	
2011-03-07 20:06:14 	401 		395 	0 	
2011-03-07 20:07:58 	302 		695 	0 	
2011-03-07 20:08:51 	405 		275 	0 	
2011-03-07 20:17:46 	313 		110 	0 	
2011-03-07 20:24:32 	417 		395 	0 	
2011-03-07 20:32:45 	412 		695 	0 	
2011-03-07 20:32:58 	203 		465 	0 	
2011-03-07 20:34:16 	322 		270 	0 	
2011-03-07 20:48:11 	315 		395 	0 	
2011-03-07 20:50:00 	308 		395 	0 	
2011-03-07 20:55:26 	309 		395 	0 	
2011-03-07 21:10:02 	214 		230 	0 	
2011-03-07 21:17:55 	317 		695 	0 	
2011-03-07 21:21:54 	218 		140 	0 	
2011-03-07 21:25:01 	404 		695 	0 	
2011-03-07 21:29:17 	413 		695 	0 	
2011-03-07 21:30:58 	219 		695 	0 	
2011-03-07 21:32:26 	304 		695 	0 	
2011-03-07 21:36:50 	309 		230 	0 	
2011-03-07 21:48:02 	413 		300 	0 	
2011-03-07 21:50:56 	424 		595 	0 	
2011-03-07 21:51:18 	301 		395 	0 	
2011-03-07 21:53:53 	415 		185 	0 	
2011-03-07 21:58:17 	307 		395 	0 	
2011-03-07 21:59:41 	312 		395 	0 	
2011-03-07 22:03:02 	321 		695 	0 	
2011-03-07 22:08:37 	317 		305 	0 	
2011-03-07 22:15:02 	306 		395 	0 	
2011-03-07 22:19:39 	417 		210 	0 	
2011-03-07 22:24:28 	324 		595 	0 	
2011-03-07 22:30:39 	214 		100 	0 	
2011-03-07 22:32:41 	409 		395 	0 	
2011-03-07 22:38:54 	423 		595 	0 	
2011-03-07 22:48:35 	422 		695 	0 	
2011-03-07 22:52:18 	221 		140 	0 	
2011-03-07 22:53:32 	402 		695 	0 	
2011-03-07 22:53:55 	420 		645 	0 	
2011-03-07 22:57:49 	318 		645 	0 	
2011-03-07 23:01:45 	313 		695 	0 	
2011-03-07 23:03:16 	304 		155 	0 	
2011-03-07 23:05:39 	413 		160 	0 	
2011-03-07 23:06:09 	414 		645 	0 	
2011-03-07 23:06:53 	215 		345 	0 	
2011-03-07 23:12:55 	316 		465 	0 	
2011-03-07 23:14:19 	320 		585 	0 	
2011-03-07 23:15:13 	208 		595 	0 	
2011-03-07 23:16:22 	221 		695 	0 	
2011-03-07 23:16:34 	221 		25 	0 	
2011-03-07 23:28:59 	218 		0 	695 	
2011-03-07 23:33:25 	321 		80 	0 	
2011-03-07 23:33:35 	316 		165 	0 	
2011-03-07 23:33:48 	401 		395 	0 	
2011-03-07 23:42:04 	301 		35 	0 	
2011-03-07 23:44:05 	320 		255 	0 	
 			Total:		48401 	695		

=== RECHIT LIST ===




V1