MSHOGUN 1: SHIFT END REPORT
Saturday May 21, 2011 8:00:06 AM

SALES TRANSACTION
Room Sales Order			28025
FnB Sales Order			1640
Beer Sales Order			420
Misc Sales Order			120
Room Sales Adjustment			0
GROSS SALES			30205

DISCOUNT
Room				0
FnB				0
Misc				0

DEPOSIT				6428
REFUND				

TOTAL ACCOUNTABILITY			36633

CASH DECLARATION			10798
CARD				695
FUNDS SAFEKEEP			10000
TOTAL CASH DECLARED			21493

TOTAL CASH ON SYSTEM			10798
OVER/SHORTAGES 			0

ROOM	 # OF CHECK-OUT	AMT
Value 		11	4885
Regular 		19	9255
Classique 		23	13885
Premium 		0	0
Regent 		0	0
Queen 		0	0
Gemini 		0	0
Family 		0	0
Executive Suite 	0	0
Mega Suite 	0	0

DISCOUNT 
Value 			  
Regular 		  
Classique 		  
Premium 		  
Regent 			  
Queen 		  
Gemini 		  
Family 		  
Executive Suite 	  
Mega Suite 		  


=== RESERVATIONS ===

Deposits:


Claimed:



SECURITY DEPOSITS

Deposits:
Claimed:


=== SALES BREAKDOWN ===

Transaction Date	Room No.	Cash	Card

2011-05-21 00:09:25 	306 		695 	0 	
2011-05-21 00:22:01 	214 		275 	0 	
2011-05-21 00:23:34 	310 		275 	0 	
2011-05-21 00:24:33 	409 		695 	0 	
2011-05-21 00:25:27 	207 		465 	0 	
2011-05-21 00:31:13 	218 		815 	0 	
2011-05-21 00:31:35 	309 		395 	0 	
2011-05-21 00:33:49 	424 		275 	0 	
2011-05-21 00:40:44 	410 		975 	0 	
2011-05-21 00:44:27 	303 		345 	0 	
2011-05-21 00:52:53 	219 		140 	0 	
2011-05-21 00:53:41 	413 		695 	0 	
2011-05-21 00:53:55 	208 		275 	0 	
2011-05-21 00:54:06 	209 		275 	0 	
2011-05-21 00:58:00 	401 		395 	0 	
2011-05-21 01:01:27 	403 		263 	0 	
2011-05-21 01:05:30 	210 		190 	0 	
2011-05-21 01:08:06 	219 		815 	0 	
2011-05-21 01:16:38 	301 		395 	0 	
2011-05-21 01:17:45 	210 		345 	0 	
2011-05-21 01:24:49 	202 		465 	0 	
2011-05-21 01:30:17 	309 		815 	0 	
2011-05-21 01:52:02 	401 		535 	0 	
2011-05-21 02:20:16 	306 		165 	0 	
2011-05-21 02:23:30 	320 		240 	0 	
2011-05-21 02:26:40 	320 		345 	0 	
2011-05-21 02:36:03 	217 		375 	0 	
2011-05-21 02:40:03 	202 		345 	0 	
2011-05-21 03:09:38 	211 		945 	0 	
2011-05-21 03:33:12 	303 		345 	0 	
2011-05-21 03:36:25 	410 		50 	0 	
2011-05-21 03:39:50 	312 		140 	0 	
2011-05-21 03:53:52 	310 		275 	0 	
2011-05-21 04:02:16 	312 		395 	0 	
2011-05-21 04:07:56 	301 		675 	0 	
2011-05-21 04:08:47 	209 		275 	0 	
2011-05-21 04:10:50 	314 		345 	0 	
2011-05-21 04:20:14 	312 		50 	0 	
2011-05-21 04:22:19 	201 		345 	0 	
2011-05-21 04:49:52 	322 		140 	0 	
2011-05-21 04:55:22 	207 		345 	0 	
2011-05-21 05:00:59 	208 		100 	0 	
2011-05-21 05:03:14 	303 		345 	0 	
2011-05-21 05:04:43 	214 		355 	0 	
2011-05-21 05:05:24 	322 		395 	0 	
2011-05-21 05:05:45 	407 		395 	0 	
2011-05-21 05:11:28 	322 		20 	0 	
2011-05-21 05:35:08 	208 		575 	0 	
2011-05-21 06:02:49 	208 		110 	0 	
2011-05-21 06:14:32 	317 		210 	0 	
2011-05-21 06:47:37 	210 		325 	0 	
2011-05-21 06:57:25 	401 		140 	0 	
2011-05-21 07:06:53 	301 		20 	0 	
2011-05-21 07:15:41 	316 		345 	0 	
2011-05-21 07:16:05 	207 		55 	0 	
2011-05-21 07:48:06 	302 		145 	0 	
2011-05-21 07:50:16 	207 		20 	0 	
2011-05-21 07:50:53 	201 		345 	0 	
2011-05-21 07:52:37 	320 		290 	0 	
 			Total:		20798 	0		

=== RECHIT LIST ===




V1