MSHOGUN 1: SHIFT END REPORT
Friday December 17, 2010 8:00:17 AM

SALES TRANSACTION
Room Sales Order			39260
FnB Sales Order			2056
Beer Sales Order			600
Misc Sales Order			20
Room Sales Adjustment			0
GROSS SALES			41936

DISCOUNT
Room				0
FnB				0
Misc				0

DEPOSIT				4475
REFUND				

TOTAL ACCOUNTABILITY			46411

CASH DECLARATION			5453
CARD				1090
FUNDS SAFEKEEP			20000
TOTAL CASH DECLARED			26543

TOTAL CASH ON SYSTEM			5453
OVER/SHORTAGES 			0

ROOM	 # OF CHECK-OUT	AMT
Value 		20	7680
Regular 		26	12210
Classique 		38	19370
Premium 		0	0
Regent 		0	0
Queen 		0	0
Gemini 		0	0
Family 		0	0
Executive Suite 	0	0
Mega Suite 	0	0

DISCOUNT 
Value 			  
Regular 		  
Classique 		  
Premium 		  
Regent 			  
Queen 		  
Gemini 		  
Family 		  
Executive Suite 	  
Mega Suite 		  


=== RESERVATIONS ===

Deposits:


Claimed:



SECURITY DEPOSITS

Deposits:
Claimed:


=== SALES BREAKDOWN ===

Transaction Date	Room No.	Cash	Card

2010-12-17 00:05:58 	401 		395 	0 	
2010-12-17 00:06:56 	316 		345 	0 	
2010-12-17 00:09:23 	312 		110 	0 	
2010-12-17 00:09:50 	416 		705 	0 	
2010-12-17 00:10:43 	422 		395 	0 	
2010-12-17 00:12:18 	201 		345 	0 	
2010-12-17 00:13:49 	208 		375 	0 	
2010-12-17 00:16:33 	307 		140 	0 	
2010-12-17 00:17:22 	312 		395 	0 	
2010-12-17 00:18:43 	401 		50 	0 	
2010-12-17 00:24:49 	212 		200 	0 	
2010-12-17 00:32:00 	212 		475 	0 	
2010-12-17 00:40:31 	307 		395 	0 	
2010-12-17 00:41:37 	206 		585 	0 	
2010-12-17 00:41:47 	212 		25 	0 	
2010-12-17 00:42:26 	206 		50 	0 	
2010-12-17 00:48:40 	324 		275 	0 	
2010-12-17 00:53:24 	315 		695 	0 	
2010-12-17 00:53:59 	412 		395 	0 	
2010-12-17 00:56:48 	311 		375 	0 	
2010-12-17 00:58:22 	215 		465 	0 	
2010-12-17 01:02:50 	309 		395 	0 	
2010-12-17 01:03:01 	405 		575 	0 	
2010-12-17 01:08:51 	208 		80 	0 	
2010-12-17 01:13:55 	303 		585 	0 	
2010-12-17 01:18:12 	416 		145 	0 	
2010-12-17 01:18:20 	412 		85 	0 	
2010-12-17 01:18:49 	205 		345 	0 	
2010-12-17 01:27:17 	320 		345 	0 	
2010-12-17 01:27:26 	318 		705 	0 	
2010-12-17 01:30:33 	313 		298 	0 	
2010-12-17 01:31:31 	409 		50 	0 	
2010-12-17 01:31:56 	322 		695 	0 	
2010-12-17 01:32:26 	312 		395 	0 	
2010-12-17 01:40:03 	301 		395 	0 	
2010-12-17 01:41:38 	410 		475 	0 	
2010-12-17 01:42:09 	313 		395 	0 	
2010-12-17 01:46:45 	308 		675 	0 	
2010-12-17 01:50:57 	304 		25 	0 	
2010-12-17 01:55:54 	305 		375 	0 	
2010-12-17 01:56:39 	305 		20 	0 	
2010-12-17 02:14:37 	209 		275 	0 	
2010-12-17 02:19:52 	422 		395 	0 	
2010-12-17 02:25:08 	401 		675 	0 	
2010-12-17 02:28:13 	207 		585 	0 	
2010-12-17 02:39:26 	412 		395 	0 	
2010-12-17 02:40:06 	202 		240 	0 	
2010-12-17 02:43:31 	218 		100 	0 	
2010-12-17 02:49:44 	202 		345 	0 	
2010-12-17 02:58:30 	201 		345 	0 	
2010-12-17 03:06:39 	208 		275 	0 	
2010-12-17 03:08:31 	205 		345 	0 	
2010-12-17 03:21:59 	316 		705 	0 	
2010-12-17 03:28:03 	307 		395 	0 	
2010-12-17 03:29:59 	220 		395 	0 	
2010-12-17 03:41:29 	313 		395 	0 	
2010-12-17 03:43:56 	409 		700 	0 	
2010-12-17 03:46:50 	324 		475 	0 	
2010-12-17 03:54:46 	409 		395 	0 	
2010-12-17 03:55:14 	409 		25 	0 	
2010-12-17 04:30:54 	309 		395 	0 	
2010-12-17 04:35:40 	204 		385 	0 	
2010-12-17 04:45:37 	204 		345 	0 	
2010-12-17 04:54:19 	209 		275 	0 	
2010-12-17 05:11:01 	404 		175 	0 	
2010-12-17 05:41:37 	414 		195 	0 	
2010-12-17 06:12:28 	411 		275 	0 	
2010-12-17 06:22:28 	312 		395 	0 	
2010-12-17 06:30:37 	412 		395 	0 	
2010-12-17 06:57:56 	201 		120 	0 	
2010-12-17 06:59:51 	303 		120 	0 	
2010-12-17 07:11:07 	311 		275 	0 	
2010-12-17 07:42:05 	418 		255 	0 	
2010-12-17 07:43:25 	419 		140 	0 	
 			Total:		25453 	0		

=== RECHIT LIST ===




V1