MSHOGUN 1: SHIFT END REPORT
Sunday March 20, 2011 4:00:08 PM

SALES TRANSACTION
Room Sales Order			51500
FnB Sales Order			2467
Beer Sales Order			340
Misc Sales Order			20
Room Sales Adjustment			0
GROSS SALES			54327

DISCOUNT
Room				0
FnB				0
Misc				0

DEPOSIT				17835
REFUND				

TOTAL ACCOUNTABILITY			72162

CASH DECLARATION			5420
CARD				0
FUNDS SAFEKEEP			40000
TOTAL CASH DECLARED			45420

TOTAL CASH ON SYSTEM			5420
OVER/SHORTAGES 			0

ROOM	 # OF CHECK-OUT	AMT
Value 		21	10155
Regular 		28	15000
Classique 		51	26345
Premium 		0	0
Regent 		0	0
Queen 		0	0
Gemini 		0	0
Family 		0	0
Executive Suite 	0	0
Mega Suite 	0	0

DISCOUNT 
Value 			  
Regular 		  
Classique 		  
Premium 		  
Regent 			  
Queen 		  
Gemini 		  
Family 		  
Executive Suite 	  
Mega Suite 		  


=== RESERVATIONS ===

Deposits:


Claimed:



SECURITY DEPOSITS

Deposits:
Claimed:


=== SALES BREAKDOWN ===

Transaction Date	Room No.	Cash	Card

2011-03-20 08:07:06 	311 		50 	0 	
2011-03-20 08:14:50 	312 		395 	0 	
2011-03-20 08:16:07 	305 		275 	0 	
2011-03-20 08:17:50 	402 		170 	0 	
2011-03-20 08:21:20 	309 		395 	0 	
2011-03-20 08:23:14 	405 		100 	0 	
2011-03-20 08:27:50 	321 		700 	0 	
2011-03-20 08:29:00 	401 		395 	0 	
2011-03-20 08:31:38 	206 		80 	0 	
2011-03-20 08:32:11 	406 		395 	0 	
2011-03-20 08:32:21 	219 		395 	0 	
2011-03-20 08:41:42 	301 		395 	0 	
2011-03-20 08:41:49 	413 		395 	0 	
2011-03-20 08:42:53 	310 		275 	0 	
2011-03-20 08:44:38 	412 		140 	0 	
2011-03-20 08:49:07 	420 		705 	0 	
2011-03-20 08:49:15 	319 		395 	0 	
2011-03-20 08:51:15 	322 		170 	0 	
2011-03-20 08:57:44 	208 		100 	0 	
2011-03-20 09:00:06 	320 		345 	0 	
2011-03-20 09:02:00 	422 		50 	0 	
2011-03-20 09:12:42 	201 		120 	0 	
2011-03-20 09:22:32 	311 		275 	0 	
2011-03-20 09:30:29 	421 		395 	0 	
2011-03-20 09:32:38 	417 		675 	0 	
2011-03-20 09:42:03 	418 		705 	0 	
2011-03-20 09:46:14 	214 		275 	0 	
2011-03-20 09:50:30 	321 		395 	0 	
2011-03-20 09:53:48 	318 		240 	0 	
2011-03-20 09:57:18 	323 		275 	0 	
2011-03-20 10:01:19 	322 		395 	0 	
2011-03-20 10:14:57 	307 		210 	0 	
2011-03-20 10:26:30 	208 		275 	0 	
2011-03-20 10:28:40 	324 		275 	0 	
2011-03-20 10:34:05 	204 		25 	0 	
2011-03-20 10:41:37 	415 		190 	0 	
2011-03-20 10:47:21 	217 		300 	0 	
2011-03-20 10:48:55 	304 		395 	0 	
2011-03-20 10:53:09 	410 		275 	0 	
2011-03-20 11:00:08 	405 		275 	0 	
2011-03-20 11:13:08 	411 		275 	0 	
2011-03-20 11:19:01 	402 		395 	0 	
2011-03-20 11:19:10 	211 		345 	0 	
2011-03-20 11:36:13 	423 		275 	0 	
2011-03-20 11:48:44 	407 		395 	0 	
2011-03-20 11:49:00 	420 		330 	0 	
2011-03-20 11:58:53 	213 		465 	0 	
2011-03-20 12:00:25 	218 		395 	0 	
2011-03-20 12:08:36 	419 		395 	0 	
2011-03-20 12:15:20 	408 		675 	0 	
2011-03-20 12:17:54 	414 		345 	0 	
2011-03-20 12:23:31 	306 		675 	0 	
2011-03-20 12:32:21 	403 		705 	0 	
2011-03-20 12:34:19 	408 		210 	0 	
2011-03-20 12:44:17 	310 		100 	0 	
2011-03-20 12:46:01 	409 		675 	0 	
2011-03-20 12:48:13 	206 		585 	0 	
2011-03-20 12:58:33 	202 		345 	0 	
2011-03-20 13:03:14 	312 		395 	0 	
2011-03-20 13:03:22 	301 		395 	0 	
2011-03-20 13:03:29 	415 		395 	0 	
2011-03-20 13:03:38 	406 		395 	0 	
2011-03-20 13:06:01 	204 		465 	0 	
2011-03-20 13:11:12 	303 		345 	0 	
2011-03-20 13:11:49 	205 		345 	0 	
2011-03-20 13:14:41 	307 		395 	0 	
2011-03-20 13:17:02 	324 		275 	0 	
2011-03-20 13:18:02 	422 		395 	0 	
2011-03-20 13:21:41 	302 		395 	0 	
2011-03-20 13:21:47 	203 		465 	0 	
2011-03-20 13:22:18 	309 		395 	0 	
2011-03-20 13:24:41 	413 		395 	0 	
2011-03-20 13:25:21 	401 		395 	0 	
2011-03-20 13:26:32 	404 		395 	0 	
2011-03-20 13:27:58 	315 		395 	0 	
2011-03-20 13:28:13 	320 		585 	0 	
2011-03-20 13:29:37 	402 		395 	0 	
2011-03-20 13:29:43 	308 		395 	0 	
2011-03-20 13:34:56 	317 		395 	0 	
2011-03-20 13:36:42 	204 		60 	0 	
2011-03-20 13:36:47 	204 		205 	0 	
2011-03-20 13:40:55 	318 		345 	0 	
2011-03-20 13:42:02 	412 		395 	0 	
2011-03-20 13:42:52 	319 		395 	0 	
2011-03-20 13:43:39 	419 		220 	0 	
2011-03-20 13:43:54 	304 		395 	0 	
2011-03-20 13:45:37 	313 		395 	0 	
2011-03-20 13:46:52 	219 		395 	0 	
2011-03-20 13:49:46 	314 		345 	0 	
2011-03-20 13:54:25 	321 		395 	0 	
2011-03-20 13:54:48 	416 		705 	0 	
2011-03-20 14:00:00 	215 		465 	0 	
2011-03-20 14:01:07 	210 		345 	0 	
2011-03-20 14:01:53 	316 		345 	0 	
2011-03-20 14:05:20 	216 		475 	0 	
2011-03-20 14:08:58 	201 		345 	0 	
2011-03-20 14:10:07 	209 		475 	0 	
2011-03-20 14:13:33 	212 		275 	0 	
2011-03-20 14:13:52 	214 		575 	0 	
2011-03-20 14:16:24 	305 		275 	0 	
2011-03-20 14:20:21 	217 		275 	0 	
2011-03-20 14:20:44 	311 		275 	0 	
2011-03-20 14:23:49 	322 		395 	0 	
2011-03-20 14:27:03 	403 		210 	0 	
2011-03-20 14:27:13 	316 		205 	0 	
2011-03-20 14:28:11 	424 		575 	0 	
2011-03-20 14:31:38 	205 		345 	0 	
2011-03-20 14:31:48 	220 		395 	0 	
2011-03-20 14:34:17 	221 		395 	0 	
2011-03-20 14:35:03 	201 		80 	0 	
2011-03-20 14:35:06 	201 		25 	0 	
2011-03-20 14:37:24 	406 		395 	0 	
2011-03-20 14:38:33 	420 		345 	0 	
2011-03-20 14:40:21 	407 		395 	0 	
2011-03-20 14:58:55 	422 		395 	0 	
2011-03-20 15:02:50 	323 		475 	0 	
2011-03-20 15:03:42 	211 		345 	0 	
2011-03-20 15:06:33 	218 		395 	0 	
2011-03-20 15:09:23 	411 		245 	0 	
2011-03-20 15:10:24 	410 		275 	0 	
2011-03-20 15:19:52 	208 		200 	0 	
2011-03-20 15:21:58 	312 		395 	0 	
2011-03-20 15:22:55 	409 		470 	0 	
2011-03-20 15:23:11 	323 		90 	0 	
2011-03-20 15:33:54 	Lobby 		240 	0 	
2011-03-20 15:34:04 	304 		395 	0 	
2011-03-20 15:42:59 	303 		345 	0 	
2011-03-20 15:44:52 	213 		345 	0 	
2011-03-20 15:49:13 	417 		395 	0 	
 			Total:		45420 	0		

=== RECHIT LIST ===




V1