MSHOGUN 1: SHIFT END REPORT
Thursday January 06, 2011 8:00:08 AM

SALES TRANSACTION
Room Sales Order			25635
FnB Sales Order			1660
Beer Sales Order			0
Misc Sales Order			30
Room Sales Adjustment			0
GROSS SALES			27325

DISCOUNT
Room				0
FnB				0
Misc				0

DEPOSIT				2982
REFUND				

TOTAL ACCOUNTABILITY			30307

CASH DECLARATION			8107
CARD				0
FUNDS SAFEKEEP			0
TOTAL CASH DECLARED			8107

TOTAL CASH ON SYSTEM			7827
OVER/SHORTAGES 			280

ROOM	 # OF CHECK-OUT	AMT
Value 		10	4670
Regular 		13	7305
Classique 		24	13660
Premium 		0	0
Regent 		0	0
Queen 		0	0
Gemini 		0	0
Family 		0	0
Executive Suite 	0	0
Mega Suite 	0	0

DISCOUNT 
Value 			  
Regular 		  
Classique 		  
Premium 		  
Regent 			  
Queen 		  
Gemini 		  
Family 		  
Executive Suite 	  
Mega Suite 		  


=== RESERVATIONS ===

Deposits:


Claimed:



SECURITY DEPOSITS

Deposits:
Claimed:


=== SALES BREAKDOWN ===

Transaction Date	Room No.	Cash	Card

2011-01-06 00:08:49 	217 		275 	0 	
2011-01-06 00:09:02 	307 		395 	0 	
2011-01-06 00:09:14 	401 		395 	0 	
2011-01-06 00:26:17 	219 		695 	0 	
2011-01-06 00:41:26 	304 		695 	0 	
2011-01-06 00:48:49 	322 		395 	0 	
2011-01-06 00:50:55 	417 		25 	0 	
2011-01-06 01:28:18 	205 		345 	0 	
2011-01-06 01:30:16 	321 		675 	0 	
2011-01-06 01:34:55 	304 		50 	0 	
2011-01-06 02:50:14 	301 		395 	0 	
2011-01-06 03:06:52 	317 		25 	0 	
2011-01-06 03:09:38 	Lobby 		140 	0 	
2011-01-06 03:36:48 	220 		210 	0 	
2011-01-06 04:19:44 	318 		705 	0 	
2011-01-06 04:27:05 	317 		42 	0 	
2011-01-06 04:30:25 	416 		705 	0 	
2011-01-06 04:30:33 	205 		345 	0 	
2011-01-06 04:30:40 	414 		110 	0 	
2011-01-06 05:35:16 	307 		395 	0 	
2011-01-06 06:11:22 	302 		395 	0 	
2011-01-06 06:24:58 	215 		20 	0 	
2011-01-06 07:53:27 	315 		395 	0 	
 			Total:		7827 	0		

=== RECHIT LIST ===




V1