MSHOGUN 1: SHIFT END REPORT
Thursday May 26, 2011 12:00:05 AM

SALES TRANSACTION
Room Sales Order			30145
FnB Sales Order			1475
Beer Sales Order			385
Misc Sales Order			65
Room Sales Adjustment			0
GROSS SALES			32070

DISCOUNT
Room				0
FnB				0
Misc				0

DEPOSIT				27824
REFUND				

TOTAL ACCOUNTABILITY			59894

CASH DECLARATION			7404
CARD				0
FUNDS SAFEKEEP			40000
TOTAL CASH DECLARED			47404

TOTAL CASH ON SYSTEM			7404
OVER/SHORTAGES 			0

ROOM	 # OF CHECK-OUT	AMT
Value 		7	1925
Regular 		21	8445
Classique 		49	19775
Premium 		0	0
Regent 		0	0
Queen 		0	0
Gemini 		0	0
Family 		0	0
Executive Suite 	0	0
Mega Suite 	0	0

DISCOUNT 
Value 			  
Regular 		  
Classique 		  
Premium 		  
Regent 			  
Queen 		  
Gemini 		  
Family 		  
Executive Suite 	  
Mega Suite 		  


=== RESERVATIONS ===

Deposits:


Claimed:



SECURITY DEPOSITS

Deposits:
Claimed:


=== SALES BREAKDOWN ===

Transaction Date	Room No.	Cash	Card

2011-05-25 16:12:29 	211 		345 	0 	
2011-05-25 16:12:46 	321 		395 	0 	
2011-05-25 16:13:03 	210 		10 	0 	
2011-05-25 16:17:07 	314 		345 	0 	
2011-05-25 16:21:33 	322 		395 	0 	
2011-05-25 16:22:21 	319 		395 	0 	
2011-05-25 16:22:30 	409 		395 	0 	
2011-05-25 16:23:19 	412 		395 	0 	
2011-05-25 16:33:35 	207 		345 	0 	
2011-05-25 16:38:11 	421 		395 	0 	
2011-05-25 16:42:36 	409 		205 	0 	
2011-05-25 16:55:00 	318 		345 	0 	
2011-05-25 16:57:38 	419 		395 	0 	
2011-05-25 17:00:51 	204 		345 	0 	
2011-05-25 17:00:59 	415 		395 	0 	
2011-05-25 17:30:10 	312 		395 	0 	
2011-05-25 17:40:37 	304 		395 	0 	
2011-05-25 17:41:34 	306 		395 	0 	
2011-05-25 17:43:04 	308 		395 	0 	
2011-05-25 17:43:14 	302 		395 	0 	
2011-05-25 18:22:55 	209 		275 	0 	
2011-05-25 18:28:16 	205 		240 	0 	
2011-05-25 18:29:54 	317 		395 	0 	
2011-05-25 18:35:06 	320 		345 	0 	
2011-05-25 18:45:12 	309 		395 	0 	
2011-05-25 18:56:33 	401 		395 	0 	
2011-05-25 18:57:33 	313 		395 	0 	
2011-05-25 19:01:00 	417 		695 	0 	
2011-05-25 19:01:15 	315 		695 	0 	
2011-05-25 19:03:16 	310 		275 	0 	
2011-05-25 19:06:05 	316 		345 	0 	
2011-05-25 19:07:17 	422 		395 	0 	
2011-05-25 19:09:33 	311 		275 	0 	
2011-05-25 19:09:43 	406 		395 	0 	
2011-05-25 19:11:02 	423 		595 	0 	
2011-05-25 19:15:32 	305 		595 	0 	
2011-05-25 19:15:40 	404 		395 	0 	
2011-05-25 19:15:48 	403 		345 	0 	
2011-05-25 19:15:55 	420 		345 	0 	
2011-05-25 19:17:55 	310 		10 	0 	
2011-05-25 19:21:08 	221 		395 	0 	
2011-05-25 19:22:32 	418 		645 	0 	
2011-05-25 19:22:43 	207 		345 	0 	
2011-05-25 19:26:46 	416 		645 	0 	
2011-05-25 19:30:16 	218 		695 	0 	
2011-05-25 19:35:19 	414 		645 	0 	
2011-05-25 19:37:56 	409 		395 	0 	
2011-05-25 19:38:05 	321 		695 	0 	
2011-05-25 19:40:42 	303 		645 	0 	
2011-05-25 19:45:15 	215 		645 	0 	
2011-05-25 19:49:47 	Lobby 		120 	0 	
2011-05-25 19:50:15 	213 		645 	0 	
2011-05-25 19:54:04 	413 		395 	0 	
2011-05-25 20:00:58 	319 		695 	0 	
2011-05-25 20:01:39 	408 		395 	0 	
2011-05-25 20:02:16 	407 		395 	0 	
2011-05-25 20:12:09 	422 		205 	0 	
2011-05-25 20:12:43 	219 		695 	0 	
2011-05-25 20:16:50 	311 		175 	0 	
2011-05-25 20:30:15 	414 		418 	0 	
2011-05-25 20:34:41 	324 		275 	0 	
2011-05-25 20:38:07 	317 		270 	0 	
2011-05-25 20:38:44 	301 		395 	0 	
2011-05-25 20:41:30 	219 		175 	0 	
2011-05-25 20:47:22 	412 		395 	0 	
2011-05-25 20:47:30 	415 		695 	0 	
2011-05-25 20:47:47 	322 		395 	0 	
2011-05-25 20:50:10 	314 		345 	0 	
2011-05-25 20:52:37 	302 		395 	0 	
2011-05-25 20:54:20 	315 		198 	0 	
2011-05-25 20:54:29 	308 		395 	0 	
2011-05-25 21:10:45 	306 		395 	0 	
2011-05-25 21:10:52 	309 		395 	0 	
2011-05-25 21:12:06 	421 		695 	0 	
2011-05-25 21:16:43 	419 		695 	0 	
2011-05-25 21:18:28 	304 		695 	0 	
2011-05-25 21:29:15 	318 		645 	0 	
2011-05-25 21:33:59 	404 		695 	0 	
2011-05-25 21:38:00 	406 		695 	0 	
2011-05-25 21:42:08 	319 		230 	0 	
2011-05-25 21:42:19 	320 		645 	0 	
2011-05-25 21:45:49 	210 		345 	0 	
2011-05-25 21:56:38 	304 		25 	0 	
2011-05-25 21:56:48 	317 		695 	0 	
2011-05-25 22:07:14 	401 		395 	0 	
2011-05-25 22:13:31 	204 		645 	0 	
2011-05-25 22:13:39 	407 		695 	0 	
2011-05-25 22:13:46 	408 		695 	0 	
2011-05-25 22:14:21 	212 		275 	0 	
2011-05-25 22:14:45 	403 		180 	0 	
2011-05-25 22:20:58 	313 		695 	0 	
2011-05-25 22:23:41 	215 		263 	0 	
2011-05-25 22:24:17 	206 		465 	0 	
2011-05-25 22:27:37 	422 		795 	0 	
2011-05-25 22:29:22 	312 		395 	0 	
2011-05-25 22:29:32 	420 		645 	0 	
2011-05-25 22:34:31 	419 		50 	0 	
2011-05-25 22:34:43 	307 		395 	0 	
2011-05-25 22:36:13 	206 		50 	0 	
2011-05-25 22:38:37 	316 		645 	0 	
2011-05-25 22:39:07 	211 		345 	0 	
2011-05-25 22:41:09 	409 		395 	0 	
2011-05-25 23:08:23 	403 		345 	0 	
2011-05-25 23:12:55 	306 		695 	0 	
2011-05-25 23:21:00 	413 		695 	0 	
2011-05-25 23:22:38 	203 		645 	0 	
2011-05-25 23:27:25 	302 		0 	695 	
2011-05-25 23:29:36 	301 		395 	0 	
2011-05-25 23:33:31 	323 		595 	0 	
2011-05-25 23:51:17 	207 		465 	0 	
 			Total:		47404 	695		

=== RECHIT LIST ===




V1