MSHOGUN 1: SHIFT END REPORT
Friday February 25, 2011 4:00:10 PM

SALES TRANSACTION
Room Sales Order			31325
FnB Sales Order			2235
Beer Sales Order			260
Misc Sales Order			75
Room Sales Adjustment			0
GROSS SALES			33895

DISCOUNT
Room				0
FnB				0
Misc				0

DEPOSIT				9855
REFUND				

TOTAL ACCOUNTABILITY			43750

CASH DECLARATION			9565
CARD				695
FUNDS SAFEKEEP			20000
TOTAL CASH DECLARED			30260

TOTAL CASH ON SYSTEM			9555
OVER/SHORTAGES 			10

ROOM	 # OF CHECK-OUT	AMT
Value 		7	1925
Regular 		9	5145
Classique 		45	24255
Premium 		0	0
Regent 		0	0
Queen 		0	0
Gemini 		0	0
Family 		0	0
Executive Suite 	0	0
Mega Suite 	0	0

DISCOUNT 
Value 			  
Regular 		  
Classique 		  
Premium 		  
Regent 			  
Queen 		  
Gemini 		  
Family 		  
Executive Suite 	  
Mega Suite 		  


=== RESERVATIONS ===

Deposits:


Claimed:



SECURITY DEPOSITS

Deposits:
Claimed:


=== SALES BREAKDOWN ===

Transaction Date	Room No.	Cash	Card

2011-02-25 08:48:51 	219 		395 	0 	
2011-02-25 08:56:26 	204 		120 	0 	
2011-02-25 09:05:25 	309 		395 	0 	
2011-02-25 09:06:33 	203 		100 	0 	
2011-02-25 09:07:49 	402 		420 	0 	
2011-02-25 09:13:33 	321 		55 	0 	
2011-02-25 09:14:03 	313 		395 	0 	
2011-02-25 09:15:01 	302 		395 	0 	
2011-02-25 09:19:47 	401 		395 	0 	
2011-02-25 09:32:58 	404 		395 	0 	
2011-02-25 09:36:55 	401 		45 	0 	
2011-02-25 09:43:02 	409 		395 	0 	
2011-02-25 09:55:15 	304 		255 	0 	
2011-02-25 09:55:26 	306 		395 	0 	
2011-02-25 09:58:41 	215 		210 	0 	
2011-02-25 10:01:35 	406 		395 	0 	
2011-02-25 10:04:24 	408 		675 	0 	
2011-02-25 10:05:21 	417 		395 	0 	
2011-02-25 10:06:37 	409 		180 	0 	
2011-02-25 10:11:16 	221 		395 	0 	
2011-02-25 10:17:43 	213 		705 	0 	
2011-02-25 10:21:09 	414 		705 	0 	
2011-02-25 10:31:26 	218 		50 	0 	
2011-02-25 10:40:17 	324 		275 	0 	
2011-02-25 10:44:50 	209 		275 	0 	
2011-02-25 10:46:06 	412 		395 	0 	
2011-02-25 10:48:13 	220 		395 	0 	
2011-02-25 10:50:32 	309 		395 	0 	
2011-02-25 10:54:57 	422 		675 	0 	
2011-02-25 11:04:34 	311 		275 	0 	
2011-02-25 11:12:20 	419 		420 	0 	
2011-02-25 11:13:29 	Lobby 		120 	0 	
2011-02-25 11:30:21 	413 		395 	0 	
2011-02-25 11:40:49 	206 		345 	0 	
2011-02-25 11:47:25 	415 		395 	0 	
2011-02-25 11:49:55 	219 		205 	0 	
2011-02-25 11:50:21 	418 		705 	0 	
2011-02-25 11:53:16 	304 		395 	0 	
2011-02-25 11:57:02 	407 		395 	0 	
2011-02-25 12:01:46 	421 		675 	0 	
2011-02-25 12:04:23 	307 		395 	0 	
2011-02-25 12:12:39 	301 		395 	0 	
2011-02-25 12:16:31 	205 		345 	0 	
2011-02-25 12:20:01 	422 		235 	0 	
2011-02-25 12:20:31 	302 		395 	0 	
2011-02-25 12:28:02 	302 		30 	0 	
2011-02-25 12:30:04 	420 		705 	0 	
2011-02-25 12:38:05 	319 		395 	0 	
2011-02-25 12:38:24 	218 		395 	0 	
2011-02-25 12:55:05 	322 		280 	0 	
2011-02-25 12:55:45 	317 		395 	0 	
2011-02-25 12:57:01 	219 		395 	0 	
2011-02-25 12:58:29 	401 		395 	0 	
2011-02-25 13:00:16 	405 		275 	0 	
2011-02-25 13:03:53 	423 		275 	0 	
2011-02-25 13:06:34 	315 		395 	0 	
2011-02-25 13:21:04 	216 		275 	0 	
2011-02-25 13:36:38 	312 		395 	0 	
2011-02-25 13:40:28 	313 		395 	0 	
2011-02-25 13:46:34 	402 		395 	0 	
2011-02-25 14:14:39 	221 		395 	0 	
2011-02-25 14:15:39 	306 		395 	0 	
2011-02-25 14:20:18 	202 		345 	0 	
2011-02-25 14:21:18 	406 		395 	0 	
2011-02-25 14:34:10 	313 		90 	0 	
2011-02-25 14:34:12 	313 		180 	0 	
2011-02-25 14:42:41 	204 		345 	0 	
2011-02-25 14:49:51 	302 		395 	0 	
2011-02-25 14:54:39 	306 		270 	0 	
2011-02-25 14:58:11 	421 		155 	0 	
2011-02-25 15:02:22 	404 		395 	0 	
2011-02-25 15:05:21 	311 		275 	0 	
2011-02-25 15:09:35 	415 		395 	0 	
2011-02-25 15:10:36 	417 		395 	0 	
2011-02-25 15:23:05 	419 		675 	0 	
2011-02-25 15:24:50 	303 		345 	0 	
2011-02-25 15:26:09 	203 		345 	0 	
2011-02-25 15:34:55 	304 		395 	0 	
2011-02-25 15:37:08 	307 		395 	0 	
2011-02-25 15:39:25 	218 		395 	0 	
2011-02-25 15:44:12 	307 		30 	0 	
2011-02-25 15:51:42 	308 		395 	0 	
2011-02-25 15:56:23 	219 		395 	0 	
 			Total:		29555 	0		

=== RECHIT LIST ===




V1