MSHOGUN 1: SHIFT END REPORT
Wednesday November 17, 2010 4:00:09 PM

SALES TRANSACTION
Room Sales Order			20900
FnB Sales Order			870
Beer Sales Order			0
Misc Sales Order			60
Room Sales Adjustment			0
GROSS SALES			21830

DISCOUNT
Room				0
FnB				0
Misc				0

DEPOSIT				10120
REFUND				

TOTAL ACCOUNTABILITY			31950

CASH DECLARATION			6528
CARD				1140
FUNDS SAFEKEEP			20000
TOTAL CASH DECLARED			27668

TOTAL CASH ON SYSTEM			6528
OVER/SHORTAGES 			0

ROOM	 # OF CHECK-OUT	AMT
Value 		6	2290
Regular 		13	5445
Classique 		27	13165
Premium 		0	0
Regent 		0	0
Queen 		0	0
Gemini 		0	0
Family 		0	0
Executive Suite 	0	0
Mega Suite 	0	0

DISCOUNT 
Value 			  
Regular 		  
Classique 		  
Premium 		  
Regent 			  
Queen 		  
Gemini 		  
Family 		  
Executive Suite 	  
Mega Suite 		  


=== RESERVATIONS ===

Deposits:


Claimed:



SECURITY DEPOSITS

Deposits:
Claimed:


=== SALES BREAKDOWN ===

Transaction Date	Room No.	Cash	Card

2010-11-17 08:24:49 	313 		395 	0 	
2010-11-17 08:34:36 	316 		465 	0 	
2010-11-17 09:18:32 	318 		585 	0 	
2010-11-17 09:20:54 	314 		345 	0 	
2010-11-17 09:50:38 	315 		395 	0 	
2010-11-17 09:56:33 	315 		30 	0 	
2010-11-17 10:14:02 	310 		275 	0 	
2010-11-17 10:28:36 	306 		316 	0 	
2010-11-17 10:34:48 	416 		276 	0 	
2010-11-17 10:49:57 	414 		345 	0 	
2010-11-17 10:51:17 	317 		395 	0 	
2010-11-17 10:52:27 	418 		345 	0 	
2010-11-17 10:54:49 	420 		705 	0 	
2010-11-17 10:55:17 	319 		395 	0 	
2010-11-17 10:55:32 	301 		395 	0 	
2010-11-17 11:11:06 	316 		705 	0 	
2010-11-17 11:18:58 	220 		395 	0 	
2010-11-17 11:28:43 	210 		30 	0 	
2010-11-17 11:30:54 	313 		395 	0 	
2010-11-17 11:40:00 	408 		395 	0 	
2010-11-17 11:47:04 	322 		395 	0 	
2010-11-17 11:52:18 	409 		395 	0 	
2010-11-17 11:55:10 	302 		395 	0 	
2010-11-17 12:02:09 	406 		210 	0 	
2010-11-17 12:02:49 	304 		395 	0 	
2010-11-17 12:06:00 	309 		395 	0 	
2010-11-17 12:07:50 	320 		276 	0 	
2010-11-17 12:08:05 	307 		395 	0 	
2010-11-17 12:40:33 	320 		270 	0 	
2010-11-17 12:50:38 	404 		0 	420 	
2010-11-17 12:51:20 	303 		345 	0 	
2010-11-17 13:00:09 	306 		395 	0 	
2010-11-17 13:08:00 	417 		395 	0 	
2010-11-17 13:12:24 	403 		345 	0 	
2010-11-17 13:18:20 	311 		275 	0 	
2010-11-17 13:32:46 	314 		345 	0 	
2010-11-17 13:38:13 	413 		395 	0 	
2010-11-17 13:38:46 	417 		80 	0 	
2010-11-17 13:43:42 	412 		395 	0 	
2010-11-17 13:48:01 	406 		395 	0 	
2010-11-17 13:48:33 	407 		395 	0 	
2010-11-17 13:53:48 	323 		275 	0 	
2010-11-17 14:04:24 	405 		575 	0 	
2010-11-17 14:06:06 	419 		395 	0 	
2010-11-17 14:06:16 	324 		275 	0 	
2010-11-17 14:08:04 	414 		705 	0 	
2010-11-17 14:10:32 	422 		395 	0 	
2010-11-17 14:16:57 	405 		150 	0 	
2010-11-17 14:26:00 	423 		575 	0 	
2010-11-17 14:30:53 	416 		705 	0 	
2010-11-17 14:35:23 	418 		345 	0 	
2010-11-17 14:43:36 	315 		395 	0 	
2010-11-17 14:45:52 	415 		395 	0 	
2010-11-17 14:49:20 	206 		705 	0 	
2010-11-17 14:49:30 	421 		395 	0 	
2010-11-17 14:51:19 	204 		345 	0 	
2010-11-17 14:52:33 	404 		395 	0 	
2010-11-17 14:55:54 	313 		395 	0 	
2010-11-17 14:58:02 	423 		10 	0 	
2010-11-17 15:10:17 	311 		275 	0 	
2010-11-17 15:11:30 	203 		345 	0 	
2010-11-17 15:12:50 	308 		395 	0 	
2010-11-17 15:14:10 	310 		275 	0 	
2010-11-17 15:19:20 	408 		395 	0 	
2010-11-17 15:21:36 	317 		395 	0 	
2010-11-17 15:23:16 	202 		345 	0 	
2010-11-17 15:27:59 	304 		395 	0 	
2010-11-17 15:38:38 	302 		190 	0 	
2010-11-17 15:39:14 	409 		140 	0 	
2010-11-17 15:40:42 	403 		345 	0 	
2010-11-17 15:49:34 	312 		395 	0 	
2010-11-17 15:50:35 	314 		345 	0 	
2010-11-17 15:54:12 	301 		395 	0 	
 			Total:		26528 	420		

=== RECHIT LIST ===




V1