MSHOGUN 1: SHIFT END REPORT
Monday August 16, 2010 12:00:04 AM

SALES TRANSACTION
Room Sales Order			60100
FnB Sales Order			2775
Beer Sales Order			925
Misc Sales Order			85
Room Sales Adjustment			-800
GROSS SALES			63085

DISCOUNT
Room				0
FnB				0
Misc				0

DEPOSIT				37036
REFUND				

TOTAL ACCOUNTABILITY			100121

CASH DECLARATION			3431
CARD				0
FUNDS SAFEKEEP			60000
TOTAL CASH DECLARED			63431

TOTAL CASH ON SYSTEM			3431
OVER/SHORTAGES 			0

ROOM	 # OF CHECK-OUT	AMT
Value 		22	6650
Regular 		34	13890
Classique 		69	28935
Premium 		6	2850
Regent 		10	7775
Queen 		0	0
Gemini 		0	0
Family 		0	0
Executive Suite 	0	0
Mega Suite 	0	0

DISCOUNT 
Value 			  
Regular 		  
Classique 		  
Premium 		  
Regent 			  
Queen 		  
Gemini 		  
Family 		  
Executive Suite 	  
Mega Suite 		  


=== RESERVATIONS ===

Deposits:


Claimed:



SECURITY DEPOSITS

Deposits:
Claimed:


=== SALES BREAKDOWN ===

Transaction Date	Room No.	Cash	Card

2010-08-15 16:07:56 	422 		395 	0 	
2010-08-15 16:08:59 	314 		345 	0 	
2010-08-15 16:09:42 	318 		345 	0 	
2010-08-15 16:13:03 	416 		345 	0 	
2010-08-15 16:16:19 	409 		395 	0 	
2010-08-15 16:19:00 	302 		395 	0 	
2010-08-15 16:19:09 	417 		395 	0 	
2010-08-15 16:22:47 	604 		160 	0 	
2010-08-15 16:25:45 	408 		395 	0 	
2010-08-15 16:31:11 	322 		395 	0 	
2010-08-15 16:32:14 	212 		275 	0 	
2010-08-15 16:38:51 	423 		275 	0 	
2010-08-15 16:39:02 	403 		345 	0 	
2010-08-15 16:41:19 	221 		395 	0 	
2010-08-15 16:45:00 	308 		300 	0 	
2010-08-15 16:45:02 	308 		15 	0 	
2010-08-15 16:47:15 	305 		275 	0 	
2010-08-15 16:47:41 	307 		395 	0 	
2010-08-15 16:53:16 	301 		140 	0 	
2010-08-15 16:54:17 	313 		395 	0 	
2010-08-15 16:54:28 	401 		395 	0 	
2010-08-15 16:54:35 	207 		345 	0 	
2010-08-15 16:56:56 	309 		110 	0 	
2010-08-15 16:57:56 	407 		395 	0 	
2010-08-15 17:01:36 	414 		90 	0 	
2010-08-15 17:02:43 	421 		395 	0 	
2010-08-15 17:02:51 	406 		395 	0 	
2010-08-15 17:04:35 	402 		140 	0 	
2010-08-15 17:05:55 	301 		395 	0 	
2010-08-15 17:11:50 	424 		275 	0 	
2010-08-15 17:20:40 	220 		395 	0 	
2010-08-15 17:20:47 	219 		395 	0 	
2010-08-15 17:29:13 	220 		85 	0 	
2010-08-15 17:33:52 	304 		535 	0 	
2010-08-15 17:50:52 	303 		120 	0 	
2010-08-15 17:53:31 	301 		180 	0 	
2010-08-15 17:54:08 	319 		395 	0 	
2010-08-15 17:56:49 	218 		395 	0 	
2010-08-15 17:56:56 	507 		800 	0 	
2010-08-15 17:57:05 	419 		395 	0 	
2010-08-15 17:57:57 	219 		20 	0 	
2010-08-15 17:59:56 	317 		395 	0 	
2010-08-15 18:15:43 	308 		395 	0 	
2010-08-15 18:18:26 	218 		275 	0 	
2010-08-15 18:18:29 	218 		10 	0 	
2010-08-15 18:27:18 	416 		140 	0 	
2010-08-15 18:30:46 	214 		275 	0 	
2010-08-15 18:31:42 	415 		395 	0 	
2010-08-15 18:33:44 	310 		275 	0 	
2010-08-15 18:37:09 	306 		695 	0 	
2010-08-15 18:38:02 	404 		395 	0 	
2010-08-15 18:39:06 	411 		275 	0 	
2010-08-15 18:39:20 	401 		395 	0 	
2010-08-15 18:44:18 	320 		345 	0 	
2010-08-15 18:45:27 	519 		800 	0 	
2010-08-15 18:46:51 	412 		395 	0 	
2010-08-15 18:48:36 	409 		395 	0 	
2010-08-15 18:48:44 	315 		395 	0 	
2010-08-15 18:51:46 	410 		170 	0 	
2010-08-15 18:53:39 	420 		645 	0 	
2010-08-15 18:55:13 	414 		645 	0 	
2010-08-15 18:57:22 	322 		695 	0 	
2010-08-15 19:01:52 	303 		645 	0 	
2010-08-15 19:02:31 	323 		595 	0 	
2010-08-15 19:04:15 	403 		345 	0 	
2010-08-15 19:07:48 	318 		645 	0 	
2010-08-15 19:15:18 	213 		645 	0 	
2010-08-15 19:18:04 	403 		65 	0 	
2010-08-15 19:20:16 	324 		275 	0 	
2010-08-15 19:21:20 	202 		25 	0 	
2010-08-15 19:27:22 	206 		345 	0 	
2010-08-15 19:31:26 	203 		345 	0 	
2010-08-15 19:33:25 	311 		595 	0 	
2010-08-15 19:34:27 	208 		275 	0 	
2010-08-15 19:36:13 	523 		750 	0 	
2010-08-15 19:37:13 	519 		90 	0 	
2010-08-15 19:39:41 	305 		595 	0 	
2010-08-15 19:39:59 	522 		750 	0 	
2010-08-15 19:42:52 	302 		695 	0 	
2010-08-15 19:43:10 	309 		395 	0 	
2010-08-15 19:45:46 	512 		228 	0 	
2010-08-15 19:50:13 	210 		345 	0 	
2010-08-15 19:54:17 	417 		695 	0 	
2010-08-15 19:54:59 	307 		395 	0 	
2010-08-15 19:56:14 	413 		695 	0 	
2010-08-15 19:56:21 	407 		395 	0 	
2010-08-15 19:58:34 	412 		395 	0 	
2010-08-15 19:58:42 	313 		695 	0 	
2010-08-15 20:00:37 	404 		695 	0 	
2010-08-15 20:07:07 	312 		395 	0 	
2010-08-15 20:07:15 	301 		395 	0 	
2010-08-15 20:20:09 	209 		595 	0 	
2010-08-15 20:20:39 	412 		20 	0 	
2010-08-15 20:20:50 	314 		645 	0 	
2010-08-15 20:25:27 	209 		10 	0 	
2010-08-15 20:26:51 	220 		395 	0 	
2010-08-15 20:28:40 	408 		395 	0 	
2010-08-15 20:30:52 	207 		345 	0 	
2010-08-15 20:31:21 	212 		275 	0 	
2010-08-15 20:37:13 	406 		395 	0 	
2010-08-15 20:37:59 	515 		800 	0 	
2010-08-15 20:46:03 	321 		695 	0 	
2010-08-15 20:47:33 	203 		250 	0 	
2010-08-15 20:48:55 	215 		345 	0 	
2010-08-15 20:51:08 	421 		695 	0 	
2010-08-15 20:58:07 	422 		395 	0 	
2010-08-15 21:01:19 	202 		345 	0 	
2010-08-15 21:06:04 	317 		695 	0 	
2010-08-15 21:11:17 	419 		695 	0 	
2010-08-15 21:11:55 	418 		645 	0 	
2010-08-15 21:18:29 	415 		65 	0 	
2010-08-15 21:18:48 	518 		750 	0 	
2010-08-15 21:19:00 	507 		105 	0 	
2010-08-15 21:20:22 	401 		395 	0 	
2010-08-15 21:22:58 	308 		395 	0 	
2010-08-15 21:23:22 	320 		345 	0 	
2010-08-15 21:25:22 	206 		345 	0 	
2010-08-15 21:25:31 	204 		345 	0 	
2010-08-15 21:26:31 	319 		695 	0 	
2010-08-15 21:37:38 	202 		25 	0 	
2010-08-15 21:44:44 	514 		1600 	0 	
2010-08-15 21:54:15 	409 		395 	0 	
2010-08-15 21:57:18 	407 		695 	0 	
2010-08-15 21:59:26 	209 		10 	0 	
2010-08-15 21:59:37 	319 		120 	0 	
2010-08-15 22:02:24 	505 		205 	0 	
2010-08-15 22:03:16 	304 		695 	0 	
2010-08-15 22:04:38 	219 		695 	0 	
2010-08-15 22:09:39 	221 		695 	0 	
2010-08-15 22:13:23 	516 		70 	0 	
2010-08-15 22:13:24 	516 		180 	0 	
2010-08-15 22:13:33 	220 		695 	0 	
2010-08-15 22:14:22 	315 		695 	0 	
2010-08-15 22:23:30 	212 		275 	0 	
2010-08-15 22:28:22 	416 		645 	0 	
2010-08-15 22:34:21 	317 		198 	0 	
2010-08-15 22:34:28 	221 		210 	0 	
2010-08-15 22:37:32 	613 		1200 	0 	
2010-08-15 22:39:45 	309 		395 	0 	
2010-08-15 22:43:54 	317 		30 	0 	
2010-08-15 22:50:00 	405 		595 	0 	
2010-08-15 22:52:25 	408 		0 	695 	
2010-08-15 22:55:26 	408 		50 	0 	
2010-08-15 22:57:08 	403 		705 	0 	
2010-08-15 22:57:44 	415 		695 	0 	
2010-08-15 23:01:33 	301 		395 	0 	
2010-08-15 23:16:05 	412 		395 	0 	
2010-08-15 23:25:46 	215 		645 	0 	
2010-08-15 23:32:48 	307 		140 	0 	
2010-08-15 23:38:40 	415 		10 	0 	
2010-08-15 23:40:38 	513 		800 	0 	
2010-08-15 23:42:19 	513 		-800 	0 	
2010-08-15 23:42:53 	513 		1600 	0 	
2010-08-15 23:47:09 	310 		275 	0 	
2010-08-15 23:49:42 	218 		695 	0 	
2010-08-15 23:54:44 	214 		595 	0 	
 			Total:		63431 	695		

=== RECHIT LIST ===




V1