MSHOGUN 1: SHIFT END REPORT
Thursday December 15, 2011 12:01:17 AM

SALES TRANSACTION
Room Sales Order			33955
FnB Sales Order			1870
Beer Sales Order			380
Misc Sales Order			125
Room Sales Adjustment			0
GROSS SALES			36330

DISCOUNT
Room				0
FnB				0
Misc				0

DEPOSIT				35690
REFUND				

TOTAL ACCOUNTABILITY			72020

CASH DECLARATION			9561
CARD				395
FUNDS SAFEKEEP			50000
TOTAL CASH DECLARED			59956

TOTAL CASH ON SYSTEM			9561
OVER/SHORTAGES 			0

ROOM	 # OF CHECK-OUT	AMT
Value 		14	4250
Regular 		22	9510
Classique 		49	20195
Premium 		0	0
Regent 		0	0
Queen 		0	0
Gemini 		0	0
Family 		0	0
Executive Suite 	0	0
Mega Suite 	0	0

DISCOUNT 
Value 			  
Regular 		  
Classique 		  
Premium 		  
Regent 			  
Queen 		  
Gemini 		  
Family 		  
Executive Suite 	  
Mega Suite 		  


=== RESERVATIONS ===

Deposits:


Claimed:



SECURITY DEPOSITS

Deposits:
Claimed:


=== SALES BREAKDOWN ===

Transaction Date	Room No.	Cash	Card

2011-12-14 16:04:40 	418 		130 	0 	
2011-12-14 16:10:21 	413 		80 	0 	
2011-12-14 16:11:29 	406 		395 	0 	
2011-12-14 16:11:46 	312 		395 	0 	
2011-12-14 16:12:01 	310 		275 	0 	
2011-12-14 16:24:41 	422 		395 	0 	
2011-12-14 16:24:53 	313 		395 	0 	
2011-12-14 16:36:07 	404 		395 	0 	
2011-12-14 16:41:50 	320 		465 	0 	
2011-12-14 16:51:57 	305 		275 	0 	
2011-12-14 17:06:01 	307 		316 	0 	
2011-12-14 17:06:15 	306 		395 	0 	
2011-12-14 17:06:31 	315 		395 	0 	
2011-12-14 17:10:44 	318 		276 	0 	
2011-12-14 17:23:37 	304 		316 	0 	
2011-12-14 17:23:49 	309 		395 	0 	
2011-12-14 17:24:25 	402 		395 	0 	
2011-12-14 17:24:40 	308 		395 	0 	
2011-12-14 17:24:49 	303 		345 	0 	
2011-12-14 17:27:32 	208 		275 	0 	
2011-12-14 17:40:01 	405 		275 	0 	
2011-12-14 17:40:14 	401 		395 	0 	
2011-12-14 17:46:49 	306 		45 	0 	
2011-12-14 17:50:15 	311 		275 	0 	
2011-12-14 17:50:24 	408 		395 	0 	
2011-12-14 17:50:35 	324 		275 	0 	
2011-12-14 17:50:45 	205 		345 	0 	
2011-12-14 17:51:10 	301 		395 	0 	
2011-12-14 17:56:50 	415 		395 	0 	
2011-12-14 17:56:58 	207 		345 	0 	
2011-12-14 18:01:28 	413 		395 	0 	
2011-12-14 18:08:36 	206 		276 	0 	
2011-12-14 18:16:41 	209 		275 	0 	
2011-12-14 18:16:50 	302 		395 	0 	
2011-12-14 18:22:48 	418 		160 	0 	
2011-12-14 18:24:10 	409 		395 	0 	
2011-12-14 18:25:27 	409 		25 	0 	
2011-12-14 18:25:52 	204 		345 	0 	
2011-12-14 18:29:41 	219 		395 	0 	
2011-12-14 18:30:34 	403 		120 	0 	
2011-12-14 18:47:29 	202 		345 	0 	
2011-12-14 18:47:37 	203 		345 	0 	
2011-12-14 18:47:46 	309 		395 	0 	
2011-12-14 18:48:04 	417 		695 	0 	
2011-12-14 18:48:12 	412 		395 	0 	
2011-12-14 18:50:12 	204 		220 	0 	
2011-12-14 18:51:55 	221 		395 	0 	
2011-12-14 18:52:03 	218 		395 	0 	
2011-12-14 18:52:14 	317 		695 	0 	
2011-12-14 18:52:24 	220 		395 	0 	
2011-12-14 18:54:30 	309 		135 	0 	
2011-12-14 19:07:35 	312 		695 	0 	
2011-12-14 19:08:03 	319 		395 	0 	
2011-12-14 19:08:47 	421 		395 	0 	
2011-12-14 19:09:42 	310 		275 	0 	
2011-12-14 19:10:04 	419 		695 	0 	
2011-12-14 19:12:01 	322 		140 	0 	
2011-12-14 19:20:12 	317 		210 	0 	
2011-12-14 19:20:30 	210 		276 	0 	
2011-12-14 19:23:24 	323 		595 	0 	
2011-12-14 19:23:57 	410 		595 	0 	
2011-12-14 19:24:12 	406 		395 	0 	
2011-12-14 19:30:50 	407 		50 	0 	
2011-12-14 19:30:57 	219 		50 	0 	
2011-12-14 19:40:47 	313 		695 	0 	
2011-12-14 19:45:27 	418 		30 	0 	
2011-12-14 19:51:13 	215 		276 	0 	
2011-12-14 19:51:27 	314 		345 	0 	
2011-12-14 19:51:37 	321 		395 	0 	
2011-12-14 19:52:06 	211 		345 	0 	
2011-12-14 19:52:17 	305 		595 	0 	
2011-12-14 19:54:08 	403 		645 	0 	
2011-12-14 20:01:31 	324 		595 	0 	
2011-12-14 20:09:17 	315 		395 	0 	
2011-12-14 20:16:53 	306 		395 	0 	
2011-12-14 20:17:14 	322 		395 	0 	
2011-12-14 20:17:24 	404 		695 	0 	
2011-12-14 20:24:36 	324 		10 	0 	
2011-12-14 20:28:25 	401 		210 	0 	
2011-12-14 20:35:58 	402 		695 	0 	
2011-12-14 20:36:08 	320 		645 	0 	
2011-12-14 20:37:28 	307 		0 	395 	
2011-12-14 20:37:51 	423 		595 	0 	
2011-12-14 20:40:31 	402 		10 	0 	
2011-12-14 20:54:47 	304 		695 	0 	
2011-12-14 20:55:01 	413 		695 	0 	
2011-12-14 20:56:15 	308 		0 	695 	
2011-12-14 20:59:35 	207 		345 	0 	
2011-12-14 21:00:05 	205 		345 	0 	
2011-12-14 21:00:17 	406 		695 	0 	
2011-12-14 21:00:43 	303 		345 	0 	
2011-12-14 21:04:55 	415 		220 	0 	
2011-12-14 21:05:06 	207 		45 	0 	
2011-12-14 21:05:21 	418 		645 	0 	
2011-12-14 21:05:28 	420 		645 	0 	
2011-12-14 21:05:36 	414 		645 	0 	
2011-12-14 21:05:44 	422 		395 	0 	
2011-12-14 21:05:53 	408 		695 	0 	
2011-12-14 21:08:36 	416 		645 	0 	
2011-12-14 21:14:52 	405 		100 	0 	
2011-12-14 21:16:35 	311 		230 	0 	
2011-12-14 21:18:00 	424 		595 	0 	
2011-12-14 21:18:50 	407 		50 	0 	
2011-12-14 21:22:04 	415 		695 	0 	
2011-12-14 21:22:13 	405 		595 	0 	
2011-12-14 21:28:14 	321 		270 	0 	
2011-12-14 21:28:31 	406 		310 	0 	
2011-12-14 21:29:37 	318 		0 	645 	
2011-12-14 21:36:33 	215 		645 	0 	
2011-12-14 21:37:00 	309 		395 	0 	
2011-12-14 21:37:16 	213 		645 	0 	
2011-12-14 21:40:14 	401 		395 	0 	
2011-12-14 21:42:01 	212 		595 	0 	
2011-12-14 21:45:01 	302 		395 	0 	
2011-12-14 22:00:11 	218 		695 	0 	
2011-12-14 22:03:18 	320 		210 	0 	
2011-12-14 22:03:27 	318 		125 	0 	
2011-12-14 22:07:01 	409 		535 	0 	
2011-12-14 22:12:01 	409 		20 	0 	
2011-12-14 22:12:04 	409 		85 	0 	
2011-12-14 22:14:42 	221 		695 	0 	
2011-12-14 22:14:54 	211 		645 	0 	
2011-12-14 22:15:38 	319 		695 	0 	
2011-12-14 22:15:53 	219 		695 	0 	
2011-12-14 22:20:00 	210 		345 	0 	
2011-12-14 22:20:15 	421 		695 	0 	
2011-12-14 22:26:19 	310 		475 	0 	
2011-12-14 22:26:27 	206 		645 	0 	
2011-12-14 22:26:41 	202 		345 	0 	
2011-12-14 22:28:49 	210 		40 	0 	
2011-12-14 22:30:36 	203 		345 	0 	
2011-12-14 22:31:08 	204 		120 	0 	
2011-12-14 22:32:21 	203 		50 	0 	
2011-12-14 22:34:51 	407 		140 	0 	
2011-12-14 22:44:21 	216 		595 	0 	
2011-12-14 22:44:35 	412 		395 	0 	
2011-12-14 22:51:28 	208 		275 	0 	
2011-12-14 22:58:44 	411 		595 	0 	
2011-12-14 23:04:03 	407 		695 	0 	
2011-12-14 23:13:41 	213 		295 	0 	
2011-12-14 23:13:51 	418 		85 	0 	
2011-12-14 23:14:00 	421 		10 	0 	
2011-12-14 23:15:32 	306 		315 	0 	
2011-12-14 23:16:43 	204 		645 	0 	
2011-12-14 23:16:55 	321 		695 	0 	
2011-12-14 23:26:22 	411 		40 	0 	
2011-12-14 23:27:17 	214 		595 	0 	
2011-12-14 23:43:13 	315 		695 	0 	
2011-12-14 23:45:37 	302 		695 	0 	
2011-12-14 23:45:47 	322 		395 	0 	
2011-12-14 23:52:28 	314 		120 	0 	
2011-12-14 23:53:08 	404 		210 	0 	
2011-12-14 23:56:37 	306 		695 	0 	
2011-12-14 23:57:49 	311 		595 	0 	
2011-12-14 23:59:43 	205 		585 	0 	
 			Total:		59561 	1735		

=== RECHIT LIST ===




V1