MSHOGUN 1: SHIFT END REPORT
Sunday July 25, 2010 8:00:33 AM

SALES TRANSACTION
Room Sales Order			51675
FnB Sales Order			3198
Beer Sales Order			540
Misc Sales Order			85
Room Sales Adjustment			0
GROSS SALES			55498

DISCOUNT
Room				0
FnB				0
Misc				0

DEPOSIT				9300
REFUND				

TOTAL ACCOUNTABILITY			64798

CASH DECLARATION			5390
CARD				1500
FUNDS SAFEKEEP			20000
TOTAL CASH DECLARED			26890

TOTAL CASH ON SYSTEM			5595
OVER/SHORTAGES 			-205

ROOM	 # OF CHECK-OUT	AMT
Value 		11	5325
Regular 		32	14580
Classique 		24	13920
Premium 		1	750
Regent 		9	10900
Queen 		3	4450
Gemini 		0	0
Family 		1	650
Executive Suite 	1	1100
Mega Suite 	0	0

DISCOUNT 
Value 			  
Regular 		  
Classique 		  
Premium 		  
Regent 			  
Queen 		  
Gemini 		  
Family 		  
Executive Suite 	  
Mega Suite 		  


=== RESERVATIONS ===

Deposits:


Claimed:



SECURITY DEPOSITS

Deposits:
Claimed:


=== SALES BREAKDOWN ===

Transaction Date	Room No.	Cash	Card

2010-07-25 00:21:04 	211 		345 	0 	
2010-07-25 00:21:10 	324 		275 	0 	
2010-07-25 00:21:31 	310 		575 	0 	
2010-07-25 00:26:24 	310 		20 	0 	
2010-07-25 00:29:00 	421 		330 	0 	
2010-07-25 00:32:54 	306 		395 	0 	
2010-07-25 00:33:21 	523 		50 	0 	
2010-07-25 00:33:34 	201 		345 	0 	
2010-07-25 00:48:21 	323 		280 	0 	
2010-07-25 00:48:29 	324 		140 	0 	
2010-07-25 00:50:43 	205 		345 	0 	
2010-07-25 00:50:53 	213 		345 	0 	
2010-07-25 00:54:07 	210 		465 	0 	
2010-07-25 01:01:53 	418 		345 	0 	
2010-07-25 01:05:37 	323 		90 	0 	
2010-07-25 01:16:28 	202 		705 	0 	
2010-07-25 01:18:48 	216 		275 	0 	
2010-07-25 01:18:54 	423 		275 	0 	
2010-07-25 01:23:45 	603 		1050 	0 	
2010-07-25 01:23:53 	602 		1100 	0 	
2010-07-25 01:24:45 	603 		300 	0 	
2010-07-25 01:25:37 	201 		705 	0 	
2010-07-25 01:29:01 	424 		275 	0 	
2010-07-25 01:29:14 	614 		1100 	0 	
2010-07-25 01:30:50 	513 		150 	0 	
2010-07-25 01:31:24 	204 		465 	0 	
2010-07-25 01:33:27 	404 		395 	0 	
2010-07-25 01:36:30 	320 		360 	0 	
2010-07-25 01:38:10 	610 		0 	650 	
2010-07-25 01:42:40 	320 		585 	0 	
2010-07-25 01:49:13 	207 		120 	0 	
2010-07-25 01:50:56 	416 		345 	0 	
2010-07-25 01:53:47 	207 		345 	0 	
2010-07-25 01:59:13 	605 		1050 	0 	
2010-07-25 02:03:40 	203 		645 	0 	
2010-07-25 02:10:26 	207 		20 	0 	
2010-07-25 02:22:51 	303 		345 	0 	
2010-07-25 02:30:20 	211 		705 	0 	
2010-07-25 02:32:10 	612 		850 	0 	
2010-07-25 02:35:29 	501 		50 	0 	
2010-07-25 03:06:11 	501 		800 	0 	
2010-07-25 03:07:03 	315 		395 	0 	
2010-07-25 03:12:50 	324 		475 	0 	
2010-07-25 03:18:32 	313 		140 	0 	
2010-07-25 03:25:23 	207 		175 	0 	
2010-07-25 03:49:11 	313 		395 	0 	
2010-07-25 03:51:02 	306 		535 	0 	
2010-07-25 04:17:29 	419 		395 	0 	
2010-07-25 04:22:40 	612 		25 	0 	
2010-07-25 04:26:33 	411 		80 	0 	
2010-07-25 04:29:52 	301 		280 	0 	
2010-07-25 04:30:54 	314 		345 	0 	
2010-07-25 04:42:26 	219 		395 	0 	
2010-07-25 04:53:33 	301 		395 	0 	
2010-07-25 04:56:43 	205 		345 	0 	
2010-07-25 05:05:23 	515 		265 	0 	
2010-07-25 05:10:09 	324 		160 	0 	
2010-07-25 05:14:07 	216 		100 	0 	
2010-07-25 05:16:10 	419 		90 	0 	
2010-07-25 05:34:13 	601 		850 	0 	
2010-07-25 05:43:37 	207 		120 	0 	
2010-07-25 06:06:22 	307 		50 	0 	
2010-07-25 06:27:30 	312 		395 	0 	
2010-07-25 06:37:34 	608 		90 	0 	
2010-07-25 06:54:08 	410 		55 	0 	
2010-07-25 06:57:21 	517 		60 	0 	
2010-07-25 07:03:16 	415 		205 	0 	
2010-07-25 07:10:03 	404 		395 	0 	
2010-07-25 07:13:02 	213 		345 	0 	
2010-07-25 07:17:54 	408 		270 	0 	
2010-07-25 07:28:17 	215 		25 	0 	
2010-07-25 07:34:29 	221 		50 	0 	
2010-07-25 07:34:48 	313 		140 	0 	
2010-07-25 07:36:23 	301 		170 	0 	
2010-07-25 07:53:35 	614 		25 	0 	
 			Total:		25595 	650		

=== RECHIT LIST ===




V1