MSHOGUN 1: SHIFT END REPORT
Thursday February 02, 2012 8:00:10 AM

SALES TRANSACTION
Room Sales Order			18825
FnB Sales Order			1015
Beer Sales Order			350
Misc Sales Order			45
Room Sales Adjustment			0
GROSS SALES			20235

DISCOUNT
Room				0
FnB				0
Misc				0

DEPOSIT				5585
REFUND				

TOTAL ACCOUNTABILITY			25820

CASH DECLARATION			2865
CARD				395
FUNDS SAFEKEEP			10000
TOTAL CASH DECLARED			13260

TOTAL CASH ON SYSTEM			2865
OVER/SHORTAGES 			0

ROOM	 # OF CHECK-OUT	AMT
Value 		8	4260
Regular 		10	5490
Classique 		17	9075
Premium 		0	0
Regent 		0	0
Queen 		0	0
Gemini 		0	0
Family 		0	0
Executive Suite 	0	0
Mega Suite 	0	0

DISCOUNT 
Value 			  
Regular 		  
Classique 		  
Premium 		  
Regent 			  
Queen 		  
Gemini 		  
Family 		  
Executive Suite 	  
Mega Suite 		  


=== RESERVATIONS ===

Deposits:


Claimed:



SECURITY DEPOSITS

Deposits:
Claimed:


=== SALES BREAKDOWN ===

Transaction Date	Room No.	Cash	Card

2012-02-02 00:01:12 	304 		140 	0 	
2012-02-02 00:06:33 	421 		140 	0 	
2012-02-02 00:08:42 	403 		645 	0 	
2012-02-02 00:10:50 	422 		695 	0 	
2012-02-02 00:11:36 	401 		695 	0 	
2012-02-02 00:13:19 	418 		465 	0 	
2012-02-02 00:15:50 	410 		475 	0 	
2012-02-02 00:33:21 	313 		675 	0 	
2012-02-02 00:50:37 	419 		40 	0 	
2012-02-02 00:53:12 	417 		695 	0 	
2012-02-02 00:53:53 	316 		45 	0 	
2012-02-02 00:55:39 	404 		695 	0 	
2012-02-02 01:04:40 	405 		575 	0 	
2012-02-02 01:15:27 	402 		695 	0 	
2012-02-02 01:16:14 	312 		395 	0 	
2012-02-02 01:41:02 	404 		135 	0 	
2012-02-02 02:48:02 	421 		695 	0 	
2012-02-02 03:02:13 	323 		575 	0 	
2012-02-02 03:20:22 	305 		575 	0 	
2012-02-02 04:14:14 	310 		475 	0 	
2012-02-02 04:23:16 	305 		25 	0 	
2012-02-02 04:45:43 	418 		120 	0 	
2012-02-02 04:52:54 	212 		275 	0 	
2012-02-02 04:58:15 	310 		50 	0 	
2012-02-02 05:07:26 	311 		0 	275 	
2012-02-02 05:11:01 	412 		395 	0 	
2012-02-02 05:15:22 	311 		480 	0 	
2012-02-02 05:52:19 	408 		395 	0 	
2012-02-02 06:12:13 	410 		150 	0 	
2012-02-02 06:37:07 	302 		395 	0 	
2012-02-02 07:17:16 	407 		180 	0 	
2012-02-02 07:58:40 	405 		875 	0 	
 			Total:		12865 	275		

=== RECHIT LIST ===




V1