MSHOGUN 1: SHIFT END REPORT
Sunday June 26, 2011 12:00:06 AM

SALES TRANSACTION
Room Sales Order			35660
FnB Sales Order			1778
Beer Sales Order			450
Misc Sales Order			10
Room Sales Adjustment			0
GROSS SALES			37898

DISCOUNT
Room				0
FnB				0
Misc				0

DEPOSIT				44820
REFUND				

TOTAL ACCOUNTABILITY			82718

CASH DECLARATION			9933
CARD				0
FUNDS SAFEKEEP			60000
TOTAL CASH DECLARED			69933

TOTAL CASH ON SYSTEM			9933
OVER/SHORTAGES 			0

ROOM	 # OF CHECK-OUT	AMT
Value 		11	3025
Regular 		31	11295
Classique 		48	21340
Premium 		0	0
Regent 		0	0
Queen 		0	0
Gemini 		0	0
Family 		0	0
Executive Suite 	0	0
Mega Suite 	0	0

DISCOUNT 
Value 			  
Regular 		  
Classique 		  
Premium 		  
Regent 			  
Queen 		  
Gemini 		  
Family 		  
Executive Suite 	  
Mega Suite 		  


=== RESERVATIONS ===

Deposits:


Claimed:



SECURITY DEPOSITS

Deposits:
Claimed:


=== SALES BREAKDOWN ===

Transaction Date	Room No.	Cash	Card

2011-06-25 16:09:40 	401 		395 	0 	
2011-06-25 16:09:48 	409 		395 	0 	
2011-06-25 16:09:56 	208 		275 	0 	
2011-06-25 16:10:04 	316 		585 	0 	
2011-06-25 16:19:30 	320 		345 	0 	
2011-06-25 16:33:11 	409 		190 	0 	
2011-06-25 16:52:52 	315 		395 	0 	
2011-06-25 16:53:00 	209 		275 	0 	
2011-06-25 16:56:24 	307 		395 	0 	
2011-06-25 16:58:00 	303 		345 	0 	
2011-06-25 17:00:20 	406 		230 	0 	
2011-06-25 17:03:21 	302 		395 	0 	
2011-06-25 17:04:01 	319 		395 	0 	
2011-06-25 17:09:54 	413 		395 	0 	
2011-06-25 17:11:17 	412 		395 	0 	
2011-06-25 17:11:33 	407 		395 	0 	
2011-06-25 17:18:33 	213 		345 	0 	
2011-06-25 17:18:41 	205 		345 	0 	
2011-06-25 17:18:47 	414 		345 	0 	
2011-06-25 17:18:54 	219 		395 	0 	
2011-06-25 17:24:34 	406 		395 	0 	
2011-06-25 17:24:41 	417 		395 	0 	
2011-06-25 17:25:59 	419 		395 	0 	
2011-06-25 17:31:29 	306 		535 	0 	
2011-06-25 17:38:09 	317 		395 	0 	
2011-06-25 17:38:17 	311 		275 	0 	
2011-06-25 17:38:27 	301 		395 	0 	
2011-06-25 17:42:19 	318 		345 	0 	
2011-06-25 17:44:13 	415 		280 	0 	
2011-06-25 17:46:16 	215 		345 	0 	
2011-06-25 17:49:03 	207 		345 	0 	
2011-06-25 17:55:41 	221 		395 	0 	
2011-06-25 17:57:31 	314 		345 	0 	
2011-06-25 18:08:23 	305 		275 	0 	
2011-06-25 18:09:13 	211 		120 	0 	
2011-06-25 18:09:37 	321 		395 	0 	
2011-06-25 18:09:43 	415 		395 	0 	
2011-06-25 18:09:50 	422 		395 	0 	
2011-06-25 18:10:07 	304 		140 	0 	
2011-06-25 18:13:53 	314 		65 	0 	
2011-06-25 18:14:00 	320 		345 	0 	
2011-06-25 18:15:29 	312 		395 	0 	
2011-06-25 18:17:51 	210 		345 	0 	
2011-06-25 18:26:18 	403 		345 	0 	
2011-06-25 18:30:45 	313 		395 	0 	
2011-06-25 18:35:09 	416 		120 	0 	
2011-06-25 18:45:38 	204 		345 	0 	
2011-06-25 18:46:41 	304 		395 	0 	
2011-06-25 19:03:02 	424 		595 	0 	
2011-06-25 19:03:11 	404 		695 	0 	
2011-06-25 19:03:40 	421 		695 	0 	
2011-06-25 19:03:53 	402 		695 	0 	
2011-06-25 19:04:04 	307 		695 	0 	
2011-06-25 19:04:19 	323 		595 	0 	
2011-06-25 19:04:33 	219 		395 	0 	
2011-06-25 19:05:09 	423 		595 	0 	
2011-06-25 19:08:38 	211 		345 	0 	
2011-06-25 19:08:57 	215 		645 	0 	
2011-06-25 19:09:29 	201 		345 	0 	
2011-06-25 19:10:31 	206 		345 	0 	
2011-06-25 19:13:12 	303 		345 	0 	
2011-06-25 19:16:01 	406 		695 	0 	
2011-06-25 19:19:16 	420 		645 	0 	
2011-06-25 19:21:25 	418 		0 	645 	
2011-06-25 19:21:43 	408 		695 	0 	
2011-06-25 19:23:23 	421 		220 	0 	
2011-06-25 19:23:50 	413 		695 	0 	
2011-06-25 19:23:57 	409 		395 	0 	
2011-06-25 19:24:48 	416 		645 	0 	
2011-06-25 19:27:09 	203 		585 	0 	
2011-06-25 19:27:17 	414 		645 	0 	
2011-06-25 19:35:43 	205 		345 	0 	
2011-06-25 19:37:37 	308 		695 	0 	
2011-06-25 19:39:16 	202 		345 	0 	
2011-06-25 19:39:27 	309 		395 	0 	
2011-06-25 19:40:06 	315 		695 	0 	
2011-06-25 19:44:00 	322 		395 	0 	
2011-06-25 19:44:08 	218 		395 	0 	
2011-06-25 19:47:27 	405 		595 	0 	
2011-06-25 19:47:34 	324 		595 	0 	
2011-06-25 19:48:30 	410 		595 	0 	
2011-06-25 19:51:41 	217 		595 	0 	
2011-06-25 19:57:27 	207 		345 	0 	
2011-06-25 19:59:03 	212 		595 	0 	
2011-06-25 19:59:13 	216 		595 	0 	
2011-06-25 19:59:30 	208 		275 	0 	
2011-06-25 19:59:36 	209 		275 	0 	
2011-06-25 20:01:15 	411 		595 	0 	
2011-06-25 20:01:35 	407 		695 	0 	
2011-06-25 20:02:56 	214 		595 	0 	
2011-06-25 20:03:02 	310 		275 	0 	
2011-06-25 20:05:10 	319 		695 	0 	
2011-06-25 20:07:58 	401 		140 	0 	
2011-06-25 20:23:02 	221 		695 	0 	
2011-06-25 20:24:00 	302 		695 	0 	
2011-06-25 20:26:29 	412 		695 	0 	
2011-06-25 20:27:41 	311 		275 	0 	
2011-06-25 20:28:23 	213 		345 	0 	
2011-06-25 20:32:03 	301 		695 	0 	
2011-06-25 20:32:14 	401 		695 	0 	
2011-06-25 20:37:37 	419 		395 	0 	
2011-06-25 20:40:30 	314 		345 	0 	
2011-06-25 20:41:53 	404 		250 	0 	
2011-06-25 20:44:15 	321 		695 	0 	
2011-06-25 20:45:22 	318 		645 	0 	
2011-06-25 20:48:24 	202 		645 	0 	
2011-06-25 20:49:22 	403 		345 	0 	
2011-06-25 20:52:12 	309 		695 	0 	
2011-06-25 20:55:25 	411 		65 	0 	
2011-06-25 21:00:57 	305 		595 	0 	
2011-06-25 21:02:10 	417 		695 	0 	
2011-06-25 21:02:37 	316 		298 	0 	
2011-06-25 21:03:51 	312 		395 	0 	
2011-06-25 21:06:19 	317 		695 	0 	
2011-06-25 21:06:25 	422 		695 	0 	
2011-06-25 21:12:20 	316 		345 	0 	
2011-06-25 21:15:41 	415 		695 	0 	
2011-06-25 21:17:44 	220 		695 	0 	
2011-06-25 21:19:07 	320 		345 	0 	
2011-06-25 21:27:55 	219 		230 	0 	
2011-06-25 21:28:30 	306 		695 	0 	
2011-06-25 21:35:27 	304 		695 	0 	
2011-06-25 21:38:49 	210 		645 	0 	
2011-06-25 21:38:57 	208 		595 	0 	
2011-06-25 21:40:18 	314 		645 	0 	
2011-06-25 21:51:11 	409 		80 	0 	
2011-06-25 22:07:02 	206 		645 	0 	
2011-06-25 22:08:13 	313 		695 	0 	
2011-06-25 22:26:32 	303 		645 	0 	
2011-06-25 22:38:03 	211 		645 	0 	
2011-06-25 22:38:30 	218 		695 	0 	
2011-06-25 22:43:07 	201 		645 	0 	
2011-06-25 22:43:52 	205 		705 	0 	
2011-06-25 22:46:29 	406 		210 	0 	
2011-06-25 22:49:07 	218 		270 	0 	
2011-06-25 22:49:15 	204 		345 	0 	
2011-06-25 22:58:28 	207 		645 	0 	
2011-06-25 22:58:43 	322 		695 	0 	
2011-06-25 23:01:06 	219 		140 	0 	
2011-06-25 23:01:27 	309 		340 	0 	
2011-06-25 23:02:05 	312 		695 	0 	
2011-06-25 23:09:07 	409 		695 	0 	
2011-06-25 23:27:55 	213 		645 	0 	
2011-06-25 23:29:56 	219 		695 	0 	
2011-06-25 23:35:08 	209 		275 	0 	
2011-06-25 23:45:11 	419 		695 	0 	
2011-06-25 23:46:44 	320 		645 	0 	
2011-06-25 23:50:24 	403 		345 	0 	
2011-06-25 23:53:29 	310 		595 	0 	
2011-06-25 23:57:00 	316 		645 	0 	
 			Total:		69933 	645		

=== RECHIT LIST ===




V1