MSHOGUN 1: SHIFT END REPORT
Sunday July 31, 2011 4:00:04 PM

SALES TRANSACTION
Room Sales Order			39175
FnB Sales Order			2720
Beer Sales Order			480
Misc Sales Order			60
Room Sales Adjustment			0
GROSS SALES			42435

DISCOUNT
Room				0
FnB				0
Misc				0

DEPOSIT				17240
REFUND				

TOTAL ACCOUNTABILITY			59675

CASH DECLARATION			6133
CARD				675
FUNDS SAFEKEEP			30000
TOTAL CASH DECLARED			36808

TOTAL CASH ON SYSTEM			6463
OVER/SHORTAGES 			-330

ROOM	 # OF CHECK-OUT	AMT
Value 		11	5145
Regular 		23	11775
Classique 		37	22255
Premium 		0	0
Regent 		0	0
Queen 		0	0
Gemini 		0	0
Family 		0	0
Executive Suite 	0	0
Mega Suite 	0	0

DISCOUNT 
Value 			  
Regular 		  
Classique 		  
Premium 		  
Regent 			  
Queen 		  
Gemini 		  
Family 		  
Executive Suite 	  
Mega Suite 		  


=== RESERVATIONS ===

Deposits:


Claimed:



SECURITY DEPOSITS

Deposits:
Claimed:


=== SALES BREAKDOWN ===

Transaction Date	Room No.	Cash	Card

2011-07-31 07:59:24 	312 		280 	0 	
2011-07-31 08:05:09 	204 		345 	0 	
2011-07-31 08:22:06 	306 		40 	0 	
2011-07-31 08:29:56 	307 		395 	0 	
2011-07-31 08:44:40 	207 		345 	0 	
2011-07-31 08:55:30 	304 		190 	0 	
2011-07-31 09:11:38 	210 		585 	0 	
2011-07-31 09:11:48 	209 		275 	0 	
2011-07-31 09:17:17 	414 		390 	0 	
2011-07-31 09:23:09 	321 		140 	0 	
2011-07-31 09:30:56 	405 		275 	0 	
2011-07-31 09:31:06 	302 		316 	0 	
2011-07-31 09:34:45 	211 		345 	0 	
2011-07-31 09:48:55 	409 		165 	0 	
2011-07-31 09:52:32 	305 		275 	0 	
2011-07-31 09:56:30 	304 		395 	0 	
2011-07-31 10:08:07 	402 		50 	0 	
2011-07-31 10:11:58 	218 		395 	0 	
2011-07-31 10:12:41 	215 		345 	0 	
2011-07-31 10:22:16 	420 		705 	0 	
2011-07-31 10:24:19 	304 		225 	0 	
2011-07-31 10:24:40 	416 		345 	0 	
2011-07-31 10:28:28 	406 		675 	0 	
2011-07-31 10:33:08 	306 		395 	0 	
2011-07-31 10:38:24 	422 		395 	0 	
2011-07-31 10:50:22 	406 		70 	0 	
2011-07-31 10:53:13 	407 		0 	675 	
2011-07-31 10:58:55 	403 		345 	0 	
2011-07-31 11:02:08 	418 		345 	0 	
2011-07-31 11:21:36 	412 		395 	0 	
2011-07-31 11:25:37 	417 		675 	0 	
2011-07-31 11:26:21 	417 		50 	0 	
2011-07-31 11:28:56 	218 		60 	0 	
2011-07-31 11:37:27 	409 		395 	0 	
2011-07-31 11:38:48 	413 		815 	0 	
2011-07-31 11:47:24 	213 		585 	0 	
2011-07-31 11:49:34 	321 		395 	0 	
2011-07-31 11:53:10 	324 		200 	0 	
2011-07-31 11:55:41 	404 		1040 	0 	
2011-07-31 12:11:32 	316 		705 	0 	
2011-07-31 12:23:07 	421 		0 	815 	
2011-07-31 12:25:13 	320 		345 	0 	
2011-07-31 12:38:34 	216 		275 	0 	
2011-07-31 12:44:16 	322 		395 	0 	
2011-07-31 12:44:35 	406 		235 	0 	
2011-07-31 12:49:16 	309 		395 	0 	
2011-07-31 12:50:03 	408 		535 	0 	
2011-07-31 12:53:24 	414 		120 	0 	
2011-07-31 13:15:08 	402 		815 	0 	
2011-07-31 13:17:19 	318 		530 	0 	
2011-07-31 13:18:45 	312 		675 	0 	
2011-07-31 13:24:32 	214 		275 	0 	
2011-07-31 13:27:21 	319 		395 	0 	
2011-07-31 13:32:11 	403 		360 	0 	
2011-07-31 13:34:47 	308 		316 	0 	
2011-07-31 13:35:15 	307 		395 	0 	
2011-07-31 13:36:20 	303 		705 	0 	
2011-07-31 13:40:05 	401 		395 	0 	
2011-07-31 13:45:20 	202 		345 	0 	
2011-07-31 13:47:08 	415 		815 	0 	
2011-07-31 13:51:28 	310 		275 	0 	
2011-07-31 14:02:37 	313 		395 	0 	
2011-07-31 14:03:07 	315 		535 	0 	
2011-07-31 14:03:57 	204 		345 	0 	
2011-07-31 14:06:55 	203 		345 	0 	
2011-07-31 14:13:39 	304 		395 	0 	
2011-07-31 14:13:47 	306 		395 	0 	
2011-07-31 14:16:51 	404 		395 	0 	
2011-07-31 14:17:47 	301 		395 	0 	
2011-07-31 14:26:25 	209 		275 	0 	
2011-07-31 14:28:37 	409 		395 	0 	
2011-07-31 14:34:21 	422 		395 	0 	
2011-07-31 14:34:33 	208 		275 	0 	
2011-07-31 14:34:54 	220 		395 	0 	
2011-07-31 14:37:58 	219 		395 	0 	
2011-07-31 14:41:06 	305 		575 	0 	
2011-07-31 14:45:04 	221 		395 	0 	
2011-07-31 14:46:42 	306 		50 	0 	
2011-07-31 14:48:06 	406 		395 	0 	
2011-07-31 14:53:12 	302 		280 	0 	
2011-07-31 15:00:58 	321 		395 	0 	
2011-07-31 15:01:12 	412 		395 	0 	
2011-07-31 15:03:21 	205 		345 	0 	
2011-07-31 15:16:03 	317 		395 	0 	
2011-07-31 15:17:09 	419 		395 	0 	
2011-07-31 15:19:56 	321 		50 	0 	
2011-07-31 15:21:19 	218 		395 	0 	
2011-07-31 15:27:00 	207 		345 	0 	
2011-07-31 15:27:07 	322 		395 	0 	
2011-07-31 15:27:14 	302 		395 	0 	
2011-07-31 15:29:58 	403 		276 	0 	
2011-07-31 15:30:44 	421 		170 	0 	
2011-07-31 15:33:31 	211 		345 	0 	
2011-07-31 15:36:17 	216 		275 	0 	
2011-07-31 15:45:46 	215 		345 	0 	
2011-07-31 15:50:51 	219 		395 	0 	
2011-07-31 15:54:32 	204 		585 	0 	
2011-07-31 15:56:37 	314 		585 	0 	
 			Total:		36463 	1490		

=== RECHIT LIST ===




V1