MSHOGUN 1: SHIFT END REPORT
Thursday August 05, 2010 8:00:02 AM

SALES TRANSACTION
Room Sales Order			30335
FnB Sales Order			3250
Beer Sales Order			1010
Misc Sales Order			720
Room Sales Adjustment			0
GROSS SALES			35315

DISCOUNT
Room				0
FnB				0
Misc				0

DEPOSIT				4535
REFUND				

TOTAL ACCOUNTABILITY			39850

CASH DECLARATION			523
CARD				0
FUNDS SAFEKEEP			10000
TOTAL CASH DECLARED			10523

TOTAL CASH ON SYSTEM			521
OVER/SHORTAGES 			2

ROOM	 # OF CHECK-OUT	AMT
Value 		4	1740
Regular 		11	6675
Classique 		18	9470
Premium 		0	0
Regent 		0	0
Queen 		5	10350
Gemini 		0	0
Family 		1	2100
Executive Suite 	0	0
Mega Suite 	0	0

DISCOUNT 
Value 			  
Regular 		  
Classique 		  
Premium 		  
Regent 			  
Queen 		  
Gemini 		  
Family 		  
Executive Suite 	  
Mega Suite 		  


=== RESERVATIONS ===

Deposits:


Claimed:



SECURITY DEPOSITS

Deposits:
Claimed:


=== SALES BREAKDOWN ===

Transaction Date	Room No.	Cash	Card

2010-08-05 00:14:33 	416 		85 	0 	
2010-08-05 00:18:07 	205 		345 	0 	
2010-08-05 00:22:28 	511 		1600 	0 	
2010-08-05 00:45:47 	512 		800 	0 	
2010-08-05 01:13:46 	220 		50 	0 	
2010-08-05 01:18:58 	309 		395 	0 	
2010-08-05 01:37:23 	615 		865 	0 	
2010-08-05 01:38:11 	608 		850 	0 	
2010-08-05 01:38:32 	512 		50 	0 	
2010-08-05 02:10:54 	203 		50 	0 	
2010-08-05 02:14:43 	305 		275 	0 	
2010-08-05 02:54:13 	208 		275 	0 	
2010-08-05 03:01:46 	601 		50 	0 	
2010-08-05 03:05:45 	313 		395 	0 	
2010-08-05 03:15:19 	215 		120 	0 	
2010-08-05 03:21:14 	312 		395 	0 	
2010-08-05 03:34:01 	314 		50 	0 	
2010-08-05 03:47:45 	211 		155 	0 	
2010-08-05 04:47:54 	609 		200 	0 	
2010-08-05 05:37:53 	219 		560 	0 	
2010-08-05 05:51:24 	213 		125 	0 	
2010-08-05 06:17:22 	616 		250 	0 	
2010-08-05 06:20:24 	321 		395 	0 	
2010-08-05 06:30:40 	315 		395 	0 	
2010-08-05 06:53:38 	307 		160 	0 	
2010-08-05 07:04:33 	319 		395 	0 	
2010-08-05 07:22:00 	317 		316 	0 	
2010-08-05 07:29:24 	616 		50 	0 	
2010-08-05 07:49:15 	601 		870 	0 	
 			Total:		10521 	0		

=== RECHIT LIST ===




V1