MSHOGUN 1: SHIFT END REPORT
Wednesday February 29, 2012 8:01:19 AM

SALES TRANSACTION
Room Sales Order			24015
FnB Sales Order			1100
Beer Sales Order			210
Misc Sales Order			70
Room Sales Adjustment			-595
GROSS SALES			24800

DISCOUNT
Room				0
FnB				0
Misc				0

DEPOSIT				5325
REFUND				

TOTAL ACCOUNTABILITY			30125

CASH DECLARATION			1095
CARD				645
FUNDS SAFEKEEP			10000
TOTAL CASH DECLARED			11740

TOTAL CASH ON SYSTEM			1630
OVER/SHORTAGES 			-535

ROOM	 # OF CHECK-OUT	AMT
Value 		11	6285
Regular 		12	7620
Classique 		18	10110
Premium 		0	0
Regent 		0	0
Queen 		0	0
Gemini 		0	0
Family 		0	0
Executive Suite 	0	0
Mega Suite 	0	0

DISCOUNT 
Value 			  
Regular 		  
Classique 		  
Premium 		  
Regent 			  
Queen 		  
Gemini 		  
Family 		  
Executive Suite 	  
Mega Suite 		  


=== RESERVATIONS ===

Deposits:


Claimed:



SECURITY DEPOSITS

Deposits:
Claimed:


=== SALES BREAKDOWN ===

Transaction Date	Room No.	Cash	Card

2012-02-29 00:19:13 	208 		275 	0 	
2012-02-29 00:30:27 	219 		695 	0 	
2012-02-29 00:42:40 	209 		595 	0 	
2012-02-29 00:50:18 	209 		-595 	0 	
2012-02-29 00:50:47 	408 		695 	0 	
2012-02-29 00:51:12 	209 		275 	0 	
2012-02-29 00:51:22 	203 		585 	0 	
2012-02-29 00:51:29 	202 		645 	0 	
2012-02-29 00:51:45 	408 		50 	0 	
2012-02-29 00:52:10 	403 		270 	0 	
2012-02-29 01:04:10 	317 		695 	0 	
2012-02-29 01:12:12 	210 		645 	0 	
2012-02-29 01:18:12 	317 		50 	0 	
2012-02-29 01:23:10 	403 		120 	0 	
2012-02-29 01:37:34 	301 		395 	0 	
2012-02-29 01:46:54 	401 		395 	0 	
2012-02-29 01:57:10 	318 		645 	0 	
2012-02-29 02:27:42 	402 		50 	0 	
2012-02-29 03:07:00 	309 		395 	0 	
2012-02-29 03:07:16 	312 		395 	0 	
2012-02-29 03:20:27 	412 		815 	0 	
2012-02-29 04:04:17 	301 		140 	0 	
2012-02-29 04:47:02 	409 		535 	0 	
2012-02-29 04:53:15 	209 		100 	0 	
2012-02-29 04:57:10 	301 		395 	0 	
2012-02-29 05:14:27 	214 		125 	0 	
2012-02-29 05:22:26 	401 		395 	0 	
2012-02-29 06:03:31 	204 		25 	0 	
2012-02-29 06:26:12 	416 		30 	0 	
2012-02-29 06:44:06 	306 		10 	0 	
2012-02-29 06:47:01 	310 		600 	0 	
2012-02-29 06:54:47 	215 		120 	0 	
2012-02-29 07:48:17 	207 		360 	0 	
2012-02-29 07:58:44 	201 		705 	0 	
 			Total:		11630 	0		

=== RECHIT LIST ===




V1