MSHOGUN 1: SHIFT END REPORT
Monday December 05, 2011 12:00:02 AM

SALES TRANSACTION
Room Sales Order			40285
FnB Sales Order			900
Beer Sales Order			320
Misc Sales Order			0
Room Sales Adjustment			0
GROSS SALES			41505

DISCOUNT
Room				0
FnB				0
Misc				0

DEPOSIT				28863
REFUND				

TOTAL ACCOUNTABILITY			70368

CASH DECLARATION			1971
CARD				0
FUNDS SAFEKEEP			50000
TOTAL CASH DECLARED			51971

TOTAL CASH ON SYSTEM			1971
OVER/SHORTAGES 			0

ROOM	 # OF CHECK-OUT	AMT
Value 		13	4375
Regular 		38	14670
Classique 		52	21240
Premium 		0	0
Regent 		0	0
Queen 		0	0
Gemini 		0	0
Family 		0	0
Executive Suite 	0	0
Mega Suite 	0	0

DISCOUNT 
Value 			  
Regular 		  
Classique 		  
Premium 		  
Regent 			  
Queen 		  
Gemini 		  
Family 		  
Executive Suite 	  
Mega Suite 		  


=== RESERVATIONS ===

Deposits:


Claimed:



SECURITY DEPOSITS

Deposits:
Claimed:


=== SALES BREAKDOWN ===

Transaction Date	Room No.	Cash	Card

2011-12-04 16:01:00 	310 		500 	0 	
2011-12-04 16:05:58 	202 		345 	0 	
2011-12-04 16:07:39 	203 		345 	0 	
2011-12-04 16:11:53 	209 		275 	0 	
2011-12-04 16:13:04 	208 		275 	0 	
2011-12-04 16:18:15 	311 		275 	0 	
2011-12-04 16:20:28 	204 		345 	0 	
2011-12-04 16:22:12 	304 		395 	0 	
2011-12-04 16:41:17 	305 		275 	0 	
2011-12-04 16:41:24 	303 		345 	0 	
2011-12-04 16:43:08 	316 		345 	0 	
2011-12-04 16:44:36 	315 		316 	0 	
2011-12-04 16:51:45 	408 		395 	0 	
2011-12-04 16:52:02 	302 		395 	0 	
2011-12-04 16:52:29 	206 		345 	0 	
2011-12-04 16:55:25 	401 		395 	0 	
2011-12-04 17:05:10 	402 		395 	0 	
2011-12-04 17:05:19 	420 		345 	0 	
2011-12-04 17:05:43 	309 		395 	0 	
2011-12-04 17:08:40 	418 		345 	0 	
2011-12-04 17:11:35 	218 		395 	0 	
2011-12-04 17:20:52 	403 		345 	0 	
2011-12-04 17:21:32 	211 		345 	0 	
2011-12-04 17:22:05 	213 		345 	0 	
2011-12-04 17:25:04 	308 		395 	0 	
2011-12-04 17:25:14 	215 		345 	0 	
2011-12-04 17:26:18 	407 		395 	0 	
2011-12-04 17:29:57 	320 		345 	0 	
2011-12-04 17:30:44 	310 		275 	0 	
2011-12-04 17:41:19 	205 		345 	0 	
2011-12-04 17:45:17 	207 		345 	0 	
2011-12-04 17:47:10 	312 		395 	0 	
2011-12-04 18:01:11 	321 		395 	0 	
2011-12-04 18:03:33 	201 		276 	0 	
2011-12-04 18:07:13 	416 		345 	0 	
2011-12-04 18:09:09 	313 		695 	0 	
2011-12-04 18:10:57 	422 		675 	0 	
2011-12-04 18:12:07 	409 		395 	0 	
2011-12-04 18:12:52 	301 		395 	0 	
2011-12-04 18:13:59 	412 		395 	0 	
2011-12-04 18:25:20 	319 		695 	0 	
2011-12-04 18:29:57 	419 		535 	0 	
2011-12-04 18:33:54 	220 		395 	0 	
2011-12-04 18:35:31 	415 		395 	0 	
2011-12-04 18:36:02 	313 		205 	0 	
2011-12-04 18:40:51 	314 		120 	0 	
2011-12-04 18:55:01 	324 		595 	0 	
2011-12-04 18:55:11 	411 		595 	0 	
2011-12-04 18:55:20 	417 		395 	0 	
2011-12-04 18:55:31 	410 		595 	0 	
2011-12-04 18:55:39 	421 		395 	0 	
2011-12-04 19:05:12 	306 		395 	0 	
2011-12-04 19:05:33 	311 		275 	0 	
2011-12-04 19:06:40 	204 		345 	0 	
2011-12-04 19:10:22 	314 		345 	0 	
2011-12-04 19:10:53 	319 		120 	0 	
2011-12-04 19:11:02 	205 		345 	0 	
2011-12-04 19:17:19 	210 		345 	0 	
2011-12-04 19:18:27 	321 		695 	0 	
2011-12-04 19:19:51 	418 		465 	0 	
2011-12-04 19:21:18 	320 		60 	0 	
2011-12-04 19:21:29 	214 		595 	0 	
2011-12-04 19:25:52 	307 		395 	0 	
2011-12-04 19:31:22 	307 		25 	0 	
2011-12-04 19:32:41 	410 		125 	0 	
2011-12-04 19:32:49 	216 		595 	0 	
2011-12-04 19:36:56 	317 		695 	0 	
2011-12-04 19:38:46 	305 		595 	0 	
2011-12-04 19:41:39 	324 		120 	0 	
2011-12-04 19:49:38 	402 		695 	0 	
2011-12-04 19:50:49 	304 		395 	0 	
2011-12-04 19:52:30 	408 		695 	0 	
2011-12-04 19:58:38 	209 		275 	0 	
2011-12-04 19:59:53 	404 		695 	0 	
2011-12-04 20:07:58 	218 		695 	0 	
2011-12-04 20:11:13 	423 		595 	0 	
2011-12-04 20:16:36 	203 		345 	0 	
2011-12-04 20:21:49 	304 		380 	0 	
2011-12-04 20:23:52 	309 		395 	0 	
2011-12-04 20:27:21 	323 		595 	0 	
2011-12-04 20:31:16 	310 		275 	0 	
2011-12-04 20:33:02 	405 		595 	0 	
2011-12-04 20:38:48 	424 		595 	0 	
2011-12-04 20:40:17 	301 		316 	0 	
2011-12-04 20:44:33 	206 		645 	0 	
2011-12-04 20:45:43 	403 		645 	0 	
2011-12-04 20:49:43 	220 		395 	0 	
2011-12-04 20:49:54 	308 		695 	0 	
2011-12-04 20:51:37 	207 		345 	0 	
2011-12-04 20:53:01 	318 		345 	0 	
2011-12-04 20:54:20 	409 		395 	0 	
2011-12-04 20:55:44 	215 		645 	0 	
2011-12-04 21:01:16 	416 		210 	0 	
2011-12-04 21:08:59 	315 		695 	0 	
2011-12-04 21:18:06 	218 		60 	0 	
2011-12-04 21:18:18 	211 		645 	0 	
2011-12-04 21:28:13 	407 		695 	0 	
2011-12-04 21:29:24 	406 		695 	0 	
2011-12-04 21:32:11 	412 		395 	0 	
2011-12-04 21:33:14 	401 		395 	0 	
2011-12-04 21:34:10 	320 		120 	0 	
2011-12-04 21:34:55 	302 		695 	0 	
2011-12-04 21:35:59 	302 		50 	0 	
2011-12-04 21:41:32 	413 		695 	0 	
2011-12-04 21:44:41 	211 		160 	0 	
2011-12-04 21:45:31 	401 		20 	0 	
2011-12-04 21:46:11 	312 		395 	0 	
2011-12-04 22:13:24 	308 		240 	0 	
2011-12-04 22:13:31 	312 		20 	0 	
2011-12-04 22:15:02 	307 		695 	0 	
2011-12-04 22:17:10 	215 		25 	0 	
2011-12-04 22:31:00 	404 		75 	0 	
2011-12-04 22:40:48 	420 		645 	0 	
2011-12-04 22:41:36 	202 		345 	0 	
2011-12-04 22:42:50 	303 		645 	0 	
2011-12-04 22:45:00 	307 		180 	0 	
2011-12-04 22:45:08 	305 		105 	0 	
2011-12-04 22:53:19 	217 		595 	0 	
2011-12-04 23:02:29 	212 		595 	0 	
2011-12-04 23:07:38 	414 		0 	645 	
2011-12-04 23:20:18 	311 		275 	0 	
2011-12-04 23:34:05 	314 		645 	0 	
2011-12-04 23:35:19 	212 		398 	0 	
2011-12-04 23:35:30 	419 		695 	0 	
2011-12-04 23:39:28 	415 		695 	0 	
2011-12-04 23:41:53 	316 		645 	0 	
2011-12-04 23:46:57 	304 		140 	0 	
2011-12-04 23:57:02 	221 		395 	0 	
 			Total:		51971 	645		

=== RECHIT LIST ===




V1