MSHOGUN 1: SHIFT END REPORT
Monday June 27, 2011 4:00:10 PM

SALES TRANSACTION
Room Sales Order			23705
FnB Sales Order			2603
Beer Sales Order			160
Misc Sales Order			65
Room Sales Adjustment			0
GROSS SALES			26533

DISCOUNT
Room				0
FnB				0
Misc				0

DEPOSIT				7185
REFUND				

TOTAL ACCOUNTABILITY			33718

CASH DECLARATION			7816
CARD				2085
FUNDS SAFEKEEP			10000
TOTAL CASH DECLARED			19901

TOTAL CASH ON SYSTEM			9811
OVER/SHORTAGES 			-1995

ROOM	 # OF CHECK-OUT	AMT
Value 		8	3560
Regular 		5	2325
Classique 		36	17820
Premium 		0	0
Regent 		0	0
Queen 		0	0
Gemini 		0	0
Family 		0	0
Executive Suite 	0	0
Mega Suite 	0	0

DISCOUNT 
Value 			  
Regular 		  
Classique 		  
Premium 		  
Regent 			  
Queen 		  
Gemini 		  
Family 		  
Executive Suite 	  
Mega Suite 		  


=== RESERVATIONS ===

Deposits:


Claimed:



SECURITY DEPOSITS

Deposits:
Claimed:


=== SALES BREAKDOWN ===

Transaction Date	Room No.	Cash	Card

2011-06-27 08:12:01 	322 		305 	0 	
2011-06-27 08:39:36 	312 		395 	0 	
2011-06-27 08:48:31 	306 		395 	0 	
2011-06-27 08:49:38 	217 		275 	0 	
2011-06-27 08:52:13 	417 		200 	0 	
2011-06-27 09:22:18 	410 		310 	0 	
2011-06-27 09:32:02 	309 		395 	0 	
2011-06-27 10:05:14 	313 		395 	0 	
2011-06-27 10:05:27 	317 		395 	0 	
2011-06-27 10:11:53 	319 		395 	0 	
2011-06-27 10:12:33 	307 		395 	0 	
2011-06-27 10:19:07 	422 		395 	0 	
2011-06-27 10:56:27 	302 		395 	0 	
2011-06-27 11:26:00 	404 		395 	0 	
2011-06-27 11:45:07 	212 		200 	0 	
2011-06-27 11:53:36 	221 		395 	0 	
2011-06-27 12:03:22 	301 		395 	0 	
2011-06-27 12:16:11 	305 		275 	0 	
2011-06-27 12:16:17 	322 		395 	0 	
2011-06-27 12:17:56 	318 		345 	0 	
2011-06-27 12:27:39 	314 		345 	0 	
2011-06-27 12:27:58 	314 		240 	0 	
2011-06-27 12:39:08 	316 		345 	0 	
2011-06-27 12:43:07 	303 		345 	0 	
2011-06-27 12:45:42 	401 		395 	0 	
2011-06-27 12:48:08 	303 		50 	0 	
2011-06-27 12:49:44 	422 		20 	0 	
2011-06-27 12:50:20 	408 		395 	0 	
2011-06-27 12:58:12 	307 		310 	0 	
2011-06-27 13:08:47 	417 		395 	0 	
2011-06-27 13:11:00 	301 		80 	0 	
2011-06-27 13:18:53 	309 		395 	0 	
2011-06-27 13:26:42 	323 		275 	0 	
2011-06-27 13:28:15 	320 		345 	0 	
2011-06-27 13:28:38 	321 		395 	0 	
2011-06-27 13:31:16 	324 		275 	0 	
2011-06-27 13:37:46 	419 		395 	0 	
2011-06-27 13:40:06 	403 		345 	0 	
2011-06-27 13:42:05 	405 		275 	0 	
2011-06-27 13:50:49 	319 		395 	0 	
2011-06-27 13:51:18 	322 		65 	0 	
2011-06-27 13:53:26 	304 		395 	0 	
2011-06-27 13:56:30 	322 		15 	0 	
2011-06-27 13:57:01 	308 		395 	0 	
2011-06-27 14:03:06 	315 		395 	0 	
2011-06-27 14:08:56 	410 		275 	0 	
2011-06-27 14:12:49 	416 		345 	0 	
2011-06-27 14:13:58 	317 		395 	0 	
2011-06-27 14:15:50 	418 		705 	0 	
2011-06-27 14:16:05 	306 		395 	0 	
2011-06-27 14:26:00 	312 		395 	0 	
2011-06-27 14:30:20 	304 		50 	0 	
2011-06-27 15:18:20 	420 		585 	0 	
2011-06-27 15:24:52 	307 		395 	0 	
2011-06-27 15:29:10 	406 		395 	0 	
2011-06-27 15:31:14 	407 		395 	0 	
2011-06-27 15:40:37 	418 		50 	0 	
2011-06-27 15:43:39 	409 		395 	0 	
2011-06-27 15:47:15 	301 		316 	0 	
2011-06-27 15:49:40 	302 		395 	0 	
 			Total:		19811 	0		

=== RECHIT LIST ===




V1