MSHOGUN 1: SHIFT END REPORT
Monday July 11, 2011 4:01:22 PM

SALES TRANSACTION
Room Sales Order			22600
FnB Sales Order			2528
Beer Sales Order			90
Misc Sales Order			30
Room Sales Adjustment			0
GROSS SALES			25248

DISCOUNT
Room				0
FnB				0
Misc				0

DEPOSIT				7140
REFUND				

TOTAL ACCOUNTABILITY			32388

CASH DECLARATION			693
CARD				0
FUNDS SAFEKEEP			20000
TOTAL CASH DECLARED			20693

TOTAL CASH ON SYSTEM			693
OVER/SHORTAGES 			0

ROOM	 # OF CHECK-OUT	AMT
Value 		7	2565
Regular 		13	6525
Classique 		26	13510
Premium 		0	0
Regent 		0	0
Queen 		0	0
Gemini 		0	0
Family 		0	0
Executive Suite 	0	0
Mega Suite 	0	0

DISCOUNT 
Value 			  
Regular 		  
Classique 		  
Premium 		  
Regent 			  
Queen 		  
Gemini 		  
Family 		  
Executive Suite 	  
Mega Suite 		  


=== RESERVATIONS ===

Deposits:


Claimed:



SECURITY DEPOSITS

Deposits:
Claimed:


=== SALES BREAKDOWN ===

Transaction Date	Room No.	Cash	Card

2011-07-11 08:05:01 	318 		255 	0 	
2011-07-11 08:19:38 	311 		255 	0 	
2011-07-11 08:24:07 	312 		395 	0 	
2011-07-11 08:58:44 	322 		395 	0 	
2011-07-11 09:25:07 	310 		275 	0 	
2011-07-11 09:30:59 	306 		210 	0 	
2011-07-11 09:35:31 	403 		120 	0 	
2011-07-11 09:42:10 	314 		276 	0 	
2011-07-11 09:44:30 	411 		275 	0 	
2011-07-11 09:55:40 	307 		235 	0 	
2011-07-11 10:08:37 	414 		345 	0 	
2011-07-11 10:25:50 	414 		25 	0 	
2011-07-11 10:31:15 	324 		275 	0 	
2011-07-11 10:37:08 	315 		395 	0 	
2011-07-11 11:10:04 	302 		535 	0 	
2011-07-11 11:21:33 	313 		456 	0 	
2011-07-11 11:22:27 	418 		345 	0 	
2011-07-11 11:33:17 	409 		535 	0 	
2011-07-11 11:34:04 	408 		395 	0 	
2011-07-11 11:48:25 	219 		395 	0 	
2011-07-11 11:50:58 	414 		240 	0 	
2011-07-11 11:51:07 	418 		25 	0 	
2011-07-11 11:51:57 	218 		675 	0 	
2011-07-11 11:52:41 	206 		345 	0 	
2011-07-11 11:59:33 	220 		395 	0 	
2011-07-11 12:04:25 	417 		675 	0 	
2011-07-11 12:10:51 	205 		465 	0 	
2011-07-11 12:17:04 	204 		345 	0 	
2011-07-11 12:32:26 	411 		275 	0 	
2011-07-11 13:00:33 	203 		345 	0 	
2011-07-11 13:05:38 	211 		585 	0 	
2011-07-11 13:08:22 	202 		345 	0 	
2011-07-11 13:12:54 	202 		15 	0 	
2011-07-11 13:13:08 	302 		60 	0 	
2011-07-11 13:15:46 	309 		395 	0 	
2011-07-11 13:24:22 	417 		420 	0 	
2011-07-11 13:36:25 	312 		395 	0 	
2011-07-11 13:38:57 	308 		535 	0 	
2011-07-11 13:53:19 	219 		25 	0 	
2011-07-11 13:55:56 	319 		395 	0 	
2011-07-11 13:59:57 	317 		395 	0 	
2011-07-11 14:07:41 	315 		316 	0 	
2011-07-11 14:09:56 	207 		345 	0 	
2011-07-11 14:10:55 	307 		395 	0 	
2011-07-11 14:18:04 	304 		395 	0 	
2011-07-11 14:23:45 	321 		395 	0 	
2011-07-11 14:27:02 	412 		395 	0 	
2011-07-11 14:30:21 	407 		395 	0 	
2011-07-11 14:34:09 	322 		395 	0 	
2011-07-11 14:46:12 	220 		395 	0 	
2011-07-11 14:46:21 	221 		395 	0 	
2011-07-11 14:53:53 	320 		345 	0 	
2011-07-11 14:55:33 	321 		25 	0 	
2011-07-11 15:13:12 	311 		275 	0 	
2011-07-11 15:14:18 	401 		395 	0 	
2011-07-11 15:20:36 	408 		140 	0 	
2011-07-11 15:24:27 	402 		395 	0 	
2011-07-11 15:25:58 	404 		395 	0 	
2011-07-11 15:28:14 	313 		215 	0 	
2011-07-11 15:36:44 	409 		275 	0 	
2011-07-11 15:37:16 	405 		275 	0 	
2011-07-11 15:56:08 	219 		395 	0 	
 			Total:		20693 	0		

=== RECHIT LIST ===




V1