MSHOGUN 1: SHIFT END REPORT
Monday August 23, 2010 4:00:38 PM

SALES TRANSACTION
Room Sales Order			30860
FnB Sales Order			2000
Beer Sales Order			175
Misc Sales Order			20
Room Sales Adjustment			0
GROSS SALES			33055

DISCOUNT
Room				0
FnB				0
Misc				0

DEPOSIT				20850
REFUND				

TOTAL ACCOUNTABILITY			53905

CASH DECLARATION			2791
CARD				1345
FUNDS SAFEKEEP			30000
TOTAL CASH DECLARED			34136

TOTAL CASH ON SYSTEM			2791
OVER/SHORTAGES 			0

ROOM	 # OF CHECK-OUT	AMT
Value 		7	2665
Regular 		9	5265
Classique 		25	12855
Premium 		2	1500
Regent 		4	6025
Queen 		2	2550
Gemini 		0	0
Family 		0	0
Executive Suite 	0	0
Mega Suite 	0	0

DISCOUNT 
Value 			  
Regular 		  
Classique 		  
Premium 		  
Regent 			  
Queen 		  
Gemini 		  
Family 		  
Executive Suite 	  
Mega Suite 		  


=== RESERVATIONS ===

Deposits:


Claimed:



SECURITY DEPOSITS

Deposits:
Claimed:


=== SALES BREAKDOWN ===

Transaction Date	Room No.	Cash	Card

2010-08-23 08:04:56 	309 		395 	0 	
2010-08-23 08:10:51 	221 		25 	0 	
2010-08-23 08:16:39 	502 		100 	0 	
2010-08-23 08:48:51 	304 		160 	0 	
2010-08-23 08:50:55 	308 		395 	0 	
2010-08-23 08:52:19 	421 		395 	0 	
2010-08-23 09:07:36 	311 		275 	0 	
2010-08-23 09:31:44 	315 		25 	0 	
2010-08-23 09:41:37 	617 		850 	0 	
2010-08-23 09:46:39 	208 		275 	0 	
2010-08-23 10:15:00 	318 		465 	0 	
2010-08-23 10:18:30 	313 		535 	0 	
2010-08-23 10:28:07 	308 		90 	0 	
2010-08-23 10:38:02 	401 		395 	0 	
2010-08-23 10:49:17 	318 		380 	0 	
2010-08-23 10:56:34 	315 		395 	0 	
2010-08-23 11:09:17 	305 		275 	0 	
2010-08-23 11:10:52 	402 		395 	0 	
2010-08-23 11:23:38 	516 		525 	0 	
2010-08-23 11:25:31 	601 		850 	0 	
2010-08-23 11:27:53 	404 		395 	0 	
2010-08-23 11:28:29 	507 		800 	0 	
2010-08-23 11:30:46 	413 		395 	0 	
2010-08-23 11:49:50 	615 		1700 	0 	
2010-08-23 11:51:52 	412 		395 	0 	
2010-08-23 12:00:31 	407 		395 	0 	
2010-08-23 12:00:43 	408 		395 	0 	
2010-08-23 12:02:35 	609 		110 	0 	
2010-08-23 12:02:57 	414 		345 	0 	
2010-08-23 12:15:01 	310 		275 	0 	
2010-08-23 12:28:33 	417 		395 	0 	
2010-08-23 12:37:52 	608 		1700 	0 	
2010-08-23 12:49:14 	503 		800 	0 	
2010-08-23 12:51:35 	301 		395 	0 	
2010-08-23 12:52:40 	301 		135 	0 	
2010-08-23 12:55:06 	324 		275 	0 	
2010-08-23 12:57:04 	304 		395 	0 	
2010-08-23 13:08:07 	415 		395 	0 	
2010-08-23 13:11:40 	319 		395 	0 	
2010-08-23 13:25:16 	311 		385 	0 	
2010-08-23 13:26:06 	310 		210 	0 	
2010-08-23 13:29:48 	419 		395 	0 	
2010-08-23 13:30:16 	307 		395 	0 	
2010-08-23 13:42:02 	212 		275 	0 	
2010-08-23 13:42:54 	305 		275 	0 	
2010-08-23 13:42:56 	212 		20 	0 	
2010-08-23 13:45:31 	309 		395 	0 	
2010-08-23 13:45:44 	601 		435 	0 	
2010-08-23 14:07:02 	317 		395 	0 	
2010-08-23 14:08:46 	306 		395 	0 	
2010-08-23 14:10:16 	409 		395 	0 	
2010-08-23 14:17:15 	406 		395 	0 	
2010-08-23 14:26:06 	510 		1600 	0 	
2010-08-23 14:28:52 	519 		0 	700 	
2010-08-23 14:30:25 	421 		395 	0 	
2010-08-23 14:30:48 	312 		395 	0 	
2010-08-23 14:38:13 	209 		275 	0 	
2010-08-23 14:40:57 	609 		850 	0 	
2010-08-23 14:42:24 	302 		395 	0 	
2010-08-23 14:51:33 	303 		345 	0 	
2010-08-23 14:56:34 	315 		395 	0 	
2010-08-23 15:00:31 	419 		290 	0 	
2010-08-23 15:01:27 	416 		345 	0 	
2010-08-23 15:04:45 	402 		140 	0 	
2010-08-23 15:09:04 	221 		316 	0 	
2010-08-23 15:09:57 	408 		395 	0 	
2010-08-23 15:20:59 	407 		395 	0 	
2010-08-23 15:22:28 	404 		395 	0 	
2010-08-23 15:24:34 	412 		395 	0 	
2010-08-23 15:28:25 	414 		585 	0 	
2010-08-23 15:33:33 	407 		70 	0 	
2010-08-23 15:33:47 	306 		150 	0 	
2010-08-23 15:34:29 	413 		395 	0 	
2010-08-23 15:37:37 	418 		345 	0 	
2010-08-23 15:45:08 	415 		395 	0 	
2010-08-23 15:45:31 	423 		275 	0 	
2010-08-23 15:53:27 	502 		1600 	0 	
 			Total:		32791 	700		

=== RECHIT LIST ===




V1