MSHOGUN 1: SHIFT END REPORT
Wednesday February 29, 2012 4:00:26 PM

SALES TRANSACTION
Room Sales Order			35065
FnB Sales Order			2610
Beer Sales Order			435
Misc Sales Order			55
Room Sales Adjustment			0
GROSS SALES			38165

DISCOUNT
Room				0
FnB				0
Misc				0

DEPOSIT				12390
REFUND				

TOTAL ACCOUNTABILITY			50555

CASH DECLARATION			7510
CARD				1390
FUNDS SAFEKEEP			20000
TOTAL CASH DECLARED			28900

TOTAL CASH ON SYSTEM			7510
OVER/SHORTAGES 			0

ROOM	 # OF CHECK-OUT	AMT
Value 		7	3945
Regular 		20	9960
Classique 		40	21160
Premium 		0	0
Regent 		0	0
Queen 		0	0
Gemini 		0	0
Family 		0	0
Executive Suite 	0	0
Mega Suite 	0	0

DISCOUNT 
Value 			  
Regular 		  
Classique 		  
Premium 		  
Regent 			  
Queen 		  
Gemini 		  
Family 		  
Executive Suite 	  
Mega Suite 		  


=== RESERVATIONS ===

Deposits:


Claimed:



SECURITY DEPOSITS

Deposits:
Claimed:


=== SALES BREAKDOWN ===

Transaction Date	Room No.	Cash	Card

2012-02-29 08:16:54 	305 		430 	0 	
2012-02-29 08:19:13 	321 		275 	0 	
2012-02-29 08:20:16 	409 		405 	0 	
2012-02-29 08:34:20 	301 		395 	0 	
2012-02-29 08:35:17 	203 		345 	0 	
2012-02-29 08:40:27 	210 		110 	0 	
2012-02-29 09:06:58 	404 		395 	0 	
2012-02-29 09:32:03 	309 		395 	0 	
2012-02-29 10:18:35 	316 		276 	0 	
2012-02-29 10:18:52 	419 		395 	0 	
2012-02-29 10:33:36 	307 		395 	0 	
2012-02-29 10:35:04 	304 		395 	0 	
2012-02-29 10:46:45 	418 		276 	0 	
2012-02-29 10:49:03 	416 		345 	0 	
2012-02-29 10:50:37 	306 		395 	0 	
2012-02-29 11:00:00 	418 		15 	0 	
2012-02-29 11:11:41 	304 		75 	0 	
2012-02-29 11:12:40 	209 		275 	0 	
2012-02-29 11:31:23 	304 		415 	0 	
2012-02-29 11:55:45 	302 		316 	0 	
2012-02-29 12:01:49 	211 		345 	0 	
2012-02-29 12:08:00 	402 		395 	0 	
2012-02-29 12:08:52 	205 		345 	0 	
2012-02-29 12:09:49 	412 		395 	0 	
2012-02-29 12:12:17 	203 		345 	0 	
2012-02-29 12:13:54 	207 		345 	0 	
2012-02-29 12:28:58 	401 		395 	0 	
2012-02-29 12:34:03 	413 		395 	0 	
2012-02-29 12:37:47 	301 		395 	0 	
2012-02-29 12:43:13 	419 		370 	0 	
2012-02-29 12:45:07 	422 		395 	0 	
2012-02-29 12:55:17 	308 		395 	0 	
2012-02-29 13:00:19 	309 		395 	0 	
2012-02-29 13:09:15 	204 		345 	0 	
2012-02-29 13:09:21 	315 		395 	0 	
2012-02-29 13:11:46 	313 		395 	0 	
2012-02-29 13:18:29 	309 		165 	0 	
2012-02-29 13:29:27 	316 		345 	0 	
2012-02-29 13:30:24 	402 		440 	0 	
2012-02-29 13:39:00 	417 		395 	0 	
2012-02-29 13:39:36 	408 		395 	0 	
2012-02-29 13:44:47 	415 		395 	0 	
2012-02-29 13:44:59 	404 		395 	0 	
2012-02-29 13:45:13 	303 		345 	0 	
2012-02-29 13:55:00 	420 		345 	0 	
2012-02-29 14:04:18 	418 		705 	0 	
2012-02-29 14:05:50 	317 		395 	0 	
2012-02-29 14:07:35 	301 		340 	0 	
2012-02-29 14:08:08 	206 		276 	0 	
2012-02-29 14:08:17 	306 		395 	0 	
2012-02-29 14:11:27 	304 		395 	0 	
2012-02-29 14:14:12 	321 		395 	0 	
2012-02-29 14:15:54 	413 		395 	0 	
2012-02-29 14:18:39 	407 		395 	0 	
2012-02-29 14:29:15 	322 		395 	0 	
2012-02-29 14:30:10 	416 		345 	0 	
2012-02-29 14:32:56 	318 		345 	0 	
2012-02-29 14:36:54 	307 		395 	0 	
2012-02-29 14:54:08 	319 		395 	0 	
2012-02-29 14:57:12 	308 		395 	0 	
2012-02-29 14:59:26 	310 		275 	0 	
2012-02-29 15:02:57 	311 		275 	0 	
2012-02-29 15:09:27 	420 		145 	0 	
2012-02-29 15:15:24 	401 		395 	0 	
2012-02-29 15:18:02 	219 		316 	0 	
2012-02-29 15:18:56 	215 		345 	0 	
2012-02-29 15:19:11 	203 		465 	0 	
2012-02-29 15:21:14 	220 		395 	0 	
2012-02-29 15:30:14 	317 		675 	0 	
2012-02-29 15:38:42 	221 		395 	0 	
2012-02-29 15:43:44 	320 		345 	0 	
2012-02-29 15:44:35 	204 		705 	0 	
2012-02-29 15:45:58 	307 		395 	0 	
2012-02-29 15:51:28 	302 		535 	0 	
2012-02-29 15:52:12 	208 		275 	0 	
2012-02-29 15:52:23 	221 		25 	0 	
2012-02-29 15:56:59 	301 		0 	395 	
 			Total:		27510 	395		

=== RECHIT LIST ===




V1