MSHOGUN 1: SHIFT END REPORT
Friday March 04, 2011 4:05:13 PM

SALES TRANSACTION
Room Sales Order			22715
FnB Sales Order			860
Beer Sales Order			135
Misc Sales Order			25
Room Sales Adjustment			0
GROSS SALES			23735

DISCOUNT
Room				0
FnB				0
Misc				0

DEPOSIT				8620
REFUND				

TOTAL ACCOUNTABILITY			32355

CASH DECLARATION			9426
CARD				0
FUNDS SAFEKEEP			10000
TOTAL CASH DECLARED			19426

TOTAL CASH ON SYSTEM			9436
OVER/SHORTAGES 			-10

ROOM	 # OF CHECK-OUT	AMT
Value 		5	2015
Regular 		12	5340
Classique 		28	15360
Premium 		0	0
Regent 		0	0
Queen 		0	0
Gemini 		0	0
Family 		0	0
Executive Suite 	0	0
Mega Suite 	0	0

DISCOUNT 
Value 			  
Regular 		  
Classique 		  
Premium 		  
Regent 			  
Queen 		  
Gemini 		  
Family 		  
Executive Suite 	  
Mega Suite 		  


=== RESERVATIONS ===

Deposits:


Claimed:



SECURITY DEPOSITS

Deposits:
Claimed:


=== SALES BREAKDOWN ===

Transaction Date	Room No.	Cash	Card

2011-03-04 08:17:59 	207 		345 	0 	
2011-03-04 09:18:10 	313 		140 	0 	
2011-03-04 09:22:56 	215 		276 	0 	
2011-03-04 09:40:29 	218 		140 	0 	
2011-03-04 09:54:26 	309 		395 	0 	
2011-03-04 09:54:38 	307 		535 	0 	
2011-03-04 09:57:47 	303 		345 	0 	
2011-03-04 10:01:31 	205 		345 	0 	
2011-03-04 10:18:14 	208 		275 	0 	
2011-03-04 10:48:35 	213 		120 	0 	
2011-03-04 10:59:29 	403 		516 	0 	
2011-03-04 11:10:05 	423 		25 	0 	
2011-03-04 11:13:52 	412 		395 	0 	
2011-03-04 11:31:37 	401 		395 	0 	
2011-03-04 11:46:45 	407 		395 	0 	
2011-03-04 11:49:20 	306 		395 	0 	
2011-03-04 11:51:30 	304 		395 	0 	
2011-03-04 11:55:24 	301 		395 	0 	
2011-03-04 12:05:18 	402 		395 	0 	
2011-03-04 12:18:37 	209 		275 	0 	
2011-03-04 12:26:03 	319 		395 	0 	
2011-03-04 12:39:24 	321 		596 	0 	
2011-03-04 12:51:45 	317 		395 	0 	
2011-03-04 13:02:38 	314 		345 	0 	
2011-03-04 13:09:31 	412 		355 	0 	
2011-03-04 13:10:30 	212 		275 	0 	
2011-03-04 13:11:25 	320 		345 	0 	
2011-03-04 13:28:24 	406 		395 	0 	
2011-03-04 13:32:04 	404 		395 	0 	
2011-03-04 13:41:30 	316 		345 	0 	
2011-03-04 13:53:46 	303 		345 	0 	
2011-03-04 14:03:55 	206 		345 	0 	
2011-03-04 14:05:34 	303 		50 	0 	
2011-03-04 14:05:43 	210 		345 	0 	
2011-03-04 14:09:37 	302 		395 	0 	
2011-03-04 14:16:19 	211 		345 	0 	
2011-03-04 14:16:45 	317 		135 	0 	
2011-03-04 14:22:06 	207 		276 	0 	
2011-03-04 14:23:38 	318 		345 	0 	
2011-03-04 14:26:58 	204 		345 	0 	
2011-03-04 14:27:06 	213 		345 	0 	
2011-03-04 14:31:10 	208 		275 	0 	
2011-03-04 14:36:52 	205 		345 	0 	
2011-03-04 14:38:42 	215 		345 	0 	
2011-03-04 14:39:51 	203 		345 	0 	
2011-03-04 14:44:07 	202 		345 	0 	
2011-03-04 14:52:54 	211 		210 	0 	
2011-03-04 15:05:35 	301 		395 	0 	
2011-03-04 15:06:09 	205 		45 	0 	
2011-03-04 15:14:14 	214 		275 	0 	
2011-03-04 15:14:20 	201 		345 	0 	
2011-03-04 15:20:27 	219 		395 	0 	
2011-03-04 15:22:25 	220 		395 	0 	
2011-03-04 15:26:57 	307 		395 	0 	
2011-03-04 15:27:06 	308 		395 	0 	
2011-03-04 15:38:52 	409 		316 	0 	
2011-03-04 15:38:59 	218 		395 	0 	
2011-03-04 15:40:34 	221 		316 	0 	
2011-03-04 15:41:40 	221 		20 	0 	
 			Total:		19161 	0		

=== RECHIT LIST ===




V1