MSHOGUN 1: SHIFT END REPORT
Monday February 13, 2012 12:00:02 AM

SALES TRANSACTION
Room Sales Order			51780
FnB Sales Order			2580
Beer Sales Order			315
Misc Sales Order			40
Room Sales Adjustment			0
GROSS SALES			54715

DISCOUNT
Room				0
FnB				0
Misc				0

DEPOSIT				33785
REFUND				

TOTAL ACCOUNTABILITY			88500

CASH DECLARATION			6380
CARD				1580
FUNDS SAFEKEEP			50000
TOTAL CASH DECLARED			57960

TOTAL CASH ON SYSTEM			9513
OVER/SHORTAGES 			-3133

ROOM	 # OF CHECK-OUT	AMT
Value 		20	6700
Regular 		38	17790
Classique 		62	27290
Premium 		0	0
Regent 		0	0
Queen 		0	0
Gemini 		0	0
Family 		0	0
Executive Suite 	0	0
Mega Suite 	0	0

DISCOUNT 
Value 			  
Regular 		  
Classique 		  
Premium 		  
Regent 			  
Queen 		  
Gemini 		  
Family 		  
Executive Suite 	  
Mega Suite 		  


=== RESERVATIONS ===

Deposits:


Claimed:



SECURITY DEPOSITS

Deposits:
Claimed:


=== SALES BREAKDOWN ===

Transaction Date	Room No.	Cash	Card

2012-02-12 16:03:33 	303 		120 	0 	
2012-02-12 16:07:08 	201 		465 	0 	
2012-02-12 16:08:37 	318 		585 	0 	
2012-02-12 16:11:39 	409 		395 	0 	
2012-02-12 16:14:19 	301 		180 	0 	
2012-02-12 16:14:47 	207 		345 	0 	
2012-02-12 16:14:53 	303 		345 	0 	
2012-02-12 16:18:25 	414 		345 	0 	
2012-02-12 16:18:36 	415 		395 	0 	
2012-02-12 16:20:23 	214 		275 	0 	
2012-02-12 16:31:59 	309 		395 	0 	
2012-02-12 16:32:11 	219 		675 	0 	
2012-02-12 16:32:54 	218 		395 	0 	
2012-02-12 16:33:14 	213 		345 	0 	
2012-02-12 16:36:24 	403 		335 	0 	
2012-02-12 16:47:45 	208 		275 	0 	
2012-02-12 16:48:08 	220 		395 	0 	
2012-02-12 16:54:14 	306 		395 	0 	
2012-02-12 16:55:03 	403 		585 	0 	
2012-02-12 16:55:11 	319 		395 	0 	
2012-02-12 16:57:17 	411 		275 	0 	
2012-02-12 16:59:17 	204 		345 	0 	
2012-02-12 17:00:39 	212 		275 	0 	
2012-02-12 17:03:19 	408 		25 	0 	
2012-02-12 17:05:33 	301 		395 	0 	
2012-02-12 17:08:20 	313 		395 	0 	
2012-02-12 17:11:23 	302 		240 	0 	
2012-02-12 17:15:33 	407 		395 	0 	
2012-02-12 17:17:15 	401 		395 	0 	
2012-02-12 17:19:00 	402 		395 	0 	
2012-02-12 17:26:07 	422 		395 	0 	
2012-02-12 17:28:48 	423 		275 	0 	
2012-02-12 17:29:32 	418 		190 	0 	
2012-02-12 17:29:45 	408 		395 	0 	
2012-02-12 17:35:03 	210 		345 	0 	
2012-02-12 17:37:59 	304 		395 	0 	
2012-02-12 17:38:20 	315 		140 	0 	
2012-02-12 17:41:39 	215 		345 	0 	
2012-02-12 17:44:00 	322 		80 	0 	
2012-02-12 17:46:56 	304 		70 	0 	
2012-02-12 17:54:17 	417 		140 	0 	
2012-02-12 17:57:30 	412 		395 	0 	
2012-02-12 18:00:27 	407 		450 	0 	
2012-02-12 18:00:50 	312 		395 	0 	
2012-02-12 18:04:07 	322 		395 	0 	
2012-02-12 18:09:14 	314 		345 	0 	
2012-02-12 18:11:42 	317 		0 	395 	
2012-02-12 18:13:00 	414 		345 	0 	
2012-02-12 18:14:10 	315 		395 	0 	
2012-02-12 18:16:00 	416 		345 	0 	
2012-02-12 18:22:54 	324 		350 	0 	
2012-02-12 18:24:02 	203 		345 	0 	
2012-02-12 18:31:58 	309 		395 	0 	
2012-02-12 18:32:18 	211 		345 	0 	
2012-02-12 18:35:02 	218 		395 	0 	
2012-02-12 18:50:58 	321 		695 	0 	
2012-02-12 18:51:04 	307 		695 	0 	
2012-02-12 18:51:12 	415 		695 	0 	
2012-02-12 18:55:50 	302 		695 	0 	
2012-02-12 18:57:57 	220 		695 	0 	
2012-02-12 19:00:53 	419 		695 	0 	
2012-02-12 19:01:00 	421 		695 	0 	
2012-02-12 19:02:49 	404 		695 	0 	
2012-02-12 19:03:00 	207 		345 	0 	
2012-02-12 19:03:46 	205 		345 	0 	
2012-02-12 19:04:42 	211 		160 	0 	
2012-02-12 19:06:58 	407 		695 	0 	
2012-02-12 19:08:18 	406 		695 	0 	
2012-02-12 19:10:21 	323 		595 	0 	
2012-02-12 19:17:48 	413 		695 	0 	
2012-02-12 19:29:25 	308 		395 	0 	
2012-02-12 19:30:29 	206 		345 	0 	
2012-02-12 19:31:39 	420 		645 	0 	
2012-02-12 19:37:06 	213 		345 	0 	
2012-02-12 19:38:17 	302 		220 	0 	
2012-02-12 19:38:29 	412 		135 	0 	
2012-02-12 19:39:59 	424 		595 	0 	
2012-02-12 19:42:24 	218 		395 	0 	
2012-02-12 19:44:04 	219 		395 	0 	
2012-02-12 19:50:01 	319 		695 	0 	
2012-02-12 19:50:08 	303 		645 	0 	
2012-02-12 19:53:31 	320 		645 	0 	
2012-02-12 20:05:08 	218 		10 	0 	
2012-02-12 20:05:51 	301 		395 	0 	
2012-02-12 20:10:40 	418 		645 	0 	
2012-02-12 20:10:47 	306 		695 	0 	
2012-02-12 20:10:53 	208 		275 	0 	
2012-02-12 20:13:07 	324 		595 	0 	
2012-02-12 20:14:33 	319 		410 	0 	
2012-02-12 20:16:27 	204 		345 	0 	
2012-02-12 20:20:35 	405 		275 	0 	
2012-02-12 20:20:42 	205 		645 	0 	
2012-02-12 20:28:14 	423 		595 	0 	
2012-02-12 20:31:18 	409 		395 	0 	
2012-02-12 20:35:29 	402 		695 	0 	
2012-02-12 20:39:33 	416 		645 	0 	
2012-02-12 20:40:35 	215 		140 	0 	
2012-02-12 20:40:59 	215 		645 	0 	
2012-02-12 20:41:35 	401 		316 	0 	
2012-02-12 20:42:50 	322 		395 	0 	
2012-02-12 20:44:27 	408 		695 	0 	
2012-02-12 20:45:19 	304 		695 	0 	
2012-02-12 20:47:17 	415 		50 	0 	
2012-02-12 20:56:13 	212 		595 	0 	
2012-02-12 20:56:52 	221 		395 	0 	
2012-02-12 21:07:48 	422 		395 	0 	
2012-02-12 21:12:44 	317 		695 	0 	
2012-02-12 21:14:00 	313 		316 	0 	
2012-02-12 21:14:48 	301 		395 	0 	
2012-02-12 21:20:00 	419 		175 	0 	
2012-02-12 21:22:05 	308 		695 	0 	
2012-02-12 21:24:05 	213 		0 	645 	
2012-02-12 21:27:59 	301 		55 	0 	
2012-02-12 21:28:05 	308 		10 	0 	
2012-02-12 21:28:16 	204 		585 	0 	
2012-02-12 21:28:25 	414 		645 	0 	
2012-02-12 21:29:23 	309 		395 	0 	
2012-02-12 21:39:23 	210 		345 	0 	
2012-02-12 21:46:37 	308 		130 	0 	
2012-02-12 21:46:46 	216 		595 	0 	
2012-02-12 21:49:51 	206 		645 	0 	
2012-02-12 21:54:05 	315 		695 	0 	
2012-02-12 22:01:18 	313 		456 	0 	
2012-02-12 22:01:30 	318 		645 	0 	
2012-02-12 22:06:35 	305 		595 	0 	
2012-02-12 22:08:40 	218 		395 	0 	
2012-02-12 22:17:07 	214 		595 	0 	
2012-02-12 22:26:11 	211 		645 	0 	
2012-02-12 22:27:15 	308 		190 	0 	
2012-02-12 22:33:58 	205 		80 	0 	
2012-02-12 22:34:10 	316 		585 	0 	
2012-02-12 22:34:22 	316 		30 	0 	
2012-02-12 22:35:48 	401 		395 	0 	
2012-02-12 23:05:37 	219 		695 	0 	
2012-02-12 23:08:31 	217 		595 	0 	
2012-02-12 23:08:52 	312 		395 	0 	
2012-02-12 23:26:26 	412 		395 	0 	
2012-02-12 23:30:35 	422 		835 	0 	
2012-02-12 23:42:58 	322 		695 	0 	
2012-02-12 23:56:59 	403 		645 	0 	
2012-02-12 23:57:08 	314 		345 	0 	
 			Total:		59513 	1040		

=== RECHIT LIST ===




V1