MSHOGUN 1: SHIFT END REPORT
Wednesday February 15, 2012 12:00:01 AM

SALES TRANSACTION
Room Sales Order			35555
FnB Sales Order			1305
Beer Sales Order			650
Misc Sales Order			145
Room Sales Adjustment			360
GROSS SALES			38015

DISCOUNT
Room				0
FnB				0
Misc				0

DEPOSIT				41440
REFUND				

TOTAL ACCOUNTABILITY			79455

CASH DECLARATION			1861
CARD				0
FUNDS SAFEKEEP			60000
TOTAL CASH DECLARED			61861

TOTAL CASH ON SYSTEM			2250
OVER/SHORTAGES 			-389

ROOM	 # OF CHECK-OUT	AMT
Value 		12	3300
Regular 		23	10575
Classique 		56	22400
Premium 		0	0
Regent 		0	0
Queen 		0	0
Gemini 		0	0
Family 		0	0
Executive Suite 	0	0
Mega Suite 	0	0

DISCOUNT 
Value 			  
Regular 		  
Classique 		  
Premium 		  
Regent 			  
Queen 		  
Gemini 		  
Family 		  
Executive Suite 	  
Mega Suite 		  


=== RESERVATIONS ===

Deposits:


Claimed:



SECURITY DEPOSITS

Deposits:
Claimed:


=== SALES BREAKDOWN ===

Transaction Date	Room No.	Cash	Card

2012-02-14 16:08:49 	321 		395 	0 	
2012-02-14 16:09:15 	404 		395 	0 	
2012-02-14 16:10:08 	221 		395 	0 	
2012-02-14 16:10:55 	406 		395 	0 	
2012-02-14 16:19:16 	317 		485 	0 	
2012-02-14 16:40:33 	202 		345 	0 	
2012-02-14 16:57:13 	309 		316 	0 	
2012-02-14 17:01:15 	319 		395 	0 	
2012-02-14 17:01:29 	201 		345 	0 	
2012-02-14 17:05:29 	207 		345 	0 	
2012-02-14 17:13:30 	205 		345 	0 	
2012-02-14 17:23:55 	308 		395 	0 	
2012-02-14 17:30:27 	402 		395 	0 	
2012-02-14 17:54:43 	304 		316 	0 	
2012-02-14 18:01:17 	203 		345 	0 	
2012-02-14 18:04:18 	408 		695 	0 	
2012-02-14 18:04:24 	407 		695 	0 	
2012-02-14 18:09:39 	401 		395 	0 	
2012-02-14 18:19:36 	422 		395 	0 	
2012-02-14 18:21:00 	209 		275 	0 	
2012-02-14 18:22:13 	314 		276 	0 	
2012-02-14 18:24:08 	313 		395 	0 	
2012-02-14 18:27:14 	218 		375 	0 	
2012-02-14 18:31:27 	208 		275 	0 	
2012-02-14 18:34:40 	412 		395 	0 	
2012-02-14 18:35:46 	309 		316 	0 	
2012-02-14 18:42:03 	Lobby 		100 	0 	
2012-02-14 18:42:29 	409 		395 	0 	
2012-02-14 18:44:51 	301 		395 	0 	
2012-02-14 18:48:16 	302 		395 	0 	
2012-02-14 18:49:56 	419 		695 	0 	
2012-02-14 18:51:19 	307 		695 	0 	
2012-02-14 18:52:56 	421 		695 	0 	
2012-02-14 18:55:59 	312 		395 	0 	
2012-02-14 18:56:18 	404 		695 	0 	
2012-02-14 18:57:15 	309 		370 	0 	
2012-02-14 19:01:18 	306 		395 	0 	
2012-02-14 19:06:11 	214 		595 	0 	
2012-02-14 19:08:55 	310 		275 	0 	
2012-02-14 19:13:41 	313 		395 	0 	
2012-02-14 19:15:22 	406 		695 	0 	
2012-02-14 19:22:12 	413 		695 	0 	
2012-02-14 19:23:35 	410 		275 	0 	
2012-02-14 19:24:14 	218 		395 	0 	
2012-02-14 19:25:38 	415 		695 	0 	
2012-02-14 19:26:54 	318 		345 	0 	
2012-02-14 19:32:49 	411 		275 	0 	
2012-02-14 19:35:01 	420 		345 	0 	
2012-02-14 19:36:58 	405 		595 	0 	
2012-02-14 19:38:58 	317 		695 	0 	
2012-02-14 19:42:50 	403 		645 	0 	
2012-02-14 19:47:00 	318 		25 	0 	
2012-02-14 19:47:24 	221 		395 	0 	
2012-02-14 19:48:43 	315 		695 	0 	
2012-02-14 20:02:05 	305 		595 	0 	
2012-02-14 20:02:37 	211 		645 	0 	
2012-02-14 20:04:20 	323 		595 	0 	
2012-02-14 20:06:17 	419 		775 	0 	
2012-02-14 20:08:48 	319 		695 	0 	
2012-02-14 20:09:18 	219 		695 	0 	
2012-02-14 20:13:04 	411 		50 	0 	
2012-02-14 20:13:11 	221 		20 	0 	
2012-02-14 20:13:23 	412 		395 	0 	
2012-02-14 20:13:35 	412 		20 	0 	
2012-02-14 20:13:42 	416 		645 	0 	
2012-02-14 20:15:18 	213 		645 	0 	
2012-02-14 20:16:16 	220 		395 	0 	
2012-02-14 20:17:16 	322 		395 	0 	
2012-02-14 20:21:10 	417 		695 	0 	
2012-02-14 20:28:08 	324 		595 	0 	
2012-02-14 20:28:46 	207 		345 	0 	
2012-02-14 20:31:07 	423 		595 	0 	
2012-02-14 20:34:36 	210 		345 	0 	
2012-02-14 20:38:07 	210 		25 	0 	
2012-02-14 20:50:45 	412 		150 	0 	
2012-02-14 20:50:56 	315 		140 	0 	
2012-02-14 20:51:14 	321 		695 	0 	
2012-02-14 20:51:21 	202 		345 	0 	
2012-02-14 20:58:56 	204 		345 	0 	
2012-02-14 21:00:02 	409 		395 	0 	
2012-02-14 21:02:17 	302 		695 	0 	
2012-02-14 21:07:36 	418 		645 	0 	
2012-02-14 21:12:14 	316 		645 	0 	
2012-02-14 21:12:25 	308 		316 	0 	
2012-02-14 21:14:20 	320 		645 	0 	
2012-02-14 21:14:49 	208 		275 	0 	
2012-02-14 21:16:11 	402 		395 	0 	
2012-02-14 21:16:52 	201 		345 	0 	
2012-02-14 21:18:25 	414 		645 	0 	
2012-02-14 21:19:55 	424 		595 	0 	
2012-02-14 21:20:15 	212 		595 	0 	
2012-02-14 21:21:28 	215 		645 	0 	
2012-02-14 21:27:43 	401 		395 	0 	
2012-02-14 21:28:41 	312 		395 	0 	
2012-02-14 21:39:13 	314 		345 	0 	
2012-02-14 21:39:24 	304 		695 	0 	
2012-02-14 21:44:33 	205 		345 	0 	
2012-02-14 21:44:39 	216 		595 	0 	
2012-02-14 21:47:56 	420 		645 	0 	
2012-02-14 21:50:10 	409 		395 	0 	
2012-02-14 21:52:39 	206 		645 	0 	
2012-02-14 21:56:18 	321 		270 	0 	
2012-02-14 21:58:47 	217 		595 	0 	
2012-02-14 22:01:15 	301 		395 	0 	
2012-02-14 22:03:50 	422 		695 	0 	
2012-02-14 22:04:35 	401 		220 	0 	
2012-02-14 22:07:00 	318 		645 	0 	
2012-02-14 22:13:22 	303 		345 	0 	
2012-02-14 22:13:32 	306 		695 	0 	
2012-02-14 22:13:42 	313 		695 	0 	
2012-02-14 22:16:06 	415 		250 	0 	
2012-02-14 22:17:04 	218 		395 	0 	
2012-02-14 22:22:39 	209 		275 	0 	
2012-02-14 22:27:41 	311 		595 	0 	
2012-02-14 22:31:23 	402 		695 	0 	
2012-02-14 22:40:30 	410 		0 	575 	
2012-02-14 22:41:12 	411 		595 	0 	
2012-02-14 22:43:34 	310 		575 	0 	
2012-02-14 22:45:21 	205 		825 	0 	
2012-02-14 22:47:04 	319 		25 	0 	
2012-02-14 22:47:10 	304 		320 	0 	
2012-02-14 22:52:02 	312 		395 	0 	
2012-02-14 23:04:44 	204 		705 	0 	
2012-02-14 23:05:23 	202 		705 	0 	
2012-02-14 23:07:29 	411 		135 	0 	
2012-02-14 23:12:16 	209 		50 	0 	
2012-02-14 23:15:23 	322 		395 	0 	
2012-02-14 23:18:46 	307 		325 	0 	
2012-02-14 23:21:48 	207 		345 	0 	
2012-02-14 23:22:01 	204 		50 	0 	
2012-02-14 23:22:27 	309 		395 	0 	
2012-02-14 23:32:16 	210 		345 	0 	
2012-02-14 23:33:03 	422 		250 	0 	
2012-02-14 23:33:39 	412 		695 	0 	
2012-02-14 23:33:47 	221 		695 	0 	
2012-02-14 23:37:35 	202 		0 	645 	
2012-02-14 23:39:40 	421 		45 	0 	
2012-02-14 23:41:44 	220 		695 	0 	
2012-02-14 23:46:10 	401 		395 	0 	
2012-02-14 23:54:44 	218 		395 	0 	
2012-02-14 23:57:27 	203 		645 	0 	
 			Total:		62250 	1220		

=== RECHIT LIST ===




V1