MSHOGUN 1: SHIFT END REPORT
Saturday August 28, 2010 8:02:20 AM

SALES TRANSACTION
Room Sales Order			35245
FnB Sales Order			2523
Beer Sales Order			620
Misc Sales Order			40
Room Sales Adjustment			0
GROSS SALES			38428

DISCOUNT
Room				0
FnB				0
Misc				0

DEPOSIT				16450
REFUND				

TOTAL ACCOUNTABILITY			54878

CASH DECLARATION			9183
CARD				0
FUNDS SAFEKEEP			20000
TOTAL CASH DECLARED			29183

TOTAL CASH ON SYSTEM			8733
OVER/SHORTAGES 			450

ROOM	 # OF CHECK-OUT	AMT
Value 		11	6365
Regular 		21	11025
Classique 		17	9355
Premium 		5	3150
Regent 		4	4800
Queen 		1	550
Gemini 		0	0
Family 		0	0
Executive Suite 	0	0
Mega Suite 	0	0

DISCOUNT 
Value 			  
Regular 		  
Classique 		  
Premium 		  
Regent 			  
Queen 		  
Gemini 		  
Family 		  
Executive Suite 	  
Mega Suite 		  


=== RESERVATIONS ===

Deposits:


Claimed:



SECURITY DEPOSITS

Deposits:
Claimed:


=== SALES BREAKDOWN ===

Transaction Date	Room No.	Cash	Card

2010-08-28 00:06:31 	402 		120 	0 	
2010-08-28 00:08:40 	503 		800 	0 	
2010-08-28 00:08:48 	324 		575 	0 	
2010-08-28 00:10:42 	502 		800 	0 	
2010-08-28 00:10:49 	310 		575 	0 	
2010-08-28 00:15:58 	508 		90 	0 	
2010-08-28 00:21:21 	522 		750 	0 	
2010-08-28 00:22:15 	504 		800 	0 	
2010-08-28 00:23:05 	317 		675 	0 	
2010-08-28 00:25:16 	613 		2400 	0 	
2010-08-28 00:25:35 	506 		800 	0 	
2010-08-28 00:30:26 	418 		345 	0 	
2010-08-28 00:30:33 	319 		395 	0 	
2010-08-28 00:41:10 	407 		65 	0 	
2010-08-28 00:41:16 	502 		10 	0 	
2010-08-28 00:42:43 	501 		800 	0 	
2010-08-28 00:50:02 	505 		800 	0 	
2010-08-28 00:53:31 	202 		585 	0 	
2010-08-28 00:54:35 	520 		85 	0 	
2010-08-28 00:55:30 	616 		850 	0 	
2010-08-28 00:55:54 	309 		395 	0 	
2010-08-28 01:09:08 	201 		120 	0 	
2010-08-28 01:10:53 	204 		705 	0 	
2010-08-28 01:11:02 	609 		850 	0 	
2010-08-28 01:12:21 	310 		260 	0 	
2010-08-28 01:18:38 	413 		190 	0 	
2010-08-28 01:18:40 	413 		25 	0 	
2010-08-28 01:33:42 	601 		440 	0 	
2010-08-28 01:50:43 	502 		10 	0 	
2010-08-28 01:50:56 	302 		395 	0 	
2010-08-28 01:51:09 	316 		345 	0 	
2010-08-28 01:53:23 	617 		850 	0 	
2010-08-28 01:59:30 	210 		345 	0 	
2010-08-28 01:59:37 	422 		105 	0 	
2010-08-28 02:08:32 	201 		345 	0 	
2010-08-28 02:14:17 	322 		535 	0 	
2010-08-28 02:18:43 	322 		20 	0 	
2010-08-28 02:30:28 	409 		395 	0 	
2010-08-28 02:36:17 	405 		275 	0 	
2010-08-28 02:41:04 	508 		450 	0 	
2010-08-28 03:05:09 	309 		675 	0 	
2010-08-28 03:16:33 	418 		705 	0 	
2010-08-28 03:24:01 	215 		165 	0 	
2010-08-28 03:39:24 	615 		850 	0 	
2010-08-28 03:39:32 	416 		345 	0 	
2010-08-28 04:09:29 	502 		10 	0 	
2010-08-28 04:09:50 	612 		850 	0 	
2010-08-28 04:23:01 	210 		280 	0 	
2010-08-28 04:30:21 	308 		50 	0 	
2010-08-28 04:55:55 	210 		345 	0 	
2010-08-28 04:56:04 	311 		275 	0 	
2010-08-28 04:58:31 	501 		60 	0 	
2010-08-28 05:06:29 	302 		395 	0 	
2010-08-28 05:12:42 	612 		210 	0 	
2010-08-28 05:15:29 	604 		950 	0 	
2010-08-28 05:42:25 	213 		345 	0 	
2010-08-28 06:00:06 	323 		100 	0 	
2010-08-28 06:17:06 	215 		345 	0 	
2010-08-28 06:28:04 	319 		420 	0 	
2010-08-28 06:33:14 	207 		120 	0 	
2010-08-28 06:46:38 	215 		15 	0 	
2010-08-28 07:04:44 	603 		100 	0 	
2010-08-28 07:05:13 	221 		248 	0 	
2010-08-28 07:33:04 	324 		100 	0 	
2010-08-28 07:35:56 	508 		300 	0 	
2010-08-28 07:56:49 	602 		1100 	0 	
 			Total:		28733 	0		

=== RECHIT LIST ===




V1