MSHOGUN 1: SHIFT END REPORT
Monday March 05, 2012 12:00:19 AM

SALES TRANSACTION
Room Sales Order			46555
FnB Sales Order			1700
Beer Sales Order			0
Misc Sales Order			70
Room Sales Adjustment			0
GROSS SALES			48325

DISCOUNT
Room				0
FnB				0
Misc				0

DEPOSIT				35110
REFUND				

TOTAL ACCOUNTABILITY			83435

CASH DECLARATION			631
CARD				0
FUNDS SAFEKEEP			60000
TOTAL CASH DECLARED			60631

TOTAL CASH ON SYSTEM			631
OVER/SHORTAGES 			0

ROOM	 # OF CHECK-OUT	AMT
Value 		23	6825
Regular 		39	15495
Classique 		61	24235
Premium 		0	0
Regent 		0	0
Queen 		0	0
Gemini 		0	0
Family 		0	0
Executive Suite 	0	0
Mega Suite 	0	0

DISCOUNT 
Value 			  
Regular 		  
Classique 		  
Premium 		  
Regent 			  
Queen 		  
Gemini 		  
Family 		  
Executive Suite 	  
Mega Suite 		  


=== RESERVATIONS ===

Deposits:


Claimed:



SECURITY DEPOSITS

Deposits:
Claimed:


=== SALES BREAKDOWN ===

Transaction Date	Room No.	Cash	Card

2012-03-04 16:12:12 	321 		140 	0 	
2012-03-04 16:16:39 	212 		275 	0 	
2012-03-04 16:20:15 	205 		705 	0 	
2012-03-04 16:20:44 	301 		395 	0 	
2012-03-04 16:23:04 	403 		345 	0 	
2012-03-04 16:23:32 	211 		276 	0 	
2012-03-04 16:23:55 	318 		345 	0 	
2012-03-04 16:28:18 	312 		395 	0 	
2012-03-04 16:28:46 	418 		345 	0 	
2012-03-04 16:28:59 	213 		345 	0 	
2012-03-04 16:29:26 	321 		316 	0 	
2012-03-04 16:31:08 	310 		275 	0 	
2012-03-04 16:34:12 	301 		15 	0 	
2012-03-04 16:34:56 	422 		25 	0 	
2012-03-04 16:37:07 	305 		275 	0 	
2012-03-04 16:47:28 	219 		316 	0 	
2012-03-04 16:51:00 	220 		395 	0 	
2012-03-04 16:52:11 	208 		275 	0 	
2012-03-04 16:52:50 	216 		275 	0 	
2012-03-04 16:54:28 	424 		30 	0 	
2012-03-04 17:06:28 	202 		345 	0 	
2012-03-04 17:07:25 	308 		395 	0 	
2012-03-04 17:14:22 	204 		345 	0 	
2012-03-04 17:16:45 	203 		345 	0 	
2012-03-04 17:18:44 	316 		345 	0 	
2012-03-04 17:19:35 	303 		345 	0 	
2012-03-04 17:23:58 	313 		395 	0 	
2012-03-04 17:36:17 	309 		395 	0 	
2012-03-04 17:37:31 	301 		395 	0 	
2012-03-04 17:38:34 	407 		395 	0 	
2012-03-04 17:46:25 	209 		275 	0 	
2012-03-04 17:51:10 	210 		345 	0 	
2012-03-04 17:51:43 	416 		345 	0 	
2012-03-04 17:55:45 	214 		400 	0 	
2012-03-04 17:55:59 	422 		395 	0 	
2012-03-04 17:56:16 	420 		345 	0 	
2012-03-04 17:56:55 	413 		395 	0 	
2012-03-04 17:57:52 	306 		395 	0 	
2012-03-04 18:00:54 	317 		395 	0 	
2012-03-04 18:02:09 	320 		270 	0 	
2012-03-04 18:02:56 	212 		275 	0 	
2012-03-04 18:07:11 	408 		695 	0 	
2012-03-04 18:09:51 	401 		395 	0 	
2012-03-04 18:16:36 	423 		595 	0 	
2012-03-04 18:16:44 	323 		165 	0 	
2012-03-04 18:18:42 	421 		695 	0 	
2012-03-04 18:18:47 	419 		695 	0 	
2012-03-04 18:32:28 	221 		395 	0 	
2012-03-04 18:34:38 	415 		395 	0 	
2012-03-04 18:37:47 	410 		595 	0 	
2012-03-04 18:38:26 	207 		345 	0 	
2012-03-04 18:39:55 	322 		395 	0 	
2012-03-04 18:40:50 	404 		395 	0 	
2012-03-04 18:42:40 	417 		695 	0 	
2012-03-04 18:44:13 	302 		316 	0 	
2012-03-04 18:46:31 	215 		345 	0 	
2012-03-04 18:49:37 	217 		595 	0 	
2012-03-04 18:50:07 	218 		395 	0 	
2012-03-04 18:50:42 	220 		316 	0 	
2012-03-04 18:54:09 	409 		190 	0 	
2012-03-04 18:55:44 	405 		595 	0 	
2012-03-04 19:02:21 	311 		275 	0 	
2012-03-04 19:04:19 	204 		25 	0 	
2012-03-04 19:04:57 	406 		395 	0 	
2012-03-04 19:05:23 	402 		695 	0 	
2012-03-04 19:08:01 	307 		695 	0 	
2012-03-04 19:13:56 	216 		50 	0 	
2012-03-04 19:26:26 	319 		695 	0 	
2012-03-04 19:27:55 	403 		345 	0 	
2012-03-04 19:30:08 	315 		695 	0 	
2012-03-04 19:31:55 	412 		395 	0 	
2012-03-04 19:32:47 	304 		395 	0 	
2012-03-04 19:34:13 	417 		25 	0 	
2012-03-04 19:35:32 	308 		395 	0 	
2012-03-04 19:36:06 	202 		345 	0 	
2012-03-04 19:39:40 	321 		695 	0 	
2012-03-04 19:40:28 	214 		595 	0 	
2012-03-04 19:44:47 	212 		595 	0 	
2012-03-04 19:46:01 	318 		345 	0 	
2012-03-04 19:47:43 	418 		645 	0 	
2012-03-04 19:51:33 	324 		595 	0 	
2012-03-04 19:54:32 	312 		395 	0 	
2012-03-04 19:54:41 	203 		345 	0 	
2012-03-04 20:02:25 	316 		345 	0 	
2012-03-04 20:05:38 	402 		110 	0 	
2012-03-04 20:10:08 	414 		345 	0 	
2012-03-04 20:17:00 	305 		595 	0 	
2012-03-04 20:32:40 	409 		395 	0 	
2012-03-04 20:32:56 	406 		695 	0 	
2012-03-04 20:39:09 	317 		20 	0 	
2012-03-04 20:39:58 	306 		695 	0 	
2012-03-04 20:47:36 	216 		275 	0 	
2012-03-04 20:50:13 	313 		695 	0 	
2012-03-04 20:52:39 	401 		395 	0 	
2012-03-04 20:57:40 	416 		645 	0 	
2012-03-04 20:58:28 	213 		645 	0 	
2012-03-04 20:58:35 	424 		595 	0 	
2012-03-04 21:01:33 	305 		50 	0 	
2012-03-04 21:03:20 	303 		645 	0 	
2012-03-04 21:07:01 	301 		395 	0 	
2012-03-04 21:19:56 	309 		395 	0 	
2012-03-04 21:20:26 	401 		15 	0 	
2012-03-04 21:20:42 	323 		595 	0 	
2012-03-04 21:23:59 	317 		695 	0 	
2012-03-04 21:26:48 	307 		335 	0 	
2012-03-04 21:28:16 	210 		345 	0 	
2012-03-04 21:38:07 	308 		50 	0 	
2012-03-04 21:47:40 	209 		275 	0 	
2012-03-04 21:50:36 	205 		345 	0 	
2012-03-04 21:50:43 	304 		695 	0 	
2012-03-04 22:00:54 	321 		55 	0 	
2012-03-04 22:03:13 	219 		395 	0 	
2012-03-04 22:03:49 	314 		645 	0 	
2012-03-04 22:05:53 	318 		645 	0 	
2012-03-04 22:09:26 	407 		695 	0 	
2012-03-04 22:11:30 	208 		275 	0 	
2012-03-04 22:13:20 	302 		695 	0 	
2012-03-04 22:13:52 	220 		395 	0 	
2012-03-04 22:19:59 	404 		695 	0 	
2012-03-04 22:28:42 	413 		695 	0 	
2012-03-04 22:31:50 	422 		695 	0 	
2012-03-04 22:37:28 	218 		695 	0 	
2012-03-04 22:37:53 	405 		180 	0 	
2012-03-04 22:38:08 	315 		270 	0 	
2012-03-04 22:38:28 	316 		140 	0 	
2012-03-04 22:39:38 	420 		645 	0 	
2012-03-04 22:46:25 	215 		0 	645 	
2012-03-04 22:46:39 	204 		645 	0 	
2012-03-04 22:47:27 	415 		695 	0 	
2012-03-04 22:51:49 	420 		50 	0 	
2012-03-04 22:53:08 	409 		316 	0 	
2012-03-04 22:53:45 	414 		645 	0 	
2012-03-04 22:55:21 	412 		395 	0 	
2012-03-04 22:56:30 	401 		395 	0 	
2012-03-04 23:08:58 	403 		645 	0 	
2012-03-04 23:10:04 	322 		395 	0 	
2012-03-04 23:14:35 	211 		645 	0 	
2012-03-04 23:17:57 	216 		595 	0 	
2012-03-04 23:20:04 	221 		695 	0 	
2012-03-04 23:21:11 	316 		645 	0 	
2012-03-04 23:21:53 	206 		645 	0 	
2012-03-04 23:27:30 	316 		25 	0 	
2012-03-04 23:28:31 	203 		645 	0 	
2012-03-04 23:35:01 	202 		645 	0 	
2012-03-04 23:43:23 	320 		645 	0 	
2012-03-04 23:45:25 	218 		25 	0 	
 			Total:		60631 	645		

=== RECHIT LIST ===




V1