MSHOGUN 1: SHIFT END REPORT
Wednesday October 20, 2010 8:00:11 AM

SALES TRANSACTION
Room Sales Order			16995
FnB Sales Order			666
Beer Sales Order			360
Misc Sales Order			30
Room Sales Adjustment			0
GROSS SALES			18051

DISCOUNT
Room				0
FnB				0
Misc				0

DEPOSIT				3670
REFUND				

TOTAL ACCOUNTABILITY			21721

CASH DECLARATION			6230
CARD				695
FUNDS SAFEKEEP			0
TOTAL CASH DECLARED			6925

TOTAL CASH ON SYSTEM			7230
OVER/SHORTAGES 			-1000

ROOM	 # OF CHECK-OUT	AMT
Value 		7	3925
Regular 		3	1635
Classique 		21	11435
Premium 		0	0
Regent 		0	0
Queen 		0	0
Gemini 		0	0
Family 		0	0
Executive Suite 	0	0
Mega Suite 	0	0

DISCOUNT 
Value 			  
Regular 		  
Classique 		  
Premium 		  
Regent 			  
Queen 		  
Gemini 		  
Family 		  
Executive Suite 	  
Mega Suite 		  


=== RESERVATIONS ===

Deposits:


Claimed:



SECURITY DEPOSITS

Deposits:
Claimed:


=== SALES BREAKDOWN ===

Transaction Date	Room No.	Cash	Card

2010-10-20 00:10:21 	307 		0 	695 	
2010-10-20 00:31:56 	417 		695 	0 	
2010-10-20 00:45:00 	315 		395 	0 	
2010-10-20 00:58:31 	406 		695 	0 	
2010-10-20 01:47:42 	406 		65 	0 	
2010-10-20 01:58:29 	417 		150 	0 	
2010-10-20 02:03:07 	406 		25 	0 	
2010-10-20 02:54:45 	402 		395 	0 	
2010-10-20 02:59:35 	407 		395 	0 	
2010-10-20 03:02:01 	323 		675 	0 	
2010-10-20 03:12:12 	407 		180 	0 	
2010-10-20 04:00:08 	311 		480 	0 	
2010-10-20 04:06:08 	404 		395 	0 	
2010-10-20 04:20:03 	404 		50 	0 	
2010-10-20 04:24:22 	422 		395 	0 	
2010-10-20 04:52:27 	323 		250 	0 	
2010-10-20 05:13:52 	Lobby 		110 	0 	
2010-10-20 05:14:06 	419 		395 	0 	
2010-10-20 06:07:12 	406 		50 	0 	
2010-10-20 06:19:25 	424 		30 	0 	
2010-10-20 06:30:36 	416 		345 	0 	
2010-10-20 06:45:56 	407 		140 	0 	
2010-10-20 07:01:51 	409 		395 	0 	
2010-10-20 07:02:07 	410 		375 	0 	
2010-10-20 07:14:39 	313 		25 	0 	
2010-10-20 07:38:26 	410 		125 	0 	
 			Total:		7230 	695		

=== RECHIT LIST ===




V1