MSHOGUN 1: SHIFT END REPORT
Tuesday December 06, 2011 12:00:01 AM

SALES TRANSACTION
Room Sales Order			33325
FnB Sales Order			1855
Beer Sales Order			340
Misc Sales Order			30
Room Sales Adjustment			0
GROSS SALES			35550

DISCOUNT
Room				0
FnB				0
Misc				0

DEPOSIT				32410
REFUND				

TOTAL ACCOUNTABILITY			67960

CASH DECLARATION			7763
CARD				535
FUNDS SAFEKEEP			50000
TOTAL CASH DECLARED			58298

TOTAL CASH ON SYSTEM			7743
OVER/SHORTAGES 			20

ROOM	 # OF CHECK-OUT	AMT
Value 		6	1650
Regular 		22	8550
Classique 		55	23125
Premium 		0	0
Regent 		0	0
Queen 		0	0
Gemini 		0	0
Family 		0	0
Executive Suite 	0	0
Mega Suite 	0	0

DISCOUNT 
Value 			  
Regular 		  
Classique 		  
Premium 		  
Regent 			  
Queen 		  
Gemini 		  
Family 		  
Executive Suite 	  
Mega Suite 		  


=== RESERVATIONS ===

Deposits:


Claimed:



SECURITY DEPOSITS

Deposits:
Claimed:


=== SALES BREAKDOWN ===

Transaction Date	Room No.	Cash	Card

2011-12-05 16:04:38 	310 		275 	0 	
2011-12-05 16:06:06 	218 		316 	0 	
2011-12-05 16:07:30 	419 		395 	0 	
2011-12-05 16:08:02 	219 		395 	0 	
2011-12-05 16:12:45 	301 		395 	0 	
2011-12-05 16:13:55 	220 		395 	0 	
2011-12-05 16:15:50 	314 		345 	0 	
2011-12-05 16:26:24 	316 		345 	0 	
2011-12-05 16:26:42 	308 		395 	0 	
2011-12-05 16:28:41 	404 		395 	0 	
2011-12-05 16:32:43 	320 		465 	0 	
2011-12-05 16:35:18 	408 		395 	0 	
2011-12-05 16:45:41 	312 		395 	0 	
2011-12-05 16:48:10 	321 		395 	0 	
2011-12-05 16:52:38 	317 		395 	0 	
2011-12-05 16:55:35 	423 		275 	0 	
2011-12-05 16:55:55 	416 		705 	0 	
2011-12-05 17:03:05 	401 		220 	0 	
2011-12-05 17:11:58 	221 		395 	0 	
2011-12-05 17:13:57 	322 		140 	0 	
2011-12-05 17:16:33 	313 		395 	0 	
2011-12-05 17:27:42 	403 		345 	0 	
2011-12-05 17:27:56 	309 		395 	0 	
2011-12-05 17:30:04 	415 		395 	0 	
2011-12-05 17:36:28 	414 		110 	0 	
2011-12-05 17:36:44 	406 		150 	0 	
2011-12-05 17:41:52 	319 		395 	0 	
2011-12-05 17:42:04 	422 		395 	0 	
2011-12-05 17:46:55 	407 		395 	0 	
2011-12-05 17:58:02 	421 		395 	0 	
2011-12-05 18:05:50 	408 		375 	0 	
2011-12-05 18:18:46 	302 		395 	0 	
2011-12-05 18:26:58 	307 		395 	0 	
2011-12-05 18:28:30 	306 		395 	0 	
2011-12-05 18:28:45 	316 		345 	0 	
2011-12-05 18:29:02 	303 		345 	0 	
2011-12-05 18:29:11 	221 		395 	0 	
2011-12-05 18:29:49 	318 		345 	0 	
2011-12-05 18:36:02 	206 		345 	0 	
2011-12-05 18:36:22 	418 		345 	0 	
2011-12-05 18:36:42 	420 		345 	0 	
2011-12-05 18:44:48 	211 		345 	0 	
2011-12-05 18:51:21 	414 		645 	0 	
2011-12-05 18:59:01 	304 		395 	0 	
2011-12-05 18:59:10 	312 		395 	0 	
2011-12-05 19:01:59 	304 		50 	0 	
2011-12-05 19:03:32 	214 		595 	0 	
2011-12-05 19:06:26 	215 		585 	0 	
2011-12-05 19:13:53 	213 		345 	0 	
2011-12-05 19:14:16 	408 		695 	0 	
2011-12-05 19:16:46 	412 		395 	0 	
2011-12-05 19:17:14 	424 		595 	0 	
2011-12-05 19:22:34 	423 		595 	0 	
2011-12-05 19:22:45 	207 		345 	0 	
2011-12-05 19:23:40 	210 		276 	0 	
2011-12-05 19:24:40 	405 		595 	0 	
2011-12-05 19:25:10 	323 		595 	0 	
2011-12-05 19:32:36 	315 		395 	0 	
2011-12-05 19:40:12 	401 		395 	0 	
2011-12-05 19:40:21 	321 		395 	0 	
2011-12-05 19:41:12 	322 		395 	0 	
2011-12-05 19:42:38 	417 		695 	0 	
2011-12-05 19:43:08 	401 		50 	0 	
2011-12-05 19:43:30 	324 		595 	0 	
2011-12-05 19:46:37 	408 		130 	0 	
2011-12-05 19:51:34 	305 		595 	0 	
2011-12-05 19:51:48 	314 		645 	0 	
2011-12-05 19:53:03 	317 		695 	0 	
2011-12-05 19:54:05 	409 		395 	0 	
2011-12-05 19:58:11 	404 		695 	0 	
2011-12-05 20:04:27 	411 		595 	0 	
2011-12-05 20:15:42 	310 		275 	0 	
2011-12-05 20:17:38 	322 		185 	0 	
2011-12-05 20:18:46 	221 		320 	0 	
2011-12-05 20:19:11 	216 		595 	0 	
2011-12-05 20:26:25 	204 		345 	0 	
2011-12-05 20:26:33 	402 		695 	0 	
2011-12-05 20:26:51 	309 		395 	0 	
2011-12-05 20:27:09 	202 		345 	0 	
2011-12-05 20:28:55 	203 		276 	0 	
2011-12-05 20:30:49 	319 		695 	0 	
2011-12-05 20:35:58 	308 		535 	0 	
2011-12-05 20:36:10 	313 		395 	0 	
2011-12-05 20:38:23 	419 		695 	0 	
2011-12-05 20:43:22 	422 		395 	0 	
2011-12-05 20:43:35 	406 		395 	0 	
2011-12-05 20:46:03 	407 		395 	0 	
2011-12-05 20:52:05 	403 		705 	0 	
2011-12-05 20:55:53 	415 		695 	0 	
2011-12-05 20:58:27 	421 		695 	0 	
2011-12-05 21:00:04 	320 		645 	0 	
2011-12-05 21:00:42 	413 		695 	0 	
2011-12-05 21:02:11 	304 		695 	0 	
2011-12-05 21:04:23 	322 		395 	0 	
2011-12-05 21:08:40 	410 		575 	0 	
2011-12-05 21:11:11 	218 		695 	0 	
2011-12-05 21:13:05 	307 		395 	0 	
2011-12-05 21:20:10 	212 		595 	0 	
2011-12-05 21:29:07 	322 		180 	0 	
2011-12-05 21:30:27 	301 		395 	0 	
2011-12-05 21:31:58 	407 		205 	0 	
2011-12-05 21:32:36 	403 		260 	0 	
2011-12-05 21:34:22 	220 		395 	0 	
2011-12-05 21:36:41 	311 		595 	0 	
2011-12-05 21:39:16 	218 		210 	0 	
2011-12-05 21:50:51 	219 		695 	0 	
2011-12-05 21:53:50 	302 		695 	0 	
2011-12-05 21:53:58 	321 		695 	0 	
2011-12-05 21:55:04 	418 		645 	0 	
2011-12-05 21:55:37 	408 		340 	0 	
2011-12-05 22:01:57 	312 		395 	0 	
2011-12-05 22:08:48 	412 		395 	0 	
2011-12-05 22:14:22 	310 		595 	0 	
2011-12-05 22:14:42 	221 		395 	0 	
2011-12-05 22:29:53 	209 		275 	0 	
2011-12-05 22:31:32 	306 		695 	0 	
2011-12-05 22:35:30 	303 		645 	0 	
2011-12-05 22:44:24 	422 		395 	0 	
2011-12-05 22:48:35 	316 		645 	0 	
2011-12-05 22:50:18 	211 		645 	0 	
2011-12-05 23:00:35 	317 		185 	0 	
2011-12-05 23:00:51 	313 		695 	0 	
2011-12-05 23:11:32 	315 		695 	0 	
2011-12-05 23:14:25 	407 		695 	0 	
2011-12-05 23:18:33 	206 		345 	0 	
2011-12-05 23:21:19 	316 		190 	0 	
2011-12-05 23:33:52 	213 		645 	0 	
2011-12-05 23:34:21 	208 		595 	0 	
2011-12-05 23:43:53 	420 		645 	0 	
 			Total:		57743 	0		

=== RECHIT LIST ===




V1