MSHOGUN 1: SHIFT END REPORT
Tuesday November 16, 2010 4:01:38 PM

SALES TRANSACTION
Room Sales Order			36415
FnB Sales Order			2265
Beer Sales Order			510
Misc Sales Order			225
Room Sales Adjustment			0
GROSS SALES			39415

DISCOUNT
Room				0
FnB				0
Misc				0

DEPOSIT				19045
REFUND				

TOTAL ACCOUNTABILITY			58460

CASH DECLARATION			319
CARD				0
FUNDS SAFEKEEP			40000
TOTAL CASH DECLARED			40319

TOTAL CASH ON SYSTEM			319
OVER/SHORTAGES 			0

ROOM	 # OF CHECK-OUT	AMT
Value 		15	5925
Regular 		22	10410
Classique 		36	20080
Premium 		0	0
Regent 		0	0
Queen 		0	0
Gemini 		0	0
Family 		0	0
Executive Suite 	0	0
Mega Suite 	0	0

DISCOUNT 
Value 			  
Regular 		  
Classique 		  
Premium 		  
Regent 			  
Queen 		  
Gemini 		  
Family 		  
Executive Suite 	  
Mega Suite 		  


=== RESERVATIONS ===

Deposits:


Claimed:



SECURITY DEPOSITS

Deposits:
Claimed:


=== SALES BREAKDOWN ===

Transaction Date	Room No.	Cash	Card

2010-11-16 08:05:37 	304 		395 	0 	
2010-11-16 08:06:29 	320 		345 	0 	
2010-11-16 08:10:21 	Lobby 		280 	0 	
2010-11-16 08:13:22 	401 		140 	0 	
2010-11-16 08:35:46 	321 		395 	0 	
2010-11-16 09:06:59 	318 		345 	0 	
2010-11-16 09:17:12 	204 		240 	0 	
2010-11-16 09:19:51 	417 		530 	0 	
2010-11-16 09:21:35 	305 		160 	0 	
2010-11-16 09:29:31 	311 		275 	0 	
2010-11-16 09:43:41 	319 		395 	0 	
2010-11-16 09:48:14 	312 		395 	0 	
2010-11-16 10:20:47 	409 		395 	0 	
2010-11-16 10:31:58 	408 		395 	0 	
2010-11-16 10:33:43 	307 		190 	0 	
2010-11-16 10:34:49 	402 		395 	0 	
2010-11-16 10:37:12 	316 		345 	0 	
2010-11-16 10:39:35 	211 		345 	0 	
2010-11-16 10:42:31 	210 		345 	0 	
2010-11-16 10:52:43 	417 		395 	0 	
2010-11-16 10:54:07 	214 		275 	0 	
2010-11-16 10:58:27 	215 		345 	0 	
2010-11-16 11:00:18 	213 		705 	0 	
2010-11-16 11:02:26 	413 		140 	0 	
2010-11-16 11:07:18 	202 		345 	0 	
2010-11-16 11:12:53 	203 		585 	0 	
2010-11-16 11:24:33 	313 		316 	0 	
2010-11-16 11:25:52 	404 		395 	0 	
2010-11-16 11:32:13 	305 		275 	0 	
2010-11-16 11:42:49 	417 		270 	0 	
2010-11-16 11:46:26 	421 		395 	0 	
2010-11-16 11:51:51 	303 		705 	0 	
2010-11-16 12:02:40 	324 		275 	0 	
2010-11-16 12:04:12 	206 		705 	0 	
2010-11-16 12:07:46 	414 		705 	0 	
2010-11-16 12:07:54 	304 		395 	0 	
2010-11-16 12:13:26 	320 		120 	0 	
2010-11-16 12:15:26 	317 		395 	0 	
2010-11-16 12:19:57 	218 		316 	0 	
2010-11-16 12:24:01 	406 		395 	0 	
2010-11-16 12:27:47 	201 		585 	0 	
2010-11-16 12:28:36 	323 		275 	0 	
2010-11-16 12:35:10 	407 		420 	0 	
2010-11-16 12:37:20 	217 		275 	0 	
2010-11-16 12:46:21 	309 		395 	0 	
2010-11-16 12:50:25 	207 		345 	0 	
2010-11-16 12:50:46 	412 		395 	0 	
2010-11-16 12:52:41 	302 		395 	0 	
2010-11-16 13:01:05 	416 		276 	0 	
2010-11-16 13:02:44 	311 		275 	0 	
2010-11-16 13:02:52 	306 		395 	0 	
2010-11-16 13:13:04 	307 		395 	0 	
2010-11-16 13:21:06 	320 		705 	0 	
2010-11-16 13:32:56 	321 		395 	0 	
2010-11-16 13:33:33 	204 		705 	0 	
2010-11-16 13:40:36 	322 		395 	0 	
2010-11-16 13:48:30 	318 		345 	0 	
2010-11-16 13:55:13 	316 		345 	0 	
2010-11-16 13:55:56 	208 		275 	0 	
2010-11-16 13:58:42 	209 		275 	0 	
2010-11-16 13:58:53 	420 		345 	0 	
2010-11-16 14:06:57 	210 		345 	0 	
2010-11-16 14:10:55 	408 		395 	0 	
2010-11-16 14:12:00 	418 		345 	0 	
2010-11-16 14:17:19 	211 		345 	0 	
2010-11-16 14:17:30 	312 		140 	0 	
2010-11-16 14:18:15 	409 		395 	0 	
2010-11-16 14:18:26 	310 		275 	0 	
2010-11-16 14:22:29 	402 		395 	0 	
2010-11-16 14:22:50 	316 		90 	0 	
2010-11-16 14:24:47 	407 		395 	0 	
2010-11-16 14:26:46 	301 		395 	0 	
2010-11-16 14:28:05 	221 		395 	0 	
2010-11-16 14:28:55 	319 		395 	0 	
2010-11-16 14:29:14 	417 		395 	0 	
2010-11-16 14:31:29 	213 		65 	0 	
2010-11-16 14:32:10 	314 		585 	0 	
2010-11-16 14:39:17 	212 		275 	0 	
2010-11-16 14:44:56 	419 		395 	0 	
2010-11-16 14:54:45 	415 		395 	0 	
2010-11-16 14:58:48 	215 		345 	0 	
2010-11-16 14:59:21 	409 		140 	0 	
2010-11-16 14:59:40 	301 		495 	0 	
2010-11-16 14:59:57 	404 		395 	0 	
2010-11-16 15:01:14 	412 		395 	0 	
2010-11-16 15:02:01 	422 		395 	0 	
2010-11-16 15:04:02 	315 		395 	0 	
2010-11-16 15:07:32 	313 		140 	0 	
2010-11-16 15:14:09 	202 		345 	0 	
2010-11-16 15:16:02 	317 		395 	0 	
2010-11-16 15:19:43 	403 		345 	0 	
2010-11-16 15:20:56 	421 		395 	0 	
2010-11-16 15:21:46 	312 		395 	0 	
2010-11-16 15:23:20 	205 		345 	0 	
2010-11-16 15:27:51 	318 		345 	0 	
2010-11-16 15:28:45 	219 		395 	0 	
2010-11-16 15:29:18 	313 		395 	0 	
2010-11-16 15:32:23 	414 		705 	0 	
2010-11-16 15:34:20 	406 		395 	0 	
2010-11-16 15:34:52 	220 		395 	0 	
2010-11-16 15:36:16 	307 		340 	0 	
2010-11-16 15:41:26 	401 		395 	0 	
2010-11-16 15:42:06 	203 		345 	0 	
2010-11-16 15:42:21 	323 		275 	0 	
2010-11-16 15:43:53 	207 		345 	0 	
2010-11-16 15:45:01 	413 		395 	0 	
2010-11-16 15:46:26 	420 		276 	0 	
2010-11-16 15:46:59 	324 		275 	0 	
2010-11-16 15:56:10 	420 		20 	0 	
2010-11-16 15:58:29 	416 		345 	0 	
2010-11-16 15:59:53 	311 		375 	0 	
 			Total:		40319 	0		

=== RECHIT LIST ===




V1