MSHOGUN 1: SHIFT END REPORT
Sunday February 19, 2012 8:02:30 AM

SALES TRANSACTION
Room Sales Order			34570
FnB Sales Order			2495
Beer Sales Order			250
Misc Sales Order			40
Room Sales Adjustment			0
GROSS SALES			37355

DISCOUNT
Room				0
FnB				0
Misc				0

DEPOSIT				3770
REFUND				

TOTAL ACCOUNTABILITY			41125

CASH DECLARATION			2161
CARD				1190
FUNDS SAFEKEEP			10000
TOTAL CASH DECLARED			13351

TOTAL CASH ON SYSTEM			2171
OVER/SHORTAGES 			-10

ROOM	 # OF CHECK-OUT	AMT
Value 		17	8915
Regular 		11	6975
Classique 		32	18680
Premium 		0	0
Regent 		0	0
Queen 		0	0
Gemini 		0	0
Family 		0	0
Executive Suite 	0	0
Mega Suite 	0	0

DISCOUNT 
Value 			  
Regular 		  
Classique 		  
Premium 		  
Regent 			  
Queen 		  
Gemini 		  
Family 		  
Executive Suite 	  
Mega Suite 		  


=== RESERVATIONS ===

Deposits:


Claimed:



SECURITY DEPOSITS

Deposits:
Claimed:


=== SALES BREAKDOWN ===

Transaction Date	Room No.	Cash	Card

2012-02-19 00:08:58 	322 		695 	0 	
2012-02-19 00:10:35 	303 		50 	0 	
2012-02-19 00:51:51 	401 		285 	0 	
2012-02-19 01:10:11 	221 		695 	0 	
2012-02-19 01:37:37 	309 		695 	0 	
2012-02-19 02:11:50 	301 		695 	0 	
2012-02-19 02:29:56 	412 		316 	0 	
2012-02-19 02:38:04 	409 		395 	0 	
2012-02-19 02:38:54 	209 		100 	0 	
2012-02-19 02:42:34 	312 		395 	0 	
2012-02-19 02:45:38 	209 		275 	0 	
2012-02-19 03:41:30 	323 		50 	0 	
2012-02-19 03:50:40 	210 		345 	0 	
2012-02-19 03:58:49 	411 		275 	0 	
2012-02-19 04:13:30 	414 		230 	0 	
2012-02-19 04:21:34 	217 		25 	0 	
2012-02-19 04:25:18 	307 		240 	0 	
2012-02-19 04:48:59 	208 		275 	0 	
2012-02-19 04:57:30 	307 		25 	0 	
2012-02-19 05:06:28 	307 		815 	0 	
2012-02-19 05:07:10 	401 		395 	0 	
2012-02-19 05:19:05 	414 		705 	0 	
2012-02-19 05:49:04 	312 		395 	0 	
2012-02-19 06:04:25 	415 		395 	0 	
2012-02-19 06:04:36 	412 		395 	0 	
2012-02-19 06:04:57 	319 		395 	0 	
2012-02-19 06:05:19 	207 		120 	0 	
2012-02-19 06:18:30 	324 		510 	0 	
2012-02-19 06:25:40 	410 		270 	0 	
2012-02-19 06:28:36 	312 		50 	0 	
2012-02-19 06:33:46 	209 		275 	0 	
2012-02-19 06:42:27 	401 		50 	0 	
2012-02-19 06:44:38 	302 		50 	0 	
2012-02-19 07:13:14 	418 		345 	0 	
2012-02-19 07:26:19 	413 		140 	0 	
2012-02-19 07:38:59 	220 		280 	0 	
2012-02-19 07:52:10 	217 		275 	0 	
2012-02-19 07:58:35 	421 		250 	0 	
 			Total:		12171 	0		

=== RECHIT LIST ===




V1