MSHOGUN 1: SHIFT END REPORT
Monday January 30, 2012 4:00:01 PM

SALES TRANSACTION
Room Sales Order			23465
FnB Sales Order			1885
Beer Sales Order			135
Misc Sales Order			25
Room Sales Adjustment			0
GROSS SALES			25510

DISCOUNT
Room				0
FnB				0
Misc				0

DEPOSIT				7610
REFUND				

TOTAL ACCOUNTABILITY			33120

CASH DECLARATION			8993
CARD				1240
FUNDS SAFEKEEP			10000
TOTAL CASH DECLARED			20233

TOTAL CASH ON SYSTEM			8993
OVER/SHORTAGES 			0

ROOM	 # OF CHECK-OUT	AMT
Value 		12	5640
Regular 		12	6240
Classique 		23	11585
Premium 		0	0
Regent 		0	0
Queen 		0	0
Gemini 		0	0
Family 		0	0
Executive Suite 	0	0
Mega Suite 	0	0

DISCOUNT 
Value 			  
Regular 		  
Classique 		  
Premium 		  
Regent 			  
Queen 		  
Gemini 		  
Family 		  
Executive Suite 	  
Mega Suite 		  


=== RESERVATIONS ===

Deposits:


Claimed:



SECURITY DEPOSITS

Deposits:
Claimed:


=== SALES BREAKDOWN ===

Transaction Date	Room No.	Cash	Card

2012-01-30 08:11:31 	319 		395 	0 	
2012-01-30 08:25:06 	302 		210 	0 	
2012-01-30 08:46:34 	311 		375 	0 	
2012-01-30 09:02:13 	314 		660 	0 	
2012-01-30 09:03:41 	407 		316 	0 	
2012-01-30 09:08:34 	213 		110 	0 	
2012-01-30 09:43:06 	413 		215 	0 	
2012-01-30 10:12:46 	418 		276 	0 	
2012-01-30 10:13:07 	209 		275 	0 	
2012-01-30 10:21:02 	412 		395 	0 	
2012-01-30 10:40:44 	406 		395 	0 	
2012-01-30 10:55:09 	402 		420 	0 	
2012-01-30 11:01:38 	423 		275 	0 	
2012-01-30 11:02:08 	424 		275 	0 	
2012-01-30 11:05:25 	407 		60 	0 	
2012-01-30 11:12:05 	403 		345 	0 	
2012-01-30 11:17:32 	404 		140 	0 	
2012-01-30 11:35:28 	414 		345 	0 	
2012-01-30 11:47:19 	415 		395 	0 	
2012-01-30 11:55:04 	324 		275 	0 	
2012-01-30 12:02:50 	420 		345 	0 	
2012-01-30 12:09:51 	417 		395 	0 	
2012-01-30 12:21:40 	409 		395 	0 	
2012-01-30 12:39:22 	408 		395 	0 	
2012-01-30 12:45:50 	206 		585 	0 	
2012-01-30 13:01:49 	419 		395 	0 	
2012-01-30 13:06:11 	407 		140 	0 	
2012-01-30 13:09:57 	421 		395 	0 	
2012-01-30 13:10:08 	301 		395 	0 	
2012-01-30 13:10:27 	307 		395 	0 	
2012-01-30 13:10:33 	304 		395 	0 	
2012-01-30 13:18:43 	302 		395 	0 	
2012-01-30 13:21:30 	309 		395 	0 	
2012-01-30 13:23:45 	312 		316 	0 	
2012-01-30 13:30:03 	205 		345 	0 	
2012-01-30 13:30:13 	319 		395 	0 	
2012-01-30 13:32:59 	315 		395 	0 	
2012-01-30 13:34:36 	317 		395 	0 	
2012-01-30 13:43:46 	309 		65 	0 	
2012-01-30 13:49:21 	321 		395 	0 	
2012-01-30 13:49:34 	322 		395 	0 	
2012-01-30 13:53:49 	308 		395 	0 	
2012-01-30 13:58:18 	218 		395 	0 	
2012-01-30 14:03:52 	308 		40 	0 	
2012-01-30 14:06:01 	203 		345 	0 	
2012-01-30 14:08:14 	205 		270 	0 	
2012-01-30 14:35:40 	405 		475 	0 	
2012-01-30 14:39:24 	316 		345 	0 	
2012-01-30 14:39:30 	208 		275 	0 	
2012-01-30 14:43:19 	208 		50 	0 	
2012-01-30 14:57:00 	323 		275 	0 	
2012-01-30 15:03:34 	406 		395 	0 	
2012-01-30 15:25:23 	204 		345 	0 	
2012-01-30 15:31:20 	407 		395 	0 	
2012-01-30 15:31:25 	402 		395 	0 	
2012-01-30 15:49:28 	207 		345 	0 	
2012-01-30 15:52:26 	406 		305 	0 	
2012-01-30 15:55:33 	203 		50 	0 	
2012-01-30 15:56:50 	406 		25 	0 	
 			Total:		18993 	0		

=== RECHIT LIST ===




V1