MSHOGUN 1: SHIFT END REPORT
Friday August 13, 2010 8:00:44 AM

SALES TRANSACTION
Room Sales Order			27615
FnB Sales Order			2145
Beer Sales Order			485
Misc Sales Order			155
Room Sales Adjustment			0
GROSS SALES			30400

DISCOUNT
Room				0
FnB				0
Misc				0

DEPOSIT				6740
REFUND				

TOTAL ACCOUNTABILITY			37140

CASH DECLARATION			908
CARD				395
FUNDS SAFEKEEP			10000
TOTAL CASH DECLARED			11303

TOTAL CASH ON SYSTEM			908
OVER/SHORTAGES 			0

ROOM	 # OF CHECK-OUT	AMT
Value 		4	2140
Regular 		7	4275
Classique 		24	14100
Premium 		1	750
Regent 		3	2400
Queen 		1	850
Gemini 		0	0
Family 		1	3100
Executive Suite 	0	0
Mega Suite 	0	0

DISCOUNT 
Value 			  
Regular 		  
Classique 		  
Premium 		  
Regent 			  
Queen 		  
Gemini 		  
Family 		  
Executive Suite 	  
Mega Suite 		  


=== RESERVATIONS ===

Deposits:


Claimed:



SECURITY DEPOSITS

Deposits:
Claimed:


=== SALES BREAKDOWN ===

Transaction Date	Room No.	Cash	Card

2010-08-13 00:07:57 	312 		395 	0 	
2010-08-13 00:18:22 	609 		850 	0 	
2010-08-13 00:18:28 	610 		1050 	0 	
2010-08-13 00:18:42 	413 		285 	0 	
2010-08-13 00:19:22 	322 		395 	0 	
2010-08-13 00:28:45 	403 		705 	0 	
2010-08-13 01:22:53 	522 		750 	0 	
2010-08-13 01:25:59 	419 		50 	0 	
2010-08-13 01:46:54 	304 		395 	0 	
2010-08-13 01:56:14 	301 		395 	0 	
2010-08-13 02:15:33 	605 		25 	0 	
2010-08-13 02:59:52 	518 		750 	0 	
2010-08-13 03:38:58 	412 		0 	395 	
2010-08-13 03:45:19 	411 		125 	0 	
2010-08-13 04:10:55 	305 		100 	0 	
2010-08-13 04:21:13 	317 		395 	0 	
2010-08-13 04:37:41 	508 		50 	0 	
2010-08-13 04:43:51 	307 		210 	0 	
2010-08-13 04:43:53 	307 		105 	0 	
2010-08-13 04:43:54 	307 		10 	0 	
2010-08-13 05:37:19 	417 		335 	0 	
2010-08-13 05:39:59 	313 		238 	0 	
2010-08-13 05:50:16 	304 		395 	0 	
2010-08-13 05:59:15 	511 		800 	0 	
2010-08-13 06:07:34 	409 		140 	0 	
2010-08-13 06:50:56 	302 		85 	0 	
2010-08-13 06:53:47 	305 		275 	0 	
2010-08-13 07:07:32 	309 		395 	0 	
2010-08-13 07:08:22 	309 		120 	0 	
2010-08-13 07:10:25 	414 		160 	0 	
2010-08-13 07:13:49 	513 		675 	0 	
2010-08-13 07:18:31 	318 		200 	0 	
2010-08-13 07:22:05 	603 		25 	0 	
2010-08-13 07:59:04 	423 		25 	0 	
 			Total:		10908 	395		

=== RECHIT LIST ===




V1