MSHOGUN 1: SHIFT END REPORT
Monday February 06, 2012 4:01:02 PM

SALES TRANSACTION
Room Sales Order			25560
FnB Sales Order			1415
Beer Sales Order			0
Misc Sales Order			90
Room Sales Adjustment			0
GROSS SALES			27065

DISCOUNT
Room				0
FnB				0
Misc				0

DEPOSIT				10210
REFUND				

TOTAL ACCOUNTABILITY			37275

CASH DECLARATION			4315
CARD				395
FUNDS SAFEKEEP			20000
TOTAL CASH DECLARED			24710

TOTAL CASH ON SYSTEM			4315
OVER/SHORTAGES 			0

ROOM	 # OF CHECK-OUT	AMT
Value 		9	3115
Regular 		13	7545
Classique 		28	14900
Premium 		0	0
Regent 		0	0
Queen 		0	0
Gemini 		0	0
Family 		0	0
Executive Suite 	0	0
Mega Suite 	0	0

DISCOUNT 
Value 			  
Regular 		  
Classique 		  
Premium 		  
Regent 			  
Queen 		  
Gemini 		  
Family 		  
Executive Suite 	  
Mega Suite 		  


=== RESERVATIONS ===

Deposits:


Claimed:



SECURITY DEPOSITS

Deposits:
Claimed:


=== SALES BREAKDOWN ===

Transaction Date	Room No.	Cash	Card

2012-02-06 07:58:25 	313 		140 	0 	
2012-02-06 08:10:39 	321 		140 	0 	
2012-02-06 08:31:56 	317 		395 	0 	
2012-02-06 08:34:18 	214 		275 	0 	
2012-02-06 08:42:21 	406 		335 	0 	
2012-02-06 09:05:54 	406 		395 	0 	
2012-02-06 09:32:31 	407 		25 	0 	
2012-02-06 09:48:56 	403 		825 	0 	
2012-02-06 09:49:51 	207 		345 	0 	
2012-02-06 09:51:00 	413 		260 	0 	
2012-02-06 09:58:27 	216 		275 	0 	
2012-02-06 10:02:10 	205 		345 	0 	
2012-02-06 10:22:13 	416 		1185 	0 	
2012-02-06 10:29:30 	402 		675 	0 	
2012-02-06 10:51:57 	312 		280 	0 	
2012-02-06 11:10:21 	421 		395 	0 	
2012-02-06 11:27:38 	417 		395 	0 	
2012-02-06 11:28:23 	316 		240 	0 	
2012-02-06 11:29:40 	419 		395 	0 	
2012-02-06 11:31:41 	422 		395 	0 	
2012-02-06 11:32:47 	415 		395 	0 	
2012-02-06 11:37:53 	401 		395 	0 	
2012-02-06 11:40:10 	407 		395 	0 	
2012-02-06 11:44:33 	418 		345 	0 	
2012-02-06 11:49:36 	410 		275 	0 	
2012-02-06 11:49:44 	411 		275 	0 	
2012-02-06 11:51:10 	420 		345 	0 	
2012-02-06 11:54:41 	419 		50 	0 	
2012-02-06 12:23:14 	308 		395 	0 	
2012-02-06 12:33:27 	321 		395 	0 	
2012-02-06 12:46:58 	312 		395 	0 	
2012-02-06 12:50:01 	319 		0 	395 	
2012-02-06 12:59:29 	324 		275 	0 	
2012-02-06 13:01:37 	317 		395 	0 	
2012-02-06 13:01:44 	322 		395 	0 	
2012-02-06 13:05:59 	313 		395 	0 	
2012-02-06 13:15:46 	323 		275 	0 	
2012-02-06 13:15:52 	304 		395 	0 	
2012-02-06 13:45:02 	316 		345 	0 	
2012-02-06 13:50:51 	306 		395 	0 	
2012-02-06 13:57:52 	307 		395 	0 	
2012-02-06 14:18:25 	320 		705 	0 	
2012-02-06 14:19:26 	404 		395 	0 	
2012-02-06 14:21:26 	301 		395 	0 	
2012-02-06 14:27:23 	302 		395 	0 	
2012-02-06 14:38:06 	406 		395 	0 	
2012-02-06 14:42:51 	318 		465 	0 	
2012-02-06 14:46:26 	423 		275 	0 	
2012-02-06 14:46:31 	424 		275 	0 	
2012-02-06 14:57:00 	311 		275 	0 	
2012-02-06 15:01:11 	206 		345 	0 	
2012-02-06 15:01:32 	206 		30 	0 	
2012-02-06 15:04:52 	409 		395 	0 	
2012-02-06 15:08:47 	413 		395 	0 	
2012-02-06 15:10:04 	308 		65 	0 	
2012-02-06 15:13:28 	412 		395 	0 	
2012-02-06 15:15:01 	218 		395 	0 	
2012-02-06 15:17:09 	204 		345 	0 	
2012-02-06 15:19:57 	321 		210 	0 	
2012-02-06 15:20:14 	311 		40 	0 	
2012-02-06 15:21:33 	203 		345 	0 	
2012-02-06 15:27:03 	205 		465 	0 	
2012-02-06 15:30:07 	203 		180 	0 	
2012-02-06 15:33:47 	211 		345 	0 	
2012-02-06 15:36:04 	202 		345 	0 	
2012-02-06 15:37:26 	208 		275 	0 	
2012-02-06 15:41:24 	411 		275 	0 	
2012-02-06 15:42:23 	213 		345 	0 	
2012-02-06 15:46:29 	213 		50 	0 	
2012-02-06 15:48:14 	304 		395 	0 	
2012-02-06 15:58:43 	215 		465 	0 	
 			Total:		24315 	395		

=== RECHIT LIST ===




V1