MSHOGUN 1: SHIFT END REPORT
Tuesday November 23, 2010 12:00:16 AM

SALES TRANSACTION
Room Sales Order			36050
FnB Sales Order			3020
Beer Sales Order			520
Misc Sales Order			120
Room Sales Adjustment			0
GROSS SALES			39710

DISCOUNT
Room				0
FnB				0
Misc				0

DEPOSIT				31131
REFUND				

TOTAL ACCOUNTABILITY			70841

CASH DECLARATION			7386
CARD				0
FUNDS SAFEKEEP			50000
TOTAL CASH DECLARED			57386

TOTAL CASH ON SYSTEM			8386
OVER/SHORTAGES 			-1000

ROOM	 # OF CHECK-OUT	AMT
Value 		13	3775
Regular 		20	8220
Classique 		57	24055
Premium 		0	0
Regent 		0	0
Queen 		0	0
Gemini 		0	0
Family 		0	0
Executive Suite 	0	0
Mega Suite 	0	0

DISCOUNT 
Value 			  
Regular 		  
Classique 		  
Premium 		  
Regent 			  
Queen 		  
Gemini 		  
Family 		  
Executive Suite 	  
Mega Suite 		  


=== RESERVATIONS ===

Deposits:


Claimed:



SECURITY DEPOSITS

Deposits:
Claimed:


=== SALES BREAKDOWN ===

Transaction Date	Room No.	Cash	Card

2010-11-22 16:07:12 	213 		345 	0 	
2010-11-22 16:07:52 	221 		395 	0 	
2010-11-22 16:09:31 	301 		395 	0 	
2010-11-22 16:10:01 	323 		275 	0 	
2010-11-22 16:11:36 	205 		345 	0 	
2010-11-22 16:13:13 	422 		395 	0 	
2010-11-22 16:15:50 	316 		345 	0 	
2010-11-22 16:17:48 	402 		316 	0 	
2010-11-22 16:22:29 	419 		395 	0 	
2010-11-22 16:39:32 	305 		275 	0 	
2010-11-22 16:41:13 	403 		345 	0 	
2010-11-22 16:43:52 	415 		175 	0 	
2010-11-22 16:47:07 	202 		345 	0 	
2010-11-22 16:48:29 	412 		395 	0 	
2010-11-22 16:51:42 	308 		460 	0 	
2010-11-22 17:04:45 	312 		395 	0 	
2010-11-22 17:05:43 	315 		535 	0 	
2010-11-22 17:06:48 	310 		275 	0 	
2010-11-22 17:07:18 	315 		20 	0 	
2010-11-22 17:19:14 	211 		50 	0 	
2010-11-22 17:20:34 	305 		30 	0 	
2010-11-22 17:22:03 	321 		395 	0 	
2010-11-22 17:22:56 	309 		395 	0 	
2010-11-22 17:29:15 	203 		585 	0 	
2010-11-22 17:29:34 	321 		180 	0 	
2010-11-22 17:30:15 	324 		275 	0 	
2010-11-22 17:32:37 	409 		395 	0 	
2010-11-22 17:32:42 	306 		395 	0 	
2010-11-22 17:33:43 	408 		395 	0 	
2010-11-22 17:37:34 	404 		140 	0 	
2010-11-22 17:37:42 	218 		40 	0 	
2010-11-22 17:39:32 	302 		395 	0 	
2010-11-22 17:41:41 	401 		395 	0 	
2010-11-22 17:51:53 	410 		275 	0 	
2010-11-22 17:54:04 	308 		395 	0 	
2010-11-22 18:00:23 	402 		695 	0 	
2010-11-22 18:01:17 	406 		395 	0 	
2010-11-22 18:03:56 	411 		275 	0 	
2010-11-22 18:08:06 	317 		316 	0 	
2010-11-22 18:09:04 	206 		585 	0 	
2010-11-22 18:11:31 	417 		395 	0 	
2010-11-22 18:15:18 	218 		395 	0 	
2010-11-22 18:15:27 	310 		275 	0 	
2010-11-22 18:19:37 	404 		395 	0 	
2010-11-22 18:24:26 	417 		50 	0 	
2010-11-22 18:24:34 	411 		40 	0 	
2010-11-22 18:28:57 	204 		345 	0 	
2010-11-22 18:30:46 	304 		395 	0 	
2010-11-22 18:34:11 	310 		220 	0 	
2010-11-22 18:36:32 	407 		1050 	0 	
2010-11-22 18:37:55 	219 		395 	0 	
2010-11-22 18:38:24 	322 		140 	0 	
2010-11-22 18:43:48 	310 		30 	0 	
2010-11-22 18:45:11 	423 		275 	0 	
2010-11-22 18:45:21 	413 		695 	0 	
2010-11-22 18:48:24 	313 		395 	0 	
2010-11-22 18:49:44 	319 		695 	0 	
2010-11-22 18:51:47 	312 		395 	0 	
2010-11-22 18:54:26 	405 		275 	0 	
2010-11-22 18:57:07 	407 		395 	0 	
2010-11-22 19:00:53 	321 		695 	0 	
2010-11-22 19:03:21 	404 		150 	0 	
2010-11-22 19:09:41 	213 		345 	0 	
2010-11-22 19:10:07 	307 		395 	0 	
2010-11-22 19:10:16 	311 		275 	0 	
2010-11-22 19:16:58 	422 		50 	0 	
2010-11-22 19:21:21 	302 		395 	0 	
2010-11-22 19:24:54 	406 		390 	0 	
2010-11-22 19:26:26 	301 		395 	0 	
2010-11-22 19:30:11 	207 		345 	0 	
2010-11-22 19:32:11 	419 		695 	0 	
2010-11-22 19:34:18 	412 		395 	0 	
2010-11-22 19:36:24 	415 		140 	0 	
2010-11-22 19:37:03 	220 		395 	0 	
2010-11-22 19:39:22 	221 		395 	0 	
2010-11-22 19:41:25 	421 		695 	0 	
2010-11-22 19:44:07 	212 		595 	0 	
2010-11-22 19:49:53 	304 		80 	0 	
2010-11-22 19:51:57 	308 		395 	0 	
2010-11-22 19:56:05 	208 		275 	0 	
2010-11-22 20:08:07 	306 		695 	0 	
2010-11-22 20:10:08 	220 		360 	0 	
2010-11-22 20:10:20 	424 		595 	0 	
2010-11-22 20:11:34 	408 		25 	0 	
2010-11-22 20:12:40 	218 		695 	0 	
2010-11-22 20:15:36 	316 		645 	0 	
2010-11-22 20:16:09 	220 		60 	0 	
2010-11-22 20:20:33 	215 		645 	0 	
2010-11-22 20:29:10 	202 		345 	0 	
2010-11-22 20:29:20 	312 		395 	0 	
2010-11-22 20:29:26 	309 		395 	0 	
2010-11-22 20:29:33 	209 		595 	0 	
2010-11-22 20:31:54 	408 		695 	0 	
2010-11-22 20:38:08 	205 		345 	0 	
2010-11-22 20:39:17 	418 		645 	0 	
2010-11-22 20:39:58 	203 		120 	0 	
2010-11-22 20:40:04 	203 		140 	0 	
2010-11-22 20:42:54 	404 		695 	0 	
2010-11-22 20:43:36 	211 		345 	0 	
2010-11-22 20:44:18 	417 		695 	0 	
2010-11-22 20:46:08 	401 		395 	0 	
2010-11-22 20:56:18 	415 		695 	0 	
2010-11-22 20:58:34 	422 		695 	0 	
2010-11-22 21:00:40 	420 		645 	0 	
2010-11-22 21:00:49 	314 		585 	0 	
2010-11-22 21:06:28 	210 		276 	0 	
2010-11-22 21:06:42 	315 		695 	0 	
2010-11-22 21:07:11 	409 		395 	0 	
2010-11-22 21:16:35 	406 		395 	0 	
2010-11-22 21:37:57 	313 		695 	0 	
2010-11-22 21:38:46 	304 		695 	0 	
2010-11-22 21:41:02 	301 		395 	0 	
2010-11-22 21:47:00 	318 		645 	0 	
2010-11-22 21:48:25 	407 		695 	0 	
2010-11-22 21:48:32 	219 		695 	0 	
2010-11-22 21:48:53 	323 		595 	0 	
2010-11-22 21:50:54 	216 		275 	0 	
2010-11-22 22:01:39 	213 		885 	0 	
2010-11-22 22:02:43 	204 		276 	0 	
2010-11-22 22:07:00 	220 		395 	0 	
2010-11-22 22:19:44 	403 		345 	0 	
2010-11-22 22:26:11 	307 		695 	0 	
2010-11-22 22:29:08 	415 		235 	0 	
2010-11-22 22:31:40 	218 		100 	0 	
2010-11-22 22:31:43 	218 		92 	0 	
2010-11-22 22:31:59 	406 		280 	0 	
2010-11-22 22:32:02 	406 		84 	0 	
2010-11-22 22:33:46 	220 		50 	0 	
2010-11-22 22:37:52 	302 		0 	695 	
2010-11-22 22:40:36 	410 		595 	0 	
2010-11-22 22:44:31 	405 		275 	0 	
2010-11-22 22:47:56 	411 		595 	0 	
2010-11-22 22:51:13 	307 		30 	0 	
2010-11-22 22:51:15 	307 		185 	0 	
2010-11-22 22:51:49 	204 		405 	0 	
2010-11-22 22:51:51 	204 		125 	0 	
2010-11-22 22:52:15 	416 		645 	0 	
2010-11-22 22:52:21 	412 		395 	0 	
2010-11-22 22:59:23 	410 		50 	0 	
2010-11-22 22:59:40 	414 		276 	0 	
2010-11-22 23:02:42 	414 		80 	0 	
2010-11-22 23:03:16 	206 		210 	0 	
2010-11-22 23:12:53 	411 		50 	0 	
2010-11-22 23:15:35 	310 		595 	0 	
2010-11-22 23:16:37 	305 		595 	0 	
2010-11-22 23:16:46 	305 		25 	0 	
2010-11-22 23:21:23 	301 		395 	0 	
2010-11-22 23:28:47 	208 		275 	0 	
2010-11-22 23:31:30 	303 		345 	0 	
2010-11-22 23:48:16 	308 		695 	0 	
2010-11-22 23:48:29 	221 		695 	0 	
2010-11-22 23:56:46 	203 		645 	0 	
 			Total:		58386 	695		

=== RECHIT LIST ===




V1