MSHOGUN 1: SHIFT END REPORT
Friday July 09, 2010 8:00:03 AM

SALES TRANSACTION
Room Sales Order			27725
FnB Sales Order			2265
Beer Sales Order			315
Misc Sales Order			50
Room Sales Adjustment			150
GROSS SALES			30505

DISCOUNT
Room				0
FnB				0
Misc				0

DEPOSIT				8075
REFUND				

TOTAL ACCOUNTABILITY			38580

CASH DECLARATION			4790
CARD				695
FUNDS SAFEKEEP			10000
TOTAL CASH DECLARED			15485

TOTAL CASH ON SYSTEM			4790
OVER/SHORTAGES 			0

ROOM	 # OF CHECK-OUT	AMT
Value 		2	870
Regular 		5	2925
Classique 		18	10480
Premium 		2	1500
Regent 		6	6400
Queen 		5	4650
Gemini 		0	0
Family 		1	1050
Executive Suite 	0	0
Mega Suite 	0	0

DISCOUNT 
Value 			  
Regular 		  
Classique 		  
Premium 		  
Regent 			  
Queen 		  
Gemini 		  
Family 		  
Executive Suite 	  
Mega Suite 		  


=== RESERVATIONS ===

Deposits:


Claimed:



SECURITY DEPOSITS

Deposits:
Claimed:


=== SALES BREAKDOWN ===

Transaction Date	Room No.	Cash	Card

2010-07-09 00:06:05 	404 		380 	0 	
2010-07-09 00:11:39 	302 		395 	0 	
2010-07-09 00:12:00 	308 		695 	0 	
2010-07-09 00:14:20 	320 		645 	0 	
2010-07-09 00:19:48 	320 		30 	0 	
2010-07-09 00:20:06 	315 		695 	0 	
2010-07-09 00:21:28 	319 		695 	0 	
2010-07-09 00:33:17 	419 		695 	0 	
2010-07-09 01:04:48 	318 		705 	0 	
2010-07-09 01:05:56 	409 		395 	0 	
2010-07-09 01:37:49 	415 		395 	0 	
2010-07-09 01:56:09 	312 		150 	0 	
2010-07-09 01:59:07 	316 		645 	0 	
2010-07-09 02:04:06 	301 		395 	0 	
2010-07-09 02:06:00 	306 		80 	0 	
2010-07-09 02:06:06 	306 		25 	0 	
2010-07-09 02:07:40 	412 		395 	0 	
2010-07-09 02:21:04 	220 		695 	0 	
2010-07-09 02:21:21 	218 		695 	0 	
2010-07-09 02:29:56 	401 		140 	0 	
2010-07-09 02:37:41 	215 		585 	0 	
2010-07-09 02:40:10 	309 		815 	0 	
2010-07-09 02:52:00 	218 		50 	0 	
2010-07-09 03:04:25 	422 		420 	0 	
2010-07-09 04:09:20 	607 		950 	0 	
2010-07-09 04:09:42 	213 		345 	0 	
2010-07-09 04:22:19 	307 		310 	0 	
2010-07-09 04:54:21 	510 		55 	0 	
2010-07-09 05:09:55 	306 		140 	0 	
2010-07-09 05:59:46 	309 		160 	0 	
2010-07-09 06:42:32 	408 		120 	0 	
2010-07-09 06:51:18 	221 		395 	0 	
2010-07-09 07:08:18 	305 		275 	0 	
2010-07-09 07:16:42 	603 		40 	0 	
2010-07-09 07:22:14 	322 		395 	0 	
2010-07-09 07:24:59 	612 		515 	0 	
2010-07-09 07:45:36 	216 		275 	0 	
 			Total:		14790 	0		

=== RECHIT LIST ===




V1