MSHOGUN 1: SHIFT END REPORT
Friday July 02, 2010 8:02:01 AM

SALES TRANSACTION
Room Sales Order			33745
FnB Sales Order			3089
Beer Sales Order			575
Misc Sales Order			613
Room Sales Adjustment			0
GROSS SALES			38022

DISCOUNT
Room				0
FnB				0
Misc				0

DEPOSIT				6960
REFUND				

TOTAL ACCOUNTABILITY			44982

CASH DECLARATION			5825
CARD				850
FUNDS SAFEKEEP			10000
TOTAL CASH DECLARED			16675

TOTAL CASH ON SYSTEM			5825
OVER/SHORTAGES 			0

ROOM	 # OF CHECK-OUT	AMT
Value 		10	4130
Regular 		10	4170
Classique 		24	14120
Premium 		1	750
Regent 		8	7725
Queen 		1	850
Gemini 		1	950
Family 		1	1050
Executive Suite 	0	0
Mega Suite 	0	0

DISCOUNT 
Value 			  
Regular 		  
Classique 		  
Premium 		  
Regent 			  
Queen 		  
Gemini 		  
Family 		  
Executive Suite 	  
Mega Suite 		  


=== RESERVATIONS ===

Deposits:


Claimed:



SECURITY DEPOSITS

Deposits:
Claimed:


=== SALES BREAKDOWN ===

Transaction Date	Room No.	Cash	Card

2010-07-02 00:04:47 	506 		50 	0 	
2010-07-02 00:05:41 	515 		800 	0 	
2010-07-02 00:32:54 	404 		695 	0 	
2010-07-02 00:38:55 	517 		800 	0 	
2010-07-02 00:43:22 	417 		695 	0 	
2010-07-02 00:44:07 	406 		100 	0 	
2010-07-02 00:57:22 	208 		275 	0 	
2010-07-02 01:16:53 	221 		695 	0 	
2010-07-02 01:17:21 	409 		395 	0 	
2010-07-02 01:19:39 	309 		395 	0 	
2010-07-02 01:20:21 	317 		50 	0 	
2010-07-02 01:34:39 	605 		1050 	0 	
2010-07-02 02:12:30 	519 		800 	0 	
2010-07-02 02:19:56 	519 		10 	0 	
2010-07-02 02:33:42 	418 		465 	0 	
2010-07-02 03:07:56 	304 		395 	0 	
2010-07-02 03:16:27 	209 		275 	0 	
2010-07-02 03:26:48 	418 		50 	0 	
2010-07-02 03:32:27 	414 		345 	0 	
2010-07-02 03:32:37 	416 		345 	0 	
2010-07-02 03:32:52 	520 		800 	0 	
2010-07-02 03:58:20 	419 		395 	0 	
2010-07-02 04:01:05 	504 		800 	0 	
2010-07-02 04:16:37 	Lobby 		10 	0 	
2010-07-02 04:19:13 	319 		535 	0 	
2010-07-02 04:40:04 	415 		395 	0 	
2010-07-02 04:46:59 	208 		100 	0 	
2010-07-02 05:04:17 	503 		525 	0 	
2010-07-02 05:57:17 	605 		300 	0 	
2010-07-02 06:05:37 	416 		200 	0 	
2010-07-02 06:08:20 	414 		100 	0 	
2010-07-02 06:27:11 	404 		175 	0 	
2010-07-02 06:31:31 	424 		50 	0 	
2010-07-02 06:32:57 	403 		345 	0 	
2010-07-02 06:36:34 	322 		395 	0 	
2010-07-02 06:57:48 	604 		250 	0 	
2010-07-02 07:04:39 	317 		395 	0 	
2010-07-02 07:40:44 	210 		345 	0 	
2010-07-02 07:48:05 	522 		750 	0 	
2010-07-02 07:58:56 	214 		275 	0 	
 			Total:		15825 	0		

=== RECHIT LIST ===

Room No. 504 	 Rechit Date: 2010-07-02 07:47:58







V1