MSHOGUN 1: SHIFT END REPORT
Thursday March 10, 2011 12:00:29 AM

SALES TRANSACTION
Room Sales Order			31370
FnB Sales Order			1715
Beer Sales Order			85
Misc Sales Order			55
Room Sales Adjustment			0
GROSS SALES			33225

DISCOUNT
Room				0
FnB				0
Misc				0

DEPOSIT				28550
REFUND				

TOTAL ACCOUNTABILITY			61775

CASH DECLARATION			11436
CARD				395
FUNDS SAFEKEEP			30000
TOTAL CASH DECLARED			41831

TOTAL CASH ON SYSTEM			17032
OVER/SHORTAGES 			-5596

ROOM	 # OF CHECK-OUT	AMT
Value 		10	2750
Regular 		28	12540
Classique 		40	16080
Premium 		0	0
Regent 		0	0
Queen 		0	0
Gemini 		0	0
Family 		0	0
Executive Suite 	0	0
Mega Suite 	0	0

DISCOUNT 
Value 			  
Regular 		  
Classique 		  
Premium 		  
Regent 			  
Queen 		  
Gemini 		  
Family 		  
Executive Suite 	  
Mega Suite 		  


=== RESERVATIONS ===

Deposits:


Claimed:



SECURITY DEPOSITS

Deposits:
Claimed:


=== SALES BREAKDOWN ===

Transaction Date	Room No.	Cash	Card

2011-03-09 16:03:08 	402 		50 	0 	
2011-03-09 16:05:55 	414 		705 	0 	
2011-03-09 16:06:25 	202 		20 	0 	
2011-03-09 16:23:52 	311 		275 	0 	
2011-03-09 16:23:59 	302 		395 	0 	
2011-03-09 16:24:35 	212 		275 	0 	
2011-03-09 16:28:20 	206 		345 	0 	
2011-03-09 16:38:19 	214 		275 	0 	
2011-03-09 16:45:59 	209 		275 	0 	
2011-03-09 16:47:03 	308 		395 	0 	
2011-03-09 16:53:23 	205 		120 	0 	
2011-03-09 17:07:50 	213 		345 	0 	
2011-03-09 17:13:21 	312 		395 	0 	
2011-03-09 17:29:00 	215 		345 	0 	
2011-03-09 17:33:59 	316 		345 	0 	
2011-03-09 17:40:47 	318 		345 	0 	
2011-03-09 17:57:14 	322 		395 	0 	
2011-03-09 18:01:01 	408 		395 	0 	
2011-03-09 18:04:27 	413 		395 	0 	
2011-03-09 18:11:03 	407 		395 	0 	
2011-03-09 18:12:29 	404 		395 	0 	
2011-03-09 18:16:39 	412 		316 	0 	
2011-03-09 18:20:51 	202 		345 	0 	
2011-03-09 18:26:31 	314 		345 	0 	
2011-03-09 18:38:52 	312 		645 	0 	
2011-03-09 18:39:00 	219 		395 	0 	
2011-03-09 18:39:59 	421 		395 	0 	
2011-03-09 18:46:20 	218 		395 	0 	
2011-03-09 18:49:15 	421 		15 	0 	
2011-03-09 18:49:46 	422 		395 	0 	
2011-03-09 18:49:54 	419 		695 	0 	
2011-03-09 18:50:08 	315 		695 	0 	
2011-03-09 18:50:37 	221 		395 	0 	
2011-03-09 18:52:26 	323 		595 	0 	
2011-03-09 18:52:36 	209 		275 	0 	
2011-03-09 18:54:20 	406 		695 	0 	
2011-03-09 18:57:34 	409 		695 	0 	
2011-03-09 19:02:16 	219 		340 	0 	
2011-03-09 19:02:27 	324 		595 	0 	
2011-03-09 19:05:33 	306 		395 	0 	
2011-03-09 19:05:51 	417 		695 	0 	
2011-03-09 19:10:04 	220 		395 	0 	
2011-03-09 19:11:44 	Lobby 		180 	0 	
2011-03-09 19:20:39 	302 		185 	0 	
2011-03-09 19:21:12 	205 		345 	0 	
2011-03-09 19:22:11 	305 		595 	0 	
2011-03-09 19:24:06 	310 		275 	0 	
2011-03-09 19:24:59 	309 		395 	0 	
2011-03-09 19:29:35 	321 		395 	0 	
2011-03-09 19:34:31 	207 		345 	0 	
2011-03-09 19:34:55 	317 		695 	0 	
2011-03-09 19:35:33 	304 		695 	0 	
2011-03-09 19:35:44 	308 		695 	0 	
2011-03-09 19:35:53 	319 		395 	0 	
2011-03-09 19:36:09 	201 		345 	0 	
2011-03-09 19:36:23 	214 		595 	0 	
2011-03-09 19:38:49 	211 		345 	0 	
2011-03-09 19:40:59 	415 		280 	0 	
2011-03-09 19:42:12 	215 		585 	0 	
2011-03-09 19:48:11 	413 		110 	0 	
2011-03-09 19:48:29 	213 		465 	0 	
2011-03-09 19:48:39 	404 		395 	0 	
2011-03-09 19:58:08 	302 		695 	0 	
2011-03-09 20:05:01 	301 		395 	0 	
2011-03-09 20:05:16 	317 		10 	0 	
2011-03-09 20:07:07 	408 		695 	0 	
2011-03-09 20:09:03 	418 		345 	0 	
2011-03-09 20:11:24 	421 		0 	695 	
2011-03-09 20:17:00 	401 		0 	395 	
2011-03-09 20:17:29 	307 		695 	0 	
2011-03-09 20:17:48 	220 		695 	0 	
2011-03-09 20:19:59 	419 		375 	0 	
2011-03-09 20:22:32 	414 		276 	0 	
2011-03-09 20:35:13 	414 		95 	0 	
2011-03-09 20:37:24 	220 		155 	0 	
2011-03-09 20:42:27 	307 		230 	0 	
2011-03-09 20:44:54 	311 		275 	0 	
2011-03-09 20:46:32 	312 		50 	0 	
2011-03-09 20:53:14 	422 		210 	0 	
2011-03-09 20:56:48 	203 		645 	0 	
2011-03-09 21:00:33 	208 		275 	0 	
2011-03-09 21:00:47 	320 		645 	0 	
2011-03-09 21:02:09 	303 		645 	0 	
2011-03-09 21:04:42 	206 		345 	0 	
2011-03-09 21:10:19 	319 		190 	0 	
2011-03-09 21:11:49 	416 		120 	0 	
2011-03-09 21:20:06 	306 		25 	0 	
2011-03-09 21:35:08 	303 		50 	0 	
2011-03-09 21:36:04 	316 		645 	0 	
2011-03-09 21:40:12 	221 		695 	0 	
2011-03-09 21:40:42 	314 		645 	0 	
2011-03-09 21:50:40 	404 		695 	0 	
2011-03-09 21:53:16 	403 		645 	0 	
2011-03-09 21:56:51 	412 		695 	0 	
2011-03-09 22:10:12 	420 		645 	0 	
2011-03-09 22:12:59 	318 		645 	0 	
2011-03-09 22:13:44 	413 		695 	0 	
2011-03-09 22:20:48 	215 		645 	0 	
2011-03-09 22:21:06 	422 		695 	0 	
2011-03-09 22:25:14 	202 		345 	0 	
2011-03-09 22:30:30 	301 		395 	0 	
2011-03-09 22:44:46 	403 		15 	0 	
2011-03-09 22:45:16 	221 		25 	0 	
2011-03-09 22:45:20 	221 		25 	0 	
2011-03-09 22:53:38 	402 		695 	0 	
2011-03-09 22:55:52 	321 		695 	0 	
2011-03-09 22:58:27 	210 		465 	0 	
2011-03-09 22:58:52 	319 		395 	0 	
2011-03-09 23:02:13 	401 		50 	0 	
2011-03-09 23:04:18 	309 		395 	0 	
2011-03-09 23:07:39 	321 		50 	0 	
2011-03-09 23:11:16 	418 		705 	0 	
2011-03-09 23:17:47 	420 		10 	0 	
2011-03-09 23:37:11 	218 		395 	0 	
2011-03-09 23:41:39 	212 		595 	0 	
2011-03-09 23:51:04 	415 		695 	0 	
2011-03-09 23:51:19 	306 		695 	0 	
 			Total:		47032 	1090		

=== RECHIT LIST ===




V1