MSHOGUN 1: SHIFT END REPORT
Thursday July 07, 2011 8:00:25 AM

SALES TRANSACTION
Room Sales Order			18895
FnB Sales Order			1440
Beer Sales Order			585
Misc Sales Order			30
Room Sales Adjustment			0
GROSS SALES			20950

DISCOUNT
Room				0
FnB				0
Misc				0

DEPOSIT				3705
REFUND				-105

TOTAL ACCOUNTABILITY			24550

CASH DECLARATION			7185
CARD				0
FUNDS SAFEKEEP			0
TOTAL CASH DECLARED			7185

TOTAL CASH ON SYSTEM			7080
OVER/SHORTAGES 			105

ROOM	 # OF CHECK-OUT	AMT
Value 		9	3735
Regular 		14	7530
Classique 		14	7630
Premium 		0	0
Regent 		0	0
Queen 		0	0
Gemini 		0	0
Family 		0	0
Executive Suite 	0	0
Mega Suite 	0	0

DISCOUNT 
Value 			  
Regular 		  
Classique 		  
Premium 		  
Regent 			  
Queen 		  
Gemini 		  
Family 		  
Executive Suite 	  
Mega Suite 		  


=== RESERVATIONS ===

Deposits:


Claimed:



SECURITY DEPOSITS

Deposits:
Claimed:


=== SALES BREAKDOWN ===

Transaction Date	Room No.	Cash	Card

2011-07-07 00:04:33 	307 		695 	0 	
2011-07-07 00:06:14 	412 		385 	0 	
2011-07-07 00:07:05 	301 		360 	0 	
2011-07-07 00:17:13 	205 		-155 	0 	
2011-07-07 00:19:37 	210 		25 	0 	
2011-07-07 01:00:20 	412 		395 	0 	
2011-07-07 01:00:33 	205 		585 	0 	
2011-07-07 01:02:39 	307 		20 	0 	
2011-07-07 01:08:23 	407 		695 	0 	
2011-07-07 01:08:35 	402 		695 	0 	
2011-07-07 02:15:24 	209 		275 	0 	
2011-07-07 02:16:23 	209 		90 	0 	
2011-07-07 02:37:31 	409 		395 	0 	
2011-07-07 03:32:00 	217 		50 	0 	
2011-07-07 04:23:36 	316 		340 	0 	
2011-07-07 05:02:28 	209 		10 	0 	
2011-07-07 05:11:26 	208 		275 	0 	
2011-07-07 05:28:34 	417 		400 	0 	
2011-07-07 06:36:10 	304 		90 	0 	
2011-07-07 06:48:22 	416 		50 	0 	
2011-07-07 06:51:09 	302 		50 	0 	
2011-07-07 06:53:43 	312 		105 	0 	
2011-07-07 06:53:43 	312 		395 	0 	
2011-07-07 06:55:27 	312 		-105 	0 	
2011-07-07 07:12:18 	216 		275 	0 	
2011-07-07 07:13:02 	306 		395 	0 	
2011-07-07 07:48:18 	309 		395 	0 	
 			Total:		7185 	0		

=== RECHIT LIST ===




V1