MSHOGUN 1: SHIFT END REPORT
Thursday June 02, 2011 12:03:21 AM

SALES TRANSACTION
Room Sales Order			39285
FnB Sales Order			1745
Beer Sales Order			310
Misc Sales Order			45
Room Sales Adjustment			-695
GROSS SALES			40690

DISCOUNT
Room				0
FnB				0
Misc				0

DEPOSIT				26690
REFUND				

TOTAL ACCOUNTABILITY			67380

CASH DECLARATION			4293
CARD				0
FUNDS SAFEKEEP			0
TOTAL CASH DECLARED			4293

TOTAL CASH ON SYSTEM			10930
OVER/SHORTAGES 			-6637

ROOM	 # OF CHECK-OUT	AMT
Value 		28	7900
Regular 		23	9495
Classique 		54	21890
Premium 		0	0
Regent 		0	0
Queen 		0	0
Gemini 		0	0
Family 		0	0
Executive Suite 	0	0
Mega Suite 	0	0

DISCOUNT 
Value 			  
Regular 		  
Classique 		  
Premium 		  
Regent 			  
Queen 		  
Gemini 		  
Family 		  
Executive Suite 	  
Mega Suite 		  


=== RESERVATIONS ===

Deposits:


Claimed:



SECURITY DEPOSITS

Deposits:
Claimed:


=== SALES BREAKDOWN ===

Transaction Date	Room No.	Cash	Card

2011-06-01 16:32:04 	220 		395 	0 	
2011-06-01 16:32:14 	208 		275 	0 	
2011-06-01 16:32:32 	309 		395 	0 	
2011-06-01 16:33:01 	308 		395 	0 	
2011-06-01 16:36:01 	214 		275 	0 	
2011-06-01 16:38:25 	302 		395 	0 	
2011-06-01 16:42:28 	319 		395 	0 	
2011-06-01 16:46:49 	303 		240 	0 	
2011-06-01 16:52:03 	203 		345 	0 	
2011-06-01 16:52:11 	406 		395 	0 	
2011-06-01 16:59:04 	401 		395 	0 	
2011-06-01 17:01:18 	404 		150 	0 	
2011-06-01 17:07:42 	408 		395 	0 	
2011-06-01 17:08:38 	212 		375 	0 	
2011-06-01 17:12:56 	421 		395 	0 	
2011-06-01 17:13:56 	415 		395 	0 	
2011-06-01 17:16:21 	207 		345 	0 	
2011-06-01 17:21:47 	217 		275 	0 	
2011-06-01 17:25:23 	210 		345 	0 	
2011-06-01 17:33:00 	311 		375 	0 	
2011-06-01 17:33:20 	219 		395 	0 	
2011-06-01 17:33:29 	301 		395 	0 	
2011-06-01 17:33:42 	206 		345 	0 	
2011-06-01 17:37:32 	212 		90 	0 	
2011-06-01 17:37:45 	315 		395 	0 	
2011-06-01 17:38:24 	322 		110 	0 	
2011-06-01 17:47:40 	204 		585 	0 	
2011-06-01 17:48:49 	202 		345 	0 	
2011-06-01 17:49:29 	202 		25 	0 	
2011-06-01 17:54:52 	310 		275 	0 	
2011-06-01 17:59:21 	302 		25 	0 	
2011-06-01 18:02:46 	324 		275 	0 	
2011-06-01 18:06:58 	213 		345 	0 	
2011-06-01 18:09:01 	205 		345 	0 	
2011-06-01 18:27:20 	206 		80 	0 	
2011-06-01 18:27:29 	219 		165 	0 	
2011-06-01 18:27:44 	303 		345 	0 	
2011-06-01 18:27:59 	410 		275 	0 	
2011-06-01 18:32:34 	318 		345 	0 	
2011-06-01 18:36:16 	314 		345 	0 	
2011-06-01 18:38:31 	411 		275 	0 	
2011-06-01 18:42:21 	304 		395 	0 	
2011-06-01 18:45:55 	415 		695 	0 	
2011-06-01 18:47:12 	409 		395 	0 	
2011-06-01 18:48:49 	323 		275 	0 	
2011-06-01 18:49:51 	313 		395 	0 	
2011-06-01 18:51:54 	406 		695 	0 	
2011-06-01 18:53:28 	405 		275 	0 	
2011-06-01 18:53:51 	402 		395 	0 	
2011-06-01 18:54:47 	424 		275 	0 	
2011-06-01 18:56:11 	404 		695 	0 	
2011-06-01 18:59:04 	201 		465 	0 	
2011-06-01 18:59:18 	201 		25 	0 	
2011-06-01 19:00:05 	407 		695 	0 	
2011-06-01 19:01:00 	422 		316 	0 	
2011-06-01 19:03:08 	418 		645 	0 	
2011-06-01 19:04:54 	321 		695 	0 	
2011-06-01 19:07:33 	408 		395 	0 	
2011-06-01 19:09:21 	417 		395 	0 	
2011-06-01 19:10:46 	413 		395 	0 	
2011-06-01 19:14:15 	208 		275 	0 	
2011-06-01 19:19:47 	320 		345 	0 	
2011-06-01 19:21:13 	424 		90 	0 	
2011-06-01 19:22:13 	403 		345 	0 	
2011-06-01 19:22:59 	412 		395 	0 	
2011-06-01 19:25:35 	416 		645 	0 	
2011-06-01 19:26:26 	414 		345 	0 	
2011-06-01 19:27:29 	420 		345 	0 	
2011-06-01 19:28:35 	209 		275 	0 	
2011-06-01 19:30:15 	216 		275 	0 	
2011-06-01 19:31:25 	308 		50 	0 	
2011-06-01 19:31:59 	411 		195 	0 	
2011-06-01 19:36:09 	214 		275 	0 	
2011-06-01 19:37:04 	305 		275 	0 	
2011-06-01 19:40:20 	423 		275 	0 	
2011-06-01 19:43:27 	322 		395 	0 	
2011-06-01 19:48:58 	421 		395 	0 	
2011-06-01 19:50:45 	401 		395 	0 	
2011-06-01 19:53:27 	307 		395 	0 	
2011-06-01 19:54:30 	417 		75 	0 	
2011-06-01 19:58:19 	319 		395 	0 	
2011-06-01 20:00:25 	315 		695 	0 	
2011-06-01 20:04:42 	210 		345 	0 	
2011-06-01 20:07:24 	424 		70 	0 	
2011-06-01 20:07:46 	310 		275 	0 	
2011-06-01 20:18:15 	202 		645 	0 	
2011-06-01 20:21:42 	301 		395 	0 	
2011-06-01 20:24:11 	203 		345 	0 	
2011-06-01 20:24:18 	308 		395 	0 	
2011-06-01 20:28:34 	201 		280 	0 	
2011-06-01 20:31:26 	302 		316 	0 	
2011-06-01 20:31:36 	302 		10 	0 	
2011-06-01 20:32:34 	304 		415 	0 	
2011-06-01 20:35:54 	321 		250 	0 	
2011-06-01 20:47:06 	205 		645 	0 	
2011-06-01 20:47:15 	217 		275 	0 	
2011-06-01 20:50:53 	206 		645 	0 	
2011-06-01 20:51:54 	317 		395 	0 	
2011-06-01 20:53:27 	304 		395 	0 	
2011-06-01 20:56:25 	219 		695 	0 	
2011-06-01 20:56:42 	314 		345 	0 	
2011-06-01 20:58:02 	215 		210 	0 	
2011-06-01 21:12:51 	408 		695 	0 	
2011-06-01 21:13:35 	303 		645 	0 	
2011-06-01 21:14:45 	206 		320 	0 	
2011-06-01 21:22:11 	311 		275 	0 	
2011-06-01 21:27:48 	317 		-695 	0 	
2011-06-01 21:28:21 	317 		695 	0 	
2011-06-01 21:32:05 	422 		695 	0 	
2011-06-01 21:34:15 	409 		395 	0 	
2011-06-01 21:37:26 	420 		645 	0 	
2011-06-01 21:38:48 	215 		645 	0 	
2011-06-01 21:39:50 	408 		210 	0 	
2011-06-01 21:41:43 	412 		316 	0 	
2011-06-01 21:43:51 	413 		695 	0 	
2011-06-01 21:48:27 	409 		135 	0 	
2011-06-01 21:49:04 	208 		595 	0 	
2011-06-01 21:51:14 	306 		695 	0 	
2011-06-01 21:51:54 	322 		695 	0 	
2011-06-01 21:53:43 	221 		395 	0 	
2011-06-01 21:53:58 	409 		25 	0 	
2011-06-01 22:01:18 	417 		695 	0 	
2011-06-01 22:02:58 	209 		275 	0 	
2011-06-01 22:06:49 	410 		275 	0 	
2011-06-01 22:12:44 	411 		275 	0 	
2011-06-01 22:29:47 	212 		275 	0 	
2011-06-01 22:36:31 	324 		275 	0 	
2011-06-01 22:45:28 	313 		695 	0 	
2011-06-01 22:49:40 	320 		645 	0 	
2011-06-01 22:49:48 	213 		645 	0 	
2011-06-01 22:51:45 	319 		695 	0 	
2011-06-01 22:56:40 	411 		30 	0 	
2011-06-01 22:56:59 	205 		90 	0 	
2011-06-01 23:00:58 	204 		645 	0 	
2011-06-01 23:05:40 	402 		695 	0 	
2011-06-01 23:06:53 	216 		595 	0 	
2011-06-01 23:15:37 	304 		695 	0 	
2011-06-01 23:17:07 	316 		645 	0 	
2011-06-01 23:17:25 	212 		15 	0 	
2011-06-01 23:22:32 	207 		345 	0 	
2011-06-01 23:44:00 	401 		675 	0 	
2011-06-01 23:47:45 	403 		705 	0 	
2011-06-01 23:50:32 	307 		695 	0 	
2011-06-01 23:53:21 	218 		695 	0 	
2011-06-01 23:53:39 	308 		395 	0 	
 			Total:		55488 	0		

=== RECHIT LIST ===




V1