MSHOGUN 1: SHIFT END REPORT
Saturday November 13, 2010 8:00:12 AM

SALES TRANSACTION
Room Sales Order			32170
FnB Sales Order			1855
Beer Sales Order			250
Misc Sales Order			15
Room Sales Adjustment			0
GROSS SALES			34290

DISCOUNT
Room				0
FnB				0
Misc				0

DEPOSIT				4400
REFUND				

TOTAL ACCOUNTABILITY			38690

CASH DECLARATION			7710
CARD				0
FUNDS SAFEKEEP			10000
TOTAL CASH DECLARED			17710

TOTAL CASH ON SYSTEM			7710
OVER/SHORTAGES 			0

ROOM	 # OF CHECK-OUT	AMT
Value 		13	5455
Regular 		20	10200
Classique 		29	16515
Premium 		0	0
Regent 		0	0
Queen 		0	0
Gemini 		0	0
Family 		0	0
Executive Suite 	0	0
Mega Suite 	0	0

DISCOUNT 
Value 			  
Regular 		  
Classique 		  
Premium 		  
Regent 			  
Queen 		  
Gemini 		  
Family 		  
Executive Suite 	  
Mega Suite 		  


=== RESERVATIONS ===

Deposits:


Claimed:



SECURITY DEPOSITS

Deposits:
Claimed:


=== SALES BREAKDOWN ===

Transaction Date	Room No.	Cash	Card

2010-11-13 00:04:25 	220 		410 	0 	
2010-11-13 00:12:59 	408 		695 	0 	
2010-11-13 00:19:07 	322 		395 	0 	
2010-11-13 00:19:25 	221 		695 	0 	
2010-11-13 00:20:53 	215 		345 	0 	
2010-11-13 00:31:22 	308 		695 	0 	
2010-11-13 00:34:04 	219 		695 	0 	
2010-11-13 00:37:10 	303 		705 	0 	
2010-11-13 00:41:28 	301 		395 	0 	
2010-11-13 00:41:56 	217 		275 	0 	
2010-11-13 00:56:53 	201 		345 	0 	
2010-11-13 01:02:54 	214 		275 	0 	
2010-11-13 01:13:38 	401 		140 	0 	
2010-11-13 01:16:23 	303 		450 	0 	
2010-11-13 01:16:30 	202 		125 	0 	
2010-11-13 01:17:13 	323 		475 	0 	
2010-11-13 01:25:20 	209 		275 	0 	
2010-11-13 01:26:10 	308 		430 	0 	
2010-11-13 01:30:52 	422 		695 	0 	
2010-11-13 01:31:26 	401 		695 	0 	
2010-11-13 01:34:37 	323 		90 	0 	
2010-11-13 01:34:44 	215 		25 	0 	
2010-11-13 01:39:44 	404 		60 	0 	
2010-11-13 01:41:35 	207 		345 	0 	
2010-11-13 01:48:52 	213 		345 	0 	
2010-11-13 01:54:27 	210 		345 	0 	
2010-11-13 01:54:36 	405 		275 	0 	
2010-11-13 02:15:11 	312 		395 	0 	
2010-11-13 02:18:25 	216 		575 	0 	
2010-11-13 02:21:49 	409 		140 	0 	
2010-11-13 02:25:02 	301 		395 	0 	
2010-11-13 02:28:03 	409 		395 	0 	
2010-11-13 02:32:01 	216 		200 	0 	
2010-11-13 03:10:05 	201 		345 	0 	
2010-11-13 03:22:32 	322 		675 	0 	
2010-11-13 03:32:05 	210 		345 	0 	
2010-11-13 03:49:29 	217 		275 	0 	
2010-11-13 04:07:26 	409 		395 	0 	
2010-11-13 04:50:01 	407 		150 	0 	
2010-11-13 04:57:37 	213 		345 	0 	
2010-11-13 04:57:55 	207 		345 	0 	
2010-11-13 05:13:01 	301 		395 	0 	
2010-11-13 05:30:53 	215 		240 	0 	
2010-11-13 05:31:44 	308 		395 	0 	
2010-11-13 05:48:16 	413 		395 	0 	
2010-11-13 06:44:16 	301 		155 	0 	
2010-11-13 06:51:04 	203 		345 	0 	
2010-11-13 07:19:42 	418 		15 	0 	
2010-11-13 07:25:10 	323 		100 	0 	
 			Total:		17710 	0		

=== RECHIT LIST ===




V1