MSHOGUN 1: SHIFT END REPORT
Wednesday March 07, 2012 4:00:02 PM

SALES TRANSACTION
Room Sales Order			30130
FnB Sales Order			1600
Beer Sales Order			400
Misc Sales Order			40
Room Sales Adjustment			0
GROSS SALES			32170

DISCOUNT
Room				0
FnB				0
Misc				0

DEPOSIT				10010
REFUND				

TOTAL ACCOUNTABILITY			42180

CASH DECLARATION			5322
CARD				575
FUNDS SAFEKEEP			20000
TOTAL CASH DECLARED			25897

TOTAL CASH ON SYSTEM			5322
OVER/SHORTAGES 			0

ROOM	 # OF CHECK-OUT	AMT
Value 		7	3845
Regular 		11	6435
Classique 		38	19850
Premium 		0	0
Regent 		0	0
Queen 		0	0
Gemini 		0	0
Family 		0	0
Executive Suite 	0	0
Mega Suite 	0	0

DISCOUNT 
Value 			  
Regular 		  
Classique 		  
Premium 		  
Regent 			  
Queen 		  
Gemini 		  
Family 		  
Executive Suite 	  
Mega Suite 		  


=== RESERVATIONS ===

Deposits:


Claimed:



SECURITY DEPOSITS

Deposits:
Claimed:


=== SALES BREAKDOWN ===

Transaction Date	Room No.	Cash	Card

2012-03-07 08:05:49 	315 		395 	0 	
2012-03-07 08:06:04 	318 		50 	0 	
2012-03-07 09:28:10 	301 		280 	0 	
2012-03-07 09:29:02 	213 		120 	0 	
2012-03-07 09:33:39 	322 		395 	0 	
2012-03-07 09:37:49 	217 		275 	0 	
2012-03-07 09:48:29 	317 		395 	0 	
2012-03-07 09:52:52 	410 		250 	0 	
2012-03-07 10:03:19 	424 		480 	0 	
2012-03-07 10:10:27 	207 		345 	0 	
2012-03-07 10:13:55 	221 		395 	0 	
2012-03-07 10:19:42 	207 		50 	0 	
2012-03-07 10:21:37 	219 		395 	0 	
2012-03-07 10:43:02 	208 		275 	0 	
2012-03-07 10:44:29 	218 		395 	0 	
2012-03-07 10:57:41 	307 		395 	0 	
2012-03-07 11:01:29 	304 		395 	0 	
2012-03-07 11:13:01 	302 		460 	0 	
2012-03-07 11:35:08 	312 		316 	0 	
2012-03-07 11:35:59 	306 		395 	0 	
2012-03-07 11:36:16 	401 		395 	0 	
2012-03-07 11:49:25 	314 		120 	0 	
2012-03-07 11:50:25 	408 		395 	0 	
2012-03-07 11:57:44 	406 		675 	0 	
2012-03-07 12:00:59 	409 		395 	0 	
2012-03-07 12:05:39 	402 		316 	0 	
2012-03-07 12:21:58 	304 		230 	0 	
2012-03-07 12:26:57 	407 		395 	0 	
2012-03-07 12:27:04 	302 		395 	0 	
2012-03-07 12:27:22 	413 		395 	0 	
2012-03-07 12:39:23 	218 		25 	0 	
2012-03-07 12:39:57 	206 		345 	0 	
2012-03-07 12:42:15 	313 		200 	0 	
2012-03-07 12:48:49 	205 		705 	0 	
2012-03-07 12:48:56 	422 		395 	0 	
2012-03-07 12:56:54 	204 		345 	0 	
2012-03-07 13:12:05 	301 		395 	0 	
2012-03-07 13:12:47 	211 		585 	0 	
2012-03-07 13:19:57 	219 		395 	0 	
2012-03-07 13:34:44 	307 		400 	0 	
2012-03-07 13:35:34 	415 		395 	0 	
2012-03-07 13:37:23 	220 		395 	0 	
2012-03-07 13:38:02 	419 		395 	0 	
2012-03-07 13:41:03 	209 		275 	0 	
2012-03-07 13:42:04 	308 		535 	0 	
2012-03-07 13:52:08 	417 		395 	0 	
2012-03-07 13:52:14 	421 		395 	0 	
2012-03-07 13:56:44 	315 		395 	0 	
2012-03-07 14:01:01 	322 		395 	0 	
2012-03-07 14:04:53 	409 		395 	0 	
2012-03-07 14:15:55 	319 		395 	0 	
2012-03-07 14:17:41 	321 		395 	0 	
2012-03-07 14:19:46 	313 		395 	0 	
2012-03-07 14:22:17 	304 		395 	0 	
2012-03-07 14:24:11 	317 		395 	0 	
2012-03-07 14:30:34 	307 		395 	0 	
2012-03-07 14:32:36 	315 		590 	0 	
2012-03-07 14:32:49 	317 		50 	0 	
2012-03-07 14:40:13 	210 		345 	0 	
2012-03-07 14:40:55 	312 		395 	0 	
2012-03-07 14:53:34 	316 		345 	0 	
2012-03-07 15:00:03 	412 		395 	0 	
2012-03-07 15:02:50 	218 		395 	0 	
2012-03-07 15:11:19 	302 		395 	0 	
2012-03-07 15:14:29 	316 		65 	0 	
2012-03-07 15:21:20 	401 		395 	0 	
2012-03-07 15:29:10 	404 		395 	0 	
2012-03-07 15:42:19 	421 		420 	0 	
2012-03-07 15:47:16 	408 		395 	0 	
2012-03-07 15:54:15 	307 		50 	0 	
2012-03-07 15:56:18 	306 		395 	0 	
 			Total:		25322 	0		

=== RECHIT LIST ===




V1