MSHOGUN 1: SHIFT END REPORT
Saturday December 31, 2011 8:00:20 AM

SALES TRANSACTION
Room Sales Order			30735
FnB Sales Order			1735
Beer Sales Order			165
Misc Sales Order			55
Room Sales Adjustment			0
GROSS SALES			32690

DISCOUNT
Room				0
FnB				0
Misc				0

DEPOSIT				2625
REFUND				

TOTAL ACCOUNTABILITY			35315

CASH DECLARATION			1890
CARD				2070
FUNDS SAFEKEEP			10000
TOTAL CASH DECLARED			13960

TOTAL CASH ON SYSTEM			3475
OVER/SHORTAGES 			-1585

ROOM	 # OF CHECK-OUT	AMT
Value 		13	6595
Regular 		12	5580
Classique 		32	18560
Premium 		0	0
Regent 		0	0
Queen 		0	0
Gemini 		0	0
Family 		0	0
Executive Suite 	0	0
Mega Suite 	0	0

DISCOUNT 
Value 			  
Regular 		  
Classique 		  
Premium 		  
Regent 			  
Queen 		  
Gemini 		  
Family 		  
Executive Suite 	  
Mega Suite 		  


=== RESERVATIONS ===

Deposits:


Claimed:



SECURITY DEPOSITS

Deposits:
Claimed:


=== SALES BREAKDOWN ===

Transaction Date	Room No.	Cash	Card

2011-12-31 00:02:57 	408 		315 	0 	
2011-12-31 00:06:14 	220 		395 	0 	
2011-12-31 00:11:11 	312 		695 	0 	
2011-12-31 00:17:35 	401 		395 	0 	
2011-12-31 00:31:52 	411 		575 	0 	
2011-12-31 00:32:40 	322 		395 	0 	
2011-12-31 00:55:51 	210 		345 	0 	
2011-12-31 00:59:25 	209 		275 	0 	
2011-12-31 01:17:48 	214 		375 	0 	
2011-12-31 01:25:25 	311 		575 	0 	
2011-12-31 01:30:49 	306 		60 	0 	
2011-12-31 01:34:38 	309 		395 	0 	
2011-12-31 01:35:42 	211 		585 	0 	
2011-12-31 01:42:28 	301 		395 	0 	
2011-12-31 01:46:31 	310 		575 	0 	
2011-12-31 01:57:09 	319 		0 	560 	
2011-12-31 01:58:25 	401 		535 	0 	
2011-12-31 01:59:53 	208 		275 	0 	
2011-12-31 02:20:38 	301 		80 	0 	
2011-12-31 02:23:58 	220 		395 	0 	
2011-12-31 02:23:58 	220 		105 	0 	
2011-12-31 02:29:47 	319 		395 	0 	
2011-12-31 02:37:31 	201 		120 	0 	
2011-12-31 02:43:09 	220 		50 	0 	
2011-12-31 02:43:39 	417 		395 	0 	
2011-12-31 03:03:35 	417 		15 	0 	
2011-12-31 03:30:28 	208 		275 	0 	
2011-12-31 04:41:17 	417 		535 	0 	
2011-12-31 04:55:53 	209 		100 	0 	
2011-12-31 05:01:15 	417 		20 	0 	
2011-12-31 05:11:04 	213 		345 	0 	
2011-12-31 05:44:43 	210 		345 	0 	
2011-12-31 06:40:03 	415 		200 	0 	
2011-12-31 06:44:45 	403 		585 	0 	
2011-12-31 06:51:44 	404 		300 	0 	
2011-12-31 06:52:10 	307 		210 	0 	
2011-12-31 06:56:03 	313 		395 	0 	
2011-12-31 07:01:52 	205 		585 	0 	
2011-12-31 07:16:15 	315 		395 	0 	
2011-12-31 07:28:56 	311 		575 	0 	
 			Total:		13580 	560		

=== RECHIT LIST ===




V1