MSHOGUN 1: SHIFT END REPORT
Tuesday January 11, 2011 4:00:19 PM

SALES TRANSACTION
Room Sales Order			31365
FnB Sales Order			2451
Beer Sales Order			435
Misc Sales Order			190
Room Sales Adjustment			0
GROSS SALES			34441

DISCOUNT
Room				0
FnB				0
Misc				0

DEPOSIT				8625
REFUND				

TOTAL ACCOUNTABILITY			43066

CASH DECLARATION			7490
CARD				345
FUNDS SAFEKEEP			20000
TOTAL CASH DECLARED			27835

TOTAL CASH ON SYSTEM			7490
OVER/SHORTAGES 			0

ROOM	 # OF CHECK-OUT	AMT
Value 		8	2820
Regular 		21	10305
Classique 		36	18240
Premium 		0	0
Regent 		0	0
Queen 		0	0
Gemini 		0	0
Family 		0	0
Executive Suite 	0	0
Mega Suite 	0	0

DISCOUNT 
Value 			  
Regular 		  
Classique 		  
Premium 		  
Regent 			  
Queen 		  
Gemini 		  
Family 		  
Executive Suite 	  
Mega Suite 		  


=== RESERVATIONS ===

Deposits:


Claimed:



SECURITY DEPOSITS

Deposits:
Claimed:


=== SALES BREAKDOWN ===

Transaction Date	Room No.	Cash	Card

2011-01-11 08:05:38 	306 		395 	0 	
2011-01-11 08:15:51 	309 		395 	0 	
2011-01-11 08:22:32 	214 		300 	0 	
2011-01-11 08:38:02 	409 		573 	0 	
2011-01-11 08:49:08 	312 		316 	0 	
2011-01-11 08:53:33 	215 		120 	0 	
2011-01-11 09:10:08 	301 		395 	0 	
2011-01-11 09:14:46 	405 		160 	0 	
2011-01-11 09:32:33 	317 		395 	0 	
2011-01-11 09:42:11 	319 		395 	0 	
2011-01-11 09:43:01 	304 		50 	0 	
2011-01-11 09:44:10 	312 		20 	0 	
2011-01-11 09:44:24 	409 		125 	0 	
2011-01-11 09:55:17 	203 		345 	0 	
2011-01-11 09:55:57 	324 		275 	0 	
2011-01-11 09:56:12 	324 		20 	0 	
2011-01-11 10:07:56 	405 		275 	0 	
2011-01-11 10:13:58 	320 		710 	0 	
2011-01-11 10:15:50 	205 		345 	0 	
2011-01-11 10:19:20 	303 		240 	0 	
2011-01-11 10:27:31 	402 		395 	0 	
2011-01-11 10:32:16 	414 		345 	0 	
2011-01-11 11:00:10 	212 		275 	0 	
2011-01-11 11:07:57 	406 		395 	0 	
2011-01-11 11:08:08 	202 		345 	0 	
2011-01-11 11:09:22 	318 		585 	0 	
2011-01-11 11:16:16 	407 		395 	0 	
2011-01-11 11:26:13 	403 		345 	0 	
2011-01-11 11:33:01 	319 		260 	0 	
2011-01-11 11:33:17 	404 		395 	0 	
2011-01-11 11:33:27 	419 		395 	0 	
2011-01-11 11:42:28 	421 		395 	0 	
2011-01-11 11:44:35 	422 		395 	0 	
2011-01-11 11:52:27 	317 		395 	0 	
2011-01-11 11:59:19 	316 		345 	0 	
2011-01-11 12:01:11 	404 		300 	0 	
2011-01-11 12:03:07 	412 		375 	0 	
2011-01-11 12:12:32 	206 		345 	0 	
2011-01-11 12:15:05 	420 		345 	0 	
2011-01-11 12:17:15 	315 		316 	0 	
2011-01-11 12:21:18 	410 		275 	0 	
2011-01-11 12:21:35 	310 		475 	0 	
2011-01-11 12:33:23 	306 		395 	0 	
2011-01-11 12:45:15 	416 		345 	0 	
2011-01-11 12:57:51 	405 		150 	0 	
2011-01-11 13:02:52 	320 		345 	0 	
2011-01-11 13:04:20 	303 		345 	0 	
2011-01-11 13:06:50 	210 		465 	0 	
2011-01-11 13:16:49 	411 		275 	0 	
2011-01-11 13:20:56 	312 		395 	0 	
2011-01-11 13:23:13 	323 		275 	0 	
2011-01-11 13:26:38 	309 		395 	0 	
2011-01-11 13:32:16 	314 		290 	0 	
2011-01-11 13:34:43 	218 		395 	0 	
2011-01-11 13:37:24 	319 		395 	0 	
2011-01-11 13:45:58 	324 		275 	0 	
2011-01-11 13:46:19 	301 		395 	0 	
2011-01-11 14:07:52 	403 		345 	0 	
2011-01-11 14:13:50 	315 		395 	0 	
2011-01-11 14:15:47 	304 		395 	0 	
2011-01-11 14:23:55 	314 		585 	0 	
2011-01-11 14:24:43 	321 		395 	0 	
2011-01-11 14:35:05 	313 		395 	0 	
2011-01-11 14:38:23 	308 		395 	0 	
2011-01-11 14:43:55 	413 		395 	0 	
2011-01-11 14:54:16 	408 		395 	0 	
2011-01-11 14:56:44 	402 		395 	0 	
2011-01-11 14:56:53 	407 		395 	0 	
2011-01-11 14:58:20 	406 		140 	0 	
2011-01-11 15:08:21 	409 		395 	0 	
2011-01-11 15:28:04 	412 		395 	0 	
2011-01-11 15:31:03 	321 		370 	0 	
2011-01-11 15:31:16 	408 		105 	0 	
2011-01-11 15:31:35 	311 		275 	0 	
2011-01-11 15:35:31 	312 		235 	0 	
2011-01-11 15:36:12 	417 		395 	0 	
2011-01-11 15:37:35 	215 		345 	0 	
2011-01-11 15:39:03 	307 		395 	0 	
2011-01-11 15:49:43 	409 		90 	0 	
2011-01-11 15:53:22 	306 		395 	0 	
2011-01-11 15:57:55 	317 		395 	0 	
 			Total:		27490 	0		

=== RECHIT LIST ===




V1