MSHOGUN 1: SHIFT END REPORT
Thursday December 30, 2010 8:00:02 AM

SALES TRANSACTION
Room Sales Order			26935
FnB Sales Order			1535
Beer Sales Order			325
Misc Sales Order			80
Room Sales Adjustment			0
GROSS SALES			28875

DISCOUNT
Room				0
FnB				0
Misc				0

DEPOSIT				6535
REFUND				

TOTAL ACCOUNTABILITY			35410

CASH DECLARATION			7910
CARD				0
FUNDS SAFEKEEP			10000
TOTAL CASH DECLARED			17910

TOTAL CASH ON SYSTEM			7910
OVER/SHORTAGES 			0

ROOM	 # OF CHECK-OUT	AMT
Value 		12	6460
Regular 		17	7305
Classique 		26	13170
Premium 		0	0
Regent 		0	0
Queen 		0	0
Gemini 		0	0
Family 		0	0
Executive Suite 	0	0
Mega Suite 	0	0

DISCOUNT 
Value 			  
Regular 		  
Classique 		  
Premium 		  
Regent 			  
Queen 		  
Gemini 		  
Family 		  
Executive Suite 	  
Mega Suite 		  


=== RESERVATIONS ===

Deposits:


Claimed:



SECURITY DEPOSITS

Deposits:
Claimed:


=== SALES BREAKDOWN ===

Transaction Date	Room No.	Cash	Card

2010-12-30 00:05:39 	205 		465 	0 	
2010-12-30 00:07:10 	208 		275 	0 	
2010-12-30 00:08:39 	213 		10 	0 	
2010-12-30 00:12:02 	204 		345 	0 	
2010-12-30 00:13:32 	218 		395 	0 	
2010-12-30 00:15:50 	321 		695 	0 	
2010-12-30 00:16:38 	306 		395 	0 	
2010-12-30 00:18:24 	317 		695 	0 	
2010-12-30 00:19:00 	219 		695 	0 	
2010-12-30 00:31:53 	220 		395 	0 	
2010-12-30 00:36:04 	322 		695 	0 	
2010-12-30 00:40:07 	217 		375 	0 	
2010-12-30 00:52:24 	313 		55 	0 	
2010-12-30 00:53:19 	310 		275 	0 	
2010-12-30 01:00:57 	203 		585 	0 	
2010-12-30 01:11:36 	307 		395 	0 	
2010-12-30 01:15:50 	404 		110 	0 	
2010-12-30 01:17:21 	304 		200 	0 	
2010-12-30 01:17:48 	202 		345 	0 	
2010-12-30 01:30:32 	415 		55 	0 	
2010-12-30 01:42:25 	303 		585 	0 	
2010-12-30 01:53:27 	306 		395 	0 	
2010-12-30 01:53:35 	309 		395 	0 	
2010-12-30 01:54:51 	213 		345 	0 	
2010-12-30 01:57:28 	313 		535 	0 	
2010-12-30 02:04:02 	319 		695 	0 	
2010-12-30 02:10:15 	406 		695 	0 	
2010-12-30 02:22:26 	412 		395 	0 	
2010-12-30 02:46:03 	321 		50 	0 	
2010-12-30 02:59:12 	301 		395 	0 	
2010-12-30 03:00:29 	309 		85 	0 	
2010-12-30 03:21:56 	218 		10 	0 	
2010-12-30 03:31:20 	301 		235 	0 	
2010-12-30 03:44:15 	215 		345 	0 	
2010-12-30 03:53:48 	318 		345 	0 	
2010-12-30 04:03:46 	215 		20 	0 	
2010-12-30 04:18:27 	302 		420 	0 	
2010-12-30 04:20:30 	422 		420 	0 	
2010-12-30 04:54:42 	409 		395 	0 	
2010-12-30 05:25:19 	409 		205 	0 	
2010-12-30 05:51:15 	217 		100 	0 	
2010-12-30 05:54:47 	306 		140 	0 	
2010-12-30 06:12:12 	311 		110 	0 	
2010-12-30 06:18:28 	221 		395 	0 	
2010-12-30 06:18:42 	320 		345 	0 	
2010-12-30 06:50:32 	209 		275 	0 	
2010-12-30 06:50:52 	309 		280 	0 	
2010-12-30 06:55:10 	414 		345 	0 	
2010-12-30 07:05:41 	208 		400 	0 	
2010-12-30 07:24:21 	303 		705 	0 	
2010-12-30 07:35:00 	304 		395 	0 	
 			Total:		17910 	0		

=== RECHIT LIST ===




V1