MSHOGUN 1: SHIFT END REPORT
Saturday January 15, 2011 4:02:05 PM

SALES TRANSACTION
Room Sales Order			40520
FnB Sales Order			4113
Beer Sales Order			135
Misc Sales Order			90
Room Sales Adjustment			0
GROSS SALES			44858

DISCOUNT
Room				0
FnB				0
Misc				0

DEPOSIT				17470
REFUND				

TOTAL ACCOUNTABILITY			62328

CASH DECLARATION			8356
CARD				1510
FUNDS SAFEKEEP			30000
TOTAL CASH DECLARED			39866

TOTAL CASH ON SYSTEM			8336
OVER/SHORTAGES 			20

ROOM	 # OF CHECK-OUT	AMT
Value 		10	3710
Regular 		23	12015
Classique 		45	24795
Premium 		0	0
Regent 		0	0
Queen 		0	0
Gemini 		0	0
Family 		0	0
Executive Suite 	0	0
Mega Suite 	0	0

DISCOUNT 
Value 			  
Regular 		  
Classique 		  
Premium 		  
Regent 			  
Queen 		  
Gemini 		  
Family 		  
Executive Suite 	  
Mega Suite 		  


=== RESERVATIONS ===

Deposits:


Claimed:



SECURITY DEPOSITS

Deposits:
Claimed:


=== SALES BREAKDOWN ===

Transaction Date	Room No.	Cash	Card

2011-01-15 08:05:39 	218 		395 	0 	
2011-01-15 08:08:44 	301 		395 	0 	
2011-01-15 08:30:18 	317 		25 	0 	
2011-01-15 08:46:58 	304 		395 	0 	
2011-01-15 09:02:04 	306 		395 	0 	
2011-01-15 09:03:31 	311 		275 	0 	
2011-01-15 09:12:03 	207 		345 	0 	
2011-01-15 09:13:25 	219 		395 	0 	
2011-01-15 09:14:39 	308 		395 	0 	
2011-01-15 09:18:38 	315 		140 	0 	
2011-01-15 09:20:02 	401 		140 	0 	
2011-01-15 09:37:39 	313 		365 	0 	
2011-01-15 09:41:33 	421 		200 	0 	
2011-01-15 09:42:32 	321 		395 	0 	
2011-01-15 09:42:41 	213 		585 	0 	
2011-01-15 09:45:44 	210 		345 	0 	
2011-01-15 10:06:06 	321 		30 	0 	
2011-01-15 10:14:25 	324 		275 	0 	
2011-01-15 10:20:47 	319 		395 	0 	
2011-01-15 10:31:16 	419 		708 	0 	
2011-01-15 10:35:12 	221 		395 	0 	
2011-01-15 10:46:42 	204 		345 	0 	
2011-01-15 10:51:48 	206 		345 	0 	
2011-01-15 11:02:24 	407 		395 	0 	
2011-01-15 11:05:12 	402 		395 	0 	
2011-01-15 11:15:27 	313 		140 	0 	
2011-01-15 11:22:51 	215 		585 	0 	
2011-01-15 11:25:22 	302 		395 	0 	
2011-01-15 11:39:17 	315 		316 	0 	
2011-01-15 11:54:14 	303 		345 	0 	
2011-01-15 11:56:08 	316 		345 	0 	
2011-01-15 12:04:14 	314 		345 	0 	
2011-01-15 12:08:40 	402 		310 	0 	
2011-01-15 12:10:10 	309 		395 	0 	
2011-01-15 12:15:27 	317 		675 	0 	
2011-01-15 12:23:05 	301 		395 	0 	
2011-01-15 12:36:15 	208 		275 	0 	
2011-01-15 12:44:52 	309 		210 	0 	
2011-01-15 12:45:30 	203 		345 	0 	
2011-01-15 12:45:59 	408 		140 	0 	
2011-01-15 12:48:20 	320 		705 	0 	
2011-01-15 12:57:45 	219 		395 	0 	
2011-01-15 12:58:20 	304 		395 	0 	
2011-01-15 12:58:34 	218 		395 	0 	
2011-01-15 13:03:32 	209 		275 	0 	
2011-01-15 13:09:25 	212 		275 	0 	
2011-01-15 13:10:13 	213 		397 	0 	
2011-01-15 13:11:10 	418 		210 	0 	
2011-01-15 13:11:42 	307 		395 	0 	
2011-01-15 13:12:59 	216 		275 	0 	
2011-01-15 13:19:05 	211 		345 	0 	
2011-01-15 13:22:44 	220 		395 	0 	
2011-01-15 13:24:54 	207 		345 	0 	
2011-01-15 13:25:52 	217 		375 	0 	
2011-01-15 13:26:47 	403 		465 	0 	
2011-01-15 13:30:45 	414 		345 	0 	
2011-01-15 13:41:33 	416 		345 	0 	
2011-01-15 13:41:43 	420 		345 	0 	
2011-01-15 13:43:28 	313 		395 	0 	
2011-01-15 13:44:27 	308 		395 	0 	
2011-01-15 13:45:10 	315 		395 	0 	
2011-01-15 13:46:52 	306 		395 	0 	
2011-01-15 14:03:24 	321 		395 	0 	
2011-01-15 14:07:06 	310 		275 	0 	
2011-01-15 14:07:19 	402 		395 	0 	
2011-01-15 14:10:19 	406 		395 	0 	
2011-01-15 14:10:28 	413 		395 	0 	
2011-01-15 14:10:38 	318 		465 	0 	
2011-01-15 14:10:44 	404 		395 	0 	
2011-01-15 14:15:06 	215 		425 	0 	
2011-01-15 14:15:08 	215 		65 	0 	
2011-01-15 14:15:32 	217 		225 	0 	
2011-01-15 14:20:08 	319 		395 	0 	
2011-01-15 14:21:54 	311 		275 	0 	
2011-01-15 14:22:45 	415 		395 	0 	
2011-01-15 14:27:01 	408 		395 	0 	
2011-01-15 14:29:14 	417 		395 	0 	
2011-01-15 14:29:41 	204 		345 	0 	
2011-01-15 14:31:35 	316 		345 	0 	
2011-01-15 14:33:30 	407 		395 	0 	
2011-01-15 14:33:59 	419 		395 	0 	
2011-01-15 14:34:07 	421 		395 	0 	
2011-01-15 14:36:38 	409 		395 	0 	
2011-01-15 14:36:45 	422 		395 	0 	
2011-01-15 14:37:43 	418 		345 	0 	
2011-01-15 14:43:40 	307 		395 	0 	
2011-01-15 14:46:21 	315 		395 	0 	
2011-01-15 14:49:19 	213 		345 	0 	
2011-01-15 14:50:28 	305 		275 	0 	
2011-01-15 14:54:17 	410 		275 	0 	
2011-01-15 14:55:18 	201 		345 	0 	
2011-01-15 14:58:03 	221 		395 	0 	
2011-01-15 15:00:55 	210 		345 	0 	
2011-01-15 15:01:04 	202 		345 	0 	
2011-01-15 15:01:14 	210 		20 	0 	
2011-01-15 15:02:40 	206 		345 	0 	
2011-01-15 15:03:58 	411 		275 	0 	
2011-01-15 15:08:59 	305 		45 	0 	
2011-01-15 15:09:41 	423 		275 	0 	
2011-01-15 15:13:10 	424 		275 	0 	
2011-01-15 15:17:26 	324 		275 	0 	
2011-01-15 15:24:19 	411 		90 	0 	
2011-01-15 15:24:31 	318 		50 	0 	
2011-01-15 15:24:41 	424 		45 	0 	
2011-01-15 15:28:35 	308 		395 	0 	
2011-01-15 15:30:25 	313 		395 	0 	
2011-01-15 15:31:18 	313 		50 	0 	
2011-01-15 15:38:17 	301 		395 	0 	
2011-01-15 15:50:37 	302 		140 	0 	
2011-01-15 15:52:37 	204 		160 	0 	
2011-01-15 15:53:44 	305 		140 	0 	
2011-01-15 15:54:52 	207 		240 	0 	
2011-01-15 15:59:01 	203 		585 	0 	
2011-01-15 15:59:07 	312 		395 	0 	
2011-01-15 15:59:14 	304 		395 	0 	
 			Total:		38336 	0		

=== RECHIT LIST ===




V1