MSHOGUN 1: SHIFT END REPORT
Wednesday February 23, 2011 8:00:47 AM

SALES TRANSACTION
Room Sales Order			14900
FnB Sales Order			395
Beer Sales Order			160
Misc Sales Order			0
Room Sales Adjustment			0
GROSS SALES			15455

DISCOUNT
Room				0
FnB				0
Misc				0

DEPOSIT				2900
REFUND				

TOTAL ACCOUNTABILITY			18355

CASH DECLARATION			7490
CARD				0
FUNDS SAFEKEEP			0
TOTAL CASH DECLARED			7490

TOTAL CASH ON SYSTEM			7490
OVER/SHORTAGES 			0

ROOM	 # OF CHECK-OUT	AMT
Value 		1	595
Regular 		5	2385
Classique 		20	11920
Premium 		0	0
Regent 		0	0
Queen 		0	0
Gemini 		0	0
Family 		0	0
Executive Suite 	0	0
Mega Suite 	0	0

DISCOUNT 
Value 			  
Regular 		  
Classique 		  
Premium 		  
Regent 			  
Queen 		  
Gemini 		  
Family 		  
Executive Suite 	  
Mega Suite 		  


=== RESERVATIONS ===

Deposits:


Claimed:



SECURITY DEPOSITS

Deposits:
Claimed:


=== SALES BREAKDOWN ===

Transaction Date	Room No.	Cash	Card

2011-02-23 00:04:17 	308 		695 	0 	
2011-02-23 00:12:34 	304 		695 	0 	
2011-02-23 00:23:12 	309 		220 	0 	
2011-02-23 00:39:13 	414 		50 	0 	
2011-02-23 00:41:47 	219 		695 	0 	
2011-02-23 00:52:11 	301 		395 	0 	
2011-02-23 01:45:12 	307 		695 	0 	
2011-02-23 02:00:00 	312 		395 	0 	
2011-02-23 03:00:50 	309 		395 	0 	
2011-02-23 03:09:32 	404 		395 	0 	
2011-02-23 03:52:12 	201 		345 	0 	
2011-02-23 04:00:03 	307 		235 	0 	
2011-02-23 04:19:37 	402 		280 	0 	
2011-02-23 04:57:39 	220 		50 	0 	
2011-02-23 05:59:38 	210 		705 	0 	
2011-02-23 06:09:18 	209 		375 	0 	
2011-02-23 06:10:22 	314 		165 	0 	
2011-02-23 06:33:33 	407 		50 	0 	
2011-02-23 06:56:55 	419 		260 	0 	
2011-02-23 07:53:19 	220 		395 	0 	
 			Total:		7490 	0		

=== RECHIT LIST ===




V1