MSHOGUN 1: SHIFT END REPORT
Friday October 01, 2010 4:01:15 PM

SALES TRANSACTION
Room Sales Order			32390
FnB Sales Order			2918
Beer Sales Order			0
Misc Sales Order			90
Room Sales Adjustment			0
GROSS SALES			35398

DISCOUNT
Room				0
FnB				0
Misc				0

DEPOSIT				21365
REFUND				

TOTAL ACCOUNTABILITY			56763

CASH DECLARATION			6020
CARD				0
FUNDS SAFEKEEP			30000
TOTAL CASH DECLARED			36020

TOTAL CASH ON SYSTEM			6021
OVER/SHORTAGES 			-1

ROOM	 # OF CHECK-OUT	AMT
Value 		9	4075
Regular 		13	6165
Classique 		30	14950
Premium 		1	750
Regent 		6	5600
Queen 		1	850
Gemini 		0	0
Family 		0	0
Executive Suite 	0	0
Mega Suite 	0	0

DISCOUNT 
Value 			  
Regular 		  
Classique 		  
Premium 		  
Regent 			  
Queen 		  
Gemini 		  
Family 		  
Executive Suite 	  
Mega Suite 		  


=== RESERVATIONS ===

Deposits:


Claimed:



SECURITY DEPOSITS

Deposits:
Claimed:


=== SALES BREAKDOWN ===

Transaction Date	Room No.	Cash	Card

2010-10-01 08:06:16 	424 		198 	0 	
2010-10-01 08:07:52 	412 		535 	0 	
2010-10-01 08:17:53 	421 		435 	0 	
2010-10-01 08:25:59 	502 		1600 	0 	
2010-10-01 09:12:28 	418 		20 	0 	
2010-10-01 09:18:10 	211 		345 	0 	
2010-10-01 09:41:48 	515 		1600 	0 	
2010-10-01 09:45:35 	302 		535 	0 	
2010-10-01 09:49:04 	505 		330 	0 	
2010-10-01 10:00:41 	608 		40 	0 	
2010-10-01 10:12:27 	515 		305 	0 	
2010-10-01 10:12:39 	422 		395 	0 	
2010-10-01 10:18:46 	317 		395 	0 	
2010-10-01 10:21:22 	221 		535 	0 	
2010-10-01 10:26:06 	420 		210 	0 	
2010-10-01 10:34:37 	318 		240 	0 	
2010-10-01 10:42:39 	218 		10 	0 	
2010-10-01 10:56:56 	312 		395 	0 	
2010-10-01 10:59:06 	319 		395 	0 	
2010-10-01 11:06:17 	213 		585 	0 	
2010-10-01 11:09:13 	212 		275 	0 	
2010-10-01 11:17:22 	305 		275 	0 	
2010-10-01 11:17:29 	301 		395 	0 	
2010-10-01 11:31:29 	320 		705 	0 	
2010-10-01 11:39:54 	306 		395 	0 	
2010-10-01 11:40:07 	210 		345 	0 	
2010-10-01 11:46:25 	413 		316 	0 	
2010-10-01 11:46:47 	415 		395 	0 	
2010-10-01 11:51:38 	303 		345 	0 	
2010-10-01 12:07:31 	305 		20 	0 	
2010-10-01 12:16:43 	209 		575 	0 	
2010-10-01 12:17:11 	309 		395 	0 	
2010-10-01 12:20:34 	316 		345 	0 	
2010-10-01 12:31:44 	321 		395 	0 	
2010-10-01 12:31:53 	308 		395 	0 	
2010-10-01 12:32:35 	307 		395 	0 	
2010-10-01 12:32:49 	217 		275 	0 	
2010-10-01 12:36:49 	215 		345 	0 	
2010-10-01 12:47:34 	507 		75 	0 	
2010-10-01 12:49:07 	403 		345 	0 	
2010-10-01 12:49:21 	304 		395 	0 	
2010-10-01 13:22:02 	213 		210 	0 	
2010-10-01 13:22:31 	321 		20 	0 	
2010-10-01 13:23:45 	406 		395 	0 	
2010-10-01 13:23:57 	313 		395 	0 	
2010-10-01 13:24:09 	421 		395 	0 	
2010-10-01 13:24:22 	404 		395 	0 	
2010-10-01 13:25:00 	407 		395 	0 	
2010-10-01 13:25:57 	Lobby 		325 	0 	
2010-10-01 13:27:07 	315 		395 	0 	
2010-10-01 13:27:57 	408 		395 	0 	
2010-10-01 13:33:36 	506 		800 	0 	
2010-10-01 13:33:44 	417 		395 	0 	
2010-10-01 13:34:51 	502 		205 	0 	
2010-10-01 13:42:28 	514 		1600 	0 	
2010-10-01 13:47:10 	306 		395 	0 	
2010-10-01 13:47:36 	208 		275 	0 	
2010-10-01 13:48:11 	312 		395 	0 	
2010-10-01 14:00:10 	307 		250 	0 	
2010-10-01 14:02:10 	418 		345 	0 	
2010-10-01 14:05:29 	301 		395 	0 	
2010-10-01 14:08:56 	321 		205 	0 	
2010-10-01 14:10:58 	302 		395 	0 	
2010-10-01 14:15:25 	409 		395 	0 	
2010-10-01 14:18:36 	415 		395 	0 	
2010-10-01 14:21:10 	305 		275 	0 	
2010-10-01 14:24:16 	317 		395 	0 	
2010-10-01 14:41:20 	513 		800 	0 	
2010-10-01 14:41:34 	216 		275 	0 	
2010-10-01 14:41:51 	422 		395 	0 	
2010-10-01 14:47:14 	402 		316 	0 	
2010-10-01 14:48:15 	218 		395 	0 	
2010-10-01 14:49:58 	309 		395 	0 	
2010-10-01 14:54:10 	305 		240 	0 	
2010-10-01 14:56:15 	608 		850 	0 	
2010-10-01 15:03:04 	316 		345 	0 	
2010-10-01 15:05:29 	318 		345 	0 	
2010-10-01 15:12:35 	303 		345 	0 	
2010-10-01 15:12:44 	416 		465 	0 	
2010-10-01 15:17:43 	319 		395 	0 	
2010-10-01 15:20:49 	304 		110 	0 	
2010-10-01 15:21:57 	219 		395 	0 	
2010-10-01 15:23:55 	420 		345 	0 	
2010-10-01 15:24:32 	211 		345 	0 	
2010-10-01 15:28:46 	210 		276 	0 	
2010-10-01 15:34:37 	307 		0 	395 	
2010-10-01 15:37:18 	220 		395 	0 	
2010-10-01 15:38:32 	221 		395 	0 	
2010-10-01 15:43:18 	304 		395 	0 	
2010-10-01 15:47:36 	310 		275 	0 	
2010-10-01 15:48:06 	320 		170 	0 	
2010-10-01 15:48:28 	220 		25 	0 	
2010-10-01 15:55:24 	308 		395 	0 	
 			Total:		36021 	395		

=== RECHIT LIST ===




V1