MSHOGUN 1: SHIFT END REPORT
Sunday January 02, 2011 4:00:08 PM

SALES TRANSACTION
Room Sales Order			30950
FnB Sales Order			1530
Beer Sales Order			0
Misc Sales Order			20
Room Sales Adjustment			0
GROSS SALES			32500

DISCOUNT
Room				0
FnB				0
Misc				0

DEPOSIT				17220
REFUND				

TOTAL ACCOUNTABILITY			49720

CASH DECLARATION			3431
CARD				0
FUNDS SAFEKEEP			30000
TOTAL CASH DECLARED			33431

TOTAL CASH ON SYSTEM			3521
OVER/SHORTAGES 			-90

ROOM	 # OF CHECK-OUT	AMT
Value 		11	4085
Regular 		13	6705
Classique 		36	20160
Premium 		0	0
Regent 		0	0
Queen 		0	0
Gemini 		0	0
Family 		0	0
Executive Suite 	0	0
Mega Suite 	0	0

DISCOUNT 
Value 			  
Regular 		  
Classique 		  
Premium 		  
Regent 			  
Queen 		  
Gemini 		  
Family 		  
Executive Suite 	  
Mega Suite 		  


=== RESERVATIONS ===

Deposits:


Claimed:



SECURITY DEPOSITS

Deposits:
Claimed:


=== SALES BREAKDOWN ===

Transaction Date	Room No.	Cash	Card

2011-01-02 08:22:38 	404 		140 	0 	
2011-01-02 08:37:30 	309 		395 	0 	
2011-01-02 08:38:50 	211 		50 	0 	
2011-01-02 08:47:37 	312 		395 	0 	
2011-01-02 08:57:01 	307 		340 	0 	
2011-01-02 09:00:55 	303 		345 	0 	
2011-01-02 09:07:35 	207 		240 	0 	
2011-01-02 09:10:32 	422 		295 	0 	
2011-01-02 09:24:22 	306 		395 	0 	
2011-01-02 09:42:40 	307 		395 	0 	
2011-01-02 09:44:36 	319 		395 	0 	
2011-01-02 09:51:38 	318 		345 	0 	
2011-01-02 09:54:24 	221 		140 	0 	
2011-01-02 10:24:58 	403 		120 	0 	
2011-01-02 10:32:21 	305 		275 	0 	
2011-01-02 10:32:29 	311 		275 	0 	
2011-01-02 10:33:42 	310 		275 	0 	
2011-01-02 10:37:24 	304 		395 	0 	
2011-01-02 10:43:54 	302 		395 	0 	
2011-01-02 11:05:34 	312 		140 	0 	
2011-01-02 11:05:38 	312 		200 	0 	
2011-01-02 11:11:17 	209 		100 	0 	
2011-01-02 11:15:17 	314 		276 	0 	
2011-01-02 11:20:49 	315 		395 	0 	
2011-01-02 11:23:06 	208 		275 	0 	
2011-01-02 11:37:44 	320 		345 	0 	
2011-01-02 11:42:24 	301 		395 	0 	
2011-01-02 11:42:34 	322 		395 	0 	
2011-01-02 11:45:57 	308 		280 	0 	
2011-01-02 11:47:52 	206 		705 	0 	
2011-01-02 11:51:14 	317 		395 	0 	
2011-01-02 11:52:38 	207 		345 	0 	
2011-01-02 12:05:42 	309 		395 	0 	
2011-01-02 12:13:24 	324 		275 	0 	
2011-01-02 12:20:30 	217 		275 	0 	
2011-01-02 12:22:06 	313 		395 	0 	
2011-01-02 12:25:50 	312 		140 	0 	
2011-01-02 12:27:50 	321 		395 	0 	
2011-01-02 12:29:39 	206 		50 	0 	
2011-01-02 12:41:13 	303 		345 	0 	
2011-01-02 12:41:25 	306 		395 	0 	
2011-01-02 12:41:33 	210 		345 	0 	
2011-01-02 12:42:23 	219 		395 	0 	
2011-01-02 12:53:57 	220 		395 	0 	
2011-01-02 12:59:53 	402 		395 	0 	
2011-01-02 13:15:58 	404 		535 	0 	
2011-01-02 13:26:17 	206 		110 	0 	
2011-01-02 13:31:53 	312 		395 	0 	
2011-01-02 13:35:09 	406 		395 	0 	
2011-01-02 13:39:34 	218 		395 	0 	
2011-01-02 13:50:08 	309 		395 	0 	
2011-01-02 13:54:39 	304 		395 	0 	
2011-01-02 13:56:43 	302 		395 	0 	
2011-01-02 14:00:18 	219 		120 	0 	
2011-01-02 14:08:51 	209 		275 	0 	
2011-01-02 14:15:21 	308 		395 	0 	
2011-01-02 14:17:45 	407 		395 	0 	
2011-01-02 14:18:30 	408 		395 	0 	
2011-01-02 14:25:30 	319 		535 	0 	
2011-01-02 14:25:37 	212 		275 	0 	
2011-01-02 14:30:58 	203 		345 	0 	
2011-01-02 14:40:04 	318 		345 	0 	
2011-01-02 14:40:14 	214 		275 	0 	
2011-01-02 14:48:25 	315 		395 	0 	
2011-01-02 14:51:27 	307 		395 	0 	
2011-01-02 14:51:42 	403 		345 	0 	
2011-01-02 14:53:41 	413 		675 	0 	
2011-01-02 14:54:53 	219 		370 	0 	
2011-01-02 14:56:48 	221 		395 	0 	
2011-01-02 14:58:17 	305 		275 	0 	
2011-01-02 14:58:26 	317 		395 	0 	
2011-01-02 15:00:03 	419 		395 	0 	
2011-01-02 15:01:26 	417 		395 	0 	
2011-01-02 15:07:03 	211 		465 	0 	
2011-01-02 15:07:13 	415 		395 	0 	
2011-01-02 15:07:32 	309 		50 	0 	
2011-01-02 15:08:28 	322 		395 	0 	
2011-01-02 15:11:11 	406 		25 	0 	
2011-01-02 15:12:53 	215 		345 	0 	
2011-01-02 15:15:32 	422 		395 	0 	
2011-01-02 15:16:20 	208 		275 	0 	
2011-01-02 15:19:24 	204 		705 	0 	
2011-01-02 15:23:09 	202 		705 	0 	
2011-01-02 15:23:44 	421 		395 	0 	
2011-01-02 15:25:17 	313 		395 	0 	
2011-01-02 15:25:54 	220 		395 	0 	
2011-01-02 15:26:34 	216 		275 	0 	
2011-01-02 15:27:46 	401 		395 	0 	
2011-01-02 15:34:36 	412 		395 	0 	
2011-01-02 15:35:04 	409 		395 	0 	
2011-01-02 15:35:53 	205 		345 	0 	
2011-01-02 15:36:49 	320 		345 	0 	
2011-01-02 15:38:44 	314 		345 	0 	
2011-01-02 15:42:21 	301 		140 	0 	
2011-01-02 15:44:28 	311 		275 	0 	
2011-01-02 15:47:27 	215 		270 	0 	
2011-01-02 15:56:54 	310 		275 	0 	
2011-01-02 15:57:43 	402 		675 	0 	
 			Total:		33521 	0		

=== RECHIT LIST ===




V1