MSHOGUN 1: SHIFT END REPORT
Sunday December 19, 2010 8:00:04 AM

SALES TRANSACTION
Room Sales Order			35030
FnB Sales Order			2535
Beer Sales Order			365
Misc Sales Order			75
Room Sales Adjustment			0
GROSS SALES			38005

DISCOUNT
Room				0
FnB				0
Misc				0

DEPOSIT				7500
REFUND				

TOTAL ACCOUNTABILITY			45505

CASH DECLARATION			1910
CARD				0
FUNDS SAFEKEEP			20000
TOTAL CASH DECLARED			21910

TOTAL CASH ON SYSTEM			1910
OVER/SHORTAGES 			0

ROOM	 # OF CHECK-OUT	AMT
Value 		12	6220
Regular 		22	12030
Classique 		28	16780
Premium 		0	0
Regent 		0	0
Queen 		0	0
Gemini 		0	0
Family 		0	0
Executive Suite 	0	0
Mega Suite 	0	0

DISCOUNT 
Value 			  
Regular 		  
Classique 		  
Premium 		  
Regent 			  
Queen 		  
Gemini 		  
Family 		  
Executive Suite 	  
Mega Suite 		  


=== RESERVATIONS ===

Deposits:


Claimed:



SECURITY DEPOSITS

Deposits:
Claimed:


=== SALES BREAKDOWN ===

Transaction Date	Room No.	Cash	Card

2010-12-19 00:10:21 	208 		180 	0 	
2010-12-19 00:10:27 	208 		20 	0 	
2010-12-19 00:31:00 	301 		395 	0 	
2010-12-19 00:32:39 	220 		675 	0 	
2010-12-19 00:50:40 	412 		10 	0 	
2010-12-19 01:01:08 	210 		585 	0 	
2010-12-19 01:14:19 	306 		395 	0 	
2010-12-19 01:22:50 	409 		95 	0 	
2010-12-19 01:26:12 	322 		395 	0 	
2010-12-19 01:28:58 	208 		110 	0 	
2010-12-19 01:30:30 	321 		420 	0 	
2010-12-19 01:32:49 	409 		395 	0 	
2010-12-19 01:42:03 	321 		395 	0 	
2010-12-19 01:48:17 	301 		395 	0 	
2010-12-19 01:57:59 	215 		120 	0 	
2010-12-19 02:02:26 	215 		705 	0 	
2010-12-19 02:07:38 	206 		585 	0 	
2010-12-19 02:16:15 	208 		575 	0 	
2010-12-19 02:21:35 	312 		815 	0 	
2010-12-19 02:36:02 	311 		775 	0 	
2010-12-19 02:37:39 	206 		200 	0 	
2010-12-19 02:49:58 	211 		345 	0 	
2010-12-19 02:52:41 	311 		25 	0 	
2010-12-19 02:52:43 	311 		25 	0 	
2010-12-19 02:52:48 	311 		10 	0 	
2010-12-19 03:22:07 	207 		345 	0 	
2010-12-19 03:32:36 	416 		705 	0 	
2010-12-19 03:36:54 	303 		345 	0 	
2010-12-19 03:48:08 	205 		585 	0 	
2010-12-19 04:01:26 	314 		345 	0 	
2010-12-19 04:11:58 	407 		1095 	0 	
2010-12-19 04:14:48 	414 		550 	0 	
2010-12-19 04:21:26 	414 		345 	0 	
2010-12-19 04:35:42 	209 		275 	0 	
2010-12-19 04:59:33 	322 		535 	0 	
2010-12-19 05:05:05 	317 		395 	0 	
2010-12-19 05:09:17 	321 		50 	0 	
2010-12-19 05:14:48 	301 		535 	0 	
2010-12-19 05:16:13 	201 		120 	0 	
2010-12-19 05:29:54 	321 		535 	0 	
2010-12-19 05:31:40 	201 		345 	0 	
2010-12-19 05:37:42 	409 		140 	0 	
2010-12-19 05:40:44 	410 		200 	0 	
2010-12-19 05:41:28 	207 		465 	0 	
2010-12-19 05:57:00 	409 		395 	0 	
2010-12-19 06:07:10 	410 		275 	0 	
2010-12-19 06:07:56 	420 		235 	0 	
2010-12-19 06:08:08 	323 		275 	0 	
2010-12-19 06:10:00 	306 		280 	0 	
2010-12-19 06:10:52 	323 		200 	0 	
2010-12-19 06:11:33 	307 		815 	0 	
2010-12-19 06:14:03 	414 		305 	0 	
2010-12-19 06:41:17 	417 		420 	0 	
2010-12-19 07:15:20 	306 		675 	0 	
2010-12-19 07:18:33 	305 		135 	0 	
2010-12-19 07:28:15 	308 		395 	0 	
2010-12-19 07:29:51 	220 		280 	0 	
2010-12-19 07:39:30 	308 		20 	0 	
2010-12-19 07:39:41 	205 		155 	0 	
2010-12-19 07:45:12 	405 		100 	0 	
2010-12-19 07:50:39 	313 		395 	0 	
 			Total:		21910 	0		

=== RECHIT LIST ===




V1