MSHOGUN 1: SHIFT END REPORT
Monday March 28, 2011 7:59:40 AM

SALES TRANSACTION
Room Sales Order			21270
FnB Sales Order			1115
Beer Sales Order			595
Misc Sales Order			30
Room Sales Adjustment			0
GROSS SALES			23010

DISCOUNT
Room				0
FnB				0
Misc				0

DEPOSIT				5185
REFUND				

TOTAL ACCOUNTABILITY			28195

CASH DECLARATION			9515
CARD				1290
FUNDS SAFEKEEP			0
TOTAL CASH DECLARED			10805

TOTAL CASH ON SYSTEM			9410
OVER/SHORTAGES 			105

ROOM	 # OF CHECK-OUT	AMT
Value 		5	2015
Regular 		14	8310
Classique 		19	10945
Premium 		0	0
Regent 		0	0
Queen 		0	0
Gemini 		0	0
Family 		0	0
Executive Suite 	0	0
Mega Suite 	0	0

DISCOUNT 
Value 			  
Regular 		  
Classique 		  
Premium 		  
Regent 			  
Queen 		  
Gemini 		  
Family 		  
Executive Suite 	  
Mega Suite 		  


=== RESERVATIONS ===

Deposits:


Claimed:



SECURITY DEPOSITS

Deposits:
Claimed:


=== SALES BREAKDOWN ===

Transaction Date	Room No.	Cash	Card

2011-03-28 00:07:11 	412 		395 	0 	
2011-03-28 00:07:35 	413 		695 	0 	
2011-03-28 00:17:38 	417 		695 	0 	
2011-03-28 00:20:54 	209 		275 	0 	
2011-03-28 00:39:04 	212 		275 	0 	
2011-03-28 00:39:29 	210 		345 	0 	
2011-03-28 00:47:14 	322 		395 	0 	
2011-03-28 01:13:14 	306 		695 	0 	
2011-03-28 01:16:40 	414 		465 	0 	
2011-03-28 01:17:23 	209 		110 	0 	
2011-03-28 01:31:41 	311 		275 	0 	
2011-03-28 01:32:14 	311 		20 	0 	
2011-03-28 01:37:16 	401 		125 	0 	
2011-03-28 01:53:20 	321 		695 	0 	
2011-03-28 02:05:43 	210 		465 	0 	
2011-03-28 02:06:15 	210 		25 	0 	
2011-03-28 02:25:14 	417 		200 	0 	
2011-03-28 02:35:21 	324 		475 	0 	
2011-03-28 02:35:51 	324 		20 	0 	
2011-03-28 03:27:03 	312 		140 	0 	
2011-03-28 04:21:25 	220 		50 	0 	
2011-03-28 04:32:52 	205 		120 	0 	
2011-03-28 05:44:09 	320 		120 	0 	
2011-03-28 05:57:28 	309 		395 	0 	
2011-03-28 06:12:35 	206 		345 	0 	
2011-03-28 06:19:04 	208 		275 	0 	
2011-03-28 07:02:48 	404 		475 	0 	
2011-03-28 07:05:34 	424 		475 	0 	
2011-03-28 07:24:42 	416 		345 	0 	
2011-03-28 07:25:47 	318 		25 	0 	
 			Total:		9410 	0		

=== RECHIT LIST ===




V1