MSHOGUN 1: SHIFT END REPORT
Thursday August 05, 2010 12:00:50 AM

SALES TRANSACTION
Room Sales Order			35405
FnB Sales Order			2892
Beer Sales Order			620
Misc Sales Order			20
Room Sales Adjustment			0
GROSS SALES			38937

DISCOUNT
Room				0
FnB				0
Misc				0

DEPOSIT				35030
REFUND				

TOTAL ACCOUNTABILITY			73967

CASH DECLARATION			7919
CARD				0
FUNDS SAFEKEEP			50000
TOTAL CASH DECLARED			57919

TOTAL CASH ON SYSTEM			7919
OVER/SHORTAGES 			0

ROOM	 # OF CHECK-OUT	AMT
Value 		8	2400
Regular 		17	7545
Classique 		54	21610
Premium 		2	1200
Regent 		2	2100
Queen 		1	550
Gemini 		0	0
Family 		0	0
Executive Suite 	0	0
Mega Suite 	0	0

DISCOUNT 
Value 			  
Regular 		  
Classique 		  
Premium 		  
Regent 			  
Queen 		  
Gemini 		  
Family 		  
Executive Suite 	  
Mega Suite 		  


=== RESERVATIONS ===

Deposits:


Claimed:



SECURITY DEPOSITS

Deposits:
Claimed:


=== SALES BREAKDOWN ===

Transaction Date	Room No.	Cash	Card

2010-08-04 16:05:48 	321 		395 	0 	
2010-08-04 16:07:41 	601 		25 	0 	
2010-08-04 16:08:43 	609 		850 	0 	
2010-08-04 16:09:08 	310 		275 	0 	
2010-08-04 16:09:18 	313 		395 	0 	
2010-08-04 16:11:26 	308 		316 	0 	
2010-08-04 16:18:59 	304 		395 	0 	
2010-08-04 16:22:30 	402 		115 	0 	
2010-08-04 16:31:47 	413 		395 	0 	
2010-08-04 16:35:08 	409 		395 	0 	
2010-08-04 16:37:00 	419 		395 	0 	
2010-08-04 16:37:17 	421 		395 	0 	
2010-08-04 16:56:44 	412 		395 	0 	
2010-08-04 17:00:54 	507 		400 	0 	
2010-08-04 17:03:04 	401 		395 	0 	
2010-08-04 17:10:40 	309 		395 	0 	
2010-08-04 17:19:19 	307 		395 	0 	
2010-08-04 17:20:05 	605 		2100 	0 	
2010-08-04 17:41:47 	306 		395 	0 	
2010-08-04 17:48:04 	208 		275 	0 	
2010-08-04 17:48:14 	415 		395 	0 	
2010-08-04 17:49:25 	407 		395 	0 	
2010-08-04 17:56:15 	501 		1600 	0 	
2010-08-04 17:58:16 	601 		850 	0 	
2010-08-04 17:59:11 	301 		395 	0 	
2010-08-04 18:04:09 	218 		395 	0 	
2010-08-04 18:04:20 	219 		395 	0 	
2010-08-04 18:05:41 	209 		275 	0 	
2010-08-04 18:10:25 	415 		198 	0 	
2010-08-04 18:10:41 	220 		395 	0 	
2010-08-04 18:10:54 	221 		395 	0 	
2010-08-04 18:11:30 	406 		395 	0 	
2010-08-04 18:12:48 	302 		395 	0 	
2010-08-04 18:14:37 	508 		450 	0 	
2010-08-04 18:17:43 	304 		395 	0 	
2010-08-04 18:22:59 	616 		1250 	0 	
2010-08-04 18:31:11 	502 		800 	0 	
2010-08-04 18:34:04 	312 		395 	0 	
2010-08-04 18:34:30 	212 		275 	0 	
2010-08-04 18:36:32 	305 		275 	0 	
2010-08-04 18:38:43 	309 		731 	0 	
2010-08-04 18:41:42 	314 		120 	0 	
2010-08-04 18:45:11 	312 		50 	0 	
2010-08-04 18:47:38 	308 		395 	0 	
2010-08-04 18:50:30 	414 		276 	0 	
2010-08-04 18:55:35 	616 		625 	0 	
2010-08-04 18:55:55 	324 		595 	0 	
2010-08-04 19:00:55 	414 		30 	0 	
2010-08-04 19:04:10 	215 		645 	0 	
2010-08-04 19:13:22 	213 		645 	0 	
2010-08-04 19:13:40 	318 		465 	0 	
2010-08-04 19:14:27 	423 		595 	0 	
2010-08-04 19:14:42 	603 		75 	0 	
2010-08-04 19:16:15 	617 		850 	0 	
2010-08-04 19:20:06 	319 		395 	0 	
2010-08-04 19:20:55 	313 		316 	0 	
2010-08-04 19:21:27 	321 		395 	0 	
2010-08-04 19:28:09 	211 		345 	0 	
2010-08-04 19:30:20 	307 		695 	0 	
2010-08-04 19:30:31 	323 		275 	0 	
2010-08-04 19:35:24 	315 		395 	0 	
2010-08-04 19:39:56 	401 		395 	0 	
2010-08-04 19:42:57 	210 		345 	0 	
2010-08-04 19:52:50 	309 		395 	0 	
2010-08-04 19:55:52 	407 		695 	0 	
2010-08-04 20:00:27 	301 		395 	0 	
2010-08-04 20:00:39 	205 		345 	0 	
2010-08-04 20:01:20 	203 		645 	0 	
2010-08-04 20:03:13 	204 		345 	0 	
2010-08-04 20:04:23 	516 		50 	0 	
2010-08-04 20:04:52 	408 		695 	0 	
2010-08-04 20:06:56 	206 		516 	0 	
2010-08-04 20:10:34 	202 		276 	0 	
2010-08-04 20:11:31 	206 		50 	0 	
2010-08-04 20:12:59 	402 		695 	0 	
2010-08-04 20:13:17 	409 		395 	0 	
2010-08-04 20:24:56 	412 		395 	0 	
2010-08-04 20:38:43 	404 		695 	0 	
2010-08-04 20:48:22 	303 		645 	0 	
2010-08-04 20:49:19 	420 		645 	0 	
2010-08-04 20:50:37 	413 		395 	0 	
2010-08-04 20:53:55 	422 		395 	0 	
2010-08-04 20:54:09 	421 		395 	0 	
2010-08-04 21:11:04 	503 		800 	0 	
2010-08-04 21:11:53 	322 		395 	0 	
2010-08-04 21:14:26 	417 		695 	0 	
2010-08-04 21:15:59 	302 		695 	0 	
2010-08-04 21:18:58 	303 		520 	0 	
2010-08-04 21:19:59 	207 		345 	0 	
2010-08-04 21:32:58 	320 		645 	0 	
2010-08-04 21:42:27 	509 		750 	0 	
2010-08-04 21:43:09 	518 		750 	0 	
2010-08-04 21:50:13 	419 		395 	0 	
2010-08-04 21:53:00 	303 		10 	0 	
2010-08-04 21:53:04 	303 		125 	0 	
2010-08-04 21:57:56 	415 		395 	0 	
2010-08-04 22:00:06 	504 		800 	0 	
2010-08-04 22:08:29 	505 		800 	0 	
2010-08-04 22:09:52 	316 		705 	0 	
2010-08-04 22:19:29 	408 		145 	0 	
2010-08-04 22:22:58 	218 		395 	0 	
2010-08-04 22:24:32 	219 		395 	0 	
2010-08-04 22:25:35 	220 		395 	0 	
2010-08-04 22:30:12 	314 		585 	0 	
2010-08-04 22:41:19 	509 		50 	0 	
2010-08-04 22:47:59 	403 		645 	0 	
2010-08-04 22:51:55 	506 		800 	0 	
2010-08-04 22:55:08 	220 		50 	0 	
2010-08-04 23:00:22 	414 		585 	0 	
2010-08-04 23:05:12 	221 		395 	0 	
2010-08-04 23:06:59 	301 		395 	0 	
2010-08-04 23:10:42 	304 		695 	0 	
2010-08-04 23:12:52 	306 		695 	0 	
2010-08-04 23:19:27 	418 		645 	0 	
2010-08-04 23:25:34 	305 		570 	0 	
2010-08-04 23:27:28 	416 		645 	0 	
2010-08-04 23:29:30 	507 		800 	0 	
2010-08-04 23:31:09 	308 		695 	0 	
2010-08-04 23:32:27 	211 		585 	0 	
2010-08-04 23:38:36 	510 		800 	0 	
 			Total:		57919 	0		

=== RECHIT LIST ===

Room No. 617 	 Rechit Date: 2010-08-04 19:08:24




Room No. 615 	 Rechit Date: 2010-08-04 21:55:24







V1