MSHOGUN 1: SHIFT END REPORT
Monday February 13, 2012 4:00:06 PM

SALES TRANSACTION
Room Sales Order			26305
FnB Sales Order			2793
Beer Sales Order			440
Misc Sales Order			10
Room Sales Adjustment			0
GROSS SALES			29548

DISCOUNT
Room				0
FnB				0
Misc				0

DEPOSIT				11480
REFUND				

TOTAL ACCOUNTABILITY			41028

CASH DECLARATION			7741
CARD				961
FUNDS SAFEKEEP			20000
TOTAL CASH DECLARED			28702

TOTAL CASH ON SYSTEM			7821
OVER/SHORTAGES 			-80

ROOM	 # OF CHECK-OUT	AMT
Value 		7	3305
Regular 		9	5145
Classique 		33	17855
Premium 		0	0
Regent 		0	0
Queen 		0	0
Gemini 		0	0
Family 		0	0
Executive Suite 	0	0
Mega Suite 	0	0

DISCOUNT 
Value 			  
Regular 		  
Classique 		  
Premium 		  
Regent 			  
Queen 		  
Gemini 		  
Family 		  
Executive Suite 	  
Mega Suite 		  


=== RESERVATIONS ===

Deposits:


Claimed:



SECURITY DEPOSITS

Deposits:
Claimed:


=== SALES BREAKDOWN ===

Transaction Date	Room No.	Cash	Card

2012-02-13 08:04:05 	404 		380 	0 	
2012-02-13 08:09:14 	319 		310 	0 	
2012-02-13 08:25:08 	323 		100 	0 	
2012-02-13 08:28:20 	314 		705 	0 	
2012-02-13 08:28:27 	320 		705 	0 	
2012-02-13 08:36:37 	312 		395 	0 	
2012-02-13 08:37:11 	401 		160 	0 	
2012-02-13 08:37:27 	309 		395 	0 	
2012-02-13 08:59:46 	208 		275 	0 	
2012-02-13 09:11:44 	314 		198 	0 	
2012-02-13 09:11:57 	320 		160 	0 	
2012-02-13 09:16:31 	321 		395 	0 	
2012-02-13 09:28:15 	209 		275 	0 	
2012-02-13 09:29:38 	306 		395 	0 	
2012-02-13 09:29:49 	419 		280 	0 	
2012-02-13 09:33:15 	413 		280 	0 	
2012-02-13 09:36:03 	401 		280 	0 	
2012-02-13 10:04:22 	301 		395 	0 	
2012-02-13 10:16:59 	302 		675 	0 	
2012-02-13 10:17:28 	319 		280 	0 	
2012-02-13 10:18:40 	313 		316 	0 	
2012-02-13 10:31:00 	315 		596 	0 	
2012-02-13 11:16:41 	316 		945 	0 	
2012-02-13 11:20:42 	308 		395 	0 	
2012-02-13 11:39:33 	211 		705 	0 	
2012-02-13 11:39:42 	221 		395 	0 	
2012-02-13 11:48:21 	404 		395 	0 	
2012-02-13 11:53:18 	220 		395 	0 	
2012-02-13 12:08:35 	322 		395 	0 	
2012-02-13 12:17:03 	221 		250 	0 	
2012-02-13 12:23:14 	215 		705 	0 	
2012-02-13 12:29:27 	307 		395 	0 	
2012-02-13 12:29:39 	213 		345 	0 	
2012-02-13 12:46:17 	408 		815 	0 	
2012-02-13 12:49:54 	406 		0 	815 	
2012-02-13 12:57:24 	401 		395 	0 	
2012-02-13 13:11:41 	409 		395 	0 	
2012-02-13 13:13:04 	312 		395 	0 	
2012-02-13 13:14:57 	420 		345 	0 	
2012-02-13 13:28:54 	211 		250 	0 	
2012-02-13 13:29:10 	209 		275 	0 	
2012-02-13 13:34:18 	307 		395 	0 	
2012-02-13 13:43:39 	313 		395 	0 	
2012-02-13 13:49:44 	317 		395 	0 	
2012-02-13 13:56:35 	216 		275 	0 	
2012-02-13 13:57:21 	209 		230 	0 	
2012-02-13 14:00:23 	301 		395 	0 	
2012-02-13 14:11:47 	309 		395 	0 	
2012-02-13 14:22:23 	321 		395 	0 	
2012-02-13 14:37:16 	308 		395 	0 	
2012-02-13 14:45:00 	212 		275 	0 	
2012-02-13 14:50:18 	303 		345 	0 	
2012-02-13 14:51:28 	218 		395 	0 	
2012-02-13 14:51:58 	220 		620 	0 	
2012-02-13 15:07:09 	219 		395 	0 	
2012-02-13 15:08:05 	314 		120 	0 	
2012-02-13 15:13:39 	302 		395 	0 	
2012-02-13 15:18:43 	213 		585 	0 	
2012-02-13 15:20:14 	210 		345 	0 	
2012-02-13 15:21:30 	315 		395 	0 	
2012-02-13 15:23:30 	220 		395 	0 	
2012-02-13 15:24:12 	312 		395 	0 	
2012-02-13 15:25:29 	205 		345 	0 	
2012-02-13 15:27:42 	322 		395 	0 	
2012-02-13 15:28:29 	319 		395 	0 	
2012-02-13 15:28:40 	402 		395 	0 	
2012-02-13 15:34:25 	214 		275 	0 	
2012-02-13 15:39:45 	320 		345 	0 	
2012-02-13 15:40:14 	204 		276 	0 	
2012-02-13 15:43:41 	301 		190 	0 	
2012-02-13 15:52:21 	412 		395 	0 	
2012-02-13 15:56:29 	308 		395 	0 	
2012-02-13 15:58:03 	318 		345 	0 	
 			Total:		27821 	815		

=== RECHIT LIST ===




V1