MSHOGUN 1: SHIFT END REPORT
Saturday October 30, 2010 3:59:49 PM

SALES TRANSACTION
Room Sales Order			35950
FnB Sales Order			2925
Beer Sales Order			180
Misc Sales Order			70
Room Sales Adjustment			0
GROSS SALES			39125

DISCOUNT
Room				0
FnB				0
Misc				0

DEPOSIT				14960
REFUND				

TOTAL ACCOUNTABILITY			54085

CASH DECLARATION			3363
CARD				645
FUNDS SAFEKEEP			30000
TOTAL CASH DECLARED			34008

TOTAL CASH ON SYSTEM			3173
OVER/SHORTAGES 			190

ROOM	 # OF CHECK-OUT	AMT
Value 		13	4835
Regular 		21	11685
Classique 		34	19430
Premium 		0	0
Regent 		0	0
Queen 		0	0
Gemini 		0	0
Family 		0	0
Executive Suite 	0	0
Mega Suite 	0	0

DISCOUNT 
Value 			  
Regular 		  
Classique 		  
Premium 		  
Regent 			  
Queen 		  
Gemini 		  
Family 		  
Executive Suite 	  
Mega Suite 		  


=== RESERVATIONS ===

Deposits:


Claimed:



SECURITY DEPOSITS

Deposits:
Claimed:


=== SALES BREAKDOWN ===

Transaction Date	Room No.	Cash	Card

2010-10-30 08:06:19 	315 		535 	0 	
2010-10-30 08:20:11 	318 		345 	0 	
2010-10-30 08:49:58 	414 		345 	0 	
2010-10-30 08:50:46 	322 		280 	0 	
2010-10-30 09:00:54 	303 		160 	0 	
2010-10-30 09:17:40 	406 		395 	0 	
2010-10-30 09:29:51 	403 		250 	0 	
2010-10-30 09:33:24 	404 		50 	0 	
2010-10-30 09:34:06 	Lobby 		110 	0 	
2010-10-30 09:36:51 	408 		395 	0 	
2010-10-30 09:49:25 	311 		275 	0 	
2010-10-30 10:03:27 	213 		20 	0 	
2010-10-30 10:08:55 	316 		705 	0 	
2010-10-30 10:13:17 	317 		395 	0 	
2010-10-30 10:20:22 	320 		120 	0 	
2010-10-30 10:26:45 	409 		395 	0 	
2010-10-30 10:37:55 	411 		275 	0 	
2010-10-30 10:48:56 	407 		675 	0 	
2010-10-30 10:57:28 	219 		50 	0 	
2010-10-30 11:03:01 	301 		395 	0 	
2010-10-30 11:03:14 	308 		395 	0 	
2010-10-30 11:14:01 	Lobby 		30 	0 	
2010-10-30 11:14:10 	405 		275 	0 	
2010-10-30 11:20:08 	314 		345 	0 	
2010-10-30 11:29:42 	323 		275 	0 	
2010-10-30 11:34:14 	312 		395 	0 	
2010-10-30 11:37:54 	420 		585 	0 	
2010-10-30 11:42:35 	418 		585 	0 	
2010-10-30 11:47:21 	416 		585 	0 	
2010-10-30 11:57:57 	303 		345 	0 	
2010-10-30 12:14:59 	320 		345 	0 	
2010-10-30 12:15:12 	307 		815 	0 	
2010-10-30 12:15:50 	412 		395 	0 	
2010-10-30 12:22:17 	310 		275 	0 	
2010-10-30 12:25:24 	423 		275 	0 	
2010-10-30 12:27:34 	211 		75 	0 	
2010-10-30 12:29:07 	213 		345 	0 	
2010-10-30 12:29:14 	210 		345 	0 	
2010-10-30 12:42:53 	315 		140 	0 	
2010-10-30 12:44:12 	319 		420 	0 	
2010-10-30 12:45:35 	215 		345 	0 	
2010-10-30 12:45:48 	404 		395 	0 	
2010-10-30 12:56:18 	405 		165 	0 	
2010-10-30 12:56:45 	307 		410 	0 	
2010-10-30 13:04:28 	424 		275 	0 	
2010-10-30 13:06:38 	304 		395 	0 	
2010-10-30 13:10:22 	216 		275 	0 	
2010-10-30 13:12:25 	414 		345 	0 	
2010-10-30 13:12:58 	414 		45 	0 	
2010-10-30 13:16:11 	403 		215 	0 	
2010-10-30 13:17:24 	413 		395 	0 	
2010-10-30 13:17:38 	324 		275 	0 	
2010-10-30 13:27:35 	415 		395 	0 	
2010-10-30 13:34:00 	311 		100 	0 	
2010-10-30 13:36:50 	211 		585 	0 	
2010-10-30 13:36:59 	417 		395 	0 	
2010-10-30 13:48:25 	320 		210 	0 	
2010-10-30 13:51:42 	419 		395 	0 	
2010-10-30 13:51:53 	217 		275 	0 	
2010-10-30 13:55:36 	311 		275 	0 	
2010-10-30 13:56:55 	211 		65 	0 	
2010-10-30 14:04:11 	303 		585 	0 	
2010-10-30 14:04:20 	422 		395 	0 	
2010-10-30 14:04:33 	421 		395 	0 	
2010-10-30 14:07:24 	408 		395 	0 	
2010-10-30 14:14:00 	206 		276 	0 	
2010-10-30 14:15:56 	405 		275 	0 	
2010-10-30 14:16:06 	406 		395 	0 	
2010-10-30 14:17:03 	311 		110 	0 	
2010-10-30 14:27:14 	207 		345 	0 	
2010-10-30 14:27:22 	409 		395 	0 	
2010-10-30 14:27:35 	402 		395 	0 	
2010-10-30 14:34:41 	316 		370 	0 	
2010-10-30 14:37:45 	321 		395 	0 	
2010-10-30 14:38:00 	319 		395 	0 	
2010-10-30 14:38:19 	205 		345 	0 	
2010-10-30 14:40:21 	204 		276 	0 	
2010-10-30 14:45:56 	403 		360 	0 	
2010-10-30 14:50:42 	314 		705 	0 	
2010-10-30 14:59:15 	315 		395 	0 	
2010-10-30 14:59:29 	318 		345 	0 	
2010-10-30 15:01:55 	317 		395 	0 	
2010-10-30 15:02:04 	212 		275 	0 	
2010-10-30 15:04:20 	306 		395 	0 	
2010-10-30 15:14:56 	403 		585 	0 	
2010-10-30 15:15:05 	302 		395 	0 	
2010-10-30 15:19:05 	411 		275 	0 	
2010-10-30 15:19:15 	323 		275 	0 	
2010-10-30 15:20:56 	301 		395 	0 	
2010-10-30 15:24:10 	407 		395 	0 	
2010-10-30 15:24:38 	404 		395 	0 	
2010-10-30 15:24:45 	413 		395 	0 	
2010-10-30 15:25:05 	313 		395 	0 	
2010-10-30 15:32:02 	412 		395 	0 	
2010-10-30 15:40:22 	308 		395 	0 	
2010-10-30 15:41:52 	203 		276 	0 	
2010-10-30 15:42:07 	215 		345 	0 	
 			Total:		33173 	0		

=== RECHIT LIST ===




V1