MSHOGUN 1: SHIFT END REPORT
Saturday September 04, 2010 4:01:13 PM

SALES TRANSACTION
Room Sales Order			53750
FnB Sales Order			3278
Beer Sales Order			820
Misc Sales Order			165
Room Sales Adjustment			0
GROSS SALES			58013

DISCOUNT
Room				0
FnB				0
Misc				0

DEPOSIT				24795
REFUND				

TOTAL ACCOUNTABILITY			82808

CASH DECLARATION			8785
CARD				2920
FUNDS SAFEKEEP			30000
TOTAL CASH DECLARED			41705

TOTAL CASH ON SYSTEM			11585
OVER/SHORTAGES 			-2800

ROOM	 # OF CHECK-OUT	AMT
Value 		12	5700
Regular 		18	9510
Classique 		31	16565
Premium 		3	2250
Regent 		7	9325
Queen 		3	9350
Gemini 		0	0
Family 		1	1050
Executive Suite 	0	0
Mega Suite 	0	0

DISCOUNT 
Value 			  
Regular 		  
Classique 		  
Premium 		  
Regent 			  
Queen 		  
Gemini 		  
Family 		  
Executive Suite 	  
Mega Suite 		  


=== RESERVATIONS ===

Deposits:


Claimed:



SECURITY DEPOSITS

Deposits:
Claimed:


=== SALES BREAKDOWN ===

Transaction Date	Room No.	Cash	Card

2010-09-04 08:08:02 	205 		345 	0 	
2010-09-04 08:09:50 	310 		310 	0 	
2010-09-04 08:09:52 	310 		105 	0 	
2010-09-04 08:12:20 	602 		600 	0 	
2010-09-04 08:14:18 	602 		2200 	0 	
2010-09-04 08:15:15 	515 		525 	0 	
2010-09-04 08:16:00 	209 		20 	0 	
2010-09-04 08:21:10 	518 		750 	0 	
2010-09-04 08:23:02 	312 		395 	0 	
2010-09-04 08:32:43 	612 		145 	0 	
2010-09-04 08:46:00 	417 		720 	0 	
2010-09-04 08:49:30 	208 		275 	0 	
2010-09-04 09:00:40 	420 		230 	0 	
2010-09-04 09:02:15 	Lobby 		255 	0 	
2010-09-04 09:02:51 	205 		210 	0 	
2010-09-04 09:06:50 	502 		800 	0 	
2010-09-04 09:17:39 	304 		10 	0 	
2010-09-04 09:21:07 	603 		25 	0 	
2010-09-04 09:30:40 	322 		395 	0 	
2010-09-04 09:30:53 	315 		395 	0 	
2010-09-04 09:31:32 	409 		270 	0 	
2010-09-04 09:31:46 	502 		10 	0 	
2010-09-04 09:32:48 	315 		30 	0 	
2010-09-04 09:49:30 	317 		395 	0 	
2010-09-04 10:06:49 	414 		345 	0 	
2010-09-04 10:07:03 	313 		395 	0 	
2010-09-04 10:09:06 	520 		100 	0 	
2010-09-04 10:16:25 	206 		465 	0 	
2010-09-04 10:17:56 	307 		395 	0 	
2010-09-04 10:32:11 	306 		395 	0 	
2010-09-04 10:47:35 	511 		800 	0 	
2010-09-04 10:50:01 	206 		180 	0 	
2010-09-04 10:50:04 	206 		298 	0 	
2010-09-04 11:11:02 	513 		1600 	0 	
2010-09-04 11:12:54 	305 		100 	0 	
2010-09-04 11:16:59 	319 		395 	0 	
2010-09-04 11:20:48 	404 		395 	0 	
2010-09-04 11:32:54 	207 		345 	0 	
2010-09-04 11:41:22 	511 		150 	0 	
2010-09-04 11:42:34 	206 		115 	0 	
2010-09-04 11:54:51 	502 		25 	0 	
2010-09-04 11:55:07 	502 		10 	0 	
2010-09-04 11:55:20 	209 		275 	0 	
2010-09-04 12:04:51 	215 		345 	0 	
2010-09-04 12:12:31 	401 		395 	0 	
2010-09-04 12:19:57 	402 		395 	0 	
2010-09-04 12:21:19 	407 		395 	0 	
2010-09-04 12:26:32 	406 		395 	0 	
2010-09-04 12:35:13 	408 		395 	0 	
2010-09-04 12:36:21 	208 		100 	0 	
2010-09-04 12:36:49 	408 		60 	0 	
2010-09-04 12:52:01 	213 		345 	0 	
2010-09-04 12:53:05 	303 		345 	0 	
2010-09-04 12:54:20 	211 		310 	0 	
2010-09-04 12:55:19 	404 		50 	0 	
2010-09-04 13:14:56 	514 		800 	0 	
2010-09-04 13:15:09 	309 		395 	0 	
2010-09-04 13:15:36 	403 		345 	0 	
2010-09-04 13:23:27 	210 		120 	0 	
2010-09-04 13:27:06 	212 		275 	0 	
2010-09-04 13:30:46 	316 		345 	0 	
2010-09-04 13:32:36 	316 		10 	0 	
2010-09-04 13:32:56 	413 		395 	0 	
2010-09-04 13:44:24 	214 		275 	0 	
2010-09-04 13:45:38 	322 		395 	0 	
2010-09-04 13:46:50 	417 		395 	0 	
2010-09-04 13:47:53 	412 		395 	0 	
2010-09-04 13:48:57 	415 		675 	0 	
2010-09-04 13:49:42 	422 		395 	0 	
2010-09-04 13:51:54 	601 		125 	0 	
2010-09-04 14:07:42 	414 		120 	0 	
2010-09-04 14:13:23 	421 		395 	0 	
2010-09-04 14:16:31 	302 		395 	0 	
2010-09-04 14:22:37 	322 		215 	0 	
2010-09-04 14:23:21 	317 		395 	0 	
2010-09-04 14:28:49 	416 		345 	0 	
2010-09-04 14:30:22 	420 		276 	0 	
2010-09-04 14:33:01 	321 		395 	0 	
2010-09-04 14:45:01 	418 		585 	0 	
2010-09-04 14:45:22 	312 		395 	0 	
2010-09-04 14:51:25 	608 		1700 	0 	
2010-09-04 14:51:45 	414 		465 	0 	
2010-09-04 14:52:36 	315 		395 	0 	
2010-09-04 14:57:25 	313 		395 	0 	
2010-09-04 15:02:13 	320 		345 	0 	
2010-09-04 15:03:59 	311 		275 	0 	
2010-09-04 15:04:09 	215 		345 	0 	
2010-09-04 15:04:55 	409 		395 	0 	
2010-09-04 15:05:54 	407 		395 	0 	
2010-09-04 15:09:56 	312 		235 	0 	
2010-09-04 15:10:59 	408 		395 	0 	
2010-09-04 15:17:51 	211 		345 	0 	
2010-09-04 15:18:11 	210 		345 	0 	
2010-09-04 15:22:35 	404 		395 	0 	
2010-09-04 15:27:24 	402 		395 	0 	
2010-09-04 15:30:59 	315 		370 	0 	
2010-09-04 15:31:02 	315 		100 	0 	
2010-09-04 15:31:23 	213 		585 	0 	
2010-09-04 15:33:09 	403 		705 	0 	
2010-09-04 15:34:20 	319 		395 	0 	
2010-09-04 15:39:09 	207 		276 	0 	
2010-09-04 15:39:34 	214 		275 	0 	
2010-09-04 15:40:28 	413 		190 	0 	
2010-09-04 15:41:50 	209 		275 	0 	
2010-09-04 15:42:22 	216 		275 	0 	
2010-09-04 15:42:46 	510 		1600 	0 	
2010-09-04 15:44:45 	401 		395 	0 	
2010-09-04 15:51:11 	206 		345 	0 	
2010-09-04 15:52:13 	309 		395 	0 	
 			Total:		41585 	0		

=== RECHIT LIST ===

Room No. 602 	 Rechit Date: 2010-09-04 10:33:56




Room No. 503 	 Rechit Date: 2010-09-04 12:38:48







V1