MSHOGUN 1: SHIFT END REPORT
Friday January 21, 2011 4:00:05 PM

SALES TRANSACTION
Room Sales Order			30055
FnB Sales Order			1932
Beer Sales Order			340
Misc Sales Order			20
Room Sales Adjustment			0
GROSS SALES			32347

DISCOUNT
Room				0
FnB				0
Misc				0

DEPOSIT				10560
REFUND				

TOTAL ACCOUNTABILITY			42907

CASH DECLARATION			8884
CARD				0
FUNDS SAFEKEEP			20000
TOTAL CASH DECLARED			28884

TOTAL CASH ON SYSTEM			8884
OVER/SHORTAGES 			0

ROOM	 # OF CHECK-OUT	AMT
Value 		5	2015
Regular 		22	10470
Classique 		34	17570
Premium 		0	0
Regent 		0	0
Queen 		0	0
Gemini 		0	0
Family 		0	0
Executive Suite 	0	0
Mega Suite 	0	0

DISCOUNT 
Value 			  
Regular 		  
Classique 		  
Premium 		  
Regent 			  
Queen 		  
Gemini 		  
Family 		  
Executive Suite 	  
Mega Suite 		  


=== RESERVATIONS ===

Deposits:


Claimed:



SECURITY DEPOSITS

Deposits:
Claimed:


=== SALES BREAKDOWN ===

Transaction Date	Room No.	Cash	Card

2011-01-21 08:11:34 	218 		395 	0 	
2011-01-21 08:25:46 	312 		25 	0 	
2011-01-21 08:28:47 	414 		585 	0 	
2011-01-21 08:32:03 	416 		280 	0 	
2011-01-21 08:39:20 	301 		395 	0 	
2011-01-21 08:43:41 	322 		395 	0 	
2011-01-21 08:50:28 	213 		120 	0 	
2011-01-21 08:59:44 	401 		395 	0 	
2011-01-21 09:01:39 	309 		395 	0 	
2011-01-21 09:08:54 	318 		585 	0 	
2011-01-21 09:12:06 	417 		280 	0 	
2011-01-21 09:21:43 	210 		345 	0 	
2011-01-21 09:39:51 	415 		140 	0 	
2011-01-21 09:40:47 	303 		100 	0 	
2011-01-21 10:07:19 	402 		395 	0 	
2011-01-21 10:08:46 	215 		345 	0 	
2011-01-21 10:09:51 	404 		395 	0 	
2011-01-21 10:17:02 	403 		465 	0 	
2011-01-21 10:24:22 	215 		126 	0 	
2011-01-21 10:47:45 	414 		201 	0 	
2011-01-21 10:49:03 	202 		345 	0 	
2011-01-21 10:51:59 	205 		345 	0 	
2011-01-21 10:52:51 	406 		395 	0 	
2011-01-21 11:14:30 	404 		110 	0 	
2011-01-21 11:14:33 	404 		80 	0 	
2011-01-21 11:22:54 	409 		395 	0 	
2011-01-21 11:27:12 	317 		140 	0 	
2011-01-21 11:39:35 	211 		465 	0 	
2011-01-21 11:40:30 	211 		10 	0 	
2011-01-21 11:43:17 	213 		465 	0 	
2011-01-21 11:46:21 	309 		395 	0 	
2011-01-21 11:49:21 	306 		395 	0 	
2011-01-21 12:00:05 	218 		395 	0 	
2011-01-21 12:06:25 	206 		465 	0 	
2011-01-21 12:10:02 	213 		280 	0 	
2011-01-21 12:10:22 	201 		345 	0 	
2011-01-21 12:15:53 	313 		395 	0 	
2011-01-21 12:16:02 	312 		395 	0 	
2011-01-21 12:19:33 	409 		180 	0 	
2011-01-21 12:20:46 	213 		80 	0 	
2011-01-21 12:21:04 	410 		275 	0 	
2011-01-21 12:22:34 	411 		275 	0 	
2011-01-21 12:23:24 	202 		345 	0 	
2011-01-21 12:25:36 	407 		395 	0 	
2011-01-21 12:28:46 	307 		560 	0 	
2011-01-21 12:42:04 	314 		705 	0 	
2011-01-21 12:43:03 	317 		395 	0 	
2011-01-21 12:43:13 	408 		395 	0 	
2011-01-21 12:48:14 	423 		275 	0 	
2011-01-21 12:56:35 	321 		395 	0 	
2011-01-21 12:59:40 	417 		395 	0 	
2011-01-21 13:02:02 	405 		275 	0 	
2011-01-21 13:07:07 	415 		395 	0 	
2011-01-21 13:09:26 	309 		140 	0 	
2011-01-21 13:25:53 	209 		275 	0 	
2011-01-21 13:34:54 	419 		395 	0 	
2011-01-21 13:40:09 	210 		345 	0 	
2011-01-21 13:41:28 	211 		160 	0 	
2011-01-21 13:41:54 	314 		50 	0 	
2011-01-21 13:42:08 	316 		345 	0 	
2011-01-21 13:54:21 	421 		395 	0 	
2011-01-21 13:55:55 	303 		345 	0 	
2011-01-21 13:56:04 	319 		395 	0 	
2011-01-21 14:04:22 	218 		395 	0 	
2011-01-21 14:11:51 	221 		395 	0 	
2011-01-21 14:14:10 	413 		395 	0 	
2011-01-21 14:16:06 	215 		345 	0 	
2011-01-21 14:27:04 	310 		275 	0 	
2011-01-21 14:27:13 	308 		395 	0 	
2011-01-21 14:28:55 	315 		395 	0 	
2011-01-21 14:30:58 	212 		275 	0 	
2011-01-21 14:38:06 	315 		50 	0 	
2011-01-21 14:46:35 	418 		345 	0 	
2011-01-21 14:47:01 	204 		705 	0 	
2011-01-21 14:47:41 	412 		316 	0 	
2011-01-21 14:48:18 	419 		205 	0 	
2011-01-21 14:48:34 	413 		70 	0 	
2011-01-21 14:54:38 	303 		170 	0 	
2011-01-21 14:59:57 	307 		395 	0 	
2011-01-21 15:04:21 	416 		345 	0 	
2011-01-21 15:13:03 	313 		395 	0 	
2011-01-21 15:14:39 	219 		395 	0 	
2011-01-21 15:17:39 	220 		395 	0 	
2011-01-21 15:17:51 	312 		395 	0 	
2011-01-21 15:28:20 	422 		395 	0 	
2011-01-21 15:36:20 	420 		276 	0 	
2011-01-21 15:38:50 	309 		395 	0 	
2011-01-21 15:46:20 	211 		10 	0 	
2011-01-21 15:52:20 	407 		395 	0 	
 			Total:		28884 	0		

=== RECHIT LIST ===




V1