MSHOGUN 1: SHIFT END REPORT
Saturday June 04, 2011 8:00:24 AM

SALES TRANSACTION
Room Sales Order			30685
FnB Sales Order			1308
Beer Sales Order			400
Misc Sales Order			155
Room Sales Adjustment			50
GROSS SALES			32598

DISCOUNT
Room				0
FnB				0
Misc				0

DEPOSIT				7845
REFUND				

TOTAL ACCOUNTABILITY			40443

CASH DECLARATION			8845
CARD				0
FUNDS SAFEKEEP			10000
TOTAL CASH DECLARED			18845

TOTAL CASH ON SYSTEM			8710
OVER/SHORTAGES 			135

ROOM	 # OF CHECK-OUT	AMT
Value 		15	6725
Regular 		17	8805
Classique 		27	15205
Premium 		0	0
Regent 		0	0
Queen 		0	0
Gemini 		0	0
Family 		0	0
Executive Suite 	0	0
Mega Suite 	0	0

DISCOUNT 
Value 			  
Regular 		  
Classique 		  
Premium 		  
Regent 			  
Queen 		  
Gemini 		  
Family 		  
Executive Suite 	  
Mega Suite 		  


=== RESERVATIONS ===

Deposits:


Claimed:



SECURITY DEPOSITS

Deposits:
Claimed:


=== SALES BREAKDOWN ===

Transaction Date	Room No.	Cash	Card

2011-06-04 00:06:57 	304 		50 	0 	
2011-06-04 00:09:13 	Lobby 		25 	0 	
2011-06-04 00:10:06 	308 		695 	0 	
2011-06-04 00:11:14 	207 		345 	0 	
2011-06-04 00:12:52 	221 		695 	0 	
2011-06-04 00:15:13 	412 		395 	0 	
2011-06-04 00:16:53 	409 		395 	0 	
2011-06-04 00:26:45 	208 		275 	0 	
2011-06-04 00:29:37 	312 		535 	0 	
2011-06-04 00:30:08 	210 		345 	0 	
2011-06-04 00:31:11 	209 		475 	0 	
2011-06-04 00:34:28 	412 		70 	0 	
2011-06-04 00:56:22 	401 		395 	0 	
2011-06-04 01:14:42 	309 		535 	0 	
2011-06-04 01:42:35 	305 		475 	0 	
2011-06-04 01:59:06 	324 		50 	0 	
2011-06-04 02:02:52 	303 		645 	0 	
2011-06-04 02:05:55 	306 		50 	0 	
2011-06-04 02:09:49 	201 		345 	0 	
2011-06-04 02:13:18 	219 		675 	0 	
2011-06-04 02:15:42 	214 		275 	0 	
2011-06-04 02:26:29 	214 		85 	0 	
2011-06-04 02:30:24 	311 		100 	0 	
2011-06-04 02:37:50 	408 		395 	0 	
2011-06-04 02:41:58 	310 		575 	0 	
2011-06-04 02:42:44 	408 		20 	0 	
2011-06-04 02:44:16 	402 		695 	0 	
2011-06-04 02:44:55 	402 		25 	0 	
2011-06-04 02:49:38 	401 		395 	0 	
2011-06-04 02:54:16 	311 		575 	0 	
2011-06-04 03:05:02 	412 		395 	0 	
2011-06-04 03:06:57 	410 		575 	0 	
2011-06-04 03:54:05 	402 		30 	0 	
2011-06-04 03:58:38 	301 		65 	0 	
2011-06-04 04:00:30 	207 		705 	0 	
2011-06-04 04:01:38 	205 		705 	0 	
2011-06-04 04:01:49 	409 		395 	0 	
2011-06-04 04:14:33 	208 		100 	0 	
2011-06-04 04:18:47 	210 		825 	0 	
2011-06-04 04:21:01 	409 		45 	0 	
2011-06-04 04:27:00 	210 		70 	0 	
2011-06-04 04:52:52 	202 		240 	0 	
2011-06-04 05:04:00 	201 		345 	0 	
2011-06-04 05:21:09 	203 		50 	0 	
2011-06-04 05:33:22 	306 		395 	0 	
2011-06-04 05:33:31 	312 		395 	0 	
2011-06-04 05:42:03 	309 		395 	0 	
2011-06-04 05:44:34 	306 		90 	0 	
2011-06-04 06:09:30 	218 		55 	0 	
2011-06-04 06:29:18 	408 		140 	0 	
2011-06-04 06:49:14 	403 		345 	0 	
2011-06-04 06:52:53 	423 		275 	0 	
2011-06-04 07:11:50 	401 		395 	0 	
2011-06-04 07:22:56 	417 		140 	0 	
2011-06-04 07:27:11 	404 		140 	0 	
2011-06-04 07:29:03 	412 		395 	0 	
2011-06-04 07:49:37 	408 		395 	0 	
 			Total:		18710 	0		

=== RECHIT LIST ===




V1