MSHOGUN 1: SHIFT END REPORT
Monday March 14, 2011 4:00:05 PM

SALES TRANSACTION
Room Sales Order			27195
FnB Sales Order			890
Beer Sales Order			340
Misc Sales Order			10
Room Sales Adjustment			0
GROSS SALES			28435

DISCOUNT
Room				0
FnB				0
Misc				0

DEPOSIT				7775
REFUND				

TOTAL ACCOUNTABILITY			36210

CASH DECLARATION			806
CARD				0
FUNDS SAFEKEEP			20000
TOTAL CASH DECLARED			20806

TOTAL CASH ON SYSTEM			806
OVER/SHORTAGES 			0

ROOM	 # OF CHECK-OUT	AMT
Value 		7	2245
Regular 		15	7455
Classique 		33	17495
Premium 		0	0
Regent 		0	0
Queen 		0	0
Gemini 		0	0
Family 		0	0
Executive Suite 	0	0
Mega Suite 	0	0

DISCOUNT 
Value 			  
Regular 		  
Classique 		  
Premium 		  
Regent 			  
Queen 		  
Gemini 		  
Family 		  
Executive Suite 	  
Mega Suite 		  


=== RESERVATIONS ===

Deposits:


Claimed:



SECURITY DEPOSITS

Deposits:
Claimed:


=== SALES BREAKDOWN ===

Transaction Date	Room No.	Cash	Card

2011-03-14 08:38:35 	404 		395 	0 	
2011-03-14 08:39:41 	402 		395 	0 	
2011-03-14 08:42:09 	421 		395 	0 	
2011-03-14 08:56:12 	409 		395 	0 	
2011-03-14 09:02:40 	310 		275 	0 	
2011-03-14 09:19:58 	213 		120 	0 	
2011-03-14 09:20:48 	320 		50 	0 	
2011-03-14 09:57:49 	418 		345 	0 	
2011-03-14 10:11:19 	314 		345 	0 	
2011-03-14 10:22:59 	302 		395 	0 	
2011-03-14 10:23:22 	311 		275 	0 	
2011-03-14 10:34:59 	219 		280 	0 	
2011-03-14 10:37:30 	308 		25 	0 	
2011-03-14 10:39:34 	307 		395 	0 	
2011-03-14 10:49:26 	315 		395 	0 	
2011-03-14 10:53:38 	403 		345 	0 	
2011-03-14 11:01:13 	416 		345 	0 	
2011-03-14 11:33:17 	307 		300 	0 	
2011-03-14 11:36:22 	320 		240 	0 	
2011-03-14 11:50:02 	306 		395 	0 	
2011-03-14 11:55:47 	303 		345 	0 	
2011-03-14 12:01:40 	221 		395 	0 	
2011-03-14 12:13:10 	304 		395 	0 	
2011-03-14 12:23:08 	322 		140 	0 	
2011-03-14 12:25:00 	312 		395 	0 	
2011-03-14 12:38:00 	414 		345 	0 	
2011-03-14 12:39:16 	317 		395 	0 	
2011-03-14 12:46:43 	205 		345 	0 	
2011-03-14 12:47:14 	404 		395 	0 	
2011-03-14 12:48:18 	321 		395 	0 	
2011-03-14 12:52:46 	413 		395 	0 	
2011-03-14 12:57:12 	316 		10 	0 	
2011-03-14 12:58:41 	214 		275 	0 	
2011-03-14 13:10:28 	309 		395 	0 	
2011-03-14 13:12:06 	410 		275 	0 	
2011-03-14 13:14:12 	406 		395 	0 	
2011-03-14 13:16:14 	319 		265 	0 	
2011-03-14 13:19:56 	415 		535 	0 	
2011-03-14 13:24:24 	408 		395 	0 	
2011-03-14 13:29:51 	411 		275 	0 	
2011-03-14 13:32:25 	220 		395 	0 	
2011-03-14 13:40:12 	417 		395 	0 	
2011-03-14 13:49:34 	309 		280 	0 	
2011-03-14 13:50:02 	323 		275 	0 	
2011-03-14 13:52:57 	417 		45 	0 	
2011-03-14 13:59:34 	401 		395 	0 	
2011-03-14 14:21:26 	218 		395 	0 	
2011-03-14 14:29:45 	219 		395 	0 	
2011-03-14 14:30:46 	419 		395 	0 	
2011-03-14 14:36:18 	302 		395 	0 	
2011-03-14 14:36:37 	317 		316 	0 	
2011-03-14 14:43:04 	317 		10 	0 	
2011-03-14 14:44:47 	318 		345 	0 	
2011-03-14 14:47:43 	422 		395 	0 	
2011-03-14 14:49:28 	306 		395 	0 	
2011-03-14 15:00:43 	307 		140 	0 	
2011-03-14 15:06:06 	403 		120 	0 	
2011-03-14 15:07:09 	308 		395 	0 	
2011-03-14 15:08:36 	421 		395 	0 	
2011-03-14 15:09:56 	324 		375 	0 	
2011-03-14 15:11:32 	312 		395 	0 	
2011-03-14 15:11:51 	315 		395 	0 	
2011-03-14 15:23:29 	319 		395 	0 	
2011-03-14 15:29:17 	302 		110 	0 	
2011-03-14 15:46:13 	301 		395 	0 	
 			Total:		20806 	0		

=== RECHIT LIST ===




V1