MSHOGUN 1: SHIFT END REPORT
Tuesday April 26, 2011 4:00:09 PM

SALES TRANSACTION
Room Sales Order			27860
FnB Sales Order			2158
Beer Sales Order			180
Misc Sales Order			45
Room Sales Adjustment			0
GROSS SALES			30243

DISCOUNT
Room				0
FnB				0
Misc				0

DEPOSIT				10795
REFUND				

TOTAL ACCOUNTABILITY			41038

CASH DECLARATION			4951
CARD				0
FUNDS SAFEKEEP			20000
TOTAL CASH DECLARED			24951

TOTAL CASH ON SYSTEM			4956
OVER/SHORTAGES 			-5

ROOM	 # OF CHECK-OUT	AMT
Value 		9	4175
Regular 		14	6630
Classique 		33	17055
Premium 		0	0
Regent 		0	0
Queen 		0	0
Gemini 		0	0
Family 		0	0
Executive Suite 	0	0
Mega Suite 	0	0

DISCOUNT 
Value 			  
Regular 		  
Classique 		  
Premium 		  
Regent 			  
Queen 		  
Gemini 		  
Family 		  
Executive Suite 	  
Mega Suite 		  


=== RESERVATIONS ===

Deposits:


Claimed:



SECURITY DEPOSITS

Deposits:
Claimed:


=== SALES BREAKDOWN ===

Transaction Date	Room No.	Cash	Card

2011-04-26 08:01:15 	404 		50 	0 	
2011-04-26 08:04:44 	304 		395 	0 	
2011-04-26 08:27:57 	407 		135 	0 	
2011-04-26 08:34:30 	217 		198 	0 	
2011-04-26 08:41:06 	321 		420 	0 	
2011-04-26 08:46:31 	306 		395 	0 	
2011-04-26 09:11:35 	411 		135 	0 	
2011-04-26 09:16:04 	211 		455 	0 	
2011-04-26 09:25:55 	307 		395 	0 	
2011-04-26 09:41:18 	216 		100 	0 	
2011-04-26 09:48:30 	314 		345 	0 	
2011-04-26 10:06:29 	316 		345 	0 	
2011-04-26 10:19:21 	414 		345 	0 	
2011-04-26 10:23:03 	315 		395 	0 	
2011-04-26 10:28:53 	303 		345 	0 	
2011-04-26 10:32:45 	305 		275 	0 	
2011-04-26 10:44:05 	416 		345 	0 	
2011-04-26 10:56:57 	304 		395 	0 	
2011-04-26 11:19:38 	309 		395 	0 	
2011-04-26 11:27:38 	308 		395 	0 	
2011-04-26 11:29:48 	416 		435 	0 	
2011-04-26 11:37:01 	318 		50 	0 	
2011-04-26 11:45:39 	316 		65 	0 	
2011-04-26 11:46:25 	317 		395 	0 	
2011-04-26 11:50:28 	301 		395 	0 	
2011-04-26 12:04:41 	302 		395 	0 	
2011-04-26 12:30:40 	311 		275 	0 	
2011-04-26 12:37:59 	402 		395 	0 	
2011-04-26 12:43:29 	407 		395 	0 	
2011-04-26 12:46:58 	406 		395 	0 	
2011-04-26 12:55:46 	310 		275 	0 	
2011-04-26 13:25:26 	208 		275 	0 	
2011-04-26 13:33:26 	306 		395 	0 	
2011-04-26 13:34:17 	408 		395 	0 	
2011-04-26 13:51:38 	303 		345 	0 	
2011-04-26 13:52:07 	420 		345 	0 	
2011-04-26 13:56:31 	312 		395 	0 	
2011-04-26 13:59:43 	304 		395 	0 	
2011-04-26 14:02:14 	313 		316 	0 	
2011-04-26 14:03:40 	308 		395 	0 	
2011-04-26 14:06:35 	307 		395 	0 	
2011-04-26 14:07:32 	401 		395 	0 	
2011-04-26 14:07:59 	213 		705 	0 	
2011-04-26 14:10:42 	307 		15 	0 	
2011-04-26 14:28:29 	219 		395 	0 	
2011-04-26 14:33:11 	218 		395 	0 	
2011-04-26 14:33:58 	415 		395 	0 	
2011-04-26 14:35:11 	210 		345 	0 	
2011-04-26 14:36:39 	220 		395 	0 	
2011-04-26 14:40:35 	302 		395 	0 	
2011-04-26 14:40:48 	211 		276 	0 	
2011-04-26 14:42:43 	419 		395 	0 	
2011-04-26 14:53:10 	317 		395 	0 	
2011-04-26 14:54:23 	221 		395 	0 	
2011-04-26 15:04:54 	319 		395 	0 	
2011-04-26 15:06:03 	313 		40 	0 	
2011-04-26 15:07:38 	307 		395 	0 	
2011-04-26 15:10:10 	309 		395 	0 	
2011-04-26 15:10:27 	220 		150 	0 	
2011-04-26 15:15:07 	321 		395 	0 	
2011-04-26 15:24:21 	209 		275 	0 	
2011-04-26 15:25:56 	212 		375 	0 	
2011-04-26 15:26:07 	406 		395 	0 	
2011-04-26 15:28:11 	301 		395 	0 	
2011-04-26 15:28:42 	209 		10 	0 	
2011-04-26 15:29:59 	215 		345 	0 	
2011-04-26 15:32:18 	315 		395 	0 	
2011-04-26 15:36:35 	402 		395 	0 	
2011-04-26 15:40:41 	316 		360 	0 	
2011-04-26 15:41:51 	320 		276 	0 	
2011-04-26 15:47:38 	404 		395 	0 	
2011-04-26 15:48:48 	211 		345 	0 	
2011-04-26 15:54:16 	310 		210 	0 	
2011-04-26 15:54:45 	318 		345 	0 	
2011-04-26 15:56:42 	306 		395 	0 	
 			Total:		24956 	0		

=== RECHIT LIST ===




V1