MSHOGUN 1: SHIFT END REPORT
Monday July 25, 2011 8:00:34 AM

SALES TRANSACTION
Room Sales Order			22315
FnB Sales Order			1080
Beer Sales Order			350
Misc Sales Order			105
Room Sales Adjustment			0
GROSS SALES			23850

DISCOUNT
Room				0
FnB				0
Misc				0

DEPOSIT				4980
REFUND				

TOTAL ACCOUNTABILITY			28830

CASH DECLARATION			876
CARD				1090
FUNDS SAFEKEEP			10000
TOTAL CASH DECLARED			11966

TOTAL CASH ON SYSTEM			876
OVER/SHORTAGES 			0

ROOM	 # OF CHECK-OUT	AMT
Value 		6	3390
Regular 		11	5355
Classique 		22	13570
Premium 		0	0
Regent 		0	0
Queen 		0	0
Gemini 		0	0
Family 		0	0
Executive Suite 	0	0
Mega Suite 	0	0

DISCOUNT 
Value 			  
Regular 		  
Classique 		  
Premium 		  
Regent 			  
Queen 		  
Gemini 		  
Family 		  
Executive Suite 	  
Mega Suite 		  


=== RESERVATIONS ===

Deposits:


Claimed:



SECURITY DEPOSITS

Deposits:
Claimed:


=== SALES BREAKDOWN ===

Transaction Date	Room No.	Cash	Card

2011-07-25 00:17:46 	321 		675 	0 	
2011-07-25 00:18:00 	301 		395 	0 	
2011-07-25 00:28:18 	322 		395 	0 	
2011-07-25 00:28:28 	208 		275 	0 	
2011-07-25 00:30:37 	401 		0 	395 	
2011-07-25 00:43:02 	422 		695 	0 	
2011-07-25 00:51:33 	319 		695 	0 	
2011-07-25 00:57:53 	213 		645 	0 	
2011-07-25 01:10:40 	310 		575 	0 	
2011-07-25 01:33:37 	310 		45 	0 	
2011-07-25 01:34:32 	218 		395 	0 	
2011-07-25 01:46:46 	206 		275 	0 	
2011-07-25 02:30:28 	221 		695 	0 	
2011-07-25 02:45:12 	221 		25 	0 	
2011-07-25 02:53:41 	322 		695 	0 	
2011-07-25 03:24:07 	208 		180 	0 	
2011-07-25 03:50:58 	210 		345 	0 	
2011-07-25 03:52:45 	316 		585 	0 	
2011-07-25 04:09:54 	303 		345 	0 	
2011-07-25 04:21:20 	207 		276 	0 	
2011-07-25 05:16:22 	321 		170 	0 	
2011-07-25 05:32:31 	424 		25 	0 	
2011-07-25 05:49:44 	321 		140 	0 	
2011-07-25 05:51:32 	218 		395 	0 	
2011-07-25 06:20:28 	413 		395 	0 	
2011-07-25 06:21:11 	310 		90 	0 	
2011-07-25 06:53:54 	220 		210 	0 	
2011-07-25 06:58:38 	301 		560 	0 	
2011-07-25 07:09:42 	312 		395 	0 	
2011-07-25 07:33:43 	410 		225 	0 	
2011-07-25 07:47:48 	203 		60 	0 	
 			Total:		10876 	395		

=== RECHIT LIST ===




V1