MSHOGUN 1: SHIFT END REPORT
Sunday September 04, 2011 4:02:00 PM

SALES TRANSACTION
Room Sales Order			44760
FnB Sales Order			2145
Beer Sales Order			135
Misc Sales Order			45
Room Sales Adjustment			0
GROSS SALES			47085

DISCOUNT
Room				0
FnB				0
Misc				0

DEPOSIT				17445
REFUND				

TOTAL ACCOUNTABILITY			64530

CASH DECLARATION			1331
CARD				2705
FUNDS SAFEKEEP			40000
TOTAL CASH DECLARED			44036

TOTAL CASH ON SYSTEM			1331
OVER/SHORTAGES 			0

ROOM	 # OF CHECK-OUT	AMT
Value 		11	5425
Regular 		26	14910
Classique 		43	24425
Premium 		0	0
Regent 		0	0
Queen 		0	0
Gemini 		0	0
Family 		0	0
Executive Suite 	0	0
Mega Suite 	0	0

DISCOUNT 
Value 			  
Regular 		  
Classique 		  
Premium 		  
Regent 			  
Queen 		  
Gemini 		  
Family 		  
Executive Suite 	  
Mega Suite 		  


=== RESERVATIONS ===

Deposits:


Claimed:



SECURITY DEPOSITS

Deposits:
Claimed:


=== SALES BREAKDOWN ===

Transaction Date	Room No.	Cash	Card

2011-09-04 08:12:54 	401 		140 	0 	
2011-09-04 08:21:46 	210 		705 	0 	
2011-09-04 08:22:31 	316 		210 	0 	
2011-09-04 08:26:13 	310 		275 	0 	
2011-09-04 08:34:10 	312 		535 	0 	
2011-09-04 08:41:43 	208 		0 	400 	
2011-09-04 08:55:05 	318 		25 	0 	
2011-09-04 09:04:53 	220 		130 	0 	
2011-09-04 09:05:56 	206 		50 	0 	
2011-09-04 09:07:12 	313 		395 	0 	
2011-09-04 09:13:23 	423 		25 	0 	
2011-09-04 09:22:52 	307 		65 	0 	
2011-09-04 09:25:35 	424 		275 	0 	
2011-09-04 09:26:58 	317 		395 	0 	
2011-09-04 09:29:19 	406 		395 	0 	
2011-09-04 09:40:47 	202 		345 	0 	
2011-09-04 09:44:46 	409 		395 	0 	
2011-09-04 09:46:12 	208 		275 	0 	
2011-09-04 09:51:24 	408 		395 	0 	
2011-09-04 09:54:17 	410 		275 	0 	
2011-09-04 09:56:53 	319 		395 	0 	
2011-09-04 09:59:51 	405 		300 	0 	
2011-09-04 10:00:58 	303 		345 	0 	
2011-09-04 10:10:46 	314 		705 	0 	
2011-09-04 10:11:00 	302 		395 	0 	
2011-09-04 10:12:06 	320 		705 	0 	
2011-09-04 10:33:16 	217 		275 	0 	
2011-09-04 10:38:52 	421 		420 	0 	
2011-09-04 10:42:09 	206 		345 	0 	
2011-09-04 10:43:51 	309 		0 	520 	
2011-09-04 10:45:04 	204 		345 	0 	
2011-09-04 10:45:12 	415 		395 	0 	
2011-09-04 10:45:20 	413 		395 	0 	
2011-09-04 10:47:43 	412 		280 	0 	
2011-09-04 10:57:25 	201 		25 	0 	
2011-09-04 11:04:43 	308 		535 	0 	
2011-09-04 11:06:29 	204 		25 	0 	
2011-09-04 11:06:46 	416 		585 	0 	
2011-09-04 11:10:08 	307 		675 	0 	
2011-09-04 11:10:16 	219 		395 	0 	
2011-09-04 11:11:51 	302 		225 	0 	
2011-09-04 11:21:56 	411 		575 	0 	
2011-09-04 11:42:07 	301 		395 	0 	
2011-09-04 11:43:38 	309 		395 	0 	
2011-09-04 11:49:01 	419 		420 	0 	
2011-09-04 12:01:13 	310 		100 	0 	
2011-09-04 12:01:48 	203 		345 	0 	
2011-09-04 12:08:22 	315 		675 	0 	
2011-09-04 12:12:43 	313 		395 	0 	
2011-09-04 12:15:58 	211 		465 	0 	
2011-09-04 12:32:29 	319 		395 	0 	
2011-09-04 12:32:55 	207 		585 	0 	
2011-09-04 12:33:03 	422 		395 	0 	
2011-09-04 12:36:54 	411 		20 	0 	
2011-09-04 12:42:15 	412 		395 	0 	
2011-09-04 12:46:33 	215 		480 	0 	
2011-09-04 13:03:03 	413 		395 	0 	
2011-09-04 13:03:14 	407 		675 	0 	
2011-09-04 13:03:22 	404 		395 	0 	
2011-09-04 13:03:29 	221 		395 	0 	
2011-09-04 13:11:39 	414 		705 	0 	
2011-09-04 13:21:02 	410 		275 	0 	
2011-09-04 13:25:59 	316 		345 	0 	
2011-09-04 13:27:57 	418 		345 	0 	
2011-09-04 13:37:19 	418 		50 	0 	
2011-09-04 13:37:35 	405 		275 	0 	
2011-09-04 13:37:44 	206 		345 	0 	
2011-09-04 13:38:23 	202 		345 	0 	
2011-09-04 13:41:16 	201 		465 	0 	
2011-09-04 13:47:55 	406 		395 	0 	
2011-09-04 13:48:02 	409 		395 	0 	
2011-09-04 13:48:11 	402 		395 	0 	
2011-09-04 13:48:20 	403 		345 	0 	
2011-09-04 13:49:34 	420 		705 	0 	
2011-09-04 13:51:35 	317 		395 	0 	
2011-09-04 13:51:43 	312 		395 	0 	
2011-09-04 13:57:52 	321 		316 	0 	
2011-09-04 13:59:04 	213 		345 	0 	
2011-09-04 14:03:21 	322 		395 	0 	
2011-09-04 14:03:50 	421 		395 	0 	
2011-09-04 14:04:06 	218 		395 	0 	
2011-09-04 14:04:46 	318 		345 	0 	
2011-09-04 14:11:45 	415 		395 	0 	
2011-09-04 14:11:53 	408 		395 	0 	
2011-09-04 14:12:01 	302 		395 	0 	
2011-09-04 14:13:36 	210 		210 	0 	
2011-09-04 14:20:29 	208 		275 	0 	
2011-09-04 14:21:25 	303 		705 	0 	
2011-09-04 14:25:14 	307 		250 	0 	
2011-09-04 14:25:24 	213 		30 	0 	
2011-09-04 14:28:03 	304 		395 	0 	
2011-09-04 14:28:15 	401 		395 	0 	
2011-09-04 14:37:21 	419 		395 	0 	
2011-09-04 14:37:32 	309 		395 	0 	
2011-09-04 14:37:46 	204 		120 	0 	
2011-09-04 14:39:05 	421 		110 	0 	
2011-09-04 14:45:38 	417 		1110 	0 	
2011-09-04 14:48:49 	205 		345 	0 	
2011-09-04 14:49:27 	304 		30 	0 	
2011-09-04 14:51:09 	219 		395 	0 	
2011-09-04 15:00:15 	220 		395 	0 	
2011-09-04 15:05:03 	305 		275 	0 	
2011-09-04 15:05:13 	209 		275 	0 	
2011-09-04 15:08:31 	221 		395 	0 	
2011-09-04 15:15:31 	308 		395 	0 	
2011-09-04 15:16:07 	310 		275 	0 	
2011-09-04 15:16:55 	420 		150 	0 	
2011-09-04 15:21:19 	301 		395 	0 	
2011-09-04 15:27:35 	212 		275 	0 	
2011-09-04 15:34:29 	413 		395 	0 	
2011-09-04 15:46:06 	316 		110 	0 	
2011-09-04 15:47:28 	319 		395 	0 	
2011-09-04 15:47:50 	306 		395 	0 	
2011-09-04 15:48:56 	207 		345 	0 	
2011-09-04 15:49:41 	307 		395 	0 	
2011-09-04 15:58:29 	313 		395 	0 	
2011-09-04 15:58:38 	404 		395 	0 	
 			Total:		41331 	920		

=== RECHIT LIST ===




V1