MSHOGUN 1: SHIFT END REPORT
Tuesday August 17, 2010 12:00:01 AM

SALES TRANSACTION
Room Sales Order			41785
FnB Sales Order			1940
Beer Sales Order			90
Misc Sales Order			0
Room Sales Adjustment			0
GROSS SALES			43815

DISCOUNT
Room				0
FnB				0
Misc				0

DEPOSIT				34060
REFUND				

TOTAL ACCOUNTABILITY			77875

CASH DECLARATION			10728
CARD				625
FUNDS SAFEKEEP			50000
TOTAL CASH DECLARED			61353

TOTAL CASH ON SYSTEM			10778
OVER/SHORTAGES 			-50

ROOM	 # OF CHECK-OUT	AMT
Value 		20	5820
Regular 		14	5190
Classique 		56	23100
Premium 		2	1050
Regent 		6	5775
Queen 		1	850
Gemini 		0	0
Family 		0	0
Executive Suite 	0	0
Mega Suite 	0	0

DISCOUNT 
Value 			  
Regular 		  
Classique 		  
Premium 		  
Regent 			  
Queen 		  
Gemini 		  
Family 		  
Executive Suite 	  
Mega Suite 		  


=== RESERVATIONS ===

Deposits:


Claimed:



SECURITY DEPOSITS

Deposits:
Claimed:


=== SALES BREAKDOWN ===

Transaction Date	Room No.	Cash	Card

2010-08-16 16:08:04 	319 		395 	0 	
2010-08-16 16:08:15 	311 		275 	0 	
2010-08-16 16:10:23 	305 		275 	0 	
2010-08-16 16:14:23 	301 		395 	0 	
2010-08-16 16:16:01 	323 		275 	0 	
2010-08-16 16:21:07 	322 		395 	0 	
2010-08-16 16:28:38 	315 		395 	0 	
2010-08-16 16:38:49 	314 		276 	0 	
2010-08-16 16:53:19 	502 		175 	0 	
2010-08-16 16:54:10 	410 		275 	0 	
2010-08-16 16:54:16 	324 		275 	0 	
2010-08-16 16:58:03 	316 		345 	0 	
2010-08-16 17:11:21 	312 		395 	0 	
2010-08-16 17:22:03 	320 		0 	345 	
2010-08-16 17:22:28 	310 		275 	0 	
2010-08-16 17:26:02 	510 		800 	0 	
2010-08-16 17:26:08 	317 		395 	0 	
2010-08-16 17:32:38 	512 		800 	0 	
2010-08-16 17:32:45 	309 		395 	0 	
2010-08-16 17:33:21 	306 		395 	0 	
2010-08-16 17:35:56 	308 		395 	0 	
2010-08-16 17:43:55 	515 		1600 	0 	
2010-08-16 17:46:33 	411 		275 	0 	
2010-08-16 17:47:31 	404 		395 	0 	
2010-08-16 17:51:16 	406 		395 	0 	
2010-08-16 17:53:22 	307 		395 	0 	
2010-08-16 17:55:42 	316 		25 	0 	
2010-08-16 17:55:50 	317 		240 	0 	
2010-08-16 17:56:02 	408 		395 	0 	
2010-08-16 17:58:15 	412 		395 	0 	
2010-08-16 17:59:16 	405 		275 	0 	
2010-08-16 18:02:46 	413 		395 	0 	
2010-08-16 18:07:14 	417 		395 	0 	
2010-08-16 18:10:58 	401 		395 	0 	
2010-08-16 18:12:24 	324 		275 	0 	
2010-08-16 18:19:55 	517 		800 	0 	
2010-08-16 18:22:34 	421 		140 	0 	
2010-08-16 18:23:48 	302 		395 	0 	
2010-08-16 18:34:42 	414 		345 	0 	
2010-08-16 18:39:31 	322 		535 	0 	
2010-08-16 18:41:00 	419 		395 	0 	
2010-08-16 18:43:34 	416 		276 	0 	
2010-08-16 18:44:10 	423 		275 	0 	
2010-08-16 18:46:45 	304 		0 	280 	
2010-08-16 18:49:43 	422 		395 	0 	
2010-08-16 18:50:14 	517 		40 	0 	
2010-08-16 18:54:18 	421 		1115 	0 	
2010-08-16 18:59:15 	410 		275 	0 	
2010-08-16 18:59:27 	407 		695 	0 	
2010-08-16 19:01:36 	208 		275 	0 	
2010-08-16 19:04:32 	218 		395 	0 	
2010-08-16 19:10:45 	318 		345 	0 	
2010-08-16 19:12:38 	403 		345 	0 	
2010-08-16 19:19:07 	418 		240 	0 	
2010-08-16 19:22:36 	221 		395 	0 	
2010-08-16 19:28:03 	303 		345 	0 	
2010-08-16 19:33:04 	220 		395 	0 	
2010-08-16 19:38:21 	415 		695 	0 	
2010-08-16 19:38:32 	422 		190 	0 	
2010-08-16 19:38:56 	416 		210 	0 	
2010-08-16 19:39:04 	516 		315 	0 	
2010-08-16 19:39:23 	304 		695 	0 	
2010-08-16 19:40:44 	424 		595 	0 	
2010-08-16 19:45:21 	509 		150 	0 	
2010-08-16 19:49:51 	315 		395 	0 	
2010-08-16 19:51:02 	Lobby 		170 	0 	
2010-08-16 19:55:25 	413 		695 	0 	
2010-08-16 19:55:32 	408 		395 	0 	
2010-08-16 19:56:43 	301 		395 	0 	
2010-08-16 19:58:50 	310 		275 	0 	
2010-08-16 20:00:26 	311 		275 	0 	
2010-08-16 20:01:40 	309 		395 	0 	
2010-08-16 20:02:00 	219 		695 	0 	
2010-08-16 20:05:39 	202 		585 	0 	
2010-08-16 20:12:08 	608 		335 	0 	
2010-08-16 20:13:08 	409 		395 	0 	
2010-08-16 20:15:55 	406 		395 	0 	
2010-08-16 20:18:03 	301 		140 	0 	
2010-08-16 20:18:17 	209 		275 	0 	
2010-08-16 20:20:31 	404 		395 	0 	
2010-08-16 20:23:14 	422 		395 	0 	
2010-08-16 20:30:09 	310 		200 	0 	
2010-08-16 20:37:30 	402 		695 	0 	
2010-08-16 20:41:05 	302 		695 	0 	
2010-08-16 20:42:21 	219 		50 	0 	
2010-08-16 20:43:24 	308 		695 	0 	
2010-08-16 20:45:40 	514 		50 	0 	
2010-08-16 20:46:39 	212 		275 	0 	
2010-08-16 20:52:21 	312 		395 	0 	
2010-08-16 20:54:27 	412 		316 	0 	
2010-08-16 20:54:50 	519 		800 	0 	
2010-08-16 20:55:45 	406 		175 	0 	
2010-08-16 20:56:42 	305 		275 	0 	
2010-08-16 21:00:46 	613 		645 	0 	
2010-08-16 21:02:07 	214 		595 	0 	
2010-08-16 21:04:41 	306 		395 	0 	
2010-08-16 21:05:05 	418 		645 	0 	
2010-08-16 21:06:25 	220 		150 	0 	
2010-08-16 21:07:08 	206 		345 	0 	
2010-08-16 21:11:40 	423 		595 	0 	
2010-08-16 21:14:24 	420 		645 	0 	
2010-08-16 21:17:04 	520 		800 	0 	
2010-08-16 21:17:26 	401 		395 	0 	
2010-08-16 21:18:28 	417 		695 	0 	
2010-08-16 21:19:05 	319 		395 	0 	
2010-08-16 21:19:21 	507 		800 	0 	
2010-08-16 21:20:57 	203 		645 	0 	
2010-08-16 21:22:05 	205 		345 	0 	
2010-08-16 21:22:46 	411 		275 	0 	
2010-08-16 21:26:12 	204 		645 	0 	
2010-08-16 21:37:36 	414 		645 	0 	
2010-08-16 21:41:29 	213 		645 	0 	
2010-08-16 21:45:31 	217 		595 	0 	
2010-08-16 21:48:49 	203 		210 	0 	
2010-08-16 21:48:55 	203 		30 	0 	
2010-08-16 21:49:37 	507 		510 	0 	
2010-08-16 21:50:26 	324 		595 	0 	
2010-08-16 21:57:48 	216 		595 	0 	
2010-08-16 21:58:21 	416 		645 	0 	
2010-08-16 22:06:23 	220 		695 	0 	
2010-08-16 22:11:32 	316 		645 	0 	
2010-08-16 22:13:47 	312 		395 	0 	
2010-08-16 22:20:06 	215 		645 	0 	
2010-08-16 22:21:28 	323 		0 	595 	
2010-08-16 22:29:04 	517 		100 	0 	
2010-08-16 22:29:42 	218 		395 	0 	
2010-08-16 22:32:05 	211 		645 	0 	
2010-08-16 22:33:32 	315 		395 	0 	
2010-08-16 22:39:02 	217 		80 	0 	
2010-08-16 22:42:38 	207 		585 	0 	
2010-08-16 22:50:25 	317 		695 	0 	
2010-08-16 22:53:49 	601 		850 	0 	
2010-08-16 23:03:27 	310 		595 	0 	
2010-08-16 23:03:35 	208 		275 	0 	
2010-08-16 23:03:41 	405 		595 	0 	
2010-08-16 23:14:31 	513 		800 	0 	
2010-08-16 23:21:27 	316 		10 	0 	
2010-08-16 23:23:25 	302 		190 	0 	
2010-08-16 23:24:34 	310 		15 	0 	
2010-08-16 23:24:58 	515 		100 	0 	
2010-08-16 23:25:49 	506 		1600 	0 	
2010-08-16 23:41:36 	308 		220 	0 	
2010-08-16 23:52:41 	613 		555 	0 	
2010-08-16 23:55:01 	311 		275 	0 	
 			Total:		60778 	1220		

=== RECHIT LIST ===

Room No. 513 	 Rechit Date: 2010-08-16 23:42:53







V1