MSHOGUN 1: SHIFT END REPORT
Wednesday December 21, 2011 12:00:07 AM

SALES TRANSACTION
Room Sales Order			35440
FnB Sales Order			2058
Beer Sales Order			585
Misc Sales Order			385
Room Sales Adjustment			0
GROSS SALES			38468

DISCOUNT
Room				0
FnB				0
Misc				0

DEPOSIT				41433
REFUND				

TOTAL ACCOUNTABILITY			79901

CASH DECLARATION			10454
CARD				465
FUNDS SAFEKEEP			60000
TOTAL CASH DECLARED			70919

TOTAL CASH ON SYSTEM			10419
OVER/SHORTAGES 			35

ROOM	 # OF CHECK-OUT	AMT
Value 		20	5700
Regular 		23	10755
Classique 		47	18985
Premium 		0	0
Regent 		0	0
Queen 		0	0
Gemini 		0	0
Family 		0	0
Executive Suite 	0	0
Mega Suite 	0	0

DISCOUNT 
Value 			  
Regular 		  
Classique 		  
Premium 		  
Regent 			  
Queen 		  
Gemini 		  
Family 		  
Executive Suite 	  
Mega Suite 		  


=== RESERVATIONS ===

Deposits:


Claimed:



SECURITY DEPOSITS

Deposits:
Claimed:


=== SALES BREAKDOWN ===

Transaction Date	Room No.	Cash	Card

2011-12-20 16:06:25 	211 		345 	0 	
2011-12-20 16:06:51 	219 		395 	0 	
2011-12-20 16:07:04 	221 		395 	0 	
2011-12-20 16:14:38 	321 		395 	0 	
2011-12-20 16:22:22 	221 		225 	0 	
2011-12-20 16:23:11 	218 		395 	0 	
2011-12-20 16:23:21 	220 		395 	0 	
2011-12-20 16:28:21 	308 		395 	0 	
2011-12-20 16:32:34 	301 		395 	0 	
2011-12-20 16:37:15 	217 		275 	0 	
2011-12-20 16:40:18 	216 		275 	0 	
2011-12-20 16:40:18 	216 		725 	0 	
2011-12-20 16:40:44 	301 		40 	0 	
2011-12-20 16:41:19 	221 		250 	0 	
2011-12-20 16:47:09 	319 		395 	0 	
2011-12-20 16:48:38 	322 		395 	0 	
2011-12-20 16:51:28 	314 		465 	0 	
2011-12-20 16:52:21 	320 		345 	0 	
2011-12-20 16:52:36 	409 		395 	0 	
2011-12-20 16:55:21 	319 		50 	0 	
2011-12-20 16:58:38 	415 		395 	0 	
2011-12-20 16:58:49 	401 		395 	0 	
2011-12-20 16:59:38 	412 		395 	0 	
2011-12-20 17:01:59 	304 		395 	0 	
2011-12-20 17:07:23 	402 		395 	0 	
2011-12-20 17:07:52 	304 		50 	0 	
2011-12-20 17:10:51 	408 		395 	0 	
2011-12-20 17:23:23 	220 		230 	0 	
2011-12-20 17:30:26 	214 		275 	0 	
2011-12-20 17:33:59 	207 		345 	0 	
2011-12-20 17:35:47 	406 		395 	0 	
2011-12-20 17:50:06 	212 		275 	0 	
2011-12-20 17:52:17 	209 		275 	0 	
2011-12-20 17:52:44 	422 		395 	0 	
2011-12-20 17:56:51 	308 		316 	0 	
2011-12-20 17:58:12 	210 		345 	0 	
2011-12-20 17:58:52 	305 		275 	0 	
2011-12-20 18:01:57 	413 		695 	0 	
2011-12-20 18:08:04 	210 		25 	0 	
2011-12-20 18:09:23 	410 		275 	0 	
2011-12-20 18:09:49 	316 		645 	0 	
2011-12-20 18:10:07 	405 		275 	0 	
2011-12-20 18:10:54 	309 		395 	0 	
2011-12-20 18:19:53 	307 		395 	0 	
2011-12-20 18:23:09 	411 		275 	0 	
2011-12-20 18:24:24 	219 		395 	0 	
2011-12-20 18:25:03 	221 		100 	0 	
2011-12-20 18:26:36 	417 		695 	0 	
2011-12-20 18:26:57 	419 		695 	0 	
2011-12-20 18:28:40 	313 		395 	0 	
2011-12-20 18:30:34 	421 		695 	0 	
2011-12-20 18:31:39 	214 		275 	0 	
2011-12-20 18:32:51 	423 		595 	0 	
2011-12-20 18:39:32 	321 		695 	0 	
2011-12-20 18:46:14 	317 		695 	0 	
2011-12-20 18:46:56 	312 		395 	0 	
2011-12-20 18:48:28 	306 		395 	0 	
2011-12-20 18:51:01 	424 		595 	0 	
2011-12-20 18:56:51 	201 		240 	0 	
2011-12-20 18:57:53 	205 		345 	0 	
2011-12-20 18:58:47 	213 		345 	0 	
2011-12-20 19:00:51 	302 		140 	0 	
2011-12-20 19:01:57 	208 		275 	0 	
2011-12-20 19:03:01 	420 		645 	0 	
2011-12-20 19:03:24 	418 		345 	0 	
2011-12-20 19:03:49 	414 		645 	0 	
2011-12-20 19:05:03 	323 		595 	0 	
2011-12-20 19:06:33 	324 		595 	0 	
2011-12-20 19:07:32 	206 		0 	585 	
2011-12-20 19:08:26 	216 		-725 	0 	
2011-12-20 19:09:51 	403 		645 	0 	
2011-12-20 19:17:08 	408 		20 	0 	
2011-12-20 19:24:18 	201 		0 	465 	
2011-12-20 19:26:54 	320 		345 	0 	
2011-12-20 19:27:14 	310 		275 	0 	
2011-12-20 19:27:47 	218 		395 	0 	
2011-12-20 19:28:03 	302 		695 	0 	
2011-12-20 19:28:20 	217 		595 	0 	
2011-12-20 19:31:16 	401 		190 	0 	
2011-12-20 19:34:39 	202 		345 	0 	
2011-12-20 19:34:50 	203 		345 	0 	
2011-12-20 19:35:13 	303 		345 	0 	
2011-12-20 19:35:36 	216 		595 	0 	
2011-12-20 19:36:35 	201 		20 	0 	
2011-12-20 19:39:50 	210 		645 	0 	
2011-12-20 19:42:10 	319 		695 	0 	
2011-12-20 19:43:45 	301 		695 	0 	
2011-12-20 19:50:36 	202 		300 	0 	
2011-12-20 19:53:30 	221 		395 	0 	
2011-12-20 19:54:11 	308 		695 	0 	
2011-12-20 19:55:57 	211 		318 	0 	
2011-12-20 19:56:59 	408 		695 	0 	
2011-12-20 19:58:52 	409 		395 	0 	
2011-12-20 20:02:19 	415 		695 	0 	
2011-12-20 20:04:10 	402 		695 	0 	
2011-12-20 20:07:09 	422 		695 	0 	
2011-12-20 20:07:27 	401 		395 	0 	
2011-12-20 20:08:15 	412 		395 	0 	
2011-12-20 20:11:00 	315 		316 	0 	
2011-12-20 20:14:24 	304 		395 	0 	
2011-12-20 20:14:32 	322 		395 	0 	
2011-12-20 20:20:14 	406 		395 	0 	
2011-12-20 20:23:36 	211 		345 	0 	
2011-12-20 20:24:37 	404 		695 	0 	
2011-12-20 20:26:10 	407 		695 	0 	
2011-12-20 20:33:29 	312 		20 	0 	
2011-12-20 20:34:15 	408 		10 	0 	
2011-12-20 20:34:18 	408 		50 	0 	
2011-12-20 20:36:55 	405 		595 	0 	
2011-12-20 20:38:08 	203 		90 	0 	
2011-12-20 20:39:27 	207 		345 	0 	
2011-12-20 20:40:09 	410 		275 	0 	
2011-12-20 20:42:25 	418 		645 	0 	
2011-12-20 20:45:20 	305 		595 	0 	
2011-12-20 20:46:30 	416 		645 	0 	
2011-12-20 20:46:44 	215 		645 	0 	
2011-12-20 20:47:05 	412 		15 	0 	
2011-12-20 20:47:39 	219 		395 	0 	
2011-12-20 20:48:06 	204 		276 	0 	
2011-12-20 20:48:51 	304 		265 	0 	
2011-12-20 20:52:53 	209 		275 	0 	
2011-12-20 20:57:42 	314 		645 	0 	
2011-12-20 21:01:43 	202 		90 	0 	
2011-12-20 21:04:00 	220 		280 	0 	
2011-12-20 21:05:47 	203 		345 	0 	
2011-12-20 21:06:43 	212 		275 	0 	
2011-12-20 21:07:17 	416 		50 	0 	
2011-12-20 21:17:11 	213 		645 	0 	
2011-12-20 21:19:12 	220 		395 	0 	
2011-12-20 21:22:58 	307 		695 	0 	
2011-12-20 21:24:06 	309 		395 	0 	
2011-12-20 21:25:05 	214 		275 	0 	
2011-12-20 21:29:47 	205 		345 	0 	
2011-12-20 21:32:07 	411 		595 	0 	
2011-12-20 21:36:42 	422 		198 	0 	
2011-12-20 21:37:17 	302 		140 	0 	
2011-12-20 21:37:45 	202 		345 	0 	
2011-12-20 21:39:21 	310 		595 	0 	
2011-12-20 21:47:12 	214 		90 	0 	
2011-12-20 21:47:43 	313 		695 	0 	
2011-12-20 21:48:41 	405 		50 	0 	
2011-12-20 21:49:14 	306 		395 	0 	
2011-12-20 21:54:06 	211 		645 	0 	
2011-12-20 22:00:36 	312 		395 	0 	
2011-12-20 22:07:26 	409 		695 	0 	
2011-12-20 22:16:17 	406 		695 	0 	
2011-12-20 22:21:19 	404 		245 	0 	
2011-12-20 22:22:23 	412 		110 	0 	
2011-12-20 22:23:04 	220 		330 	0 	
2011-12-20 22:23:29 	203 		645 	0 	
2011-12-20 22:26:33 	212 		595 	0 	
2011-12-20 22:28:03 	320 		270 	0 	
2011-12-20 22:29:28 	322 		50 	0 	
2011-12-20 22:40:47 	401 		395 	0 	
2011-12-20 22:41:58 	321 		295 	0 	
2011-12-20 22:43:18 	310 		175 	0 	
2011-12-20 22:45:09 	305 		190 	0 	
2011-12-20 22:45:23 	309 		395 	0 	
2011-12-20 22:56:28 	218 		695 	0 	
2011-12-20 22:59:17 	212 		30 	0 	
2011-12-20 22:59:57 	320 		645 	0 	
2011-12-20 23:04:56 	322 		0 	695 	
2011-12-20 23:05:25 	303 		705 	0 	
2011-12-20 23:08:48 	221 		395 	0 	
2011-12-20 23:11:19 	208 		275 	0 	
2011-12-20 23:11:45 	318 		645 	0 	
2011-12-20 23:14:05 	214 		595 	0 	
2011-12-20 23:14:48 	309 		295 	0 	
2011-12-20 23:16:26 	304 		695 	0 	
2011-12-20 23:24:22 	220 		695 	0 	
2011-12-20 23:27:34 	315 		695 	0 	
2011-12-20 23:27:45 	204 		645 	0 	
2011-12-20 23:31:56 	410 		595 	0 	
2011-12-20 23:35:34 	412 		535 	0 	
2011-12-20 23:38:21 	311 		575 	0 	
2011-12-20 23:40:18 	207 		345 	0 	
2011-12-20 23:41:42 	201 		345 	0 	
2011-12-20 23:45:00 	209 		275 	0 	
2011-12-20 23:52:53 	205 		645 	0 	
 			Total:		70419 	1745		

=== RECHIT LIST ===




V1