MSHOGUN 1: SHIFT END REPORT
Friday March 02, 2012 12:00:04 AM

SALES TRANSACTION
Room Sales Order			42360
FnB Sales Order			2080
Beer Sales Order			155
Misc Sales Order			30
Room Sales Adjustment			0
GROSS SALES			44625

DISCOUNT
Room				0
FnB				0
Misc				0

DEPOSIT				32475
REFUND				

TOTAL ACCOUNTABILITY			77100

CASH DECLARATION			9100
CARD				0
FUNDS SAFEKEEP			50000
TOTAL CASH DECLARED			59100

TOTAL CASH ON SYSTEM			9100
OVER/SHORTAGES 			0

ROOM	 # OF CHECK-OUT	AMT
Value 		9	3675
Regular 		35	16515
Classique 		54	22170
Premium 		0	0
Regent 		0	0
Queen 		0	0
Gemini 		0	0
Family 		0	0
Executive Suite 	0	0
Mega Suite 	0	0

DISCOUNT 
Value 			  
Regular 		  
Classique 		  
Premium 		  
Regent 			  
Queen 		  
Gemini 		  
Family 		  
Executive Suite 	  
Mega Suite 		  


=== RESERVATIONS ===

Deposits:


Claimed:



SECURITY DEPOSITS

Deposits:
Claimed:


=== SALES BREAKDOWN ===

Transaction Date	Room No.	Cash	Card

2012-03-01 16:07:50 	307 		395 	0 	
2012-03-01 16:08:55 	419 		395 	0 	
2012-03-01 16:14:31 	218 		395 	0 	
2012-03-01 16:14:50 	218 		50 	0 	
2012-03-01 16:17:15 	316 		705 	0 	
2012-03-01 16:17:34 	412 		395 	0 	
2012-03-01 16:18:46 	221 		240 	0 	
2012-03-01 16:19:23 	421 		395 	0 	
2012-03-01 16:22:38 	303 		345 	0 	
2012-03-01 16:33:53 	413 		395 	0 	
2012-03-01 16:34:37 	414 		705 	0 	
2012-03-01 16:37:44 	416 		345 	0 	
2012-03-01 16:50:52 	207 		345 	0 	
2012-03-01 16:57:00 	417 		395 	0 	
2012-03-01 17:05:57 	208 		275 	0 	
2012-03-01 17:10:57 	415 		395 	0 	
2012-03-01 17:11:04 	220 		395 	0 	
2012-03-01 17:14:39 	219 		675 	0 	
2012-03-01 17:15:37 	315 		395 	0 	
2012-03-01 17:20:07 	202 		345 	0 	
2012-03-01 17:24:36 	318 		120 	0 	
2012-03-01 17:30:38 	321 		395 	0 	
2012-03-01 17:32:49 	317 		395 	0 	
2012-03-01 17:33:56 	306 		395 	0 	
2012-03-01 17:37:23 	218 		395 	0 	
2012-03-01 17:51:21 	204 		345 	0 	
2012-03-01 17:54:57 	205 		276 	0 	
2012-03-01 17:58:58 	409 		395 	0 	
2012-03-01 18:03:18 	210 		345 	0 	
2012-03-01 18:05:44 	313 		395 	0 	
2012-03-01 18:14:12 	319 		395 	0 	
2012-03-01 18:22:09 	322 		395 	0 	
2012-03-01 18:27:20 	201 		276 	0 	
2012-03-01 18:31:09 	407 		695 	0 	
2012-03-01 18:31:34 	401 		395 	0 	
2012-03-01 18:32:26 	422 		395 	0 	
2012-03-01 18:33:13 	312 		395 	0 	
2012-03-01 18:34:11 	314 		345 	0 	
2012-03-01 18:37:59 	417 		105 	0 	
2012-03-01 18:39:20 	307 		395 	0 	
2012-03-01 18:39:26 	302 		395 	0 	
2012-03-01 18:40:13 	402 		395 	0 	
2012-03-01 18:49:23 	416 		345 	0 	
2012-03-01 18:49:59 	406 		250 	0 	
2012-03-01 18:52:23 	403 		276 	0 	
2012-03-01 18:52:40 	318 		345 	0 	
2012-03-01 18:52:57 	309 		395 	0 	
2012-03-01 18:55:52 	421 		695 	0 	
2012-03-01 18:56:48 	408 		695 	0 	
2012-03-01 18:59:03 	213 		345 	0 	
2012-03-01 18:59:26 	317 		395 	0 	
2012-03-01 19:07:47 	419 		695 	0 	
2012-03-01 19:10:24 	304 		395 	0 	
2012-03-01 19:14:41 	412 		695 	0 	
2012-03-01 19:17:48 	418 		345 	0 	
2012-03-01 19:17:56 	209 		275 	0 	
2012-03-01 19:18:39 	406 		695 	0 	
2012-03-01 19:19:54 	422 		230 	0 	
2012-03-01 19:22:48 	413 		395 	0 	
2012-03-01 19:23:30 	304 		15 	0 	
2012-03-01 19:24:33 	215 		345 	0 	
2012-03-01 19:25:24 	207 		345 	0 	
2012-03-01 19:34:36 	411 		595 	0 	
2012-03-01 19:41:11 	212 		275 	0 	
2012-03-01 19:42:57 	214 		275 	0 	
2012-03-01 19:57:45 	414 		150 	0 	
2012-03-01 19:57:47 	414 		75 	0 	
2012-03-01 19:59:32 	313 		695 	0 	
2012-03-01 20:00:38 	312 		395 	0 	
2012-03-01 20:05:24 	321 		316 	0 	
2012-03-01 20:06:38 	424 		595 	0 	
2012-03-01 20:09:25 	310 		275 	0 	
2012-03-01 20:10:22 	415 		695 	0 	
2012-03-01 20:10:47 	204 		345 	0 	
2012-03-01 20:14:32 	201 		250 	0 	
2012-03-01 20:15:53 	423 		595 	0 	
2012-03-01 20:16:50 	324 		595 	0 	
2012-03-01 20:19:05 	323 		595 	0 	
2012-03-01 20:19:36 	217 		275 	0 	
2012-03-01 20:20:53 	213 		50 	0 	
2012-03-01 20:32:49 	412 		140 	0 	
2012-03-01 20:33:04 	310 		250 	0 	
2012-03-01 20:34:33 	301 		395 	0 	
2012-03-01 20:35:45 	404 		695 	0 	
2012-03-01 20:37:13 	303 		345 	0 	
2012-03-01 20:42:14 	317 		395 	0 	
2012-03-01 20:48:32 	221 		280 	0 	
2012-03-01 20:50:53 	311 		595 	0 	
2012-03-01 20:52:12 	405 		595 	0 	
2012-03-01 21:01:03 	413 		695 	0 	
2012-03-01 21:01:13 	304 		695 	0 	
2012-03-01 21:02:43 	315 		695 	0 	
2012-03-01 21:05:35 	410 		595 	0 	
2012-03-01 21:12:43 	306 		695 	0 	
2012-03-01 21:14:45 	220 		395 	0 	
2012-03-01 21:18:34 	319 		695 	0 	
2012-03-01 21:22:12 	302 		395 	0 	
2012-03-01 21:26:35 	322 		695 	0 	
2012-03-01 21:27:24 	211 		345 	0 	
2012-03-01 21:29:08 	218 		695 	0 	
2012-03-01 21:32:52 	314 		345 	0 	
2012-03-01 21:35:44 	210 		345 	0 	
2012-03-01 21:46:39 	217 		100 	0 	
2012-03-01 21:51:54 	320 		645 	0 	
2012-03-01 21:53:41 	213 		345 	0 	
2012-03-01 21:54:33 	209 		275 	0 	
2012-03-01 22:01:20 	309 		395 	0 	
2012-03-01 22:02:40 	409 		395 	0 	
2012-03-01 22:03:29 	317 		395 	0 	
2012-03-01 22:05:46 	402 		695 	0 	
2012-03-01 22:11:21 	401 		140 	0 	
2012-03-01 22:14:59 	307 		695 	0 	
2012-03-01 22:15:05 	308 		695 	0 	
2012-03-01 22:15:15 	301 		695 	0 	
2012-03-01 22:21:48 	416 		645 	0 	
2012-03-01 22:21:56 	420 		645 	0 	
2012-03-01 22:22:12 	402 		50 	0 	
2012-03-01 22:26:50 	418 		645 	0 	
2012-03-01 22:33:45 	403 		645 	0 	
2012-03-01 22:35:09 	219 		695 	0 	
2012-03-01 22:36:38 	220 		695 	0 	
2012-03-01 22:43:16 	215 		645 	0 	
2012-03-01 22:43:28 	414 		645 	0 	
2012-03-01 22:43:40 	401 		395 	0 	
2012-03-01 22:47:56 	413 		100 	0 	
2012-03-01 22:48:12 	418 		15 	0 	
2012-03-01 22:51:03 	221 		695 	0 	
2012-03-01 22:58:52 	312 		316 	0 	
2012-03-01 23:01:03 	423 		175 	0 	
2012-03-01 23:02:52 	422 		695 	0 	
2012-03-01 23:15:58 	301 		100 	0 	
2012-03-01 23:16:10 	212 		595 	0 	
2012-03-01 23:17:03 	316 		645 	0 	
2012-03-01 23:19:17 	214 		595 	0 	
2012-03-01 23:36:45 	303 		645 	0 	
2012-03-01 23:39:44 	321 		395 	0 	
2012-03-01 23:41:48 	316 		50 	0 	
2012-03-01 23:51:37 	302 		695 	0 	
 			Total:		59100 	0		

=== RECHIT LIST ===




V1