MSHOGUN 1: SHIFT END REPORT
Saturday March 19, 2011 12:02:05 AM

SALES TRANSACTION
Room Sales Order			40715
FnB Sales Order			2095
Beer Sales Order			340
Misc Sales Order			45
Room Sales Adjustment			0
GROSS SALES			43195

DISCOUNT
Room				0
FnB				0
Misc				0

DEPOSIT				34405
REFUND				

TOTAL ACCOUNTABILITY			77600

CASH DECLARATION			4138
CARD				395
FUNDS SAFEKEEP			60000
TOTAL CASH DECLARED			64533

TOTAL CASH ON SYSTEM			4369
OVER/SHORTAGES 			-231

ROOM	 # OF CHECK-OUT	AMT
Value 		13	3575
Regular 		30	12510
Classique 		62	24630
Premium 		0	0
Regent 		0	0
Queen 		0	0
Gemini 		0	0
Family 		0	0
Executive Suite 	0	0
Mega Suite 	0	0

DISCOUNT 
Value 			  
Regular 		  
Classique 		  
Premium 		  
Regent 			  
Queen 		  
Gemini 		  
Family 		  
Executive Suite 	  
Mega Suite 		  


=== RESERVATIONS ===

Deposits:


Claimed:



SECURITY DEPOSITS

Deposits:
Claimed:


=== SALES BREAKDOWN ===

Transaction Date	Room No.	Cash	Card

2011-03-18 16:09:30 	206 		345 	0 	
2011-03-18 16:09:40 	401 		395 	0 	
2011-03-18 16:16:56 	415 		395 	0 	
2011-03-18 16:17:06 	208 		275 	0 	
2011-03-18 16:17:18 	208 		10 	0 	
2011-03-18 16:22:23 	409 		395 	0 	
2011-03-18 16:38:01 	309 		395 	0 	
2011-03-18 16:49:06 	202 		345 	0 	
2011-03-18 16:52:00 	321 		395 	0 	
2011-03-18 17:01:03 	203 		345 	0 	
2011-03-18 17:03:26 	321 		50 	0 	
2011-03-18 17:07:46 	308 		395 	0 	
2011-03-18 17:11:15 	407 		395 	0 	
2011-03-18 17:11:32 	407 		50 	0 	
2011-03-18 17:11:49 	322 		316 	0 	
2011-03-18 17:17:04 	412 		395 	0 	
2011-03-18 17:18:09 	417 		395 	0 	
2011-03-18 17:26:16 	221 		395 	0 	
2011-03-18 17:26:40 	219 		395 	0 	
2011-03-18 17:26:50 	306 		395 	0 	
2011-03-18 17:27:09 	406 		395 	0 	
2011-03-18 17:28:56 	324 		275 	0 	
2011-03-18 17:31:03 	218 		395 	0 	
2011-03-18 17:31:23 	402 		395 	0 	
2011-03-18 17:32:11 	404 		395 	0 	
2011-03-18 17:36:46 	408 		395 	0 	
2011-03-18 17:37:04 	413 		535 	0 	
2011-03-18 17:41:04 	312 		395 	0 	
2011-03-18 17:49:29 	304 		395 	0 	
2011-03-18 17:49:41 	313 		395 	0 	
2011-03-18 17:49:53 	212 		275 	0 	
2011-03-18 17:52:42 	422 		395 	0 	
2011-03-18 17:57:35 	421 		395 	0 	
2011-03-18 18:05:05 	304 		90 	0 	
2011-03-18 18:07:59 	204 		345 	0 	
2011-03-18 18:08:07 	419 		395 	0 	
2011-03-18 18:08:28 	201 		345 	0 	
2011-03-18 18:17:54 	213 		175 	0 	
2011-03-18 18:19:39 	207 		345 	0 	
2011-03-18 18:22:16 	301 		395 	0 	
2011-03-18 18:31:55 	216 		275 	0 	
2011-03-18 18:34:38 	207 		245 	0 	
2011-03-18 18:39:59 	210 		345 	0 	
2011-03-18 18:40:18 	315 		395 	0 	
2011-03-18 18:41:18 	401 		316 	0 	
2011-03-18 18:41:39 	213 		345 	0 	
2011-03-18 18:43:45 	316 		120 	0 	
2011-03-18 18:45:04 	215 		276 	0 	
2011-03-18 18:51:28 	314 		345 	0 	
2011-03-18 18:51:52 	314 		10 	0 	
2011-03-18 18:52:08 	303 		345 	0 	
2011-03-18 18:54:48 	414 		345 	0 	
2011-03-18 18:54:57 	416 		345 	0 	
2011-03-18 18:58:08 	204 		110 	0 	
2011-03-18 19:00:54 	420 		345 	0 	
2011-03-18 19:01:06 	321 		316 	0 	
2011-03-18 19:04:23 	317 		395 	0 	
2011-03-18 19:04:37 	310 		275 	0 	
2011-03-18 19:07:44 	203 		276 	0 	
2011-03-18 19:07:58 	202 		345 	0 	
2011-03-18 19:09:13 	205 		345 	0 	
2011-03-18 19:17:09 	302 		695 	0 	
2011-03-18 19:19:25 	219 		695 	0 	
2011-03-18 19:20:17 	420 		120 	0 	
2011-03-18 19:20:53 	309 		395 	0 	
2011-03-18 19:21:19 	309 		50 	0 	
2011-03-18 19:22:48 	304 		695 	0 	
2011-03-18 19:24:52 	313 		695 	0 	
2011-03-18 19:25:05 	313 		50 	0 	
2011-03-18 19:28:14 	206 		345 	0 	
2011-03-18 19:29:44 	320 		345 	0 	
2011-03-18 19:30:02 	211 		345 	0 	
2011-03-18 19:31:49 	422 		395 	0 	
2011-03-18 19:35:12 	409 		395 	0 	
2011-03-18 19:45:43 	415 		695 	0 	
2011-03-18 19:45:56 	417 		695 	0 	
2011-03-18 19:46:13 	407 		395 	0 	
2011-03-18 19:46:22 	316 		345 	0 	
2011-03-18 19:51:58 	305 		595 	0 	
2011-03-18 19:53:21 	405 		595 	0 	
2011-03-18 19:57:29 	308 		695 	0 	
2011-03-18 20:03:36 	408 		695 	0 	
2011-03-18 20:09:33 	324 		595 	0 	
2011-03-18 20:11:19 	418 		50 	0 	
2011-03-18 20:13:04 	318 		345 	0 	
2011-03-18 20:18:29 	207 		645 	0 	
2011-03-18 20:27:12 	322 		316 	0 	
2011-03-18 20:29:15 	308 		350 	0 	
2011-03-18 20:30:14 	317 		395 	0 	
2011-03-18 20:30:38 	306 		316 	0 	
2011-03-18 20:34:05 	305 		50 	0 	
2011-03-18 20:35:07 	323 		595 	0 	
2011-03-18 20:39:21 	403 		285 	0 	
2011-03-18 20:39:26 	403 		240 	0 	
2011-03-18 20:40:36 	404 		395 	0 	
2011-03-18 20:47:07 	218 		395 	0 	
2011-03-18 20:47:38 	214 		595 	0 	
2011-03-18 20:48:12 	221 		0 	395 	
2011-03-18 20:48:24 	312 		395 	0 	
2011-03-18 20:48:41 	406 		395 	0 	
2011-03-18 20:53:09 	311 		595 	0 	
2011-03-18 20:55:20 	412 		395 	0 	
2011-03-18 20:57:34 	419 		695 	0 	
2011-03-18 20:58:41 	208 		595 	0 	
2011-03-18 21:00:28 	402 		395 	0 	
2011-03-18 21:03:45 	411 		595 	0 	
2011-03-18 21:06:31 	407 		395 	0 	
2011-03-18 21:08:18 	315 		316 	0 	
2011-03-18 21:12:32 	420 		40 	0 	
2011-03-18 21:12:35 	420 		10 	0 	
2011-03-18 21:12:45 	221 		15 	0 	
2011-03-18 21:13:52 	423 		595 	0 	
2011-03-18 21:16:02 	209 		595 	0 	
2011-03-18 21:16:11 	301 		695 	0 	
2011-03-18 21:18:29 	403 		645 	0 	
2011-03-18 21:29:01 	205 		645 	0 	
2011-03-18 21:29:10 	201 		345 	0 	
2011-03-18 21:44:59 	212 		595 	0 	
2011-03-18 21:45:30 	201 		180 	0 	
2011-03-18 21:49:24 	203 		345 	0 	
2011-03-18 21:49:35 	215 		645 	0 	
2011-03-18 21:53:01 	206 		645 	0 	
2011-03-18 21:53:13 	413 		395 	0 	
2011-03-18 21:55:51 	316 		210 	0 	
2011-03-18 21:56:44 	304 		160 	0 	
2011-03-18 22:01:28 	218 		50 	0 	
2011-03-18 22:01:44 	321 		695 	0 	
2011-03-18 22:01:52 	416 		645 	0 	
2011-03-18 22:07:47 	414 		645 	0 	
2011-03-18 22:07:56 	418 		645 	0 	
2011-03-18 22:17:59 	314 		645 	0 	
2011-03-18 22:35:48 	413 		255 	0 	
2011-03-18 22:36:48 	204 		705 	0 	
2011-03-18 22:39:36 	420 		120 	0 	
2011-03-18 22:41:31 	424 		595 	0 	
2011-03-18 22:45:04 	210 		585 	0 	
2011-03-18 22:45:26 	401 		395 	0 	
2011-03-18 22:46:43 	317 		695 	0 	
2011-03-18 22:49:16 	216 		275 	0 	
2011-03-18 22:49:44 	216 		80 	0 	
2011-03-18 22:54:04 	221 		395 	0 	
2011-03-18 22:54:27 	221 		90 	0 	
2011-03-18 22:55:49 	209 		185 	0 	
2011-03-18 22:58:52 	306 		695 	0 	
2011-03-18 22:59:01 	309 		695 	0 	
2011-03-18 23:02:02 	322 		695 	0 	
2011-03-18 23:02:13 	406 		695 	0 	
2011-03-18 23:03:51 	411 		65 	0 	
2011-03-18 23:06:05 	318 		150 	0 	
2011-03-18 23:12:49 	422 		695 	0 	
2011-03-18 23:18:08 	409 		695 	0 	
2011-03-18 23:21:13 	412 		695 	0 	
2011-03-18 23:27:40 	404 		395 	0 	
2011-03-18 23:28:02 	404 		25 	0 	
2011-03-18 23:36:19 	320 		345 	0 	
2011-03-18 23:37:10 	202 		276 	0 	
2011-03-18 23:37:52 	312 		695 	0 	
2011-03-18 23:39:53 	202 		120 	0 	
2011-03-18 23:48:47 	315 		395 	0 	
2011-03-18 23:52:54 	407 		695 	0 	
2011-03-18 23:53:23 	303 		705 	0 	
2011-03-18 23:55:28 	218 		395 	0 	
2011-03-18 23:56:03 	420 		645 	0 	
2011-03-18 23:58:19 	406 		155 	0 	
 			Total:		64369 	395		

=== RECHIT LIST ===




V1