MSHOGUN 1: SHIFT END REPORT
Monday July 05, 2010 4:00:19 PM

SALES TRANSACTION
Room Sales Order			39125
FnB Sales Order			1843
Beer Sales Order			400
Misc Sales Order			308
Room Sales Adjustment			0
GROSS SALES			41676

DISCOUNT
Room				0
FnB				0
Misc				0

DEPOSIT				16555
REFUND				

TOTAL ACCOUNTABILITY			58231

CASH DECLARATION			5054
CARD				0
FUNDS SAFEKEEP			30000
TOTAL CASH DECLARED			35054

TOTAL CASH ON SYSTEM			5054
OVER/SHORTAGES 			0

ROOM	 # OF CHECK-OUT	AMT
Value 		6	2290
Regular 		9	5145
Classique 		30	15790
Premium 		4	2850
Regent 		10	9150
Queen 		1	1700
Gemini 		0	0
Family 		0	0
Executive Suite 	1	2200
Mega Suite 	0	0

DISCOUNT 
Value 			  
Regular 		  
Classique 		  
Premium 		  
Regent 			  
Queen 		  
Gemini 		  
Family 		  
Executive Suite 	  
Mega Suite 		  


=== RESERVATIONS ===

Deposits:


Claimed:



SECURITY DEPOSITS

Deposits:
Claimed:


=== SALES BREAKDOWN ===

Transaction Date	Room No.	Cash	Card

2010-07-05 08:09:54 	614 		725 	0 	
2010-07-05 08:22:17 	211 		120 	0 	
2010-07-05 08:36:49 	309 		395 	0 	
2010-07-05 08:52:58 	418 		300 	0 	
2010-07-05 08:55:28 	408 		220 	0 	
2010-07-05 09:02:49 	415 		8 	0 	
2010-07-05 09:05:09 	516 		1600 	0 	
2010-07-05 09:15:13 	612 		850 	0 	
2010-07-05 09:23:55 	415 		420 	0 	
2010-07-05 09:26:00 	509 		150 	0 	
2010-07-05 09:43:02 	505 		1600 	0 	
2010-07-05 09:44:56 	502 		350 	0 	
2010-07-05 09:59:07 	517 		205 	0 	
2010-07-05 10:01:14 	503 		1600 	0 	
2010-07-05 10:35:29 	315 		395 	0 	
2010-07-05 10:37:05 	301 		395 	0 	
2010-07-05 10:41:16 	304 		395 	0 	
2010-07-05 11:04:38 	612 		335 	0 	
2010-07-05 11:06:17 	316 		345 	0 	
2010-07-05 11:17:50 	318 		345 	0 	
2010-07-05 11:20:33 	317 		395 	0 	
2010-07-05 11:25:30 	612 		60 	0 	
2010-07-05 11:25:50 	308 		395 	0 	
2010-07-05 11:25:59 	303 		345 	0 	
2010-07-05 11:27:12 	307 		395 	0 	
2010-07-05 11:28:02 	305 		275 	0 	
2010-07-05 11:33:18 	312 		395 	0 	
2010-07-05 11:39:32 	302 		395 	0 	
2010-07-05 11:56:24 	319 		395 	0 	
2010-07-05 12:00:46 	321 		395 	0 	
2010-07-05 12:07:46 	306 		840 	0 	
2010-07-05 12:15:08 	406 		395 	0 	
2010-07-05 12:48:19 	322 		395 	0 	
2010-07-05 13:00:59 	309 		395 	0 	
2010-07-05 13:03:34 	409 		395 	0 	
2010-07-05 13:21:33 	206 		345 	0 	
2010-07-05 13:25:18 	304 		395 	0 	
2010-07-05 13:26:26 	310 		275 	0 	
2010-07-05 13:29:14 	310 		40 	0 	
2010-07-05 13:30:00 	311 		275 	0 	
2010-07-05 13:31:29 	301 		395 	0 	
2010-07-05 13:32:33 	301 		20 	0 	
2010-07-05 13:43:09 	402 		395 	0 	
2010-07-05 13:51:28 	320 		465 	0 	
2010-07-05 13:52:42 	508 		450 	0 	
2010-07-05 14:03:14 	208 		275 	0 	
2010-07-05 14:09:27 	306 		395 	0 	
2010-07-05 14:09:34 	307 		395 	0 	
2010-07-05 14:10:35 	317 		395 	0 	
2010-07-05 14:14:05 	314 		345 	0 	
2010-07-05 14:14:17 	615 		40 	0 	
2010-07-05 14:16:08 	323 		275 	0 	
2010-07-05 14:18:23 	220 		395 	0 	
2010-07-05 14:19:29 	315 		395 	0 	
2010-07-05 14:20:21 	212 		275 	0 	
2010-07-05 14:22:26 	316 		345 	0 	
2010-07-05 14:29:14 	303 		345 	0 	
2010-07-05 14:30:06 	219 		395 	0 	
2010-07-05 14:31:06 	215 		345 	0 	
2010-07-05 14:33:08 	204 		276 	0 	
2010-07-05 14:33:47 	211 		345 	0 	
2010-07-05 14:35:10 	214 		275 	0 	
2010-07-05 14:36:08 	213 		345 	0 	
2010-07-05 14:41:57 	218 		395 	0 	
2010-07-05 14:43:08 	308 		395 	0 	
2010-07-05 14:52:35 	202 		345 	0 	
2010-07-05 14:58:51 	207 		705 	0 	
2010-07-05 15:01:59 	321 		395 	0 	
2010-07-05 15:03:42 	203 		705 	0 	
2010-07-05 15:06:12 	312 		140 	0 	
2010-07-05 15:08:58 	601 		1250 	0 	
2010-07-05 15:11:59 	304 		395 	0 	
2010-07-05 15:13:52 	221 		395 	0 	
2010-07-05 15:14:16 	504 		240 	0 	
2010-07-05 15:23:35 	301 		395 	0 	
2010-07-05 15:34:58 	212 		200 	0 	
2010-07-05 15:40:22 	302 		395 	0 	
2010-07-05 15:44:16 	319 		395 	0 	
2010-07-05 15:49:49 	609 		1700 	0 	
2010-07-05 15:50:24 	505 		190 	0 	
2010-07-05 15:52:10 	322 		395 	0 	
2010-07-05 15:53:13 	205 		465 	0 	
2010-07-05 15:54:37 	319 		30 	0 	
 			Total:		35054 	0		

=== RECHIT LIST ===

Room No. 503 	 Rechit Date: 2010-07-05 09:58:42




Room No. 608 	 Rechit Date: 2010-07-05 09:47:25




Room No. 516 	 Rechit Date: 2010-07-05 12:24:10







V1