MSHOGUN 1: SHIFT END REPORT
Friday April 01, 2011 12:00:03 AM

SALES TRANSACTION
Room Sales Order			34065
FnB Sales Order			3103
Beer Sales Order			465
Misc Sales Order			70
Room Sales Adjustment			0
GROSS SALES			37703

DISCOUNT
Room				0
FnB				0
Misc				0

DEPOSIT				28625
REFUND				

TOTAL ACCOUNTABILITY			66328

CASH DECLARATION			3725
CARD				395
FUNDS SAFEKEEP			50000
TOTAL CASH DECLARED			54120

TOTAL CASH ON SYSTEM			3715
OVER/SHORTAGES 			10

ROOM	 # OF CHECK-OUT	AMT
Value 		11	3125
Regular 		24	9000
Classique 		52	21940
Premium 		0	0
Regent 		0	0
Queen 		0	0
Gemini 		0	0
Family 		0	0
Executive Suite 	0	0
Mega Suite 	0	0

DISCOUNT 
Value 			  
Regular 		  
Classique 		  
Premium 		  
Regent 			  
Queen 		  
Gemini 		  
Family 		  
Executive Suite 	  
Mega Suite 		  


=== RESERVATIONS ===

Deposits:


Claimed:



SECURITY DEPOSITS

Deposits:
Claimed:


=== SALES BREAKDOWN ===

Transaction Date	Room No.	Cash	Card

2011-03-31 16:05:43 	322 		395 	0 	
2011-03-31 16:05:58 	302 		395 	0 	
2011-03-31 16:07:31 	319 		395 	0 	
2011-03-31 16:09:13 	208 		275 	0 	
2011-03-31 16:12:05 	220 		395 	0 	
2011-03-31 16:12:28 	307 		395 	0 	
2011-03-31 16:16:41 	214 		275 	0 	
2011-03-31 16:16:50 	219 		395 	0 	
2011-03-31 16:18:15 	209 		165 	0 	
2011-03-31 16:27:13 	217 		275 	0 	
2011-03-31 16:27:26 	211 		345 	0 	
2011-03-31 16:44:57 	218 		395 	0 	
2011-03-31 16:46:56 	306 		395 	0 	
2011-03-31 16:58:06 	409 		220 	0 	
2011-03-31 17:05:24 	308 		395 	0 	
2011-03-31 17:14:39 	417 		395 	0 	
2011-03-31 17:24:05 	421 		395 	0 	
2011-03-31 17:39:02 	315 		535 	0 	
2011-03-31 17:45:40 	309 		395 	0 	
2011-03-31 17:45:51 	422 		395 	0 	
2011-03-31 17:46:57 	304 		395 	0 	
2011-03-31 17:50:01 	305 		275 	0 	
2011-03-31 17:55:01 	301 		395 	0 	
2011-03-31 17:57:07 	220 		395 	0 	
2011-03-31 17:57:22 	321 		395 	0 	
2011-03-31 18:06:03 	317 		395 	0 	
2011-03-31 18:10:18 	307 		260 	0 	
2011-03-31 18:17:35 	322 		40 	0 	
2011-03-31 18:20:25 	205 		345 	0 	
2011-03-31 18:27:17 	311 		275 	0 	
2011-03-31 18:32:25 	207 		345 	0 	
2011-03-31 18:34:02 	406 		695 	0 	
2011-03-31 18:38:55 	206 		345 	0 	
2011-03-31 18:39:13 	210 		345 	0 	
2011-03-31 18:42:55 	204 		345 	0 	
2011-03-31 18:44:29 	408 		25 	0 	
2011-03-31 18:45:19 	421 		695 	0 	
2011-03-31 18:46:23 	213 		345 	0 	
2011-03-31 18:46:41 	204 		10 	0 	
2011-03-31 18:48:05 	424 		275 	0 	
2011-03-31 18:51:54 	221 		395 	0 	
2011-03-31 18:57:20 	409 		395 	0 	
2011-03-31 19:00:52 	215 		585 	0 	
2011-03-31 19:06:17 	203 		345 	0 	
2011-03-31 19:07:08 	202 		345 	0 	
2011-03-31 19:08:35 	313 		395 	0 	
2011-03-31 19:09:10 	213 		20 	0 	
2011-03-31 19:10:02 	213 		210 	0 	
2011-03-31 19:10:19 	303 		705 	0 	
2011-03-31 19:10:39 	324 		275 	0 	
2011-03-31 19:12:20 	419 		695 	0 	
2011-03-31 19:18:11 	322 		395 	0 	
2011-03-31 19:22:00 	201 		345 	0 	
2011-03-31 19:24:17 	404 		0 	395 	
2011-03-31 19:27:27 	319 		395 	0 	
2011-03-31 19:31:31 	410 		595 	0 	
2011-03-31 19:32:57 	309 		395 	0 	
2011-03-31 19:33:58 	308 		395 	0 	
2011-03-31 19:38:22 	419 		210 	0 	
2011-03-31 19:39:08 	314 		345 	0 	
2011-03-31 19:48:05 	412 		395 	0 	
2011-03-31 19:56:23 	401 		395 	0 	
2011-03-31 20:01:34 	408 		695 	0 	
2011-03-31 20:05:29 	307 		140 	0 	
2011-03-31 20:08:13 	323 		595 	0 	
2011-03-31 20:08:24 	316 		345 	0 	
2011-03-31 20:10:29 	217 		100 	0 	
2011-03-31 20:12:16 	412 		250 	0 	
2011-03-31 20:13:07 	215 		305 	0 	
2011-03-31 20:14:18 	318 		345 	0 	
2011-03-31 20:16:27 	402 		695 	0 	
2011-03-31 20:17:47 	320 		345 	0 	
2011-03-31 20:27:36 	218 		395 	0 	
2011-03-31 20:32:40 	219 		395 	0 	
2011-03-31 20:35:44 	324 		275 	0 	
2011-03-31 20:37:03 	207 		345 	0 	
2011-03-31 20:50:40 	417 		695 	0 	
2011-03-31 20:54:15 	413 		695 	0 	
2011-03-31 20:57:41 	206 		345 	0 	
2011-03-31 21:00:19 	305 		595 	0 	
2011-03-31 21:05:32 	411 		595 	0 	
2011-03-31 21:08:17 	306 		395 	0 	
2011-03-31 21:09:08 	214 		275 	0 	
2011-03-31 21:12:41 	415 		695 	0 	
2011-03-31 21:15:17 	324 		595 	0 	
2011-03-31 21:15:58 	306 		20 	0 	
2011-03-31 21:18:41 	405 		275 	0 	
2011-03-31 21:21:50 	211 		345 	0 	
2011-03-31 21:22:25 	304 		695 	0 	
2011-03-31 21:23:46 	314 		645 	0 	
2011-03-31 21:27:14 	311 		595 	0 	
2011-03-31 21:27:31 	315 		695 	0 	
2011-03-31 21:27:42 	301 		395 	0 	
2011-03-31 21:28:28 	203 		90 	0 	
2011-03-31 21:30:33 	211 		170 	0 	
2011-03-31 21:31:03 	403 		645 	0 	
2011-03-31 21:32:27 	418 		645 	0 	
2011-03-31 21:32:45 	420 		645 	0 	
2011-03-31 21:37:24 	309 		395 	0 	
2011-03-31 21:40:22 	213 		345 	0 	
2011-03-31 21:44:47 	416 		345 	0 	
2011-03-31 21:47:42 	321 		695 	0 	
2011-03-31 21:52:13 	317 		695 	0 	
2011-03-31 21:54:08 	313 		695 	0 	
2011-03-31 21:59:04 	310 		595 	0 	
2011-03-31 21:59:24 	210 		345 	0 	
2011-03-31 22:21:55 	210 		180 	0 	
2011-03-31 22:25:30 	302 		695 	0 	
2011-03-31 22:27:34 	307 		695 	0 	
2011-03-31 22:28:19 	221 		395 	0 	
2011-03-31 22:30:50 	306 		695 	0 	
2011-03-31 22:33:23 	202 		345 	0 	
2011-03-31 22:36:58 	216 		595 	0 	
2011-03-31 22:41:55 	204 		345 	0 	
2011-03-31 22:44:24 	218 		395 	0 	
2011-03-31 22:48:16 	318 		645 	0 	
2011-03-31 22:51:52 	322 		395 	0 	
2011-03-31 23:03:29 	205 		345 	0 	
2011-03-31 23:03:57 	202 		145 	0 	
2011-03-31 23:04:20 	415 		50 	0 	
2011-03-31 23:10:36 	308 		695 	0 	
2011-03-31 23:20:56 	423 		575 	0 	
2011-03-31 23:24:43 	409 		395 	0 	
2011-03-31 23:25:36 	424 		595 	0 	
2011-03-31 23:27:31 	206 		345 	0 	
2011-03-31 23:28:07 	301 		245 	0 	
2011-03-31 23:34:10 	424 		40 	0 	
2011-03-31 23:35:40 	404 		395 	0 	
2011-03-31 23:46:40 	416 		645 	0 	
2011-03-31 23:46:50 	414 		645 	0 	
2011-03-31 23:49:00 	401 		395 	0 	
2011-03-31 23:55:45 	219 		695 	0 	
 			Total:		53715 	395		

=== RECHIT LIST ===




V1