MSHOGUN 1: SHIFT END REPORT
Wednesday May 04, 2011 4:00:37 PM

SALES TRANSACTION
Room Sales Order			30740
FnB Sales Order			2650
Beer Sales Order			375
Misc Sales Order			20
Room Sales Adjustment			0
GROSS SALES			33785

DISCOUNT
Room				0
FnB				0
Misc				0

DEPOSIT				11190
REFUND				

TOTAL ACCOUNTABILITY			44975

CASH DECLARATION			3877
CARD				695
FUNDS SAFEKEEP			20000
TOTAL CASH DECLARED			24572

TOTAL CASH ON SYSTEM			3877
OVER/SHORTAGES 			0

ROOM	 # OF CHECK-OUT	AMT
Value 		7	2865
Regular 		15	7995
Classique 		36	19880
Premium 		0	0
Regent 		0	0
Queen 		0	0
Gemini 		0	0
Family 		0	0
Executive Suite 	0	0
Mega Suite 	0	0

DISCOUNT 
Value 			  
Regular 		  
Classique 		  
Premium 		  
Regent 			  
Queen 		  
Gemini 		  
Family 		  
Executive Suite 	  
Mega Suite 		  


=== RESERVATIONS ===

Deposits:


Claimed:



SECURITY DEPOSITS

Deposits:
Claimed:


=== SALES BREAKDOWN ===

Transaction Date	Room No.	Cash	Card

2011-05-04 08:03:11 	423 		225 	0 	
2011-05-04 08:05:51 	418 		345 	0 	
2011-05-04 08:07:39 	221 		395 	0 	
2011-05-04 08:18:43 	321 		245 	0 	
2011-05-04 08:30:46 	401 		395 	0 	
2011-05-04 08:49:17 	311 		575 	0 	
2011-05-04 08:59:14 	313 		175 	0 	
2011-05-04 09:15:57 	414 		465 	0 	
2011-05-04 09:16:40 	312 		235 	0 	
2011-05-04 09:44:23 	310 		275 	0 	
2011-05-04 09:53:18 	316 		705 	0 	
2011-05-04 09:53:28 	413 		395 	0 	
2011-05-04 09:53:54 	419 		395 	0 	
2011-05-04 10:03:29 	414 		80 	0 	
2011-05-04 10:06:39 	324 		275 	0 	
2011-05-04 10:06:53 	422 		395 	0 	
2011-05-04 10:39:35 	407 		395 	0 	
2011-05-04 10:55:45 	322 		395 	0 	
2011-05-04 11:05:18 	411 		275 	0 	
2011-05-04 11:23:42 	304 		395 	0 	
2011-05-04 11:31:12 	210 		345 	0 	
2011-05-04 11:56:02 	423 		275 	0 	
2011-05-04 12:05:29 	307 		316 	0 	
2011-05-04 12:06:36 	417 		535 	0 	
2011-05-04 12:13:08 	211 		705 	0 	
2011-05-04 12:17:29 	203 		276 	0 	
2011-05-04 12:19:13 	320 		345 	0 	
2011-05-04 12:24:39 	319 		395 	0 	
2011-05-04 12:28:19 	317 		395 	0 	
2011-05-04 12:42:31 	315 		395 	0 	
2011-05-04 12:44:47 	313 		675 	0 	
2011-05-04 12:46:55 	301 		395 	0 	
2011-05-04 12:52:58 	304 		210 	0 	
2011-05-04 12:57:21 	218 		395 	0 	
2011-05-04 12:58:45 	205 		345 	0 	
2011-05-04 12:58:56 	204 		276 	0 	
2011-05-04 13:01:06 	303 		345 	0 	
2011-05-04 13:32:47 	302 		395 	0 	
2011-05-04 13:32:56 	312 		395 	0 	
2011-05-04 13:40:53 	412 		395 	0 	
2011-05-04 13:57:20 	212 		275 	0 	
2011-05-04 14:02:03 	308 		395 	0 	
2011-05-04 14:06:37 	314 		345 	0 	
2011-05-04 14:13:47 	316 		190 	0 	
2011-05-04 14:28:13 	309 		316 	0 	
2011-05-04 14:28:37 	213 		345 	0 	
2011-05-04 14:29:59 	324 		275 	0 	
2011-05-04 14:33:20 	323 		275 	0 	
2011-05-04 14:35:52 	402 		395 	0 	
2011-05-04 14:42:41 	401 		395 	0 	
2011-05-04 14:43:45 	407 		395 	0 	
2011-05-04 14:48:09 	404 		0 	395 	
2011-05-04 14:49:22 	322 		140 	0 	
2011-05-04 14:50:37 	318 		345 	0 	
2011-05-04 14:57:09 	304 		395 	0 	
2011-05-04 15:02:23 	409 		316 	0 	
2011-05-04 15:04:23 	201 		345 	0 	
2011-05-04 15:08:57 	319 		535 	0 	
2011-05-04 15:12:40 	219 		395 	0 	
2011-05-04 15:13:43 	422 		316 	0 	
2011-05-04 15:20:27 	220 		316 	0 	
2011-05-04 15:20:52 	322 		395 	0 	
2011-05-04 15:21:33 	406 		0 	395 	
2011-05-04 15:24:56 	421 		395 	0 	
2011-05-04 15:27:50 	221 		395 	0 	
2011-05-04 15:32:59 	320 		345 	0 	
2011-05-04 15:34:40 	317 		395 	0 	
2011-05-04 15:34:45 	321 		395 	0 	
2011-05-04 15:54:41 	218 		10 	0 	
 			Total:		23877 	790		

=== RECHIT LIST ===




V1