MSHOGUN 1: SHIFT END REPORT
Saturday July 16, 2011 7:56:37 AM

SALES TRANSACTION
Room Sales Order			23730
FnB Sales Order			1650
Beer Sales Order			180
Misc Sales Order			15
Room Sales Adjustment			0
GROSS SALES			25575

DISCOUNT
Room				0
FnB				0
Misc				0

DEPOSIT				6605
REFUND				

TOTAL ACCOUNTABILITY			32180

CASH DECLARATION			2630
CARD				1340
FUNDS SAFEKEEP			10000
TOTAL CASH DECLARED			13970

TOTAL CASH ON SYSTEM			2630
OVER/SHORTAGES 			0

ROOM	 # OF CHECK-OUT	AMT
Value 		12	4260
Regular 		17	9945
Classique 		15	9525
Premium 		0	0
Regent 		0	0
Queen 		0	0
Gemini 		0	0
Family 		0	0
Executive Suite 	0	0
Mega Suite 	0	0

DISCOUNT 
Value 			  
Regular 		  
Classique 		  
Premium 		  
Regent 			  
Queen 		  
Gemini 		  
Family 		  
Executive Suite 	  
Mega Suite 		  


=== RESERVATIONS ===

Deposits:


Claimed:



SECURITY DEPOSITS

Deposits:
Claimed:


=== SALES BREAKDOWN ===

Transaction Date	Room No.	Cash	Card

2011-07-16 00:03:04 	201 		130 	0 	
2011-07-16 00:08:13 	209 		275 	0 	
2011-07-16 00:14:01 	212 		875 	0 	
2011-07-16 00:14:34 	201 		40 	0 	
2011-07-16 00:25:36 	418 		645 	0 	
2011-07-16 00:32:32 	212 		210 	0 	
2011-07-16 00:36:03 	304 		695 	0 	
2011-07-16 00:37:08 	304 		50 	0 	
2011-07-16 00:43:20 	305 		275 	0 	
2011-07-16 00:53:06 	322 		695 	0 	
2011-07-16 01:08:22 	206 		705 	0 	
2011-07-16 01:09:14 	424 		210 	0 	
2011-07-16 01:10:27 	201 		465 	0 	
2011-07-16 01:19:28 	214 		275 	0 	
2011-07-16 01:21:47 	401 		815 	0 	
2011-07-16 01:34:45 	308 		50 	0 	
2011-07-16 01:48:04 	205 		110 	0 	
2011-07-16 02:00:34 	217 		275 	0 	
2011-07-16 03:06:58 	214 		25 	0 	
2011-07-16 03:38:22 	408 		395 	0 	
2011-07-16 03:59:13 	217 		275 	0 	
2011-07-16 04:14:12 	209 		275 	0 	
2011-07-16 05:18:47 	406 		395 	0 	
2011-07-16 05:20:03 	316 		705 	0 	
2011-07-16 05:43:50 	321 		50 	0 	
2011-07-16 05:43:58 	301 		30 	0 	
2011-07-16 05:49:49 	403 		210 	0 	
2011-07-16 06:18:26 	415 		15 	0 	
2011-07-16 06:36:28 	213 		345 	0 	
2011-07-16 06:43:14 	416 		345 	0 	
2011-07-16 06:53:35 	201 		705 	0 	
2011-07-16 07:01:03 	206 		345 	0 	
2011-07-16 07:26:50 	408 		395 	0 	
2011-07-16 07:32:50 	308 		395 	0 	
2011-07-16 07:37:19 	303 		55 	0 	
2011-07-16 07:45:36 	202 		345 	0 	
2011-07-16 07:48:22 	407 		155 	0 	
2011-07-16 07:54:41 	305 		375 	0 	
 			Total:		12630 	0		

=== RECHIT LIST ===




V1