MSHOGUN 1: SHIFT END REPORT
Monday December 27, 2010 12:01:22 AM

SALES TRANSACTION
Room Sales Order			38245
FnB Sales Order			730
Beer Sales Order			450
Misc Sales Order			70
Room Sales Adjustment			0
GROSS SALES			39495

DISCOUNT
Room				0
FnB				0
Misc				0

DEPOSIT				36413
REFUND				-50

TOTAL ACCOUNTABILITY			75858

CASH DECLARATION			7373
CARD				0
FUNDS SAFEKEEP			50000
TOTAL CASH DECLARED			57373

TOTAL CASH ON SYSTEM			7308
OVER/SHORTAGES 			65

ROOM	 # OF CHECK-OUT	AMT
Value 		18	5150
Regular 		32	12480
Classique 		49	20615
Premium 		0	0
Regent 		0	0
Queen 		0	0
Gemini 		0	0
Family 		0	0
Executive Suite 	0	0
Mega Suite 	0	0

DISCOUNT 
Value 			  
Regular 		  
Classique 		  
Premium 		  
Regent 			  
Queen 		  
Gemini 		  
Family 		  
Executive Suite 	  
Mega Suite 		  


=== RESERVATIONS ===

Deposits:


Claimed:



SECURITY DEPOSITS

Deposits:
Claimed:


=== SALES BREAKDOWN ===

Transaction Date	Room No.	Cash	Card

2010-12-26 16:06:30 	302 		395 	0 	
2010-12-26 16:09:10 	323 		275 	0 	
2010-12-26 16:15:38 	205 		345 	0 	
2010-12-26 16:17:05 	216 		275 	0 	
2010-12-26 16:18:03 	211 		705 	0 	
2010-12-26 16:20:20 	411 		275 	0 	
2010-12-26 16:21:03 	421 		395 	0 	
2010-12-26 16:25:04 	322 		140 	0 	
2010-12-26 16:27:13 	424 		275 	0 	
2010-12-26 16:32:41 	301 		316 	0 	
2010-12-26 16:34:26 	210 		345 	0 	
2010-12-26 16:38:52 	403 		585 	0 	
2010-12-26 16:39:32 	206 		345 	0 	
2010-12-26 16:51:42 	423 		275 	0 	
2010-12-26 16:57:21 	309 		395 	0 	
2010-12-26 17:04:15 	406 		395 	0 	
2010-12-26 17:08:40 	309 		20 	0 	
2010-12-26 17:09:02 	321 		395 	0 	
2010-12-26 17:12:00 	203 		345 	0 	
2010-12-26 17:14:16 	316 		276 	0 	
2010-12-26 17:16:43 	309 		160 	0 	
2010-12-26 17:19:47 	322 		395 	0 	
2010-12-26 17:24:26 	319 		395 	0 	
2010-12-26 17:29:12 	313 		535 	0 	
2010-12-26 17:31:03 	417 		395 	0 	
2010-12-26 17:33:36 	306 		140 	0 	
2010-12-26 17:40:40 	309 		80 	0 	
2010-12-26 17:41:27 	304 		395 	0 	
2010-12-26 17:43:32 	218 		395 	0 	
2010-12-26 17:44:15 	324 		275 	0 	
2010-12-26 17:48:39 	319 		240 	0 	
2010-12-26 17:48:54 	308 		395 	0 	
2010-12-26 17:49:05 	402 		395 	0 	
2010-12-26 17:51:26 	219 		395 	0 	
2010-12-26 17:53:32 	410 		200 	0 	
2010-12-26 18:02:35 	212 		275 	0 	
2010-12-26 18:13:11 	411 		275 	0 	
2010-12-26 18:29:31 	409 		395 	0 	
2010-12-26 18:29:48 	323 		275 	0 	
2010-12-26 18:33:13 	312 		535 	0 	
2010-12-26 18:34:12 	312 		20 	0 	
2010-12-26 18:34:52 	418 		345 	0 	
2010-12-26 18:37:30 	409 		25 	0 	
2010-12-26 18:37:56 	416 		345 	0 	
2010-12-26 18:38:18 	413 		395 	0 	
2010-12-26 18:40:51 	415 		395 	0 	
2010-12-26 18:42:49 	313 		130 	0 	
2010-12-26 19:03:17 	421 		695 	0 	
2010-12-26 19:04:16 	307 		140 	0 	
2010-12-26 19:04:49 	303 		276 	0 	
2010-12-26 19:06:44 	320 		465 	0 	
2010-12-26 19:07:55 	306 		695 	0 	
2010-12-26 19:09:43 	315 		695 	0 	
2010-12-26 19:18:58 	307 		395 	0 	
2010-12-26 19:22:53 	202 		345 	0 	
2010-12-26 19:24:54 	414 		645 	0 	
2010-12-26 19:26:45 	406 		695 	0 	
2010-12-26 19:35:50 	420 		645 	0 	
2010-12-26 19:36:22 	419 		695 	0 	
2010-12-26 19:45:10 	310 		275 	0 	
2010-12-26 19:49:19 	309 		395 	0 	
2010-12-26 19:49:37 	321 		695 	0 	
2010-12-26 19:51:59 	421 		210 	0 	
2010-12-26 19:54:11 	319 		695 	0 	
2010-12-26 19:57:02 	405 		595 	0 	
2010-12-26 20:03:32 	302 		395 	0 	
2010-12-26 20:03:54 	302 		15 	0 	
2010-12-26 20:04:36 	213 		645 	0 	
2010-12-26 20:10:19 	216 		595 	0 	
2010-12-26 20:12:02 	317 		695 	0 	
2010-12-26 20:16:27 	417 		695 	0 	
2010-12-26 20:16:43 	318 		645 	0 	
2010-12-26 20:16:43 	318 		50 	0 	
2010-12-26 20:16:50 	318 		-50 	0 	
2010-12-26 20:20:10 	322 		395 	0 	
2010-12-26 20:24:16 	302 		15 	0 	
2010-12-26 20:25:17 	304 		695 	0 	
2010-12-26 20:29:41 	215 		645 	0 	
2010-12-26 20:40:52 	301 		316 	0 	
2010-12-26 20:41:01 	308 		695 	0 	
2010-12-26 20:44:54 	212 		275 	0 	
2010-12-26 20:49:07 	205 		345 	0 	
2010-12-26 20:55:46 	402 		695 	0 	
2010-12-26 20:56:30 	319 		90 	0 	
2010-12-26 21:00:01 	316 		645 	0 	
2010-12-26 21:07:21 	314 		645 	0 	
2010-12-26 21:15:31 	210 		345 	0 	
2010-12-26 21:18:56 	203 		276 	0 	
2010-12-26 21:27:25 	218 		395 	0 	
2010-12-26 21:30:35 	313 		695 	0 	
2010-12-26 21:35:29 	314 		198 	0 	
2010-12-26 21:40:17 	305 		595 	0 	
2010-12-26 21:40:25 	307 		695 	0 	
2010-12-26 21:41:12 	416 		645 	0 	
2010-12-26 21:41:19 	202 		345 	0 	
2010-12-26 21:42:08 	415 		695 	0 	
2010-12-26 21:44:19 	204 		345 	0 	
2010-12-26 21:46:58 	408 		695 	0 	
2010-12-26 22:02:59 	316 		210 	0 	
2010-12-26 22:05:39 	422 		395 	0 	
2010-12-26 22:08:19 	404 		695 	0 	
2010-12-26 22:12:35 	315 		390 	0 	
2010-12-26 22:12:43 	415 		222 	0 	
2010-12-26 22:13:23 	409 		395 	0 	
2010-12-26 22:18:39 	316 		50 	0 	
2010-12-26 22:21:36 	418 		645 	0 	
2010-12-26 22:22:42 	323 		595 	0 	
2010-12-26 22:32:41 	413 		0 	395 	
2010-12-26 22:34:30 	407 		695 	0 	
2010-12-26 22:38:58 	220 		695 	0 	
2010-12-26 22:40:06 	221 		695 	0 	
2010-12-26 22:41:13 	219 		695 	0 	
2010-12-26 22:42:12 	302 		695 	0 	
2010-12-26 22:47:32 	211 		585 	0 	
2010-12-26 22:50:23 	403 		175 	0 	
2010-12-26 22:54:17 	303 		345 	0 	
2010-12-26 22:58:15 	208 		275 	0 	
2010-12-26 22:58:59 	209 		275 	0 	
2010-12-26 23:03:02 	403 		645 	0 	
2010-12-26 23:04:52 	320 		645 	0 	
2010-12-26 23:08:07 	304 		50 	0 	
2010-12-26 23:08:50 	404 		360 	0 	
2010-12-26 23:09:02 	219 		10 	0 	
2010-12-26 23:09:22 	305 		228 	0 	
2010-12-26 23:12:36 	204 		345 	0 	
2010-12-26 23:20:23 	206 		645 	0 	
2010-12-26 23:23:19 	208 		210 	0 	
2010-12-26 23:24:25 	324 		595 	0 	
2010-12-26 23:24:41 	218 		695 	0 	
2010-12-26 23:25:33 	423 		595 	0 	
2010-12-26 23:30:40 	203 		645 	0 	
2010-12-26 23:32:21 	309 		395 	0 	
2010-12-26 23:33:23 	424 		595 	0 	
2010-12-26 23:34:24 	411 		595 	0 	
2010-12-26 23:38:27 	311 		275 	0 	
2010-12-26 23:39:46 	204 		145 	0 	
2010-12-26 23:39:54 	307 		140 	0 	
2010-12-26 23:40:10 	423 		40 	0 	
2010-12-26 23:40:29 	207 		345 	0 	
2010-12-26 23:45:21 	212 		595 	0 	
2010-12-26 23:45:45 	424 		50 	0 	
2010-12-26 23:49:53 	410 		475 	0 	
2010-12-26 23:56:22 	319 		25 	0 	
 			Total:		57358 	395		

=== RECHIT LIST ===




V1