MSHOGUN 1: SHIFT END REPORT
Monday September 27, 2010 8:00:55 AM

SALES TRANSACTION
Room Sales Order			29675
FnB Sales Order			840
Beer Sales Order			170
Misc Sales Order			30
Room Sales Adjustment			0
GROSS SALES			30715

DISCOUNT
Room				0
FnB				0
Misc				0

DEPOSIT				5720
REFUND				

TOTAL ACCOUNTABILITY			36435

CASH DECLARATION			851
CARD				800
FUNDS SAFEKEEP			10000
TOTAL CASH DECLARED			11651

TOTAL CASH ON SYSTEM			851
OVER/SHORTAGES 			0

ROOM	 # OF CHECK-OUT	AMT
Value 		7	3205
Regular 		16	7680
Classique 		22	14090
Premium 		2	1500
Regent 		4	3200
Queen 		0	0
Gemini 		0	0
Family 		0	0
Executive Suite 	0	0
Mega Suite 	0	0

DISCOUNT 
Value 			  
Regular 		  
Classique 		  
Premium 		  
Regent 			  
Queen 		  
Gemini 		  
Family 		  
Executive Suite 	  
Mega Suite 		  


=== RESERVATIONS ===

Deposits:


Claimed:



SECURITY DEPOSITS

Deposits:
Claimed:


=== SALES BREAKDOWN ===

Transaction Date	Room No.	Cash	Card

2010-09-27 00:06:10 	515 		50 	0 	
2010-09-27 00:06:37 	404 		395 	0 	
2010-09-27 00:19:00 	501 		800 	0 	
2010-09-27 00:19:58 	206 		345 	0 	
2010-09-27 00:22:01 	202 		75 	0 	
2010-09-27 00:22:04 	202 		140 	0 	
2010-09-27 00:24:43 	211 		345 	0 	
2010-09-27 00:35:39 	303 		345 	0 	
2010-09-27 00:57:51 	403 		705 	0 	
2010-09-27 01:01:11 	205 		345 	0 	
2010-09-27 01:09:02 	207 		276 	0 	
2010-09-27 01:09:24 	220 		50 	0 	
2010-09-27 01:37:37 	513 		800 	0 	
2010-09-27 02:06:56 	515 		105 	0 	
2010-09-27 02:11:54 	513 		175 	0 	
2010-09-27 02:29:10 	202 		345 	0 	
2010-09-27 02:39:03 	305 		475 	0 	
2010-09-27 02:39:45 	305 		20 	0 	
2010-09-27 02:51:59 	309 		395 	0 	
2010-09-27 03:03:44 	404 		395 	0 	
2010-09-27 03:25:18 	401 		395 	0 	
2010-09-27 04:08:02 	323 		275 	0 	
2010-09-27 04:18:52 	210 		345 	0 	
2010-09-27 04:28:06 	323 		15 	0 	
2010-09-27 05:09:05 	407 		80 	0 	
2010-09-27 06:12:34 	611 		100 	0 	
2010-09-27 06:34:22 	202 		345 	0 	
2010-09-27 06:35:27 	205 		345 	0 	
2010-09-27 06:53:55 	322 		300 	0 	
2010-09-27 07:02:22 	512 		30 	0 	
2010-09-27 07:02:34 	201 		345 	0 	
2010-09-27 07:40:18 	514 		800 	0 	
2010-09-27 07:44:53 	213 		345 	0 	
2010-09-27 07:50:17 	324 		275 	0 	
2010-09-27 07:52:59 	208 		275 	0 	
 			Total:		10851 	0		

=== RECHIT LIST ===




V1