MSHOGUN 1: SHIFT END REPORT
Tuesday July 05, 2011 4:00:01 PM

SALES TRANSACTION
Room Sales Order			33770
FnB Sales Order			2238
Beer Sales Order			90
Misc Sales Order			75
Room Sales Adjustment			0
GROSS SALES			36173

DISCOUNT
Room				0
FnB				0
Misc				0

DEPOSIT				7485
REFUND				

TOTAL ACCOUNTABILITY			43658

CASH DECLARATION			6074
CARD				0
FUNDS SAFEKEEP			20000
TOTAL CASH DECLARED			26074

TOTAL CASH ON SYSTEM			6104
OVER/SHORTAGES 			-30

ROOM	 # OF CHECK-OUT	AMT
Value 		16	7000
Regular 		12	7620
Classique 		38	19150
Premium 		0	0
Regent 		0	0
Queen 		0	0
Gemini 		0	0
Family 		0	0
Executive Suite 	0	0
Mega Suite 	0	0

DISCOUNT 
Value 			  
Regular 		  
Classique 		  
Premium 		  
Regent 			  
Queen 		  
Gemini 		  
Family 		  
Executive Suite 	  
Mega Suite 		  


=== RESERVATIONS ===

Deposits:


Claimed:



SECURITY DEPOSITS

Deposits:
Claimed:


=== SALES BREAKDOWN ===

Transaction Date	Room No.	Cash	Card

2011-07-05 08:10:08 	302 		50 	0 	
2011-07-05 08:21:51 	210 		120 	0 	
2011-07-05 08:25:09 	301 		395 	0 	
2011-07-05 08:34:31 	417 		288 	0 	
2011-07-05 08:36:52 	310 		25 	0 	
2011-07-05 08:38:37 	304 		815 	0 	
2011-07-05 08:46:54 	220 		235 	0 	
2011-07-05 08:49:25 	422 		395 	0 	
2011-07-05 08:54:02 	307 		395 	0 	
2011-07-05 09:04:58 	211 		140 	0 	
2011-07-05 09:08:41 	315 		310 	0 	
2011-07-05 09:18:06 	403 		145 	0 	
2011-07-05 09:24:14 	419 		395 	0 	
2011-07-05 09:32:43 	418 		210 	0 	
2011-07-05 09:39:01 	411 		200 	0 	
2011-07-05 09:58:49 	322 		395 	0 	
2011-07-05 10:00:32 	305 		275 	0 	
2011-07-05 10:01:03 	302 		395 	0 	
2011-07-05 10:19:03 	423 		315 	0 	
2011-07-05 10:44:25 	406 		395 	0 	
2011-07-05 10:51:28 	317 		395 	0 	
2011-07-05 11:00:49 	315 		395 	0 	
2011-07-05 11:19:29 	323 		275 	0 	
2011-07-05 11:27:07 	422 		395 	0 	
2011-07-05 11:34:06 	308 		395 	0 	
2011-07-05 11:39:01 	313 		395 	0 	
2011-07-05 11:52:29 	404 		815 	0 	
2011-07-05 11:55:42 	405 		275 	0 	
2011-07-05 11:58:55 	316 		705 	0 	
2011-07-05 12:05:35 	319 		395 	0 	
2011-07-05 12:07:10 	309 		395 	0 	
2011-07-05 12:08:28 	312 		395 	0 	
2011-07-05 12:24:39 	208 		275 	0 	
2011-07-05 12:26:05 	315 		395 	0 	
2011-07-05 12:35:35 	321 		535 	0 	
2011-07-05 12:36:15 	401 		316 	0 	
2011-07-05 12:37:06 	301 		395 	0 	
2011-07-05 12:40:19 	402 		395 	0 	
2011-07-05 12:45:43 	205 		345 	0 	
2011-07-05 12:57:15 	218 		395 	0 	
2011-07-05 12:58:54 	306 		395 	0 	
2011-07-05 12:59:18 	319 		65 	0 	
2011-07-05 13:01:24 	322 		395 	0 	
2011-07-05 13:08:32 	307 		395 	0 	
2011-07-05 13:10:39 	402 		205 	0 	
2011-07-05 13:18:12 	301 		50 	0 	
2011-07-05 13:24:21 	302 		535 	0 	
2011-07-05 13:24:41 	311 		275 	0 	
2011-07-05 13:25:00 	306 		50 	0 	
2011-07-05 13:25:09 	408 		395 	0 	
2011-07-05 13:27:31 	209 		275 	0 	
2011-07-05 13:34:58 	212 		275 	0 	
2011-07-05 13:43:19 	414 		1045 	0 	
2011-07-05 13:51:31 	219 		395 	0 	
2011-07-05 14:08:43 	220 		395 	0 	
2011-07-05 14:11:34 	310 		275 	0 	
2011-07-05 14:12:30 	412 		395 	0 	
2011-07-05 14:14:43 	403 		345 	0 	
2011-07-05 14:15:57 	413 		395 	0 	
2011-07-05 14:17:25 	407 		395 	0 	
2011-07-05 14:19:18 	416 		345 	0 	
2011-07-05 14:21:10 	302 		360 	0 	
2011-07-05 14:21:29 	417 		395 	0 	
2011-07-05 14:21:47 	410 		275 	0 	
2011-07-05 14:36:26 	415 		535 	0 	
2011-07-05 14:38:42 	422 		395 	0 	
2011-07-05 14:41:30 	218 		370 	0 	
2011-07-05 14:48:59 	411 		275 	0 	
2011-07-05 14:53:49 	318 		345 	0 	
2011-07-05 15:16:55 	408 		395 	0 	
2011-07-05 15:19:03 	220 		275 	0 	
2011-07-05 15:25:00 	317 		395 	0 	
2011-07-05 15:29:40 	405 		275 	0 	
2011-07-05 15:51:07 	320 		345 	0 	
 			Total:		26104 	0		

=== RECHIT LIST ===




V1