MSHOGUN 1: SHIFT END REPORT
Wednesday August 31, 2011 4:07:51 PM

SALES TRANSACTION
Room Sales Order			21145
FnB Sales Order			755
Beer Sales Order			80
Misc Sales Order			60
Room Sales Adjustment			0
GROSS SALES			22040

DISCOUNT
Room				0
FnB				0
Misc				0

DEPOSIT				7930
REFUND				

TOTAL ACCOUNTABILITY			29970

CASH DECLARATION			1403
CARD				0
FUNDS SAFEKEEP			10000
TOTAL CASH DECLARED			11403

TOTAL CASH ON SYSTEM			1403
OVER/SHORTAGES 			0

ROOM	 # OF CHECK-OUT	AMT
Value 		10	4030
Regular 		11	5295
Classique 		24	11820
Premium 		0	0
Regent 		0	0
Queen 		0	0
Gemini 		0	0
Family 		0	0
Executive Suite 	0	0
Mega Suite 	0	0

DISCOUNT 
Value 			  
Regular 		  
Classique 		  
Premium 		  
Regent 			  
Queen 		  
Gemini 		  
Family 		  
Executive Suite 	  
Mega Suite 		  


=== RESERVATIONS ===

Deposits:


Claimed:



SECURITY DEPOSITS

Deposits:
Claimed:


=== SALES BREAKDOWN ===

Transaction Date	Room No.	Cash	Card

2011-08-31 08:23:38 	208 		275 	0 	
2011-08-31 08:23:49 	212 		275 	0 	
2011-08-31 08:56:36 	409 		535 	0 	
2011-08-31 09:20:51 	409 		210 	0 	
2011-08-31 09:20:55 	409 		60 	0 	
2011-08-31 09:23:07 	304 		395 	0 	
2011-08-31 09:31:08 	306 		675 	0 	
2011-08-31 09:57:47 	309 		395 	0 	
2011-08-31 10:32:59 	307 		395 	0 	
2011-08-31 10:58:53 	308 		535 	0 	
2011-08-31 11:01:26 	302 		395 	0 	
2011-08-31 11:10:07 	408 		395 	0 	
2011-08-31 11:17:59 	209 		275 	0 	
2011-08-31 11:36:50 	312 		395 	0 	
2011-08-31 11:37:03 	407 		395 	0 	
2011-08-31 11:52:28 	416 		150 	0 	
2011-08-31 12:03:35 	214 		275 	0 	
2011-08-31 12:03:46 	208 		275 	0 	
2011-08-31 12:04:37 	319 		395 	0 	
2011-08-31 12:09:49 	219 		395 	0 	
2011-08-31 12:12:37 	319 		80 	0 	
2011-08-31 12:17:32 	217 		275 	0 	
2011-08-31 12:27:43 	301 		395 	0 	
2011-08-31 12:29:50 	221 		395 	0 	
2011-08-31 12:38:25 	315 		280 	0 	
2011-08-31 12:58:07 	310 		275 	0 	
2011-08-31 12:58:17 	402 		395 	0 	
2011-08-31 13:07:34 	213 		705 	0 	
2011-08-31 13:11:14 	422 		395 	0 	
2011-08-31 13:11:22 	401 		395 	0 	
2011-08-31 13:15:12 	205 		345 	0 	
2011-08-31 13:15:22 	207 		345 	0 	
2011-08-31 13:25:35 	320 		705 	0 	
2011-08-31 13:26:39 	412 		395 	0 	
2011-08-31 13:28:34 	413 		395 	0 	
2011-08-31 13:41:26 	211 		705 	0 	
2011-08-31 14:00:16 	206 		345 	0 	
2011-08-31 14:01:56 	406 		395 	0 	
2011-08-31 14:03:22 	415 		395 	0 	
2011-08-31 14:06:14 	303 		345 	0 	
2011-08-31 14:08:53 	203 		276 	0 	
2011-08-31 14:21:09 	312 		395 	0 	
2011-08-31 14:27:50 	204 		345 	0 	
2011-08-31 14:43:46 	304 		395 	0 	
2011-08-31 14:44:00 	209 		275 	0 	
2011-08-31 14:52:05 	311 		275 	0 	
2011-08-31 15:03:50 	309 		395 	0 	
2011-08-31 15:10:27 	206 		80 	0 	
2011-08-31 15:10:49 	317 		395 	0 	
2011-08-31 15:14:48 	210 		345 	0 	
2011-08-31 15:23:29 	321 		316 	0 	
2011-08-31 15:35:17 	321 		50 	0 	
2011-08-31 15:40:10 	316 		705 	0 	
2011-08-31 15:59:04 	301 		245 	0 	
2011-08-31 15:59:21 	319 		395 	0 	
2011-08-31 15:59:30 	315 		395 	0 	
2011-08-31 15:59:40 	417 		395 	0 	
2011-08-31 16:00:40 	312 		395 	0 	
 			Total:		21127 	0		

=== RECHIT LIST ===




V1