MSHOGUN 1: SHIFT END REPORT
Tuesday December 14, 2010 4:00:47 PM

SALES TRANSACTION
Room Sales Order			31385
FnB Sales Order			2473
Beer Sales Order			315
Misc Sales Order			115
Room Sales Adjustment			-395
GROSS SALES			33893

DISCOUNT
Room				0
FnB				0
Misc				0

DEPOSIT				10425
REFUND				

TOTAL ACCOUNTABILITY			44318

CASH DECLARATION			7842
CARD				0
FUNDS SAFEKEEP			20000
TOTAL CASH DECLARED			27842

TOTAL CASH ON SYSTEM			7842
OVER/SHORTAGES 			0

ROOM	 # OF CHECK-OUT	AMT
Value 		7	2765
Regular 		20	9960
Classique 		36	18660
Premium 		0	0
Regent 		0	0
Queen 		0	0
Gemini 		0	0
Family 		0	0
Executive Suite 	0	0
Mega Suite 	0	0

DISCOUNT 
Value 			  
Regular 		  
Classique 		  
Premium 		  
Regent 			  
Queen 		  
Gemini 		  
Family 		  
Executive Suite 	  
Mega Suite 		  


=== RESERVATIONS ===

Deposits:


Claimed:



SECURITY DEPOSITS

Deposits:
Claimed:


=== SALES BREAKDOWN ===

Transaction Date	Room No.	Cash	Card

2010-12-14 08:05:20 	313 		395 	0 	
2010-12-14 08:06:08 	415 		25 	0 	
2010-12-14 08:09:05 	319 		190 	0 	
2010-12-14 08:09:25 	418 		140 	0 	
2010-12-14 08:10:01 	202 		245 	0 	
2010-12-14 08:26:06 	315 		395 	0 	
2010-12-14 09:00:08 	314 		20 	0 	
2010-12-14 09:32:22 	311 		275 	0 	
2010-12-14 09:37:03 	310 		275 	0 	
2010-12-14 09:40:34 	407 		60 	0 	
2010-12-14 09:51:38 	318 		345 	0 	
2010-12-14 09:56:56 	321 		395 	0 	
2010-12-14 10:01:10 	213 		360 	0 	
2010-12-14 10:02:24 	316 		345 	0 	
2010-12-14 10:21:06 	214 		50 	0 	
2010-12-14 10:23:50 	303 		345 	0 	
2010-12-14 10:32:16 	211 		705 	0 	
2010-12-14 10:32:31 	310 		250 	0 	
2010-12-14 10:36:45 	317 		395 	0 	
2010-12-14 10:39:51 	304 		395 	0 	
2010-12-14 10:51:30 	219 		395 	0 	
2010-12-14 10:54:57 	210 		585 	0 	
2010-12-14 11:08:33 	406 		395 	0 	
2010-12-14 11:16:41 	209 		275 	0 	
2010-12-14 11:23:49 	403 		345 	0 	
2010-12-14 11:27:54 	421 		395 	0 	
2010-12-14 11:30:37 	416 		276 	0 	
2010-12-14 11:31:14 	417 		395 	0 	
2010-12-14 11:39:33 	402 		395 	0 	
2010-12-14 11:59:16 	413 		316 	0 	
2010-12-14 12:06:31 	202 		240 	0 	
2010-12-14 12:08:45 	220 		560 	0 	
2010-12-14 12:10:51 	412 		395 	0 	
2010-12-14 12:18:58 	319 		395 	0 	
2010-12-14 12:22:10 	312 		395 	0 	
2010-12-14 12:28:34 	420 		225 	0 	
2010-12-14 12:33:33 	308 		395 	0 	
2010-12-14 12:34:07 	302 		395 	0 	
2010-12-14 12:41:13 	315 		395 	0 	
2010-12-14 12:41:23 	323 		275 	0 	
2010-12-14 12:41:30 	314 		345 	0 	
2010-12-14 12:44:11 	320 		345 	0 	
2010-12-14 13:00:13 	321 		535 	0 	
2010-12-14 13:00:13 	321 		500 	0 	
2010-12-14 13:16:19 	318 		345 	0 	
2010-12-14 13:24:44 	208 		275 	0 	
2010-12-14 13:26:10 	301 		395 	0 	
2010-12-14 13:28:38 	322 		395 	0 	
2010-12-14 13:32:36 	307 		395 	0 	
2010-12-14 13:36:23 	201 		585 	0 	
2010-12-14 13:40:12 	306 		395 	0 	
2010-12-14 13:49:24 	308 		330 	0 	
2010-12-14 13:49:39 	321 		45 	0 	
2010-12-14 13:49:56 	304 		395 	0 	
2010-12-14 13:51:11 	304 		-395 	0 	
2010-12-14 13:51:23 	324 		275 	0 	
2010-12-14 13:52:04 	211 		345 	0 	
2010-12-14 13:53:25 	212 		275 	0 	
2010-12-14 14:03:50 	205 		345 	0 	
2010-12-14 14:04:14 	412 		405 	0 	
2010-12-14 14:04:15 	412 		40 	0 	
2010-12-14 14:08:51 	311 		200 	0 	
2010-12-14 14:09:36 	309 		395 	0 	
2010-12-14 14:10:24 	218 		395 	0 	
2010-12-14 14:11:16 	220 		395 	0 	
2010-12-14 14:13:01 	213 		345 	0 	
2010-12-14 14:18:20 	221 		395 	0 	
2010-12-14 14:23:46 	304 		395 	0 	
2010-12-14 14:24:11 	315 		395 	0 	
2010-12-14 14:32:03 	302 		395 	0 	
2010-12-14 14:33:53 	323 		265 	0 	
2010-12-14 14:34:33 	324 		25 	0 	
2010-12-14 14:37:14 	317 		395 	0 	
2010-12-14 14:40:13 	313 		395 	0 	
2010-12-14 14:45:22 	204 		345 	0 	
2010-12-14 14:45:36 	316 		705 	0 	
2010-12-14 14:51:52 	209 		275 	0 	
2010-12-14 14:54:44 	319 		395 	0 	
2010-12-14 15:06:21 	215 		345 	0 	
2010-12-14 15:24:59 	206 		345 	0 	
2010-12-14 15:29:02 	214 		275 	0 	
2010-12-14 15:33:21 	401 		395 	0 	
2010-12-14 15:37:06 	219 		395 	0 	
2010-12-14 15:43:15 	402 		140 	0 	
2010-12-14 15:43:58 	216 		275 	0 	
2010-12-14 15:52:08 	304 		395 	0 	
2010-12-14 15:52:27 	206 		50 	0 	
2010-12-14 16:00:19 	321 		-500 	0 	
 			Total:		27842 	0		

=== RECHIT LIST ===




V1