MSHOGUN 1: SHIFT END REPORT
Thursday August 05, 2010 4:01:07 PM

SALES TRANSACTION
Room Sales Order			27575
FnB Sales Order			1440
Beer Sales Order			0
Misc Sales Order			265
Room Sales Adjustment			0
GROSS SALES			29280

DISCOUNT
Room				0
FnB				0
Misc				0

DEPOSIT				18038
REFUND				

TOTAL ACCOUNTABILITY			47318

CASH DECLARATION			247
CARD				0
FUNDS SAFEKEEP			30000
TOTAL CASH DECLARED			30247

TOTAL CASH ON SYSTEM			246
OVER/SHORTAGES 			1

ROOM	 # OF CHECK-OUT	AMT
Value 		1	275
Regular 		6	3270
Classique 		27	12005
Premium 		2	1500
Regent 		10	9675
Queen 		1	850
Gemini 		0	0
Family 		0	0
Executive Suite 	0	0
Mega Suite 	0	0

DISCOUNT 
Value 			  
Regular 		  
Classique 		  
Premium 		  
Regent 			  
Queen 		  
Gemini 		  
Family 		  
Executive Suite 	  
Mega Suite 		  


=== RESERVATIONS ===

Deposits:


Claimed:



SECURITY DEPOSITS

Deposits:
Claimed:


=== SALES BREAKDOWN ===

Transaction Date	Room No.	Cash	Card

2010-08-05 08:04:01 	309 		395 	0 	
2010-08-05 08:18:24 	505 		50 	0 	
2010-08-05 08:19:11 	304 		395 	0 	
2010-08-05 08:23:09 	420 		30 	0 	
2010-08-05 08:41:00 	506 		290 	0 	
2010-08-05 08:52:52 	611 		2100 	0 	
2010-08-05 08:53:33 	401 		395 	0 	
2010-08-05 09:08:36 	502 		525 	0 	
2010-08-05 09:09:33 	202 		345 	0 	
2010-08-05 09:18:28 	310 		275 	0 	
2010-08-05 09:24:37 	318 		345 	0 	
2010-08-05 09:26:29 	320 		50 	0 	
2010-08-05 09:27:27 	318 		15 	0 	
2010-08-05 09:39:18 	515 		800 	0 	
2010-08-05 09:44:23 	409 		395 	0 	
2010-08-05 09:53:03 	406 		395 	0 	
2010-08-05 10:04:48 	408 		395 	0 	
2010-08-05 10:27:52 	413 		395 	0 	
2010-08-05 10:32:46 	412 		395 	0 	
2010-08-05 10:41:08 	408 		335 	0 	
2010-08-05 10:46:33 	421 		395 	0 	
2010-08-05 11:07:31 	415 		395 	0 	
2010-08-05 11:31:43 	307 		395 	0 	
2010-08-05 11:36:16 	304 		50 	0 	
2010-08-05 11:38:03 	506 		175 	0 	
2010-08-05 11:57:11 	308 		395 	0 	
2010-08-05 12:01:02 	513 		3200 	0 	
2010-08-05 12:10:50 	510 		175 	0 	
2010-08-05 12:12:39 	322 		395 	0 	
2010-08-05 12:16:51 	306 		395 	0 	
2010-08-05 12:18:00 	407 		395 	0 	
2010-08-05 12:21:25 	301 		395 	0 	
2010-08-05 12:27:14 	302 		395 	0 	
2010-08-05 12:28:19 	420 		465 	0 	
2010-08-05 12:29:35 	608 		90 	0 	
2010-08-05 12:30:06 	402 		395 	0 	
2010-08-05 12:32:41 	515 		210 	0 	
2010-08-05 12:36:08 	218 		395 	0 	
2010-08-05 12:36:19 	219 		395 	0 	
2010-08-05 12:53:23 	503 		1600 	0 	
2010-08-05 12:59:45 	220 		456 	0 	
2010-08-05 13:03:10 	402 		110 	0 	
2010-08-05 13:10:36 	221 		395 	0 	
2010-08-05 13:18:57 	321 		316 	0 	
2010-08-05 13:23:44 	421 		25 	0 	
2010-08-05 13:35:46 	503 		588 	0 	
2010-08-05 13:36:05 	303 		345 	0 	
2010-08-05 14:02:38 	501 		210 	0 	
2010-08-05 14:22:27 	408 		140 	0 	
2010-08-05 14:25:00 	311 		275 	0 	
2010-08-05 14:41:06 	Lobby 		250 	0 	
2010-08-05 14:43:02 	304 		395 	0 	
2010-08-05 14:44:24 	312 		395 	0 	
2010-08-05 14:45:01 	315 		395 	0 	
2010-08-05 14:53:08 	504 		1600 	0 	
2010-08-05 14:54:20 	307 		395 	0 	
2010-08-05 14:59:20 	406 		395 	0 	
2010-08-05 15:03:11 	401 		395 	0 	
2010-08-05 15:11:30 	405 		275 	0 	
2010-08-05 15:15:14 	310 		275 	0 	
2010-08-05 15:16:04 	407 		395 	0 	
2010-08-05 15:16:48 	408 		395 	0 	
2010-08-05 15:23:10 	220 		260 	0 	
2010-08-05 15:24:39 	409 		395 	0 	
2010-08-05 15:26:16 	404 		395 	0 	
2010-08-05 15:31:42 	402 		395 	0 	
2010-08-05 15:37:44 	308 		395 	0 	
2010-08-05 15:44:43 	306 		316 	0 	
2010-08-05 15:49:19 	307 		250 	0 	
2010-08-05 15:49:35 	412 		395 	0 	
 			Total:		30246 	0		

=== RECHIT LIST ===

Room No. 513 	 Rechit Date: 2010-08-05 13:29:55




Room No. 611 	 Rechit Date: 2010-08-05 10:33:06







V1