MSHOGUN 1: SHIFT END REPORT
Sunday October 10, 2010 8:00:04 AM

SALES TRANSACTION
Room Sales Order			37200
FnB Sales Order			3215
Beer Sales Order			810
Misc Sales Order			30
Room Sales Adjustment			0
GROSS SALES			41255

DISCOUNT
Room				0
FnB				0
Misc				0

DEPOSIT				2165
REFUND				

TOTAL ACCOUNTABILITY			43420

CASH DECLARATION			4340
CARD				695
FUNDS SAFEKEEP			10000
TOTAL CASH DECLARED			15035

TOTAL CASH ON SYSTEM			4340
OVER/SHORTAGES 			0

ROOM	 # OF CHECK-OUT	AMT
Value 		18	8210
Regular 		25	11925
Classique 		27	17065
Premium 		0	0
Regent 		0	0
Queen 		0	0
Gemini 		0	0
Family 		0	0
Executive Suite 	0	0
Mega Suite 	0	0

DISCOUNT 
Value 			  
Regular 		  
Classique 		  
Premium 		  
Regent 			  
Queen 		  
Gemini 		  
Family 		  
Executive Suite 	  
Mega Suite 		  


=== RESERVATIONS ===

Deposits:


Claimed:



SECURITY DEPOSITS

Deposits:
Claimed:


=== SALES BREAKDOWN ===

Transaction Date	Room No.	Cash	Card

2010-10-10 00:05:54 	217 		575 	0 	
2010-10-10 00:06:53 	213 		180 	0 	
2010-10-10 00:08:12 	316 		345 	0 	
2010-10-10 00:16:24 	202 		115 	0 	
2010-10-10 00:18:34 	213 		345 	0 	
2010-10-10 00:23:38 	209 		275 	0 	
2010-10-10 00:51:45 	301 		815 	0 	
2010-10-10 00:55:40 	209 		275 	0 	
2010-10-10 01:08:34 	401 		395 	0 	
2010-10-10 01:08:49 	217 		25 	0 	
2010-10-10 01:12:23 	320 		585 	0 	
2010-10-10 01:22:17 	220 		240 	0 	
2010-10-10 01:22:28 	Lobby 		40 	0 	
2010-10-10 01:22:46 	414 		345 	0 	
2010-10-10 02:00:55 	413 		270 	0 	
2010-10-10 02:01:20 	210 		705 	0 	
2010-10-10 02:01:32 	205 		705 	0 	
2010-10-10 02:22:25 	311 		275 	0 	
2010-10-10 02:27:41 	320 		380 	0 	
2010-10-10 02:42:45 	214 		275 	0 	
2010-10-10 02:43:29 	412 		395 	0 	
2010-10-10 02:49:51 	213 		345 	0 	
2010-10-10 03:12:03 	311 		275 	0 	
2010-10-10 03:28:12 	414 		345 	0 	
2010-10-10 03:30:28 	303 		210 	0 	
2010-10-10 03:44:53 	202 		345 	0 	
2010-10-10 03:52:52 	209 		275 	0 	
2010-10-10 03:53:33 	201 		345 	0 	
2010-10-10 04:00:42 	414 		70 	0 	
2010-10-10 04:14:12 	401 		25 	0 	
2010-10-10 04:18:50 	202 		345 	0 	
2010-10-10 04:19:46 	401 		395 	0 	
2010-10-10 04:35:36 	316 		400 	0 	
2010-10-10 04:36:37 	408 		395 	0 	
2010-10-10 04:48:12 	316 		585 	0 	
2010-10-10 04:57:14 	207 		345 	0 	
2010-10-10 05:18:32 	214 		55 	0 	
2010-10-10 05:23:48 	323 		50 	0 	
2010-10-10 05:51:30 	323 		160 	0 	
2010-10-10 07:35:44 	212 		100 	0 	
2010-10-10 07:39:32 	209 		275 	0 	
2010-10-10 07:41:41 	313 		395 	0 	
2010-10-10 07:42:55 	403 		410 	0 	
2010-10-10 07:47:17 	301 		140 	0 	
2010-10-10 07:47:59 	308 		395 	0 	
2010-10-10 07:52:29 	424 		100 	0 	
 			Total:		14340 	0		

=== RECHIT LIST ===




V1