MSHOGUN 1: SHIFT END REPORT
Monday April 04, 2011 4:01:09 PM

SALES TRANSACTION
Room Sales Order			19095
FnB Sales Order			2006
Beer Sales Order			90
Misc Sales Order			105
Room Sales Adjustment			395
GROSS SALES			21691

DISCOUNT
Room				0
FnB				0
Misc				0

DEPOSIT				11428
REFUND				

TOTAL ACCOUNTABILITY			33119

CASH DECLARATION			2099
CARD				1240
FUNDS SAFEKEEP			20000
TOTAL CASH DECLARED			23339

TOTAL CASH ON SYSTEM			2889
OVER/SHORTAGES 			-790

ROOM	 # OF CHECK-OUT	AMT
Value 		6	2930
Regular 		11	6255
Classique 		18	10305
Premium 		0	0
Regent 		0	0
Queen 		0	0
Gemini 		0	0
Family 		0	0
Executive Suite 	0	0
Mega Suite 	0	0

DISCOUNT 
Value 			  
Regular 		  
Classique 		  
Premium 		  
Regent 			  
Queen 		  
Gemini 		  
Family 		  
Executive Suite 	  
Mega Suite 		  


=== RESERVATIONS ===

Deposits:


Claimed:



SECURITY DEPOSITS

Deposits:
Claimed:


=== SALES BREAKDOWN ===

Transaction Date	Room No.	Cash	Card

2011-04-04 08:16:26 	307 		395 	0 	
2011-04-04 08:53:03 	412 		140 	0 	
2011-04-04 08:57:32 	316 		636 	0 	
2011-04-04 09:16:24 	303 		585 	0 	
2011-04-04 09:25:13 	403 		160 	0 	
2011-04-04 09:50:25 	414 		585 	0 	
2011-04-04 10:05:07 	414 		20 	0 	
2011-04-04 10:10:02 	304 		395 	0 	
2011-04-04 10:20:43 	315 		395 	0 	
2011-04-04 10:51:03 	318 		705 	0 	
2011-04-04 11:08:04 	403 		705 	0 	
2011-04-04 11:16:12 	301 		395 	0 	
2011-04-04 11:16:22 	302 		395 	0 	
2011-04-04 11:34:57 	316 		338 	0 	
2011-04-04 11:37:51 	218 		395 	0 	
2011-04-04 11:38:18 	220 		395 	0 	
2011-04-04 11:40:31 	308 		395 	0 	
2011-04-04 11:59:03 	308 		140 	0 	
2011-04-04 12:13:56 	309 		395 	0 	
2011-04-04 12:16:25 	313 		395 	0 	
2011-04-04 12:26:18 	414 		385 	0 	
2011-04-04 12:39:23 	416 		345 	0 	
2011-04-04 12:51:32 	218 		265 	0 	
2011-04-04 12:52:10 	320 		345 	0 	
2011-04-04 12:55:31 	312 		50 	0 	
2011-04-04 12:56:13 	219 		395 	0 	
2011-04-04 12:58:44 	407 		815 	0 	
2011-04-04 13:12:40 	213 		345 	0 	
2011-04-04 13:12:46 	310 		275 	0 	
2011-04-04 13:16:35 	314 		585 	0 	
2011-04-04 13:18:43 	409 		316 	0 	
2011-04-04 13:32:02 	420 		276 	0 	
2011-04-04 13:33:51 	211 		705 	0 	
2011-04-04 13:37:13 	321 		535 	0 	
2011-04-04 13:45:01 	406 		810 	0 	
2011-04-04 13:48:02 	206 		705 	0 	
2011-04-04 13:48:18 	307 		395 	0 	
2011-04-04 13:55:01 	314 		398 	0 	
2011-04-04 14:01:42 	304 		395 	0 	
2011-04-04 14:15:58 	408 		316 	0 	
2011-04-04 14:16:28 	421 		395 	0 	
2011-04-04 14:19:11 	402 		395 	0 	
2011-04-04 14:40:13 	419 		395 	0 	
2011-04-04 14:42:01 	Lobby 		210 	0 	
2011-04-04 14:47:43 	412 		316 	0 	
2011-04-04 14:50:41 	415 		0 	395 	
2011-04-04 14:50:50 	404 		395 	0 	
2011-04-04 15:05:41 	401 		395 	0 	
2011-04-04 15:18:03 	205 		276 	0 	
2011-04-04 15:18:54 	417 		395 	0 	
2011-04-04 15:20:54 	204 		345 	0 	
2011-04-04 15:22:15 	315 		395 	0 	
2011-04-04 15:29:37 	218 		316 	0 	
2011-04-04 15:35:41 	322 		395 	0 	
2011-04-04 15:36:07 	322 		25 	0 	
2011-04-04 15:38:35 	308 		395 	0 	
2011-04-04 15:40:37 	313 		395 	0 	
2011-04-04 15:50:39 	316 		120 	0 	
2011-04-04 15:52:30 	317 		316 	0 	
2011-04-04 15:58:41 	308 		395 	0 	
 			Total:		22889 	395		

=== RECHIT LIST ===




V1