MSHOGUN 1: SHIFT END REPORT
Friday November 11, 2011 12:00:02 AM

SALES TRANSACTION
Room Sales Order			31540
FnB Sales Order			1745
Beer Sales Order			725
Misc Sales Order			40
Room Sales Adjustment			0
GROSS SALES			34050

DISCOUNT
Room				0
FnB				0
Misc				0

DEPOSIT				34970
REFUND				

TOTAL ACCOUNTABILITY			69020

CASH DECLARATION			6250
CARD				395
FUNDS SAFEKEEP			50000
TOTAL CASH DECLARED			56645

TOTAL CASH ON SYSTEM			6200
OVER/SHORTAGES 			50

ROOM	 # OF CHECK-OUT	AMT
Value 		17	5375
Regular 		16	6480
Classique 		47	19685
Premium 		0	0
Regent 		0	0
Queen 		0	0
Gemini 		0	0
Family 		0	0
Executive Suite 	0	0
Mega Suite 	0	0

DISCOUNT 
Value 			  
Regular 		  
Classique 		  
Premium 		  
Regent 			  
Queen 		  
Gemini 		  
Family 		  
Executive Suite 	  
Mega Suite 		  


=== RESERVATIONS ===

Deposits:


Claimed:



SECURITY DEPOSITS

Deposits:
Claimed:


=== SALES BREAKDOWN ===

Transaction Date	Room No.	Cash	Card

2011-11-10 16:14:12 	412 		170 	0 	
2011-11-10 16:16:24 	321 		395 	0 	
2011-11-10 16:16:35 	313 		395 	0 	
2011-11-10 16:22:09 	305 		275 	0 	
2011-11-10 16:36:20 	417 		316 	0 	
2011-11-10 16:42:16 	407 		395 	0 	
2011-11-10 16:48:36 	406 		395 	0 	
2011-11-10 16:56:54 	408 		115 	0 	
2011-11-10 17:11:53 	421 		395 	0 	
2011-11-10 17:12:31 	311 		275 	0 	
2011-11-10 17:15:51 	210 		135 	0 	
2011-11-10 17:16:30 	322 		395 	0 	
2011-11-10 17:23:01 	402 		316 	0 	
2011-11-10 17:23:47 	419 		316 	0 	
2011-11-10 17:27:10 	310 		275 	0 	
2011-11-10 17:29:55 	415 		395 	0 	
2011-11-10 17:30:14 	415 		50 	0 	
2011-11-10 17:32:50 	203 		520 	0 	
2011-11-10 17:35:07 	320 		276 	0 	
2011-11-10 17:39:07 	323 		275 	0 	
2011-11-10 17:46:52 	320 		120 	0 	
2011-11-10 17:57:18 	424 		275 	0 	
2011-11-10 18:00:06 	302 		695 	0 	
2011-11-10 18:00:29 	306 		695 	0 	
2011-11-10 18:02:10 	308 		695 	0 	
2011-11-10 18:08:59 	309 		535 	0 	
2011-11-10 18:10:27 	412 		395 	0 	
2011-11-10 18:16:01 	422 		316 	0 	
2011-11-10 18:31:11 	423 		275 	0 	
2011-11-10 18:31:19 	405 		275 	0 	
2011-11-10 18:32:57 	304 		395 	0 	
2011-11-10 18:46:47 	301 		0 	395 	
2011-11-10 18:48:01 	408 		395 	0 	
2011-11-10 18:50:17 	307 		395 	0 	
2011-11-10 18:58:12 	317 		395 	0 	
2011-11-10 18:59:56 	413 		395 	0 	
2011-11-10 19:01:49 	404 		395 	0 	
2011-11-10 19:05:25 	324 		275 	0 	
2011-11-10 19:09:26 	219 		695 	0 	
2011-11-10 19:11:42 	319 		195 	0 	
2011-11-10 19:13:07 	324 		10 	0 	
2011-11-10 19:18:40 	411 		275 	0 	
2011-11-10 19:18:49 	409 		395 	0 	
2011-11-10 19:23:52 	318 		345 	0 	
2011-11-10 19:24:05 	414 		276 	0 	
2011-11-10 19:30:28 	321 		535 	0 	
2011-11-10 19:40:06 	410 		275 	0 	
2011-11-10 19:41:25 	322 		395 	0 	
2011-11-10 19:42:06 	312 		316 	0 	
2011-11-10 19:44:21 	220 		395 	0 	
2011-11-10 19:45:36 	313 		330 	0 	
2011-11-10 19:48:12 	305 		595 	0 	
2011-11-10 19:55:20 	319 		695 	0 	
2011-11-10 19:56:17 	221 		316 	0 	
2011-11-10 19:57:37 	303 		645 	0 	
2011-11-10 19:58:44 	215 		345 	0 	
2011-11-10 20:01:18 	210 		345 	0 	
2011-11-10 20:02:03 	211 		345 	0 	
2011-11-10 20:03:56 	407 		695 	0 	
2011-11-10 20:06:09 	403 		645 	0 	
2011-11-10 20:08:44 	404 		25 	0 	
2011-11-10 20:09:01 	213 		645 	0 	
2011-11-10 20:17:23 	206 		345 	0 	
2011-11-10 20:17:52 	310 		275 	0 	
2011-11-10 20:21:11 	421 		395 	0 	
2011-11-10 20:21:47 	402 		695 	0 	
2011-11-10 20:24:40 	316 		645 	0 	
2011-11-10 20:25:06 	214 		595 	0 	
2011-11-10 20:26:01 	314 		276 	0 	
2011-11-10 20:27:31 	314 		10 	0 	
2011-11-10 20:27:55 	418 		645 	0 	
2011-11-10 20:28:16 	205 		345 	0 	
2011-11-10 20:36:22 	420 		645 	0 	
2011-11-10 20:45:00 	422 		395 	0 	
2011-11-10 20:45:21 	415 		695 	0 	
2011-11-10 20:48:55 	207 		345 	0 	
2011-11-10 20:50:10 	209 		275 	0 	
2011-11-10 20:50:48 	324 		120 	0 	
2011-11-10 20:51:21 	321 		50 	0 	
2011-11-10 20:56:11 	313 		695 	0 	
2011-11-10 20:56:20 	416 		645 	0 	
2011-11-10 20:58:04 	322 		395 	0 	
2011-11-10 21:00:52 	318 		645 	0 	
2011-11-10 21:02:11 	323 		595 	0 	
2011-11-10 21:08:08 	406 		140 	0 	
2011-11-10 21:09:32 	219 		270 	0 	
2011-11-10 21:09:44 	421 		250 	0 	
2011-11-10 21:09:58 	404 		695 	0 	
2011-11-10 21:10:11 	304 		695 	0 	
2011-11-10 21:18:59 	202 		345 	0 	
2011-11-10 21:19:50 	424 		275 	0 	
2011-11-10 21:23:46 	204 		645 	0 	
2011-11-10 21:26:35 	406 		695 	0 	
2011-11-10 21:26:47 	201 		276 	0 	
2011-11-10 21:30:20 	405 		595 	0 	
2011-11-10 21:36:39 	421 		125 	0 	
2011-11-10 21:37:12 	403 		205 	0 	
2011-11-10 21:37:21 	409 		695 	0 	
2011-11-10 21:39:27 	319 		305 	0 	
2011-11-10 21:41:11 	320 		645 	0 	
2011-11-10 21:45:43 	306 		115 	0 	
2011-11-10 21:51:52 	413 		695 	0 	
2011-11-10 21:54:48 	216 		180 	0 	
2011-11-10 21:57:23 	324 		80 	0 	
2011-11-10 22:03:13 	419 		695 	0 	
2011-11-10 22:04:01 	212 		595 	0 	
2011-11-10 22:05:48 	421 		695 	0 	
2011-11-10 22:06:01 	307 		395 	0 	
2011-11-10 22:07:15 	408 		695 	0 	
2011-11-10 22:10:30 	309 		395 	0 	
2011-11-10 22:21:22 	412 		695 	0 	
2011-11-10 22:21:35 	301 		695 	0 	
2011-11-10 22:25:09 	215 		645 	0 	
2011-11-10 22:26:37 	423 		595 	0 	
2011-11-10 22:29:55 	414 		885 	0 	
2011-11-10 22:39:27 	206 		645 	0 	
2011-11-10 22:39:38 	422 		395 	0 	
2011-11-10 22:42:32 	424 		275 	0 	
2011-11-10 22:46:02 	312 		395 	0 	
2011-11-10 22:46:51 	203 		0 	645 	
2011-11-10 22:50:17 	201 		300 	0 	
2011-11-10 22:50:56 	204 		290 	0 	
2011-11-10 23:04:18 	205 		645 	0 	
2011-11-10 23:12:10 	417 		1115 	0 	
2011-11-10 23:12:26 	411 		595 	0 	
2011-11-10 23:20:43 	324 		100 	0 	
2011-11-10 23:33:03 	317 		695 	0 	
2011-11-10 23:37:08 	314 		705 	0 	
2011-11-10 23:39:44 	207 		345 	0 	
2011-11-10 23:42:18 	210 		345 	0 	
2011-11-10 23:43:43 	321 		695 	0 	
2011-11-10 23:54:46 	216 		595 	0 	
2011-11-10 23:58:05 	322 		695 	0 	
 			Total:		56200 	1040		

=== RECHIT LIST ===




V1