MSHOGUN 1: SHIFT END REPORT
Tuesday December 13, 2011 3:58:58 PM

SALES TRANSACTION
Room Sales Order			24950
FnB Sales Order			1950
Beer Sales Order			850
Misc Sales Order			30
Room Sales Adjustment			0
GROSS SALES			27780

DISCOUNT
Room				0
FnB				0
Misc				0

DEPOSIT				5465
REFUND				

TOTAL ACCOUNTABILITY			33245

CASH DECLARATION			7258
CARD				645
FUNDS SAFEKEEP			10000
TOTAL CASH DECLARED			17903

TOTAL CASH ON SYSTEM			7258
OVER/SHORTAGES 			0

ROOM	 # OF CHECK-OUT	AMT
Value 		6	2390
Regular 		10	6330
Classique 		30	16230
Premium 		0	0
Regent 		0	0
Queen 		0	0
Gemini 		0	0
Family 		0	0
Executive Suite 	0	0
Mega Suite 	0	0

DISCOUNT 
Value 			  
Regular 		  
Classique 		  
Premium 		  
Regent 			  
Queen 		  
Gemini 		  
Family 		  
Executive Suite 	  
Mega Suite 		  


=== RESERVATIONS ===

Deposits:


Claimed:



SECURITY DEPOSITS

Deposits:
Claimed:


=== SALES BREAKDOWN ===

Transaction Date	Room No.	Cash	Card

2011-12-13 08:38:27 	301 		395 	0 	
2011-12-13 08:51:44 	312 		395 	0 	
2011-12-13 08:56:08 	315 		395 	0 	
2011-12-13 08:57:18 	211 		40 	0 	
2011-12-13 09:15:15 	303 		345 	0 	
2011-12-13 09:42:02 	318 		225 	0 	
2011-12-13 09:56:21 	304 		395 	0 	
2011-12-13 10:07:15 	418 		120 	0 	
2011-12-13 10:12:50 	316 		120 	0 	
2011-12-13 10:18:29 	206 		345 	0 	
2011-12-13 10:18:42 	206 		20 	0 	
2011-12-13 10:29:44 	319 		456 	0 	
2011-12-13 10:30:34 	309 		280 	0 	
2011-12-13 10:42:33 	302 		395 	0 	
2011-12-13 10:45:14 	306 		395 	0 	
2011-12-13 10:55:37 	406 		395 	0 	
2011-12-13 11:28:55 	206 		205 	0 	
2011-12-13 11:45:34 	404 		395 	0 	
2011-12-13 11:48:22 	208 		275 	0 	
2011-12-13 11:54:19 	308 		120 	0 	
2011-12-13 12:03:04 	219 		395 	0 	
2011-12-13 12:04:47 	422 		700 	0 	
2011-12-13 12:09:25 	307 		395 	0 	
2011-12-13 12:24:22 	322 		395 	0 	
2011-12-13 12:24:56 	211 		360 	0 	
2011-12-13 12:51:34 	302 		90 	0 	
2011-12-13 12:55:16 	301 		395 	0 	
2011-12-13 13:25:06 	315 		395 	0 	
2011-12-13 13:29:18 	217 		275 	0 	
2011-12-13 13:35:01 	303 		520 	0 	
2011-12-13 13:35:29 	421 		395 	0 	
2011-12-13 13:36:50 	418 		345 	0 	
2011-12-13 13:40:55 	217 		120 	0 	
2011-12-13 13:43:41 	218 		395 	0 	
2011-12-13 13:44:56 	320 		705 	0 	
2011-12-13 13:45:46 	215 		345 	0 	
2011-12-13 13:55:42 	207 		345 	0 	
2011-12-13 14:01:38 	409 		316 	0 	
2011-12-13 14:02:20 	412 		395 	0 	
2011-12-13 14:05:15 	407 		395 	0 	
2011-12-13 14:14:58 	420 		705 	0 	
2011-12-13 14:21:40 	415 		395 	0 	
2011-12-13 14:30:52 	409 		30 	0 	
2011-12-13 14:39:57 	219 		50 	0 	
2011-12-13 14:43:32 	422 		395 	0 	
2011-12-13 14:45:43 	209 		275 	0 	
2011-12-13 14:49:26 	416 		276 	0 	
2011-12-13 15:23:09 	304 		395 	0 	
2011-12-13 15:23:21 	304 		50 	0 	
2011-12-13 15:34:21 	212 		275 	0 	
2011-12-13 15:35:54 	414 		345 	0 	
2011-12-13 15:40:25 	315 		185 	0 	
2011-12-13 15:41:19 	208 		100 	0 	
2011-12-13 15:53:30 	306 		395 	0 	
 			Total:		17258 	0		

=== RECHIT LIST ===




V1