MSHOGUN 1: SHIFT END REPORT
Wednesday November 03, 2010 12:00:02 AM

SALES TRANSACTION
Room Sales Order			25905
FnB Sales Order			2165
Beer Sales Order			380
Misc Sales Order			10
Room Sales Adjustment			0
GROSS SALES			28460

DISCOUNT
Room				0
FnB				0
Misc				0

DEPOSIT				27015
REFUND				

TOTAL ACCOUNTABILITY			55475

CASH DECLARATION			8127
CARD				395
FUNDS SAFEKEEP			40000
TOTAL CASH DECLARED			48522

TOTAL CASH ON SYSTEM			8127
OVER/SHORTAGES 			0

ROOM	 # OF CHECK-OUT	AMT
Value 		8	2200
Regular 		21	7485
Classique 		40	16220
Premium 		0	0
Regent 		0	0
Queen 		0	0
Gemini 		0	0
Family 		0	0
Executive Suite 	0	0
Mega Suite 	0	0

DISCOUNT 
Value 			  
Regular 		  
Classique 		  
Premium 		  
Regent 			  
Queen 		  
Gemini 		  
Family 		  
Executive Suite 	  
Mega Suite 		  


=== RESERVATIONS ===

Deposits:


Claimed:



SECURITY DEPOSITS

Deposits:
Claimed:


=== SALES BREAKDOWN ===

Transaction Date	Room No.	Cash	Card

2010-11-02 16:10:35 	215 		276 	0 	
2010-11-02 16:13:02 	305 		275 	0 	
2010-11-02 16:15:34 	218 		535 	0 	
2010-11-02 16:15:44 	301 		395 	0 	
2010-11-02 16:31:09 	406 		80 	0 	
2010-11-02 16:35:03 	414 		465 	0 	
2010-11-02 16:35:18 	220 		395 	0 	
2010-11-02 16:53:58 	203 		345 	0 	
2010-11-02 16:55:23 	302 		395 	0 	
2010-11-02 16:55:32 	216 		275 	0 	
2010-11-02 16:59:08 	307 		395 	0 	
2010-11-02 16:59:25 	219 		395 	0 	
2010-11-02 17:02:06 	217 		275 	0 	
2010-11-02 17:07:50 	211 		276 	0 	
2010-11-02 17:14:36 	212 		275 	0 	
2010-11-02 17:21:28 	209 		275 	0 	
2010-11-02 17:30:10 	306 		395 	0 	
2010-11-02 17:31:02 	304 		316 	0 	
2010-11-02 17:33:11 	202 		276 	0 	
2010-11-02 17:39:20 	205 		345 	0 	
2010-11-02 17:40:56 	218 		310 	0 	
2010-11-02 17:44:16 	Lobby 		85 	0 	
2010-11-02 17:46:55 	309 		395 	0 	
2010-11-02 17:47:01 	301 		395 	0 	
2010-11-02 17:50:07 	308 		395 	0 	
2010-11-02 17:50:23 	207 		345 	0 	
2010-11-02 17:51:49 	204 		345 	0 	
2010-11-02 17:58:12 	201 		345 	0 	
2010-11-02 17:59:39 	304 		245 	0 	
2010-11-02 17:59:59 	322 		395 	0 	
2010-11-02 18:04:24 	321 		395 	0 	
2010-11-02 18:04:33 	219 		395 	0 	
2010-11-02 18:09:01 	317 		695 	0 	
2010-11-02 18:12:20 	312 		395 	0 	
2010-11-02 18:18:27 	319 		395 	0 	
2010-11-02 18:18:53 	315 		316 	0 	
2010-11-02 18:23:45 	401 		395 	0 	
2010-11-02 18:24:00 	214 		275 	0 	
2010-11-02 18:34:21 	402 		695 	0 	
2010-11-02 18:36:23 	221 		316 	0 	
2010-11-02 18:40:22 	204 		50 	0 	
2010-11-02 18:41:10 	406 		140 	0 	
2010-11-02 18:48:21 	213 		645 	0 	
2010-11-02 18:55:20 	309 		220 	0 	
2010-11-02 18:56:19 	307 		395 	0 	
2010-11-02 18:58:58 	409 		316 	0 	
2010-11-02 19:00:25 	407 		395 	0 	
2010-11-02 19:00:34 	305 		595 	0 	
2010-11-02 19:07:13 	413 		695 	0 	
2010-11-02 19:07:23 	412 		395 	0 	
2010-11-02 19:08:56 	406 		395 	0 	
2010-11-02 19:09:56 	206 		345 	0 	
2010-11-02 19:10:22 	404 		395 	0 	
2010-11-02 19:14:00 	421 		695 	0 	
2010-11-02 19:14:26 	421 		100 	0 	
2010-11-02 19:15:04 	318 		345 	0 	
2010-11-02 19:16:24 	419 		695 	0 	
2010-11-02 19:21:07 	408 		695 	0 	
2010-11-02 19:26:43 	405 		595 	0 	
2010-11-02 19:27:48 	220 		395 	0 	
2010-11-02 19:29:14 	324 		595 	0 	
2010-11-02 19:32:51 	422 		395 	0 	
2010-11-02 19:38:52 	215 		345 	0 	
2010-11-02 19:40:06 	409 		10 	0 	
2010-11-02 19:41:09 	319 		395 	0 	
2010-11-02 19:46:57 	323 		595 	0 	
2010-11-02 19:47:58 	318 		275 	0 	
2010-11-02 19:53:55 	302 		395 	0 	
2010-11-02 19:54:03 	415 		695 	0 	
2010-11-02 19:58:32 	210 		345 	0 	
2010-11-02 19:58:39 	424 		595 	0 	
2010-11-02 20:00:36 	203 		645 	0 	
2010-11-02 20:01:53 	320 		645 	0 	
2010-11-02 20:03:00 	220 		50 	0 	
2010-11-02 20:03:06 	421 		320 	0 	
2010-11-02 20:03:34 	303 		345 	0 	
2010-11-02 20:08:06 	418 		645 	0 	
2010-11-02 20:08:26 	319 		50 	0 	
2010-11-02 20:09:02 	317 		190 	0 	
2010-11-02 20:14:04 	314 		345 	0 	
2010-11-02 20:14:17 	403 		645 	0 	
2010-11-02 20:14:38 	Lobby 		240 	0 	
2010-11-02 20:14:55 	413 		240 	0 	
2010-11-02 20:20:01 	420 		645 	0 	
2010-11-02 20:26:35 	307 		290 	0 	
2010-11-02 20:38:43 	303 		50 	0 	
2010-11-02 20:41:56 	316 		645 	0 	
2010-11-02 20:47:52 	316 		10 	0 	
2010-11-02 20:55:05 	208 		275 	0 	
2010-11-02 21:09:03 	416 		645 	0 	
2010-11-02 21:09:22 	306 		695 	0 	
2010-11-02 21:15:00 	215 		290 	0 	
2010-11-02 21:32:16 	308 		695 	0 	
2010-11-02 21:32:42 	321 		695 	0 	
2010-11-02 21:39:18 	401 		395 	0 	
2010-11-02 21:39:25 	309 		395 	0 	
2010-11-02 21:43:19 	310 		595 	0 	
2010-11-02 21:51:06 	304 		695 	0 	
2010-11-02 21:51:15 	311 		595 	0 	
2010-11-02 21:57:56 	301 		0 	395 	
2010-11-02 22:11:47 	209 		275 	0 	
2010-11-02 22:15:13 	308 		80 	0 	
2010-11-02 22:16:10 	407 		0 	695 	
2010-11-02 22:25:25 	322 		395 	0 	
2010-11-02 22:36:46 	315 		395 	0 	
2010-11-02 22:46:49 	410 		595 	0 	
2010-11-02 22:46:59 	404 		695 	0 	
2010-11-02 22:49:29 	406 		695 	0 	
2010-11-02 22:51:01 	319 		695 	0 	
2010-11-02 22:55:11 	212 		275 	0 	
2010-11-02 23:03:57 	412 		140 	0 	
2010-11-02 23:06:04 	305 		210 	0 	
2010-11-02 23:06:44 	214 		275 	0 	
2010-11-02 23:11:32 	406 		110 	0 	
2010-11-02 23:12:08 	409 		395 	0 	
2010-11-02 23:16:48 	307 		395 	0 	
2010-11-02 23:18:30 	302 		395 	0 	
2010-11-02 23:36:59 	414 		345 	0 	
2010-11-02 23:44:36 	409 		305 	0 	
2010-11-02 23:45:08 	303 		645 	0 	
2010-11-02 23:46:33 	208 		475 	0 	
2010-11-02 23:48:05 	313 		695 	0 	
2010-11-02 23:56:49 	207 		345 	0 	
 			Total:		48127 	1090		

=== RECHIT LIST ===




V1