MSHOGUN 1: SHIFT END REPORT
Friday March 04, 2011 12:00:12 AM

SALES TRANSACTION
Room Sales Order			28825
FnB Sales Order			1388
Beer Sales Order			270
Misc Sales Order			170
Room Sales Adjustment			0
GROSS SALES			30653

DISCOUNT
Room				0
FnB				0
Misc				0

DEPOSIT				21565
REFUND				-520

TOTAL ACCOUNTABILITY			51698

CASH DECLARATION			8225
CARD				0
FUNDS SAFEKEEP			40000
TOTAL CASH DECLARED			48225

TOTAL CASH ON SYSTEM			8215
OVER/SHORTAGES 			10

ROOM	 # OF CHECK-OUT	AMT
Value 		10	2850
Regular 		15	5295
Classique 		52	20680
Premium 		0	0
Regent 		0	0
Queen 		0	0
Gemini 		0	0
Family 		0	0
Executive Suite 	0	0
Mega Suite 	0	0

DISCOUNT 
Value 			  
Regular 		  
Classique 		  
Premium 		  
Regent 			  
Queen 		  
Gemini 		  
Family 		  
Executive Suite 	  
Mega Suite 		  


=== RESERVATIONS ===

Deposits:


Claimed:



SECURITY DEPOSITS

Deposits:
Claimed:


=== SALES BREAKDOWN ===

Transaction Date	Room No.	Cash	Card

2011-03-03 16:06:23 	221 		395 	0 	
2011-03-03 16:07:26 	220 		395 	0 	
2011-03-03 16:10:18 	219 		395 	0 	
2011-03-03 16:11:12 	212 		275 	0 	
2011-03-03 16:22:38 	220 		30 	0 	
2011-03-03 16:22:48 	301 		395 	0 	
2011-03-03 16:36:10 	321 		395 	0 	
2011-03-03 16:37:37 	208 		275 	0 	
2011-03-03 16:39:09 	322 		395 	0 	
2011-03-03 16:48:56 	312 		395 	0 	
2011-03-03 16:54:03 	214 		275 	0 	
2011-03-03 16:58:12 	215 		345 	0 	
2011-03-03 16:58:20 	212 		150 	0 	
2011-03-03 16:59:53 	314 		345 	0 	
2011-03-03 17:03:22 	218 		395 	0 	
2011-03-03 17:07:13 	303 		276 	0 	
2011-03-03 17:13:44 	308 		395 	0 	
2011-03-03 17:18:55 	307 		395 	0 	
2011-03-03 17:19:08 	306 		395 	0 	
2011-03-03 17:20:50 	309 		395 	0 	
2011-03-03 17:29:22 	319 		395 	0 	
2011-03-03 17:38:08 	406 		395 	0 	
2011-03-03 17:45:01 	409 		395 	0 	
2011-03-03 18:01:01 	404 		395 	0 	
2011-03-03 18:02:15 	401 		395 	0 	
2011-03-03 18:04:11 	407 		395 	0 	
2011-03-03 18:08:21 	408 		395 	0 	
2011-03-03 18:08:28 	412 		395 	0 	
2011-03-03 18:08:39 	304 		395 	0 	
2011-03-03 18:08:58 	209 		100 	0 	
2011-03-03 18:13:59 	419 		395 	0 	
2011-03-03 18:17:59 	219 		395 	0 	
2011-03-03 18:23:25 	308 		395 	0 	
2011-03-03 18:25:22 	413 		695 	0 	
2011-03-03 18:27:04 	421 		395 	0 	
2011-03-03 18:31:11 	313 		395 	0 	
2011-03-03 18:32:11 	316 		345 	0 	
2011-03-03 18:37:08 	315 		395 	0 	
2011-03-03 18:45:56 	408 		30 	0 	
2011-03-03 18:47:03 	208 		275 	0 	
2011-03-03 18:48:07 	321 		395 	0 	
2011-03-03 18:49:45 	422 		395 	0 	
2011-03-03 18:55:07 	415 		316 	0 	
2011-03-03 19:01:56 	209 		275 	0 	
2011-03-03 19:03:44 	301 		395 	0 	
2011-03-03 19:05:19 	412 		305 	0 	
2011-03-03 19:11:22 	307 		975 	0 	
2011-03-03 19:11:31 	220 		395 	0 	
2011-03-03 19:15:08 	302 		695 	0 	
2011-03-03 19:15:15 	221 		395 	0 	
2011-03-03 19:15:25 	417 		395 	0 	
2011-03-03 19:15:31 	322 		395 	0 	
2011-03-03 19:15:40 	212 		275 	0 	
2011-03-03 19:17:47 	215 		345 	0 	
2011-03-03 19:18:21 	213 		345 	0 	
2011-03-03 19:19:45 	407 		105 	0 	
2011-03-03 19:23:42 	210 		345 	0 	
2011-03-03 19:25:41 	314 		585 	0 	
2011-03-03 19:25:48 	211 		345 	0 	
2011-03-03 19:34:09 	320 		345 	0 	
2011-03-03 19:35:16 	403 		645 	0 	
2011-03-03 19:40:25 	414 		345 	0 	
2011-03-03 19:42:36 	302 		50 	0 	
2011-03-03 19:46:07 	322 		45 	0 	
2011-03-03 19:46:18 	315 		198 	0 	
2011-03-03 19:50:13 	418 		645 	0 	
2011-03-03 19:52:17 	413 		50 	0 	
2011-03-03 19:53:22 	420 		345 	0 	
2011-03-03 19:54:00 	416 		345 	0 	
2011-03-03 19:55:34 	318 		645 	0 	
2011-03-03 20:03:22 	304 		395 	0 	
2011-03-03 20:12:07 	308 		695 	0 	
2011-03-03 20:15:17 	305 		595 	0 	
2011-03-03 20:17:29 	312 		395 	0 	
2011-03-03 20:19:36 	307 		50 	0 	
2011-03-03 20:26:30 	218 		695 	0 	
2011-03-03 20:29:54 	313 		695 	0 	
2011-03-03 20:30:01 	306 		695 	0 	
2011-03-03 20:30:10 	309 		695 	0 	
2011-03-03 20:30:33 	206 		345 	0 	
2011-03-03 20:30:52 	401 		395 	0 	
2011-03-03 20:32:23 	216 		275 	0 	
2011-03-03 20:33:07 	203 		345 	0 	
2011-03-03 20:33:31 	406 		395 	0 	
2011-03-03 20:37:58 	301 		395 	0 	
2011-03-03 20:44:30 	407 		395 	0 	
2011-03-03 20:45:08 	414 		205 	0 	
2011-03-03 20:45:18 	408 		395 	0 	
2011-03-03 20:45:31 	412 		395 	0 	
2011-03-03 20:52:47 	402 		395 	0 	
2011-03-03 20:59:30 	319 		395 	0 	
2011-03-03 21:06:00 	324 		595 	0 	
2011-03-03 21:15:37 	408 		130 	0 	
2011-03-03 21:16:41 	221 		395 	0 	
2011-03-03 21:17:21 	404 		395 	0 	
2011-03-03 21:17:47 	421 		695 	0 	
2011-03-03 21:18:12 	217 		595 	0 	
2011-03-03 21:18:26 	204 		345 	0 	
2011-03-03 21:22:21 	316 		645 	0 	
2011-03-03 21:23:45 	409 		140 	0 	
2011-03-03 21:25:46 	318 		305 	0 	
2011-03-03 21:27:16 	414 		645 	0 	
2011-03-03 21:45:24 	417 		695 	0 	
2011-03-03 21:49:43 	419 		695 	0 	
2011-03-03 21:53:35 	304 		395 	0 	
2011-03-03 22:06:56 	315 		695 	0 	
2011-03-03 22:15:25 	409 		395 	0 	
2011-03-03 22:15:25 	409 		520 	0 	
2011-03-03 22:21:41 	409 		-520 	0 	
2011-03-03 22:23:27 	420 		345 	0 	
2011-03-03 22:26:26 	422 		695 	0 	
2011-03-03 22:26:35 	415 		695 	0 	
2011-03-03 22:32:53 	205 		345 	0 	
2011-03-03 22:36:21 	204 		25 	0 	
2011-03-03 22:42:13 	219 		395 	0 	
2011-03-03 22:49:55 	221 		50 	0 	
2011-03-03 22:52:01 	319 		695 	0 	
2011-03-03 22:55:22 	423 		595 	0 	
2011-03-03 22:55:30 	220 		395 	0 	
2011-03-03 23:01:39 	424 		595 	0 	
2011-03-03 23:29:55 	207 		345 	0 	
2011-03-03 23:34:57 	304 		70 	0 	
2011-03-03 23:39:06 	401 		535 	0 	
2011-03-03 23:39:23 	401 		20 	0 	
 			Total:		48215 	0		

=== RECHIT LIST ===




V1