MSHOGUN 1: SHIFT END REPORT
Tuesday December 21, 2010 4:00:16 PM

SALES TRANSACTION
Room Sales Order			33975
FnB Sales Order			2511
Beer Sales Order			0
Misc Sales Order			70
Room Sales Adjustment			0
GROSS SALES			36556

DISCOUNT
Room				0
FnB				0
Misc				0

DEPOSIT				10180
REFUND				

TOTAL ACCOUNTABILITY			46736

CASH DECLARATION			4546
CARD				0
FUNDS SAFEKEEP			20000
TOTAL CASH DECLARED			24546

TOTAL CASH ON SYSTEM			4547
OVER/SHORTAGES 			-1

ROOM	 # OF CHECK-OUT	AMT
Value 		10	5310
Regular 		18	10170
Classique 		37	18495
Premium 		0	0
Regent 		0	0
Queen 		0	0
Gemini 		0	0
Family 		0	0
Executive Suite 	0	0
Mega Suite 	0	0

DISCOUNT 
Value 			  
Regular 		  
Classique 		  
Premium 		  
Regent 			  
Queen 		  
Gemini 		  
Family 		  
Executive Suite 	  
Mega Suite 		  


=== RESERVATIONS ===

Deposits:


Claimed:



SECURITY DEPOSITS

Deposits:
Claimed:


=== SALES BREAKDOWN ===

Transaction Date	Room No.	Cash	Card

2010-12-21 08:01:09 	323 		100 	0 	
2010-12-21 08:07:44 	404 		440 	0 	
2010-12-21 08:15:46 	410 		400 	0 	
2010-12-21 08:24:02 	201 		240 	0 	
2010-12-21 09:10:05 	419 		280 	0 	
2010-12-21 09:11:07 	304 		395 	0 	
2010-12-21 09:24:52 	307 		395 	0 	
2010-12-21 09:41:44 	315 		395 	0 	
2010-12-21 09:43:08 	423 		100 	0 	
2010-12-21 10:10:28 	321 		395 	0 	
2010-12-21 10:11:02 	321 		60 	0 	
2010-12-21 10:11:32 	301 		395 	0 	
2010-12-21 10:15:36 	312 		395 	0 	
2010-12-21 10:15:47 	310 		275 	0 	
2010-12-21 10:17:11 	217 		275 	0 	
2010-12-21 10:19:14 	321 		50 	0 	
2010-12-21 10:24:43 	424 		100 	0 	
2010-12-21 10:32:48 	303 		345 	0 	
2010-12-21 10:39:33 	306 		395 	0 	
2010-12-21 10:54:53 	308 		395 	0 	
2010-12-21 11:03:59 	218 		80 	0 	
2010-12-21 11:20:41 	309 		395 	0 	
2010-12-21 11:20:54 	313 		395 	0 	
2010-12-21 11:21:14 	317 		395 	0 	
2010-12-21 11:27:25 	318 		345 	0 	
2010-12-21 11:27:43 	316 		345 	0 	
2010-12-21 11:35:53 	304 		395 	0 	
2010-12-21 11:39:16 	314 		585 	0 	
2010-12-21 11:44:22 	218 		395 	0 	
2010-12-21 11:50:11 	219 		316 	0 	
2010-12-21 11:53:35 	215 		345 	0 	
2010-12-21 12:13:15 	320 		585 	0 	
2010-12-21 12:31:51 	311 		275 	0 	
2010-12-21 12:32:02 	206 		345 	0 	
2010-12-21 12:32:48 	302 		395 	0 	
2010-12-21 12:33:22 	302 		50 	0 	
2010-12-21 12:52:27 	306 		395 	0 	
2010-12-21 12:54:01 	215 		100 	0 	
2010-12-21 12:59:13 	319 		456 	0 	
2010-12-21 12:59:48 	208 		275 	0 	
2010-12-21 13:15:19 	209 		275 	0 	
2010-12-21 13:25:30 	213 		585 	0 	
2010-12-21 13:26:13 	203 		345 	0 	
2010-12-21 13:30:42 	207 		345 	0 	
2010-12-21 13:39:35 	210 		345 	0 	
2010-12-21 13:45:18 	202 		705 	0 	
2010-12-21 13:48:24 	212 		275 	0 	
2010-12-21 13:50:36 	205 		465 	0 	
2010-12-21 14:02:19 	301 		395 	0 	
2010-12-21 14:05:53 	307 		395 	0 	
2010-12-21 14:06:49 	205 		10 	0 	
2010-12-21 14:11:12 	305 		275 	0 	
2010-12-21 14:13:37 	312 		395 	0 	
2010-12-21 14:18:40 	303 		276 	0 	
2010-12-21 14:20:03 	408 		395 	0 	
2010-12-21 14:41:55 	321 		395 	0 	
2010-12-21 14:46:23 	418 		348 	0 	
2010-12-21 14:52:40 	204 		345 	0 	
2010-12-21 14:59:25 	310 		275 	0 	
2010-12-21 15:02:26 	212 		210 	0 	
2010-12-21 15:03:24 	315 		395 	0 	
2010-12-21 15:12:53 	211 		705 	0 	
2010-12-21 15:15:25 	318 		345 	0 	
2010-12-21 15:22:09 	304 		395 	0 	
2010-12-21 15:25:04 	321 		50 	0 	
2010-12-21 15:28:26 	302 		395 	0 	
2010-12-21 15:30:12 	306 		395 	0 	
2010-12-21 15:30:59 	408 		40 	0 	
2010-12-21 15:37:44 	405 		275 	0 	
2010-12-21 15:39:05 	313 		395 	0 	
2010-12-21 15:44:33 	317 		395 	0 	
2010-12-21 15:53:36 	308 		395 	0 	
2010-12-21 15:58:36 	414 		276 	0 	
2010-12-21 15:58:46 	416 		345 	0 	
 			Total:		24547 	0		

=== RECHIT LIST ===




V1