MSHOGUN 1: SHIFT END REPORT
Thursday November 11, 2010 12:01:33 AM

SALES TRANSACTION
Room Sales Order			28375
FnB Sales Order			1015
Beer Sales Order			270
Misc Sales Order			35
Room Sales Adjustment			-395
GROSS SALES			29300

DISCOUNT
Room				0
FnB				0
Misc				0

DEPOSIT				24533
REFUND				

TOTAL ACCOUNTABILITY			53833

CASH DECLARATION			11677
CARD				0
FUNDS SAFEKEEP			30000
TOTAL CASH DECLARED			41677

TOTAL CASH ON SYSTEM			12072
OVER/SHORTAGES 			-395

ROOM	 # OF CHECK-OUT	AMT
Value 		10	2750
Regular 		24	9360
Classique 		39	16265
Premium 		0	0
Regent 		0	0
Queen 		0	0
Gemini 		0	0
Family 		0	0
Executive Suite 	0	0
Mega Suite 	0	0

DISCOUNT 
Value 			  
Regular 		  
Classique 		  
Premium 		  
Regent 			  
Queen 		  
Gemini 		  
Family 		  
Executive Suite 	  
Mega Suite 		  


=== RESERVATIONS ===

Deposits:


Claimed:



SECURITY DEPOSITS

Deposits:
Claimed:


=== SALES BREAKDOWN ===

Transaction Date	Room No.	Cash	Card

2010-11-10 16:07:52 	220 		395 	0 	
2010-11-10 16:10:35 	219 		395 	0 	
2010-11-10 16:10:46 	205 		345 	0 	
2010-11-10 16:11:39 	206 		345 	0 	
2010-11-10 16:12:36 	302 		395 	0 	
2010-11-10 16:13:58 	301 		395 	0 	
2010-11-10 16:15:11 	207 		345 	0 	
2010-11-10 16:32:24 	204 		345 	0 	
2010-11-10 16:32:45 	210 		345 	0 	
2010-11-10 16:37:16 	208 		275 	0 	
2010-11-10 16:39:29 	219 		270 	0 	
2010-11-10 16:40:21 	307 		240 	0 	
2010-11-10 16:49:16 	307 		140 	0 	
2010-11-10 16:50:10 	203 		345 	0 	
2010-11-10 16:51:06 	211 		345 	0 	
2010-11-10 16:52:46 	202 		345 	0 	
2010-11-10 17:04:32 	209 		275 	0 	
2010-11-10 17:15:25 	316 		345 	0 	
2010-11-10 17:27:07 	306 		395 	0 	
2010-11-10 17:27:21 	218 		395 	0 	
2010-11-10 17:27:21 	218 		105 	0 	
2010-11-10 17:30:54 	306 		20 	0 	
2010-11-10 17:44:37 	323 		280 	0 	
2010-11-10 17:48:52 	221 		395 	0 	
2010-11-10 17:51:48 	207 		140 	0 	
2010-11-10 17:53:38 	213 		120 	0 	
2010-11-10 17:54:36 	201 		345 	0 	
2010-11-10 17:54:51 	311 		275 	0 	
2010-11-10 18:00:12 	305 		595 	0 	
2010-11-10 18:09:53 	304 		395 	0 	
2010-11-10 18:12:51 	307 		316 	0 	
2010-11-10 18:15:52 	216 		275 	0 	
2010-11-10 18:23:10 	320 		345 	0 	
2010-11-10 18:52:24 	304 		-395 	0 	
2010-11-10 18:53:38 	304 		695 	0 	
2010-11-10 19:07:08 	220 		395 	0 	
2010-11-10 19:11:50 	404 		695 	0 	
2010-11-10 19:13:01 	321 		395 	0 	
2010-11-10 19:14:40 	319 		395 	0 	
2010-11-10 19:18:26 	402 		316 	0 	
2010-11-10 19:20:00 	406 		395 	0 	
2010-11-10 19:23:24 	323 		275 	0 	
2010-11-10 19:38:20 	207 		345 	0 	
2010-11-10 19:41:46 	308 		695 	0 	
2010-11-10 19:41:56 	313 		695 	0 	
2010-11-10 19:45:16 	210 		345 	0 	
2010-11-10 19:47:41 	407 		695 	0 	
2010-11-10 19:49:26 	302 		395 	0 	
2010-11-10 19:54:03 	202 		345 	0 	
2010-11-10 19:54:19 	424 		595 	0 	
2010-11-10 19:56:59 	403 		0 	645 	
2010-11-10 19:57:57 	219 		395 	0 	
2010-11-10 19:58:08 	221 		695 	0 	
2010-11-10 20:01:19 	219 		50 	0 	
2010-11-10 20:02:16 	312 		395 	0 	
2010-11-10 20:09:52 	218 		-105 	0 	
2010-11-10 20:11:06 	313 		30 	0 	
2010-11-10 20:11:14 	313 		258 	0 	
2010-11-10 20:17:06 	306 		395 	0 	
2010-11-10 20:17:19 	315 		695 	0 	
2010-11-10 20:20:38 	408 		695 	0 	
2010-11-10 20:28:50 	215 		645 	0 	
2010-11-10 20:29:06 	213 		345 	0 	
2010-11-10 20:40:35 	309 		395 	0 	
2010-11-10 20:49:43 	317 		695 	0 	
2010-11-10 20:51:04 	323 		595 	0 	
2010-11-10 20:53:19 	204 		465 	0 	
2010-11-10 20:55:36 	206 		240 	0 	
2010-11-10 20:57:20 	205 		345 	0 	
2010-11-10 20:57:47 	409 		395 	0 	
2010-11-10 21:01:47 	203 		345 	0 	
2010-11-10 21:02:11 	412 		395 	0 	
2010-11-10 21:12:04 	317 		160 	0 	
2010-11-10 21:12:39 	205 		60 	0 	
2010-11-10 21:14:27 	209 		275 	0 	
2010-11-10 21:14:40 	211 		345 	0 	
2010-11-10 21:14:50 	322 		395 	0 	
2010-11-10 21:16:25 	413 		695 	0 	
2010-11-10 21:18:03 	312 		395 	0 	
2010-11-10 21:19:11 	419 		695 	0 	
2010-11-10 21:42:46 	310 		275 	0 	
2010-11-10 21:42:57 	210 		345 	0 	
2010-11-10 21:45:49 	207 		0 	345 	
2010-11-10 21:48:05 	210 		40 	0 	
2010-11-10 21:49:17 	413 		255 	0 	
2010-11-10 21:49:41 	419 		135 	0 	
2010-11-10 21:55:55 	421 		695 	0 	
2010-11-10 21:58:42 	421 		45 	0 	
2010-11-10 22:00:52 	324 		595 	0 	
2010-11-10 22:03:26 	417 		695 	0 	
2010-11-10 22:04:54 	207 		200 	0 	
2010-11-10 22:05:15 	422 		395 	0 	
2010-11-10 22:07:29 	216 		595 	0 	
2010-11-10 22:07:40 	415 		695 	0 	
2010-11-10 22:09:05 	218 		316 	0 	
2010-11-10 22:20:19 	405 		595 	0 	
2010-11-10 22:22:00 	213 		0 	645 	
2010-11-10 22:23:17 	414 		645 	0 	
2010-11-10 22:28:01 	421 		50 	0 	
2010-11-10 22:31:26 	314 		276 	0 	
2010-11-10 22:32:58 	202 		345 	0 	
2010-11-10 22:37:35 	307 		395 	0 	
2010-11-10 22:38:03 	420 		120 	0 	
2010-11-10 22:39:14 	320 		345 	0 	
2010-11-10 22:43:55 	304 		300 	0 	
2010-11-10 22:48:29 	214 		275 	0 	
2010-11-10 22:48:58 	311 		275 	0 	
2010-11-10 22:52:00 	316 		585 	0 	
2010-11-10 22:55:54 	212 		475 	0 	
2010-11-10 23:10:44 	423 		595 	0 	
2010-11-10 23:28:24 	201 		345 	0 	
2010-11-10 23:28:38 	316 		30 	0 	
2010-11-10 23:28:41 	316 		40 	0 	
2010-11-10 23:28:45 	316 		110 	0 	
2010-11-10 23:29:42 	321 		695 	0 	
2010-11-10 23:29:55 	201 		25 	0 	
2010-11-10 23:32:24 	219 		395 	0 	
2010-11-10 23:35:19 	402 		695 	0 	
2010-11-10 23:57:25 	211 		345 	0 	
 			Total:		42177 	1635		

=== RECHIT LIST ===




V1