MSHOGUN 1: SHIFT END REPORT
Wednesday March 07, 2012 12:02:18 AM

SALES TRANSACTION
Room Sales Order			35405
FnB Sales Order			1895
Beer Sales Order			400
Misc Sales Order			70
Room Sales Adjustment			0
GROSS SALES			37770

DISCOUNT
Room				0
FnB				0
Misc				0

DEPOSIT				34595
REFUND				

TOTAL ACCOUNTABILITY			72365

CASH DECLARATION			1188
CARD				0
FUNDS SAFEKEEP			60000
TOTAL CASH DECLARED			61188

TOTAL CASH ON SYSTEM			1488
OVER/SHORTAGES 			-300

ROOM	 # OF CHECK-OUT	AMT
Value 		16	4500
Regular 		22	8550
Classique 		53	22355
Premium 		0	0
Regent 		0	0
Queen 		0	0
Gemini 		0	0
Family 		0	0
Executive Suite 	0	0
Mega Suite 	0	0

DISCOUNT 
Value 			  
Regular 		  
Classique 		  
Premium 		  
Regent 			  
Queen 		  
Gemini 		  
Family 		  
Executive Suite 	  
Mega Suite 		  


=== RESERVATIONS ===

Deposits:


Claimed:



SECURITY DEPOSITS

Deposits:
Claimed:


=== SALES BREAKDOWN ===

Transaction Date	Room No.	Cash	Card

2012-03-06 16:08:03 	404 		240 	0 	
2012-03-06 16:09:47 	410 		275 	0 	
2012-03-06 16:10:07 	412 		395 	0 	
2012-03-06 16:10:17 	409 		395 	0 	
2012-03-06 16:10:33 	422 		395 	0 	
2012-03-06 16:10:56 	413 		395 	0 	
2012-03-06 16:13:50 	419 		395 	0 	
2012-03-06 16:14:03 	309 		395 	0 	
2012-03-06 16:14:14 	421 		395 	0 	
2012-03-06 16:24:46 	411 		275 	0 	
2012-03-06 16:31:17 	422 		200 	0 	
2012-03-06 16:32:01 	406 		395 	0 	
2012-03-06 16:35:46 	302 		395 	0 	
2012-03-06 16:36:45 	406 		30 	0 	
2012-03-06 16:45:49 	423 		275 	0 	
2012-03-06 16:46:56 	406 		25 	0 	
2012-03-06 16:50:42 	401 		395 	0 	
2012-03-06 16:57:04 	424 		275 	0 	
2012-03-06 16:57:12 	306 		395 	0 	
2012-03-06 16:59:33 	415 		395 	0 	
2012-03-06 17:03:16 	416 		705 	0 	
2012-03-06 17:15:35 	313 		395 	0 	
2012-03-06 17:19:38 	404 		395 	0 	
2012-03-06 17:20:47 	322 		395 	0 	
2012-03-06 17:24:51 	304 		395 	0 	
2012-03-06 17:31:32 	403 		345 	0 	
2012-03-06 17:33:00 	314 		345 	0 	
2012-03-06 17:35:22 	221 		395 	0 	
2012-03-06 17:39:08 	316 		345 	0 	
2012-03-06 17:45:38 	420 		345 	0 	
2012-03-06 17:46:29 	404 		360 	0 	
2012-03-06 17:46:56 	312 		395 	0 	
2012-03-06 17:49:07 	408 		316 	0 	
2012-03-06 17:56:55 	302 		270 	0 	
2012-03-06 18:07:19 	210 		345 	0 	
2012-03-06 18:14:17 	307 		395 	0 	
2012-03-06 18:18:31 	421 		395 	0 	
2012-03-06 18:20:18 	402 		140 	0 	
2012-03-06 18:22:43 	308 		140 	0 	
2012-03-06 18:25:00 	418 		345 	0 	
2012-03-06 18:27:42 	220 		695 	0 	
2012-03-06 18:31:26 	423 		275 	0 	
2012-03-06 18:31:34 	301 		395 	0 	
2012-03-06 18:34:29 	405 		275 	0 	
2012-03-06 18:38:16 	319 		695 	0 	
2012-03-06 18:38:26 	207 		345 	0 	
2012-03-06 18:47:41 	322 		316 	0 	
2012-03-06 18:53:39 	210 		285 	0 	
2012-03-06 18:54:05 	412 		395 	0 	
2012-03-06 18:56:54 	422 		395 	0 	
2012-03-06 18:57:08 	413 		535 	0 	
2012-03-06 18:57:36 	323 		595 	0 	
2012-03-06 18:59:39 	218 		395 	0 	
2012-03-06 19:00:04 	311 		375 	0 	
2012-03-06 19:01:03 	204 		345 	0 	
2012-03-06 19:03:33 	324 		275 	0 	
2012-03-06 19:06:27 	201 		345 	0 	
2012-03-06 19:09:37 	306 		695 	0 	
2012-03-06 19:10:05 	219 		395 	0 	
2012-03-06 19:11:00 	410 		275 	0 	
2012-03-06 19:20:45 	402 		395 	0 	
2012-03-06 19:22:30 	205 		645 	0 	
2012-03-06 19:22:38 	206 		645 	0 	
2012-03-06 19:24:23 	311 		150 	0 	
2012-03-06 19:25:06 	406 		695 	0 	
2012-03-06 19:28:58 	202 		345 	0 	
2012-03-06 19:31:34 	312 		395 	0 	
2012-03-06 19:37:10 	409 		0 	695 	
2012-03-06 19:39:15 	409 		0 	0 	
2012-03-06 19:39:15 	409 		0 	10 	
2012-03-06 19:40:58 	321 		395 	0 	
2012-03-06 19:41:26 	304 		695 	0 	
2012-03-06 19:41:55 	407 		695 	0 	
2012-03-06 19:43:38 	423 		75 	0 	
2012-03-06 19:43:48 	423 		200 	0 	
2012-03-06 19:44:32 	415 		695 	0 	
2012-03-06 19:48:30 	320 		345 	0 	
2012-03-06 19:48:48 	203 		345 	0 	
2012-03-06 19:54:02 	208 		275 	0 	
2012-03-06 19:54:28 	209 		275 	0 	
2012-03-06 19:56:54 	417 		695 	0 	
2012-03-06 20:01:13 	306 		250 	0 	
2012-03-06 20:01:13 	306 		250 	0 	
2012-03-06 20:02:17 	401 		395 	0 	
2012-03-06 20:02:45 	314 		345 	0 	
2012-03-06 20:05:44 	414 		345 	0 	
2012-03-06 20:06:00 	215 		345 	0 	
2012-03-06 20:07:13 	419 		695 	0 	
2012-03-06 20:07:40 	404 		695 	0 	
2012-03-06 20:09:52 	308 		395 	0 	
2012-03-06 20:13:39 	320 		440 	0 	
2012-03-06 20:15:48 	302 		395 	0 	
2012-03-06 20:18:19 	310 		275 	0 	
2012-03-06 20:19:10 	303 		645 	0 	
2012-03-06 20:20:28 	213 		645 	0 	
2012-03-06 20:22:57 	212 		275 	0 	
2012-03-06 20:28:12 	313 		395 	0 	
2012-03-06 20:28:22 	408 		695 	0 	
2012-03-06 20:40:04 	315 		695 	0 	
2012-03-06 20:41:11 	317 		710 	0 	
2012-03-06 20:44:47 	402 		695 	0 	
2012-03-06 20:46:59 	422 		695 	0 	
2012-03-06 20:48:43 	420 		645 	0 	
2012-03-06 20:58:17 	415 		50 	0 	
2012-03-06 21:03:07 	412 		395 	0 	
2012-03-06 21:03:58 	403 		645 	0 	
2012-03-06 21:17:45 	214 		275 	0 	
2012-03-06 21:21:33 	210 		345 	0 	
2012-03-06 21:21:50 	413 		695 	0 	
2012-03-06 21:23:43 	421 		695 	0 	
2012-03-06 21:27:21 	220 		695 	0 	
2012-03-06 21:27:35 	309 		395 	0 	
2012-03-06 21:32:19 	320 		10 	0 	
2012-03-06 21:42:51 	418 		645 	0 	
2012-03-06 21:44:25 	401 		395 	0 	
2012-03-06 21:45:17 	309 		415 	0 	
2012-03-06 21:45:45 	318 		645 	0 	
2012-03-06 21:47:03 	307 		695 	0 	
2012-03-06 21:48:53 	322 		395 	0 	
2012-03-06 21:50:08 	316 		645 	0 	
2012-03-06 21:53:10 	305 		595 	0 	
2012-03-06 21:55:22 	211 		345 	0 	
2012-03-06 21:57:56 	221 		695 	0 	
2012-03-06 21:59:46 	316 		25 	0 	
2012-03-06 22:00:27 	408 		205 	0 	
2012-03-06 22:06:01 	302 		695 	0 	
2012-03-06 22:07:25 	216 		595 	0 	
2012-03-06 22:11:35 	418 		50 	0 	
2012-03-06 22:12:25 	305 		10 	0 	
2012-03-06 22:14:11 	324 		595 	0 	
2012-03-06 22:22:01 	204 		645 	0 	
2012-03-06 22:22:55 	201 		645 	0 	
2012-03-06 22:40:14 	415 		165 	0 	
2012-03-06 22:48:35 	218 		695 	0 	
2012-03-06 22:52:24 	207 		465 	0 	
2012-03-06 22:58:45 	321 		695 	0 	
2012-03-06 23:02:37 	314 		645 	0 	
2012-03-06 23:04:43 	414 		705 	0 	
2012-03-06 23:09:31 	203 		645 	0 	
2012-03-06 23:16:52 	312 		395 	0 	
2012-03-06 23:31:05 	308 		695 	0 	
2012-03-06 23:39:10 	313 		695 	0 	
2012-03-06 23:43:46 	202 		345 	0 	
2012-03-06 23:44:10 	301 		395 	0 	
2012-03-06 23:46:12 	219 		316 	0 	
2012-03-06 23:50:38 	215 		645 	0 	
2012-03-06 23:54:25 	202 		175 	0 	
 			Total:		61488 	705		

=== RECHIT LIST ===




V1