MSHOGUN 1: SHIFT END REPORT
Monday October 31, 2011 12:00:27 AM

SALES TRANSACTION
Room Sales Order			40605
FnB Sales Order			1975
Beer Sales Order			395
Misc Sales Order			60
Room Sales Adjustment			0
GROSS SALES			43035

DISCOUNT
Room				0
FnB				0
Misc				0

DEPOSIT				37745
REFUND				

TOTAL ACCOUNTABILITY			80780

CASH DECLARATION			8002
CARD				0
FUNDS SAFEKEEP			50000
TOTAL CASH DECLARED			58002

TOTAL CASH ON SYSTEM			12414
OVER/SHORTAGES 			-4412

ROOM	 # OF CHECK-OUT	AMT
Value 		13	4075
Regular 		28	12360
Classique 		58	24170
Premium 		0	0
Regent 		0	0
Queen 		0	0
Gemini 		0	0
Family 		0	0
Executive Suite 	0	0
Mega Suite 	0	0

DISCOUNT 
Value 			  
Regular 		  
Classique 		  
Premium 		  
Regent 			  
Queen 		  
Gemini 		  
Family 		  
Executive Suite 	  
Mega Suite 		  


=== RESERVATIONS ===

Deposits:


Claimed:



SECURITY DEPOSITS

Deposits:
Claimed:


=== SALES BREAKDOWN ===

Transaction Date	Room No.	Cash	Card

2011-10-30 16:06:52 	324 		575 	0 	
2011-10-30 16:07:00 	321 		395 	0 	
2011-10-30 16:07:06 	308 		395 	0 	
2011-10-30 16:09:32 	414 		345 	0 	
2011-10-30 16:17:53 	305 		275 	0 	
2011-10-30 16:19:42 	413 		395 	0 	
2011-10-30 16:22:49 	416 		345 	0 	
2011-10-30 16:33:07 	212 		275 	0 	
2011-10-30 16:33:14 	412 		395 	0 	
2011-10-30 16:34:15 	221 		280 	0 	
2011-10-30 16:35:03 	210 		345 	0 	
2011-10-30 16:36:16 	317 		395 	0 	
2011-10-30 16:39:47 	323 		475 	0 	
2011-10-30 16:40:48 	402 		395 	0 	
2011-10-30 16:41:29 	415 		395 	0 	
2011-10-30 16:42:23 	322 		395 	0 	
2011-10-30 16:50:31 	201 		345 	0 	
2011-10-30 16:53:55 	215 		345 	0 	
2011-10-30 17:09:56 	306 		140 	0 	
2011-10-30 17:13:39 	321 		395 	0 	
2011-10-30 17:13:50 	304 		395 	0 	
2011-10-30 17:14:03 	202 		465 	0 	
2011-10-30 17:14:09 	315 		395 	0 	
2011-10-30 17:15:49 	301 		395 	0 	
2011-10-30 17:18:06 	201 		320 	0 	
2011-10-30 17:18:09 	201 		20 	0 	
2011-10-30 17:28:00 	422 		140 	0 	
2011-10-30 17:28:37 	302 		395 	0 	
2011-10-30 17:29:54 	207 		345 	0 	
2011-10-30 17:35:35 	418 		585 	0 	
2011-10-30 17:36:26 	212 		210 	0 	
2011-10-30 17:44:43 	310 		275 	0 	
2011-10-30 17:57:15 	409 		395 	0 	
2011-10-30 17:57:54 	303 		345 	0 	
2011-10-30 17:59:33 	412 		395 	0 	
2011-10-30 18:00:59 	422 		395 	0 	
2011-10-30 18:01:08 	417 		695 	0 	
2011-10-30 18:05:26 	215 		240 	0 	
2011-10-30 18:16:18 	219 		395 	0 	
2011-10-30 18:16:27 	319 		695 	0 	
2011-10-30 18:17:03 	417 		10 	0 	
2011-10-30 18:21:33 	317 		695 	0 	
2011-10-30 18:21:39 	221 		395 	0 	
2011-10-30 18:25:57 	404 		695 	0 	
2011-10-30 18:29:50 	308 		316 	0 	
2011-10-30 18:29:58 	311 		275 	0 	
2011-10-30 18:34:52 	420 		645 	0 	
2011-10-30 18:37:19 	213 		345 	0 	
2011-10-30 18:37:29 	402 		695 	0 	
2011-10-30 18:42:34 	408 		695 	0 	
2011-10-30 18:44:58 	406 		695 	0 	
2011-10-30 18:48:50 	420 		10 	0 	
2011-10-30 18:49:01 	315 		695 	0 	
2011-10-30 18:49:13 	302 		695 	0 	
2011-10-30 18:50:03 	209 		275 	0 	
2011-10-30 18:53:02 	314 		645 	0 	
2011-10-30 18:53:08 	322 		395 	0 	
2011-10-30 18:53:54 	312 		316 	0 	
2011-10-30 19:01:21 	423 		595 	0 	
2011-10-30 19:01:28 	424 		595 	0 	
2011-10-30 19:02:41 	214 		595 	0 	
2011-10-30 19:04:27 	313 		695 	0 	
2011-10-30 19:04:34 	305 		595 	0 	
2011-10-30 19:06:54 	413 		695 	0 	
2011-10-30 19:10:56 	401 		395 	0 	
2011-10-30 19:12:56 	218 		395 	0 	
2011-10-30 19:15:41 	220 		395 	0 	
2011-10-30 19:18:09 	309 		535 	0 	
2011-10-30 19:22:57 	403 		645 	0 	
2011-10-30 19:23:55 	211 		345 	0 	
2011-10-30 19:24:52 	324 		235 	0 	
2011-10-30 19:26:46 	206 		345 	0 	
2011-10-30 19:29:57 	310 		275 	0 	
2011-10-30 19:32:03 	306 		695 	0 	
2011-10-30 19:32:44 	212 		595 	0 	
2011-10-30 19:36:14 	304 		695 	0 	
2011-10-30 19:38:33 	307 		395 	0 	
2011-10-30 19:40:36 	204 		345 	0 	
2011-10-30 19:41:12 	412 		395 	0 	
2011-10-30 19:48:53 	419 		395 	0 	
2011-10-30 19:49:56 	421 		395 	0 	
2011-10-30 19:55:27 	310 		135 	0 	
2011-10-30 20:10:19 	320 		345 	0 	
2011-10-30 20:13:50 	414 		276 	0 	
2011-10-30 20:14:11 	416 		345 	0 	
2011-10-30 20:17:50 	301 		395 	0 	
2011-10-30 20:20:33 	303 		345 	0 	
2011-10-30 20:24:16 	321 		395 	0 	
2011-10-30 20:24:45 	216 		275 	0 	
2011-10-30 20:26:22 	418 		295 	0 	
2011-10-30 20:39:45 	415 		695 	0 	
2011-10-30 20:48:12 	316 		645 	0 	
2011-10-30 20:49:50 	318 		645 	0 	
2011-10-30 20:50:58 	411 		595 	0 	
2011-10-30 20:57:57 	203 		645 	0 	
2011-10-30 21:03:13 	410 		595 	0 	
2011-10-30 21:07:56 	215 		645 	0 	
2011-10-30 21:09:41 	202 		645 	0 	
2011-10-30 21:17:11 	418 		645 	0 	
2011-10-30 21:18:22 	219 		695 	0 	
2011-10-30 21:19:47 	422 		695 	0 	
2011-10-30 21:20:48 	412 		695 	0 	
2011-10-30 21:24:22 	409 		695 	0 	
2011-10-30 21:26:08 	323 		595 	0 	
2011-10-30 21:31:17 	216 		575 	0 	
2011-10-30 21:31:39 	221 		695 	0 	
2011-10-30 21:37:46 	220 		695 	0 	
2011-10-30 21:42:05 	308 		695 	0 	
2011-10-30 21:52:02 	310 		595 	0 	
2011-10-30 21:52:56 	316 		120 	0 	
2011-10-30 21:53:04 	418 		205 	0 	
2011-10-30 21:57:22 	207 		276 	0 	
2011-10-30 22:03:20 	407 		280 	0 	
2011-10-30 22:06:42 	213 		645 	0 	
2011-10-30 22:11:31 	201 		585 	0 	
2011-10-30 22:17:45 	312 		695 	0 	
2011-10-30 22:19:58 	407 		695 	0 	
2011-10-30 22:23:42 	421 		0 	695 	
2011-10-30 22:24:01 	401 		695 	0 	
2011-10-30 22:25:40 	420 		15 	0 	
2011-10-30 22:28:08 	205 		645 	0 	
2011-10-30 22:28:44 	301 		395 	0 	
2011-10-30 22:36:05 	322 		395 	0 	
2011-10-30 22:43:59 	218 		395 	0 	
2011-10-30 22:45:23 	407 		210 	0 	
2011-10-30 22:46:41 	215 		135 	0 	
2011-10-30 22:46:57 	203 		210 	0 	
2011-10-30 22:47:11 	201 		35 	0 	
2011-10-30 22:48:48 	209 		275 	0 	
2011-10-30 22:49:13 	324 		595 	0 	
2011-10-30 22:57:00 	301 		255 	0 	
2011-10-30 22:57:46 	208 		275 	0 	
2011-10-30 22:58:01 	206 		465 	0 	
2011-10-30 23:03:21 	419 		695 	0 	
2011-10-30 23:04:24 	204 		345 	0 	
2011-10-30 23:05:35 	405 		475 	0 	
2011-10-30 23:09:08 	307 		695 	0 	
2011-10-30 23:18:53 	318 		25 	0 	
2011-10-30 23:20:54 	422 		110 	0 	
2011-10-30 23:24:51 	303 		645 	0 	
2011-10-30 23:27:38 	211 		120 	0 	
2011-10-30 23:49:15 	320 		345 	0 	
2011-10-30 23:50:27 	309 		395 	0 	
2011-10-30 23:53:55 	414 		345 	0 	
 			Total:		62414 	695		

=== RECHIT LIST ===




V1