MSHOGUN 1: SHIFT END REPORT
Wednesday December 07, 2011 4:00:05 PM

SALES TRANSACTION
Room Sales Order			39725
FnB Sales Order			1725
Beer Sales Order			295
Misc Sales Order			260
Room Sales Adjustment			0
GROSS SALES			42005

DISCOUNT
Room				0
FnB				0
Misc				0

DEPOSIT				9230
REFUND				

TOTAL ACCOUNTABILITY			51235

CASH DECLARATION			6855
CARD				595
FUNDS SAFEKEEP			20000
TOTAL CASH DECLARED			27450

TOTAL CASH ON SYSTEM			6856
OVER/SHORTAGES 			-1

ROOM	 # OF CHECK-OUT	AMT
Value 		8	3680
Regular 		29	16245
Classique 		36	19800
Premium 		0	0
Regent 		0	0
Queen 		0	0
Gemini 		0	0
Family 		0	0
Executive Suite 	0	0
Mega Suite 	0	0

DISCOUNT 
Value 			  
Regular 		  
Classique 		  
Premium 		  
Regent 			  
Queen 		  
Gemini 		  
Family 		  
Executive Suite 	  
Mega Suite 		  


=== RESERVATIONS ===

Deposits:


Claimed:



SECURITY DEPOSITS

Deposits:
Claimed:


=== SALES BREAKDOWN ===

Transaction Date	Room No.	Cash	Card

2011-12-07 08:02:28 	321 		160 	0 	
2011-12-07 08:16:39 	409 		395 	0 	
2011-12-07 08:19:04 	417 		395 	0 	
2011-12-07 08:20:48 	303 		140 	0 	
2011-12-07 08:37:34 	420 		345 	0 	
2011-12-07 08:43:21 	316 		240 	0 	
2011-12-07 09:07:53 	416 		276 	0 	
2011-12-07 09:08:01 	421 		395 	0 	
2011-12-07 09:11:49 	412 		280 	0 	
2011-12-07 09:14:23 	422 		395 	0 	
2011-12-07 09:19:41 	402 		395 	0 	
2011-12-07 09:42:42 	418 		240 	0 	
2011-12-07 09:53:53 	415 		395 	0 	
2011-12-07 10:03:50 	413 		420 	0 	
2011-12-07 10:05:04 	211 		345 	0 	
2011-12-07 10:26:08 	408 		395 	0 	
2011-12-07 10:29:37 	206 		160 	0 	
2011-12-07 10:35:10 	409 		210 	0 	
2011-12-07 10:36:30 	414 		345 	0 	
2011-12-07 10:50:21 	303 		276 	0 	
2011-12-07 10:55:47 	302 		395 	0 	
2011-12-07 10:59:07 	218 		145 	0 	
2011-12-07 11:04:39 	304 		395 	0 	
2011-12-07 11:08:17 	318 		345 	0 	
2011-12-07 11:08:44 	316 		345 	0 	
2011-12-07 11:10:29 	316 		20 	0 	
2011-12-07 11:22:51 	314 		585 	0 	
2011-12-07 11:32:10 	410 		275 	0 	
2011-12-07 11:42:27 	319 		395 	0 	
2011-12-07 11:48:37 	321 		395 	0 	
2011-12-07 11:49:28 	317 		560 	0 	
2011-12-07 11:52:12 	322 		395 	0 	
2011-12-07 12:00:58 	320 		465 	0 	
2011-12-07 12:13:11 	206 		345 	0 	
2011-12-07 12:23:14 	401 		395 	0 	
2011-12-07 12:30:41 	423 		775 	0 	
2011-12-07 12:33:24 	204 		465 	0 	
2011-12-07 12:38:37 	422 		395 	0 	
2011-12-07 12:41:16 	205 		396 	0 	
2011-12-07 12:43:52 	408 		115 	0 	
2011-12-07 12:48:30 	402 		395 	0 	
2011-12-07 12:48:47 	402 		100 	0 	
2011-12-07 12:50:25 	220 		395 	0 	
2011-12-07 13:03:15 	219 		395 	0 	
2011-12-07 13:22:04 	421 		395 	0 	
2011-12-07 13:24:13 	420 		345 	0 	
2011-12-07 13:27:00 	308 		420 	0 	
2011-12-07 13:27:21 	215 		345 	0 	
2011-12-07 13:41:48 	211 		345 	0 	
2011-12-07 13:41:57 	213 		345 	0 	
2011-12-07 13:44:27 	212 		275 	0 	
2011-12-07 13:49:36 	315 		395 	0 	
2011-12-07 13:52:05 	419 		395 	0 	
2011-12-07 13:52:24 	409 		395 	0 	
2011-12-07 13:56:27 	418 		345 	0 	
2011-12-07 13:59:52 	405 		275 	0 	
2011-12-07 14:16:08 	414 		120 	0 	
2011-12-07 14:28:23 	415 		395 	0 	
2011-12-07 14:34:00 	416 		345 	0 	
2011-12-07 14:35:15 	403 		585 	0 	
2011-12-07 14:35:23 	407 		395 	0 	
2011-12-07 14:41:01 	417 		395 	0 	
2011-12-07 14:43:02 	303 		345 	0 	
2011-12-07 14:50:39 	316 		276 	0 	
2011-12-07 14:50:48 	319 		395 	0 	
2011-12-07 14:57:33 	318 		345 	0 	
2011-12-07 15:02:27 	424 		275 	0 	
2011-12-07 15:09:34 	317 		395 	0 	
2011-12-07 15:14:49 	318 		80 	0 	
2011-12-07 15:16:26 	304 		395 	0 	
2011-12-07 15:22:33 	307 		316 	0 	
2011-12-07 15:30:42 	216 		275 	0 	
2011-12-07 15:32:42 	410 		100 	0 	
2011-12-07 15:36:14 	413 		316 	0 	
2011-12-07 15:39:03 	306 		395 	0 	
2011-12-07 15:40:42 	202 		680 	0 	
2011-12-07 15:49:32 	406 		395 	0 	
2011-12-07 15:57:34 	305 		275 	0 	
 			Total:		26856 	0		

=== RECHIT LIST ===




V1