MSHOGUN 1: SHIFT END REPORT
Thursday August 26, 2010 4:00:07 PM

SALES TRANSACTION
Room Sales Order			27495
FnB Sales Order			2639
Beer Sales Order			380
Misc Sales Order			65
Room Sales Adjustment			-1260
GROSS SALES			29319

DISCOUNT
Room				0
FnB				0
Misc				0

DEPOSIT				18043
REFUND				

TOTAL ACCOUNTABILITY			47362

CASH DECLARATION			921
CARD				0
FUNDS SAFEKEEP			30000
TOTAL CASH DECLARED			30921

TOTAL CASH ON SYSTEM			911
OVER/SHORTAGES 			10

ROOM	 # OF CHECK-OUT	AMT
Value 		7	2245
Regular 		7	2775
Classique 		31	17525
Premium 		1	750
Regent 		3	2100
Queen 		0	0
Gemini 		0	0
Family 		1	2100
Executive Suite 	0	0
Mega Suite 	0	0

DISCOUNT 
Value 			  
Regular 		  
Classique 		  
Premium 		  
Regent 			  
Queen 		  
Gemini 		  
Family 		  
Executive Suite 	  
Mega Suite 		  


=== RESERVATIONS ===

Deposits:


Claimed:



SECURITY DEPOSITS

Deposits:
Claimed:


=== SALES BREAKDOWN ===

Transaction Date	Room No.	Cash	Card

2010-08-26 08:01:52 	516 		135 	0 	
2010-08-26 08:17:51 	419 		182 	0 	
2010-08-26 08:17:52 	511 		125 	0 	
2010-08-26 08:18:21 	421 		80 	0 	
2010-08-26 08:19:24 	511 		800 	0 	
2010-08-26 08:25:11 	409 		395 	0 	
2010-08-26 08:25:57 	321 		395 	0 	
2010-08-26 08:28:51 	501 		500 	0 	
2010-08-26 08:43:09 	320 		345 	0 	
2010-08-26 08:46:44 	416 		345 	0 	
2010-08-26 08:58:02 	308 		60 	0 	
2010-08-26 09:00:21 	322 		395 	0 	
2010-08-26 09:03:26 	506 		800 	0 	
2010-08-26 09:13:03 	319 		345 	0 	
2010-08-26 09:28:51 	307 		395 	0 	
2010-08-26 09:44:25 	311 		275 	0 	
2010-08-26 09:48:08 	313 		360 	0 	
2010-08-26 10:17:34 	505 		800 	0 	
2010-08-26 10:19:39 	402 		280 	0 	
2010-08-26 10:44:44 	410 		275 	0 	
2010-08-26 10:58:08 	513 		800 	0 	
2010-08-26 11:03:08 	414 		345 	0 	
2010-08-26 11:10:14 	315 		675 	0 	
2010-08-26 11:18:05 	513 		198 	0 	
2010-08-26 11:32:31 	317 		675 	0 	
2010-08-26 11:35:42 	513 		30 	0 	
2010-08-26 11:36:15 	420 		345 	0 	
2010-08-26 11:39:48 	405 		275 	0 	
2010-08-26 12:03:58 	410 		25 	0 	
2010-08-26 12:15:28 	422 		25 	0 	
2010-08-26 12:20:05 	304 		535 	0 	
2010-08-26 12:24:36 	306 		395 	0 	
2010-08-26 12:30:37 	409 		140 	0 	
2010-08-26 12:33:10 	408 		395 	0 	
2010-08-26 12:33:53 	423 		275 	0 	
2010-08-26 12:36:40 	414 		345 	0 	
2010-08-26 12:43:16 	406 		456 	0 	
2010-08-26 12:43:28 	514 		50 	0 	
2010-08-26 12:43:37 	317 		390 	0 	
2010-08-26 12:52:02 	415 		395 	0 	
2010-08-26 12:52:14 	308 		395 	0 	
2010-08-26 13:00:02 	601 		1700 	0 	
2010-08-26 13:00:12 	407 		395 	0 	
2010-08-26 13:00:23 	404 		395 	0 	
2010-08-26 13:03:27 	411 		275 	0 	
2010-08-26 13:04:07 	417 		395 	0 	
2010-08-26 13:06:57 	603 		65 	0 	
2010-08-26 13:13:15 	412 		395 	0 	
2010-08-26 13:19:11 	417 		120 	0 	
2010-08-26 13:24:00 	319 		395 	0 	
2010-08-26 13:25:52 	412 		160 	0 	
2010-08-26 13:26:26 	409 		395 	0 	
2010-08-26 13:28:50 	602 		700 	0 	
2010-08-26 13:33:16 	422 		316 	0 	
2010-08-26 13:33:30 	421 		395 	0 	
2010-08-26 13:33:55 	303 		276 	0 	
2010-08-26 13:34:07 	410 		275 	0 	
2010-08-26 13:34:19 	313 		395 	0 	
2010-08-26 13:38:46 	302 		395 	0 	
2010-08-26 13:51:20 	605 		2100 	0 	
2010-08-26 13:51:32 	218 		395 	0 	
2010-08-26 13:52:14 	219 		395 	0 	
2010-08-26 13:58:33 	307 		395 	0 	
2010-08-26 14:08:20 	311 		275 	0 	
2010-08-26 14:25:11 	220 		395 	0 	
2010-08-26 14:35:13 	310 		275 	0 	
2010-08-26 14:39:36 	323 		275 	0 	
2010-08-26 14:42:12 	416 		276 	0 	
2010-08-26 14:44:45 	406 		300 	0 	
2010-08-26 15:03:14 	419 		395 	0 	
2010-08-26 15:04:13 	305 		275 	0 	
2010-08-26 15:10:26 	418 		345 	0 	
2010-08-26 15:21:08 	412 		395 	0 	
2010-08-26 15:24:07 	507 		800 	0 	
2010-08-26 15:26:46 	420 		276 	0 	
2010-08-26 15:33:14 	408 		395 	0 	
2010-08-26 15:42:08 	407 		316 	0 	
2010-08-26 15:45:25 	316 		345 	0 	
2010-08-26 15:46:24 	316 		50 	0 	
2010-08-26 15:52:39 	318 		345 	0 	
 			Total:		30911 	0		

=== RECHIT LIST ===

Room No. 511 	 Rechit Date: 2010-08-26 10:19:07



Food and Beverage Sales

		
 
Order Code# 1282835850876 	 08-26 08:17
		 Tapsilog 	 100.00
		 Coffee w/ Cream 	 25.00
				 Sub Total:		 125.00 






V1