MSHOGUN 1: SHIFT END REPORT
Wednesday December 14, 2011 7:58:47 AM

SALES TRANSACTION
Room Sales Order			24215
FnB Sales Order			1495
Beer Sales Order			665
Misc Sales Order			40
Room Sales Adjustment			0
GROSS SALES			26415

DISCOUNT
Room				0
FnB				0
Misc				0

DEPOSIT				3305
REFUND				

TOTAL ACCOUNTABILITY			29720

CASH DECLARATION			965
CARD				1070
FUNDS SAFEKEEP			10000
TOTAL CASH DECLARED			12035

TOTAL CASH ON SYSTEM			965
OVER/SHORTAGES 			0

ROOM	 # OF CHECK-OUT	AMT
Value 		10	4710
Regular 		10	6210
Classique 		25	13295
Premium 		0	0
Regent 		0	0
Queen 		0	0
Gemini 		0	0
Family 		0	0
Executive Suite 	0	0
Mega Suite 	0	0

DISCOUNT 
Value 			  
Regular 		  
Classique 		  
Premium 		  
Regent 			  
Queen 		  
Gemini 		  
Family 		  
Executive Suite 	  
Mega Suite 		  


=== RESERVATIONS ===

Deposits:


Claimed:



SECURITY DEPOSITS

Deposits:
Claimed:


=== SALES BREAKDOWN ===

Transaction Date	Room No.	Cash	Card

2011-12-14 00:08:22 	401 		695 	0 	
2011-12-14 00:23:17 	220 		0 	395 	
2011-12-14 00:23:43 	210 		465 	0 	
2011-12-14 00:31:00 	303 		25 	0 	
2011-12-14 00:31:34 	212 		10 	0 	
2011-12-14 00:32:45 	304 		695 	0 	
2011-12-14 00:41:14 	412 		395 	0 	
2011-12-14 00:41:35 	408 		535 	0 	
2011-12-14 00:43:09 	310 		275 	0 	
2011-12-14 00:52:12 	202 		205 	0 	
2011-12-14 01:01:27 	410 		275 	0 	
2011-12-14 01:09:34 	324 		0 	675 	
2011-12-14 01:15:55 	309 		395 	0 	
2011-12-14 01:25:54 	209 		275 	0 	
2011-12-14 01:36:41 	301 		395 	0 	
2011-12-14 01:56:50 	312 		535 	0 	
2011-12-14 01:57:23 	309 		115 	0 	
2011-12-14 02:26:57 	221 		815 	0 	
2011-12-14 03:09:19 	412 		395 	0 	
2011-12-14 04:13:14 	322 		395 	0 	
2011-12-14 04:20:30 	408 		40 	0 	
2011-12-14 05:19:29 	203 		240 	0 	
2011-12-14 05:22:05 	403 		705 	0 	
2011-12-14 05:24:47 	309 		140 	0 	
2011-12-14 05:32:20 	210 		120 	0 	
2011-12-14 05:36:31 	410 		200 	0 	
2011-12-14 05:41:03 	319 		25 	0 	
2011-12-14 05:47:42 	203 		945 	0 	
2011-12-14 05:49:30 	421 		25 	0 	
2011-12-14 06:29:11 	402 		125 	0 	
2011-12-14 06:42:12 	209 		200 	0 	
2011-12-14 07:06:15 	422 		395 	0 	
2011-12-14 07:37:22 	413 		395 	0 	
2011-12-14 07:44:21 	220 		395 	0 	
2011-12-14 07:51:45 	414 		120 	0 	
 			Total:		10965 	1070		

=== RECHIT LIST ===




V1