MSHOGUN 1: SHIFT END REPORT
Friday January 07, 2011 12:00:04 AM

SALES TRANSACTION
Room Sales Order			32660
FnB Sales Order			1533
Beer Sales Order			80
Misc Sales Order			140
Room Sales Adjustment			-345
GROSS SALES			34068

DISCOUNT
Room				0
FnB				0
Misc				0

DEPOSIT				20640
REFUND				

TOTAL ACCOUNTABILITY			54708

CASH DECLARATION			1602
CARD				275
FUNDS SAFEKEEP			40000
TOTAL CASH DECLARED			41877

TOTAL CASH ON SYSTEM			1602
OVER/SHORTAGES 			0

ROOM	 # OF CHECK-OUT	AMT
Value 		15	4125
Regular 		29	11805
Classique 		42	16730
Premium 		0	0
Regent 		0	0
Queen 		0	0
Gemini 		0	0
Family 		0	0
Executive Suite 	0	0
Mega Suite 	0	0

DISCOUNT 
Value 			  
Regular 		  
Classique 		  
Premium 		  
Regent 			  
Queen 		  
Gemini 		  
Family 		  
Executive Suite 	  
Mega Suite 		  


=== RESERVATIONS ===

Deposits:


Claimed:



SECURITY DEPOSITS

Deposits:
Claimed:


=== SALES BREAKDOWN ===

Transaction Date	Room No.	Cash	Card

2011-01-06 16:07:07 	308 		395 	0 	
2011-01-06 16:07:16 	314 		705 	0 	
2011-01-06 16:10:39 	307 		395 	0 	
2011-01-06 16:13:11 	314 		10 	0 	
2011-01-06 16:16:25 	306 		395 	0 	
2011-01-06 16:17:58 	206 		345 	0 	
2011-01-06 16:19:45 	203 		345 	0 	
2011-01-06 16:26:21 	303 		345 	0 	
2011-01-06 16:32:14 	305 		0 	275 	
2011-01-06 16:33:02 	417 		395 	0 	
2011-01-06 16:33:09 	414 		345 	0 	
2011-01-06 16:52:57 	209 		275 	0 	
2011-01-06 16:54:22 	211 		135 	0 	
2011-01-06 16:55:48 	202 		345 	0 	
2011-01-06 16:59:43 	321 		10 	0 	
2011-01-06 17:00:20 	215 		345 	0 	
2011-01-06 17:00:57 	305 		210 	0 	
2011-01-06 17:04:23 	312 		395 	0 	
2011-01-06 17:05:17 	420 		345 	0 	
2011-01-06 17:09:24 	403 		345 	0 	
2011-01-06 17:15:58 	322 		140 	0 	
2011-01-06 17:18:13 	318 		465 	0 	
2011-01-06 17:19:19 	320 		465 	0 	
2011-01-06 17:20:55 	416 		340 	0 	
2011-01-06 17:30:41 	310 		275 	0 	
2011-01-06 17:30:52 	419 		395 	0 	
2011-01-06 17:32:37 	324 		275 	0 	
2011-01-06 17:33:05 	421 		395 	0 	
2011-01-06 17:35:33 	316 		585 	0 	
2011-01-06 17:39:36 	304 		395 	0 	
2011-01-06 17:46:43 	213 		345 	0 	
2011-01-06 17:51:00 	323 		275 	0 	
2011-01-06 17:51:23 	317 		316 	0 	
2011-01-06 17:57:51 	402 		395 	0 	
2011-01-06 18:00:13 	315 		395 	0 	
2011-01-06 18:04:00 	414 		345 	0 	
2011-01-06 18:05:42 	408 		395 	0 	
2011-01-06 18:06:44 	308 		395 	0 	
2011-01-06 18:07:48 	220 		395 	0 	
2011-01-06 18:10:02 	324 		60 	0 	
2011-01-06 18:20:51 	210 		345 	0 	
2011-01-06 18:36:43 	313 		316 	0 	
2011-01-06 18:37:18 	321 		395 	0 	
2011-01-06 18:41:27 	407 		395 	0 	
2011-01-06 18:42:08 	407 		50 	0 	
2011-01-06 18:42:56 	205 		345 	0 	
2011-01-06 18:44:01 	307 		395 	0 	
2011-01-06 18:45:45 	314 		10 	0 	
2011-01-06 18:53:52 	309 		395 	0 	
2011-01-06 19:00:00 	415 		695 	0 	
2011-01-06 19:00:12 	404 		695 	0 	
2011-01-06 19:06:30 	215 		345 	0 	
2011-01-06 19:07:31 	411 		595 	0 	
2011-01-06 19:14:47 	221 		395 	0 	
2011-01-06 19:15:56 	424 		0 	595 	
2011-01-06 19:24:15 	412 		395 	0 	
2011-01-06 19:25:50 	208 		275 	0 	
2011-01-06 19:30:33 	212 		275 	0 	
2011-01-06 19:31:17 	209 		275 	0 	
2011-01-06 19:32:26 	219 		395 	0 	
2011-01-06 19:33:37 	422 		695 	0 	
2011-01-06 19:40:58 	302 		395 	0 	
2011-01-06 19:47:27 	417 		695 	0 	
2011-01-06 19:48:20 	303 		645 	0 	
2011-01-06 19:51:41 	206 		645 	0 	
2011-01-06 19:58:50 	421 		695 	0 	
2011-01-06 20:01:04 	305 		275 	0 	
2011-01-06 20:12:08 	202 		345 	0 	
2011-01-06 20:15:56 	211 		120 	0 	
2011-01-06 20:18:46 	220 		395 	0 	
2011-01-06 20:23:21 	204 		345 	0 	
2011-01-06 20:25:51 	410 		275 	0 	
2011-01-06 20:26:00 	405 		275 	0 	
2011-01-06 20:37:46 	416 		645 	0 	
2011-01-06 20:41:23 	218 		395 	0 	
2011-01-06 20:44:32 	423 		595 	0 	
2011-01-06 20:50:08 	406 		695 	0 	
2011-01-06 20:57:09 	306 		395 	0 	
2011-01-06 21:04:30 	408 		695 	0 	
2011-01-06 21:05:04 	423 		80 	0 	
2011-01-06 21:08:32 	419 		695 	0 	
2011-01-06 21:22:49 	319 		695 	0 	
2011-01-06 21:24:04 	207 		345 	0 	
2011-01-06 21:33:16 	415 		210 	0 	
2011-01-06 21:34:57 	324 		595 	0 	
2011-01-06 21:39:28 	304 		695 	0 	
2011-01-06 21:42:11 	415 		25 	0 	
2011-01-06 21:42:24 	409 		395 	0 	
2011-01-06 21:51:07 	321 		0 	695 	
2011-01-06 21:56:30 	304 		40 	0 	
2011-01-06 22:05:55 	304 		200 	0 	
2011-01-06 22:11:54 	216 		275 	0 	
2011-01-06 22:23:16 	418 		645 	0 	
2011-01-06 22:23:33 	320 		645 	0 	
2011-01-06 22:24:04 	317 		695 	0 	
2011-01-06 22:28:21 	407 		695 	0 	
2011-01-06 22:32:27 	314 		345 	0 	
2011-01-06 22:33:36 	318 		585 	0 	
2011-01-06 22:41:38 	309 		395 	0 	
2011-01-06 22:53:33 	314 		-345 	0 	
2011-01-06 22:53:46 	314 		645 	0 	
2011-01-06 22:57:23 	319 		390 	0 	
2011-01-06 22:59:47 	211 		345 	0 	
2011-01-06 23:02:54 	405 		25 	0 	
2011-01-06 23:04:45 	Lobby 		25 	0 	
2011-01-06 23:05:59 	308 		695 	0 	
2011-01-06 23:16:17 	409 		30 	0 	
2011-01-06 23:26:31 	218 		395 	0 	
2011-01-06 23:29:25 	318 		25 	0 	
2011-01-06 23:32:32 	315 		695 	0 	
2011-01-06 23:32:40 	302 		395 	0 	
2011-01-06 23:49:54 	402 		695 	0 	
 			Total:		41602 	1565		

=== RECHIT LIST ===




V1