M
	Food Order Stub 

Shogun 1
Room No. 221
Date: 2012-02-13 12:45:03
CheckIn: 2012-02-13 11:39:42
CheckOut: 2012-02-13 14:39:42
Shift: 2

Spaghetti:	 1  110.00  110.00
Shogun Clubhouse Sandwich:	 1  110.00  110.00
Lemon Iced Tea:	 1  30.00  30.00
Total:				 250.00 






V1