M
	Food Order Stub - Mini Ref Replenish 

Shogun 1
Room No. 604
Date: 2010-02-14 10:41:24
CheckIn: 2010-02-13 22:29:49
CheckOut: 2010-02-14 10:29:49
Shift: 3

Order Slip# : 1234417132 
Coke in Can:	 1  40.00  40.00
Orange Juice in Can:	 1  40.00  40.00
Total:				 80.00 






V1