M
	Food Order Stub - Mini Ref Replenish 

Shogun 1
Room No. 601
Date: 2010-05-02 10:21:38
CheckIn: 2010-04-29 15:57:49
CheckOut: 2010-05-02 15:57:49
Shift: 2

Order Slip# : 2943917132 
Mineral Water:	 1  25.00  25.00
Total:				 25.00 






V1