M
	Food Order Stub - Mini Ref Replenish 

Shogun 1
Room No. 616
Date: 2010-05-03 18:19:01
CheckIn: 2010-05-03 07:23:18
CheckOut: 2010-05-03 19:23:18
Shift: 1

Order Slip# : 3044917132 
Mineral Water:	 1  25.00  25.00
Total:				 25.00 






V1