M
	Food Order Stub 

Shogun 1
Room No. 305
Date: 2012-02-27 09:54:58
CheckIn: 2012-02-27 07:52:04
CheckOut: 2012-02-27 13:52:04
Shift: 1

Tapsilog:	 1  120.00  120.00
Tapsilog:	 1  120.00  120.00
Total:				 240.00 






V1