M
	Food Order Stub 

Shogun 1
Room No. 209
Date: 2011-12-27 21:32:08
CheckIn: 2011-12-27 20:42:04
CheckOut: 2011-12-28 08:42:04
Shift: 3

Package Meal #2 (Chopsuey, 1 Fried Tilapia, 2 Plain rice, 2 Ice Tea):	 1  205.00  205.00
Total:				 205.00 






V1