M
	Food Order Stub 

Shogun 1
Room No. 312
Date: 2012-03-02 13:37:13
CheckIn: 2012-03-02 11:19:27
CheckOut: 2012-03-02 14:19:27
Shift: 2

Crispy Chicken (House Special):	 1  295.00  295.00
Plain Rice:	 2  30.00  60.00
Coke in Can:	 1  50.00  50.00
SMB Light in Can:	 2  55.00  110.00
Total:				 515.00 






V1