M
	Food Order Stub 

Shogun 1
Room No. 304
Date: 2011-07-27 13:47:58
CheckIn: 2011-07-27 13:35:41
CheckOut: 2011-07-27 16:35:41
Shift: 2

Mineral Water:	 2  25.00  50.00
Total:				 50.00 






V1