M
	Food Order Stub 

Shogun 1
Room No. 212
Date: 2011-08-04 00:54:39
CheckIn: 2011-08-03 23:48:09
CheckOut: 2011-08-04 11:48:09
Shift: 3

Mineral Water:	 1  25.00  25.00
Total:				 25.00 






V1