M
	Food Order Stub 

Shogun 1
Room No. 319
Date: 2011-12-27 21:32:23
CheckIn: 2011-12-27 18:58:08
CheckOut: 2011-12-28 06:58:08
Shift: 3

Cheese Burger:	 1  75.00  75.00
Coke in Can:	 1  40.00  40.00
Total:				 115.00 






V1