M
	Food Order Stub 

Shogun 1
Room No. 410
Date: 2012-02-07 12:30:18
CheckIn: 2012-02-07 11:32:17
CheckOut: 2012-02-07 14:32:17
Shift: 2

Canton Guisado:	 1  110.00  110.00
Crispy Chicken (Half):	 1  125.00  125.00
Coke in Can:	 2  40.00  80.00
Total:				 315.00 






V1