M
	Food Order Stub 

Shogun 1
Room No. 321
Date: 2012-02-01 09:18:17
CheckIn: 2012-01-31 23:07:09
CheckOut: 2012-02-01 11:07:09
Shift: 3

SMB Light in Can:	 2  45.00  90.00
Mineral Water:	 1  25.00  25.00
Tapsilog:	 1  120.00  120.00
Lomi:	 1  110.00  110.00
Total:				 345.00 






V1