M
	Food Order Stub 

Shogun 1
Room No. 322
Date: 2012-03-02 19:26:10
CheckIn: 2012-03-02 18:51:44
CheckOut: 2012-03-02 22:51:44
Shift: 3

Mineral Water:	 2  25.00  50.00
Total:				 50.00 






V1