M
	Food Order Stub 

Shogun 1
Room No. 416
Date: 2011-11-27 14:35:13
CheckIn: 2011-11-27 13:54:13
CheckOut: 2011-11-27 19:54:13
Shift: 2

Nido Oriental Soup:	 1  60.00  60.00
Inihaw na Liempo:	 1  100.00  100.00
Plain Rice:	 1  30.00  30.00
Total:				 190.00 






V1