M
	Food Order Stub 

Shogun 1
Room No. 402
Date: 2011-11-14 15:11:09
CheckIn: 2011-11-14 15:01:43
CheckOut: 2011-11-14 20:01:43
Shift: 2

Mineral Water:	 1  25.00  25.00
Total:				 25.00 






V1