M
	Food Order Stub 

Shogun 1
Room No. 404
Date: 2011-09-07 20:05:31
CheckIn: 2011-09-07 19:51:24
CheckOut: 2011-09-08 07:51:24
Shift: 3

Package Meal #1 (2 pcs Fried Tilapia, Kangkong w/ Bagoong, 2 Plain rice, 2 Ice Tea):	 1  198.00  198.00
Crispy Chicken (Half):	 1  125.00  125.00
Total:				 323.00 






V1