M
	Food Order Stub 

Shogun 1
Room No. 507
Date: 2010-08-28 07:56:30
CheckIn: 2010-08-27 11:33:58
CheckOut: 2010-08-28 11:33:58
Shift: 2

FREE LONGSILOG:	 1  0.00  0.00
FREE CORN BEEF SILOG:	 1  0.00  0.00
Total:				 0.00 






V1