M
	Food Order Stub 

Shogun 1
Room No. 218
Date: 2011-11-03 14:47:27
CheckIn: 2011-11-03 14:04:27
CheckOut: 2011-11-03 17:04:27
Shift: 2

Shogun Clubhouse Sandwich:	 1  110.00  110.00
Coke in Can:	 2  40.00  80.00
Total:				 190.00 






V1