M
	Food Order Stub 

Shogun 1
Room No. 504
Date: 2010-09-04 16:42:20
CheckIn: 2010-09-01 17:11:19
CheckOut: 2010-09-04 17:11:19
Shift: 3

FREE TAPSILOG:	 1  0.00  0.00
Lemon Iced Tea:	 1  30.00  30.00
Chopsuey:	 1  130.00  130.00
Garlic Rice:	 1  40.00  40.00
Bulalo:	 1  190.00  190.00
Inihaw na Tilapia w/ Salted Egg, camatis & Fried Talong:	 1  110.00  110.00
SMB Light in Can:	 2  45.00  90.00
Inihaw na Liempo:	 1  100.00  100.00
Mineral Water:	 1  25.00  25.00
FREE TAPSILOG:	 1  0.00  0.00
Total:				 715.00 






V1