M
	Food Order Stub 

Shogun 1
Room No. 505
Date: 2010-07-04 10:40:05
CheckIn: 2010-07-02 12:26:43
CheckOut: 2010-07-05 02:26:43
Shift: 2

Package Meal #2 (Chopsuey, 1 Fried Tilapia, 2 Plain rice, 2 Ice Tea):	 1  205.00  205.00
Mineral Water:	 1  25.00  25.00
Mineral Water:	 1  25.00  25.00
Package Meal #2 (Chopsuey, 1 Fried Tilapia, 2 Plain rice, 2 Ice Tea):	 1  205.00  205.00
FREE HAM OMELET:	 1  0.00  0.00
Total:				 460.00 






V1