M
	Food Order Stub - Mini Ref Replenish 

Shogun 1
Room No. 603
Date: 2010-05-01 12:15:55
CheckIn: 2010-04-30 15:35:45
CheckOut: 2010-05-01 15:35:45
Shift: 2

Order Slip# : 2962817132 
Orange Juice in Can:	 1  40.00  40.00
Total:				 40.00 






V1