M
	Food Order Stub 

Shogun 1
Room No. 220
Date: 2012-02-13 12:45:12
CheckIn: 2012-02-13 11:53:18
CheckOut: 2012-02-13 14:53:18
Shift: 2

Lechon Kawali:	 1  190.00  190.00
Pork Sinigang Spareribs:	 1  120.00  120.00
Nilagang Talong Okra w/ Bagoong:	 1  60.00  60.00
Plain Rice:	 1  30.00  30.00
Pineapple Juice in Can:	 2  40.00  80.00
Sizzling Pork Sisig:	 1  140.00  140.00
Total:				 620.00 






V1