M
	Food Order - Cancellation 

Shogun 1
Room No. 423
Date: 2012-03-06 19:23:16
CheckIn: 2012-03-06 18:31:26
CheckOut: 2012-03-06 21:31:26
Shift: 3

Order Slip#: 1331090326130 
Yangchow Rice:	 1  85.00  85.00
Total:				 85.00 






V1
	Food Order - Cancellation 

Shogun 1
Room No. 423
Date: 2012-03-06 19:23:16
CheckIn: 2012-03-06 18:31:26
CheckOut: 2012-03-06 21:31:26
Shift: 3

Order Slip#: 1331090326130 
Yangchow Rice:	 1  85.00  85.00
Total:				 85.00 






V1