M
	Miscellaneous Order Stub 

Shogun 1
Room No. 204
Date: 2012-01-17 12:16:48
CheckIn: 2012-01-17 00:10:50
CheckOut: 2012-01-17 12:10:50
Shift: 1

Bucket of ICE:			 10.00
Corkage Fee:			 15.00
Total:				 25.00 






V1