M
	Miscellaneous Order Stub 

Shogun 1
Room No. 203
Date: 2012-01-31 13:58:16
CheckIn: 2012-01-31 13:38:48
CheckOut: 2012-01-31 16:38:48
Shift: 2

PCK:			 20.00
Total:				 20.00 






V1