M
	Miscellaneous Order Stub 

Shogun 1
Room No. 314
Date: 2012-02-04 19:55:53
CheckIn: 2012-02-04 19:55:25
CheckOut: 2012-02-05 07:55:25
Shift: 3

Bucket of ICE:			 10.00
Total:				 10.00 






V1