M
	Miscellaneous Order Stub 

Shogun 1
Room No. 307
Date: 2012-01-27 12:49:05
CheckIn: 2012-01-27 12:48:24
CheckOut: 2012-01-27 15:48:24
Shift: 2

PCK:			 20.00
Total:				 20.00 






V1