M
	Miscellaneous Order Stub 

Shogun 1
Room No. 312
Date: 2012-01-11 14:22:23
CheckIn: 2012-01-11 14:21:42
CheckOut: 2012-01-11 17:21:42
Shift: 2

PCK:			 20.00
Total:				 20.00 






V1