M
	Miscellaneous Order Stub 

Shogun 1
Room No. 315
Date: 2011-05-31 21:23:25
CheckIn: 2011-05-31 19:46:49
CheckOut: 2011-05-31 22:46:49
Shift: 3

Bucket of ICE:			 10.00
Total:				 10.00 






V1