M
	Miscellaneous Order Stub 

Shogun 1
Room No. 410
Date: 2011-11-12 18:43:23
CheckIn: 2011-11-12 18:13:16
CheckOut: 2011-11-12 23:13:16
Shift: 3

PCK:			 20.00
Total:				 20.00 






V1