M
	Miscellaneous Order Stub 

Shogun 1
Room No. 420
Date: 2011-09-17 21:41:20
CheckIn: 2011-09-17 21:33:56
CheckOut: 2011-09-18 00:33:56
Shift: 3

PCK:			 20.00
Total:				 20.00 






V1