M
	Miscellaneous Order Stub 

Shogun 1
Room No. 418
Date: 2011-11-24 20:23:17
CheckIn: 2011-11-24 19:37:38
CheckOut: 2011-11-25 07:37:38
Shift: 3

Bucket of ICE:			 10.00
Total:				 10.00 






V1