M
	Miscellaneous Order Stub 

Shogun 1
Room No. 407
Date: 2011-11-20 13:42:23
CheckIn: 2011-11-20 13:42:07
CheckOut: 2011-11-20 16:42:07
Shift: 2

PAX:			 100.00
Total:				 100.00 






V1