M
	Miscellaneous Order Stub 

Shogun 1
Room No. 220
Date: 2011-02-15 10:57:01
CheckIn: 2011-02-15 08:19:50
CheckOut: 2011-02-15 11:19:50
Shift: 2

PCK:			 20.00
Total:				 20.00 






V1