M
	Miscellaneous Order Stub 

Shogun 1
Room No. 602
Date: 2010-01-10 09:01:58
CheckIn: 2010-01-09 15:05:02
CheckOut: 2010-01-10 15:05:02
Shift: 2

Drop off (250):			 250.00
Total:				 250.00 






V1