M
	Room Sales 

Shogun 1
Room No. 615
Date: 2010-03-30 06:17:32
CheckIn: 2010-03-29 06:19:57
CheckOut: 2010-03-30 06:19:57
Shift: 1

Room Charge:			 850.00
Room Charge:			 850.00
Total:				 1,700.00 





V1