M
	Room Sales 

Shogun 1
Room No. 309
Date: 2011-04-13 13:31:28
CheckIn: 2011-04-13 01:52:26
CheckOut: 2011-04-13 13:52:26
Shift: 1

Room Charge:			 695.00
Adjustment:			 0.00
Total:				 695.00 





V1