M
	Room Sales 

Shogun 1
Room No. 416
Date: 2010-12-15 18:20:17
CheckIn: 2010-12-15 18:18:40
CheckOut: 2010-12-15 21:18:40
Shift: 3

Room Charge:			 345.00
Adjustment:			 -295.00
Total:				 50.00 





V1