M
	Room Sales 

Shogun 1
Room No. 511
Date: 2010-02-23 18:15:29
CheckIn: 2010-02-23 06:06:31
CheckOut: 2010-02-25 18:06:31
Shift: 1

Room Charge:			 800.00
Extension:			 1,600.00
Extension:			 1,600.00
Deduction:			 -1,600.00
Total:				 2,400.00 





V1