M
	Room Sales 

Shogun 1
Room No. 514
Date: 2010-05-07 23:12:28
CheckIn: 2010-05-05 10:41:30
CheckOut: 2010-05-08 10:41:30
Shift: 2

Room Charge:			 1,600.00
Room Charge:			 1,600.00
Room Charge:			 800.00
Room Charge:			 800.00
Total:				 4,800.00 





V1