M
	Statement of Account 

Shogun 1
Room No. 604
CheckIn: 2010-10-03 00:58:43
CheckOut: 2010-10-03 04:56:46
Shift: 1


Room Sales: 			 825.00
Food Sales: 			 0.00
Miscellaneous Sales: 			 0.00
Total:				 825.00

	Thank you and come again.
	This is not a receipt.

Please ask your original receipt.






V1