M
	Statement of Account 

Shogun 1
Room No. 201
CheckIn: 2012-03-06 22:22:55
CheckOut: 2012-03-07 05:31:04
Shift: 3


Room Sales: 			 645.00
Food Sales: 			 140.00
Miscellaneous Sales: 			 0.00
Total:				 785.00

	Thank you and come again.
	This is not a receipt.

Please ask your original receipt.






V1