M
	Statement of Account 

Shogun 1
Room No. 324
CheckIn: 2012-03-06 22:14:11
CheckOut: 2012-03-07 07:48:48
Shift: 3


Room Sales: 			 595.00
Food Sales: 			 0.00
Miscellaneous Sales: 			 0.00
Total:				 595.00

	Thank you and come again.
	This is not a receipt.

Please ask your original receipt.






V1