M
	Statement of Account 

Shogun 1
Room No. 213
CheckIn: 2012-03-07 16:38:08
CheckOut: 2012-03-07 18:20:18
Shift: 3


Room Sales: 			 345.00
Food Sales: 			 0.00
Miscellaneous Sales: 			 0.00
Total:				 345.00

	Thank you and come again.
	This is not a receipt.

Please ask your original receipt.






V1