M
	Statement of Account 

Shogun 1
Room No. 311
CheckIn: 2012-03-06 19:00:04
CheckOut: 2012-03-06 21:18:43
Shift: 3


Room Sales: 			 375.00
Food Sales: 			 150.00
Miscellaneous Sales: 			 0.00
Total:				 525.00

	Thank you and come again.
	This is not a receipt.

Please ask your original receipt.






V1