M
	Statement of Account 

Shogun 1
Room No. 212
CheckIn: 2012-03-07 18:42:23
CheckOut: 2012-03-07 22:36:51
Shift: 3


Room Sales: 			 375.00
Food Sales: 			 270.00
Miscellaneous Sales: 			 0.00
Total:				 645.00

	Thank you and come again.
	This is not a receipt.

Please ask your original receipt.






V1