M
	Statement of Account 

Shogun 1
Room No. 315
CheckIn: 2012-03-07 17:57:04
CheckOut: 2012-03-07 18:54:47
Shift: 3


Room Sales: 			 395.00
Food Sales: 			 140.00
Miscellaneous Sales: 			 0.00
Total:				 535.00

	Thank you and come again.
	This is not a receipt.

Please ask your original receipt.






V1