M
	Statement of Account 

Shogun 1
Room No. 423
CheckIn: 2012-03-07 00:17:23
CheckOut: 2012-03-07 06:17:22
Shift: 1


Room Sales: 			 575.00
Food Sales: 			 0.00
Miscellaneous Sales: 			 0.00
Total:				 575.00

	Thank you and come again.
	This is not a receipt.

Please ask your original receipt.






V1