M
	Statement of Account 

Shogun 1
Room No. 321
CheckIn: 2012-03-07 18:22:36
CheckOut: 2012-03-07 21:05:02
Shift: 3


Room Sales: 			 395.00
Food Sales: 			 0.00
Miscellaneous Sales: 			 0.00
Total:				 395.00

	Thank you and come again.
	This is not a receipt.

Please ask your original receipt.






V1