M
	Statement of Account 

Shogun 1
Room No. 403
CheckIn: 2012-03-07 07:34:17
CheckOut: 2012-03-07 08:53:37
Shift: 1


Room Sales: 			 345.00
Food Sales: 			 0.00
Miscellaneous Sales: 			 0.00
Total:				 345.00

	Thank you and come again.
	This is not a receipt.

Please ask your original receipt.






V1