M
	Statement of Account 

Shogun 1
Room No. 424
CheckIn: 2012-03-07 01:24:56
CheckOut: 2012-03-07 10:03:21
Shift: 1


Room Sales: 			 875.00
Food Sales: 			 480.00
Miscellaneous Sales: 			 0.00
Total:				 1,355.00

	Thank you and come again.
	This is not a receipt.

Please ask your original receipt.






V1