M
	Statement of Account 

Shogun 1
Room No. 217
CheckIn: 2012-03-07 19:56:15
CheckOut: 2012-03-07 21:38:26
Shift: 3


Room Sales: 			 275.00
Food Sales: 			 0.00
Miscellaneous Sales: 			 0.00
Total:				 275.00

	Thank you and come again.
	This is not a receipt.

Please ask your original receipt.






V1