M
	Statement of Account 

Shogun 1
Room No. 512
CheckIn: 2010-10-03 04:42:11
CheckOut: 2010-10-03 06:56:59
Shift: 1


Room Sales: 			 500.00
Food Sales: 			 0.00
Miscellaneous Sales: 			 0.00
Total:				 500.00

	Thank you and come again.
	This is not a receipt.

Please ask your original receipt.






V1