M
	Statement of Account 

Shogun 1
Room No. 511
CheckIn: 2010-10-05 07:13:22
CheckOut: 2010-10-05 18:21:44
Shift: 1


Room Sales: 			 800.00
Food Sales: 			 0.00
Miscellaneous Sales: 			 0.00
Total:				 800.00

	Thank you and come again.
	This is not a receipt.

Please ask your original receipt.






V1