M
	Statement of Account 

Shogun 1
Room No. 516
CheckIn: 2010-10-03 20:21:15
CheckOut: 2010-10-04 05:49:40
Shift: 3


Room Sales: 			 800.00
Food Sales: 			 270.00
Miscellaneous Sales: 			 0.00
Total:				 1,070.00

	Thank you and come again.
	This is not a receipt.

Please ask your original receipt.






V1