M
	Statement of Account 

Shogun 1
Room No. 515
CheckIn: 2010-10-03 23:50:08
CheckOut: 2010-10-04 11:45:06
Shift: 3


Room Sales: 			 800.00
Food Sales: 			 0.00
Miscellaneous Sales: 			 0.00
Total:				 800.00

	Thank you and come again.
	This is not a receipt.

Please ask your original receipt.






V1