M
	Statement of Account 

Shogun 1
Room No. 602
CheckIn: 2010-10-02 23:06:39
CheckOut: 2010-10-03 11:07:31
Shift: 3


Room Sales: 			 1,100.00
Food Sales: 			 0.00
Miscellaneous Sales: 			 0.00
Total:				 1,100.00

	Thank you and come again.
	This is not a receipt.

Please ask your original receipt.






V1