M
	Statement of Account 

Shogun 1
Room No. 614
CheckIn: 2010-10-02 23:20:03
CheckOut: 2010-10-03 11:28:07
Shift: 3


Room Sales: 			 1,100.00
Food Sales: 			 50.00
Miscellaneous Sales: 			 0.00
Total:				 1,150.00

	Thank you and come again.
	This is not a receipt.

Please ask your original receipt.






V1