M
	Statement of Account 

Shogun 1
Room No. 521
CheckIn: 2010-10-03 16:55:53
CheckOut: 2010-10-03 22:00:52
Shift: 3


Room Sales: 			 750.00
Food Sales: 			 0.00
Miscellaneous Sales: 			 0.00
Total:				 750.00

	Thank you and come again.
	This is not a receipt.

Please ask your original receipt.






V1